{
    "_id": "wHUIZ5QhG37cRzSV",
    "data": {
        "attributes": {
            "ac": {
                "value": 20
            },
            "hardness": 0,
            "hasHealth": true,
            "hp": {
                "details": "",
                "max": 60,
                "temp": 0,
                "value": 60
            },
            "stealth": {
                "details": "",
                "value": 12
            }
        },
        "creatureType": "",
        "details": {
            "description": "<p>When a living creature crosses the midpoint of the trapped tunnel, necromantic magic partially animates the corpses buried in the walls and ceiling.</p>",
            "disable": "<p>Thievery DC 24 (expert) to disrupt the magical trigger before the hazard rolls initiative, or Religion DC 18 (trained) to overwhelm the area with positive energy and prevent the hazard from using its routine for 1 round; on the third successful Religion check, the necromantic energies are disrupted and the hazard is destroyed.</p>",
            "isComplex": true,
            "level": {
                "value": 4
            },
            "reset": "",
            "routine": "<p><span class=\"pf2-icon\">1</span> Undead fists assail all creatures in the hall, dealing [[/r {4d6}[bludgeoning]]]{4d6 bludgeoning damage}. Creatures in the hall must attempt a DC 21 Reflex save.</p>\n<hr />\n<p><strong>Critical Success</strong> The target is unaffected.</p>\n<p><strong>Success</strong> The target takes half damage.</p>\n<p><strong>Failure</strong> The target takes full damage, and its Speeds are reduced by 10 feet (to a minimum of 5 feet) for 1 round.</p>\n<p><strong>Critical Failure</strong> The target takes double damage and is @compendium[pf2e.conditionitems.Immobilized]{Immobilized} for 1 round.</p>"
        },
        "saves": {
            "fortitude": {
                "saveDetail": "",
                "value": 15
            },
            "reflex": {
                "saveDetail": "",
                "value": 8
            },
            "will": {
                "saveDetail": "",
                "value": 14
            }
        },
        "source": {
            "value": "Pathfinder Blog"
        },
        "statusEffects": [],
        "traits": {
            "ci": [],
            "di": {
                "custom": "",
                "selected": {},
                "value": [
                    "mental",
                    "poison"
                ]
            },
            "dr": [],
            "dv": [
                {
                    "exceptions": "",
                    "label": "Positive",
                    "type": "positive",
                    "value": "10"
                }
            ],
            "rarity": "common",
            "size": {
                "value": "med"
            },
            "traits": {
                "custom": "",
                "value": [
                    "magical"
                ]
            }
        }
    },
    "effects": [],
    "flags": {},
    "img": "systems/pf2e/icons/default-icons/hazard.svg",
    "items": [
        {
            "_id": "8yNeU3TLczTIlFjP",
            "data": {
                "actionCategory": {
                    "value": "offensive"
                },
                "actionType": {
                    "value": "reaction"
                },
                "actions": {
                    "value": null
                },
                "description": {
                    "value": "<p data-visibility=\"gm\"><strong>Trigger</strong> A living creature crosses the midpoint of the tunnel</p>\n<p><strong>Effect</strong> The dead reach out from the walls and ceiling, moaning and spewing writhing maggots. Creatures in the room must attempt a <span data-pf2-check=\"will\" data-pf2-dc=\"21\" data-pf2-traits=\"divine,fear,incapacitation,mental,necromancy\" data-pf2-label=\"Lunging Dead DC\" data-pf2-show-dc=\"gm\">Will</span> save. The trap then rolls initiative.</p>\n<hr />\n<p><strong>Critical Success</strong> The target is unaffected.</p>\n<p><strong>Success</strong> The target is @Compendium[pf2e.conditionitems.Frightened]{Frightened}</p>\n<p><strong>Failure</strong> The target is @Compendium[pf2e.conditionitems.Frightened]{Frightened 2}. It can't reduce its frightened condition below 1 while in the trap's area.</p>\n<p><strong>Critical Failure</strong> As failure, and the target is @Compendium[pf2e.conditionitems.Paralyzed]{Paralyzed} for 1 round.</p>"
                },
                "requirements": {
                    "value": ""
                },
                "rules": [],
                "slug": null,
                "source": {
                    "value": ""
                },
                "traits": {
                    "custom": "",
                    "rarity": "common",
                    "value": [
                        "divine",
                        "fear",
                        "incapacitation",
                        "mental",
                        "necromancy"
                    ]
                },
                "trigger": {
                    "value": ""
                },
                "weapon": {
                    "value": ""
                }
            },
            "effects": [],
            "flags": {},
            "img": "systems/pf2e/icons/actions/Reaction.webp",
            "name": "Lunging Dead",
            "sort": 100000,
            "type": "action"
        }
    ],
    "name": "Gravehall Trap",
    "token": {
        "disposition": 0,
        "height": 1,
        "img": "systems/pf2e/icons/default-icons/hazard.svg",
        "name": "Gravehall Trap",
        "width": 1
    },
    "type": "hazard"
}
