{
    "_id": "uEZ4Jv2wNyukJTRL",
    "data": {
        "attributes": {
            "ac": {
                "value": 24
            },
            "hardness": 0,
            "hasHealth": true,
            "hp": {
                "details": "",
                "max": 1,
                "temp": 0,
                "tempmax": 0,
                "value": 1
            },
            "stealth": {
                "details": "(expert)",
                "value": 14
            }
        },
        "creatureType": "",
        "details": {
            "description": "A tube of hallucinogenic powder armed with a miniature explosive is connected to a doorknob or similar latch.",
            "disable": "Thievery DC 26 (expert) to disable the hammer that strikes the percussion cap",
            "isComplex": false,
            "level": {
                "value": 6
            },
            "reset": "",
            "routine": ""
        },
        "saves": {
            "fortitude": {
                "saveDetail": "",
                "value": 0
            },
            "reflex": {
                "saveDetail": "",
                "value": 0
            },
            "will": {
                "saveDetail": "",
                "value": 0
            }
        },
        "source": {
            "value": "Pathfinder Core Rulebook"
        },
        "statusEffects": [],
        "traits": {
            "ci": [],
            "di": {
                "custom": "",
                "selected": {},
                "value": [
                    "critical-hits",
                    "object-immunities",
                    "precision"
                ]
            },
            "dr": [],
            "dv": [],
            "rarity": "common",
            "size": {
                "value": "med"
            },
            "traits": {
                "custom": "",
                "value": [
                    "mechanical"
                ]
            }
        }
    },
    "effects": [],
    "flags": {},
    "img": "systems/pf2e/icons/default-icons/hazard.svg",
    "items": [
        {
            "_id": "NjmHPcx6IEA14Yul",
            "data": {
                "actionCategory": {
                    "value": ""
                },
                "actionType": {
                    "value": "reaction"
                },
                "actions": {
                    "value": null
                },
                "description": {
                    "value": "<p data-visibility=\"gm\"><strong>Trigger</strong> The latch is opened or the tube is broken.</p>\n<p><strong>Effect</strong> The tube explodes, spraying hallucinogenic powder in a @Template[type:cone|distance:30]. Any creature in the cone must succeed at a <span data-pf2-check=\"will\" data-pf2-dc=\"24\" data-pf2-traits=\"mental,poison\" data-pf2-label=\"Powder Burst DC\" data-pf2-show-dc=\"gm\">Will</span> save or be confused for 1 round and take a -2 status penalty to Perception checks and saves against mental effects for [[/br 1d4 #hours]]{1d4 hours}. On a critical failure, the penalty is instead -4.</p>"
                },
                "requirements": {
                    "value": ""
                },
                "rules": [],
                "slug": null,
                "source": {
                    "value": ""
                },
                "traits": {
                    "custom": "",
                    "rarity": "common",
                    "value": [
                        "mental",
                        "poison"
                    ]
                },
                "trigger": {
                    "value": ""
                },
                "weapon": {
                    "value": ""
                }
            },
            "effects": [],
            "flags": {},
            "img": "systems/pf2e/icons/actions/Reaction.webp",
            "name": "Powder Burst",
            "sort": 100000,
            "type": "action"
        }
    ],
    "name": "Hallucination Powder Trap",
    "token": {
        "disposition": 0,
        "height": 1,
        "img": "systems/pf2e/icons/default-icons/hazard.svg",
        "name": "Hallucination Powder Trap",
        "width": 1
    },
    "type": "hazard"
}
