{
    "_id": "mWhmhYBHH9X1Ebb9",
    "data": {
        "attributes": {
            "ac": {
                "value": 25
            },
            "hardness": 15,
            "hasHealth": true,
            "hp": {
                "details": "",
                "max": 60,
                "temp": 0,
                "value": 60
            },
            "stealth": {
                "details": "<p>(expert)</p>",
                "value": 30
            }
        },
        "creatureType": "",
        "details": {
            "description": "<p>A stretch of fence is electrified by a hidden Stasian coil.</p>",
            "disable": "<p><span data-pf2-check=\"thievery\" data-pf2-traits=\"electricity,hazard,trap,mechanical\" data-pf2-label=\"Disconnect the coil from the fence DC\" data-pf2-dc=\"28\" data-pf2-show-dc=\"gm\">Thievery</span> (expert) to carefully disconnect the coil from the fence or <span data-pf2-check=\"crafting\" data-pf2-traits=\"electricity,hazard,trap,mechanical\" data-pf2-label=\"Jury-rig a grounding device DC\" data-pf2-dc=\"30\" data-pf2-show-dc=\"gm\">Crafting</span> (master) to jury-rig a grounding device to nullify the shock</p>",
            "isComplex": false,
            "level": {
                "value": 8
            },
            "reset": "<p>The trap deactivates and resets after 1 minute.</p>",
            "routine": ""
        },
        "saves": {
            "fortitude": {
                "saveDetail": "",
                "value": 20
            },
            "reflex": {
                "saveDetail": "",
                "value": 14
            },
            "will": {
                "saveDetail": "",
                "value": 0
            }
        },
        "source": {
            "value": "Pathfinder Guns & Gears"
        },
        "statusEffects": [],
        "traits": {
            "ci": [],
            "di": {
                "custom": "",
                "selected": {},
                "value": [
                    "object-immunities"
                ]
            },
            "dr": [],
            "dv": [],
            "rarity": "rare",
            "size": {
                "value": "med"
            },
            "traits": {
                "custom": "",
                "value": [
                    "electricity",
                    "mechanical",
                    "trap"
                ]
            }
        }
    },
    "effects": [],
    "flags": {},
    "img": "systems/pf2e/icons/default-icons/hazard.svg",
    "items": [
        {
            "_id": "HhzDfHd26GkdqhME",
            "data": {
                "actionCategory": {
                    "value": ""
                },
                "actionType": {
                    "value": "reaction"
                },
                "actions": {
                    "value": null
                },
                "description": {
                    "value": "<p><strong>Trigger</strong> A creature touches the fence directly or with a tool or weapon</p>\n<p><strong>Effect</strong> The fence deals [[/r {7d12}[electricity]]]{7d12 Electricity Damage} to the triggering creature (<span data-pf2-check=\"reflex\" data-pf2-traits=\"damaging-effect,electricity,mechanical,trap,hazard\" data-pf2-label=\"Shock DC\" data-pf2-dc=\"26\" data-pf2-show-dc=\"gm\">basic Reflex</span> save).</p>"
                },
                "requirements": {
                    "value": ""
                },
                "rules": [],
                "slug": null,
                "source": {
                    "value": ""
                },
                "traits": {
                    "custom": "",
                    "rarity": "common",
                    "value": []
                },
                "trigger": {
                    "value": ""
                }
            },
            "effects": [],
            "flags": {},
            "img": "systems/pf2e/icons/actions/Reaction.webp",
            "name": "Shock",
            "sort": 0,
            "type": "action"
        }
    ],
    "name": "Insistent Privacy Fence",
    "token": {
        "disposition": 0,
        "height": 1,
        "img": "systems/pf2e/icons/default-icons/hazard.svg",
        "name": "Insistent Privacy Fence",
        "width": 1
    },
    "type": "hazard"
}
