{
    "_id": "oNLgR1iq6MVvNRWo",
    "data": {
        "attributes": {
            "ac": {
                "value": 30
            },
            "hardness": 12,
            "hasHealth": true,
            "hp": {
                "details": "to destroy a channel gate (this prevents that channel from being disabled and stops the trap from resetting); <strong>Floor Hardness</strong> 18; <strong>Floor HP</strong> 72 (BT 36)",
                "max": 48,
                "temp": 0,
                "tempmax": 0,
                "value": 48
            },
            "stealth": {
                "details": "(trained)",
                "value": 19
            }
        },
        "creatureType": "",
        "details": {
            "description": "Four gated channels carved into stone allow lava to flow into a 15-foot-tall room; the floor can withdraw to allow the hardened lava to fall into a chamber beneath.",
            "disable": "Thievery DC 29 (expert) to block a channel, or Thievery DC 31 (master) to release the floor latch and escape to the chamber below",
            "isComplex": true,
            "level": {
                "value": 10
            },
            "reset": "The trap deactivates and resets after 1 hour by withdrawing the floor, cracking and dumping the hardened lava (and any creatures trapped inside) into the chamber. Creatures fall 40 feet, taking falling damage (typically 17 bludgeoning damage).",
            "routine": "(4 actions) The trap loses 1 action per disabled channel each turn. On each action, a different channel spews lava, dealing 4d6 fire damage to each creature within 10 feet of the channel (DC 27 basic Reflex save), and increasing the depth of the lava in the room by 1 foot (4 feet per round if all the channels are active).</p>\n<p>A creature that starts its turn in lava takes 8d6 fire damage and is immobilized until it Escapes the hardening lava (DC 27). The creature might suffocate if covered in lava.</p>\n<p>Lava from the previous round hardens fully at the start of the trap's turn, effectively raising the floor of the room. Once the room is full of lava, the trap stops taking actions, but creatures in the room remain stuck until the floor opens and the trap resets."
        },
        "saves": {
            "fortitude": {
                "saveDetail": "",
                "value": 20
            },
            "reflex": {
                "saveDetail": "",
                "value": 16
            },
            "will": {
                "saveDetail": "",
                "value": 0
            }
        },
        "source": {
            "value": "Pathfinder Core Rulebook"
        },
        "statusEffects": [],
        "traits": {
            "ci": [],
            "di": {
                "custom": "",
                "selected": {},
                "value": [
                    "critical-hits",
                    "object-immunities",
                    "precision"
                ]
            },
            "dr": [],
            "dv": [],
            "rarity": "common",
            "size": {
                "value": "med"
            },
            "traits": {
                "custom": "",
                "value": [
                    "mechanical"
                ]
            }
        }
    },
    "effects": [],
    "flags": {},
    "img": "systems/pf2e/icons/default-icons/hazard.svg",
    "items": [
        {
            "_id": "slQb54KbvJ8vJpRb",
            "data": {
                "actionCategory": {
                    "value": ""
                },
                "actionType": {
                    "value": "reaction"
                },
                "actions": {
                    "value": null
                },
                "description": {
                    "value": "<p data-visibility=\"gm\"><strong>Trigger</strong> A creature tries to leave the room.</p>\n<p><strong>Effect</strong> The exits seal instantly and the trap rolls initiative.</p>"
                },
                "requirements": {
                    "value": ""
                },
                "rules": [],
                "slug": null,
                "source": {
                    "value": ""
                },
                "traits": {
                    "custom": "",
                    "rarity": "common",
                    "value": []
                },
                "trigger": {
                    "value": ""
                },
                "weapon": {
                    "value": ""
                }
            },
            "effects": [],
            "flags": {},
            "img": "systems/pf2e/icons/actions/Reaction.webp",
            "name": "Flume Activation",
            "sort": 100000,
            "type": "action"
        }
    ],
    "name": "Lava Flume Tube",
    "token": {
        "disposition": 0,
        "height": 1,
        "img": "systems/pf2e/icons/default-icons/hazard.svg",
        "name": "Lava Flume Tube",
        "width": 1
    },
    "type": "hazard"
}
