{
    "_id": "4jAJh3cTLIgkqtou",
    "data": {
        "attributes": {
            "ac": {
                "value": 35
            },
            "hardness": 10,
            "hasHealth": true,
            "hp": {
                "details": "",
                "max": 70,
                "temp": 0,
                "value": 70
            },
            "stealth": {
                "details": "",
                "value": 27
            }
        },
        "creatureType": "",
        "details": {
            "description": "<p>A host of violent spirits possess three clockwork mannequins, and each lashes out at any creatures that dare walk near.</p>",
            "disable": "<p><span data-pf2-check=\"thievery\" data-pf2-traits=\"clockwork,haunt,mechanical,hazard\" data-pf2-label=\"Jam a mannequin's clockwork mechanisms DC\" data-pf2-dc=\"37\" data-pf2-show-dc=\"gm\">Thievery (master)</span> to jam a mannequin's clockwork mechanisms or a <span data-pf2-check=\"religion\" data-pf2-traits=\"clockwork,haunt,mechanical,hazard\" data-pf2-label=\"Exorcise a spirit from a mannequin DC\" data-pf2-dc=\"35\" data-pf2-show-dc=\"gm\">Religion (expert)</span> twice to exorcise a spirit from a mannequin.</p>",
            "isComplex": true,
            "level": {
                "value": 14
            },
            "reset": "<p>The haunt deactivates after it has no target creatures and resets, usually over the course of 1 round, as the mannequins move to their original positions. If a mannequin is more than 150 feet from its original position, the haunt takes longer to reset, as the mannequin moves back 150 feet each round.</p>",
            "routine": "<p><strong>Routine</strong> (9 actions) Each of the mannequins uses three of the haunt's actions on each turn, and the haunt loses three actions each turn for every disabled or destroyed mannequin. Each mannequin uses its first action to Stride up to 50 feet and its remaining two actions to make clockwork fist Strikes. Each has its own separate multiple attack penalty.</p>"
        },
        "saves": {
            "fortitude": {
                "saveDetail": "",
                "value": 26
            },
            "reflex": {
                "saveDetail": "",
                "value": 28
            },
            "will": {
                "saveDetail": "",
                "value": 0
            }
        },
        "source": {
            "value": "Pathfinder Guns & Gears"
        },
        "statusEffects": [],
        "traits": {
            "ci": [],
            "di": {
                "custom": "",
                "selected": {},
                "value": [
                    "critical-hits",
                    "object-immunities",
                    "precision"
                ]
            },
            "dr": [],
            "dv": [
                {
                    "type": "electricity",
                    "value": 20
                }
            ],
            "rarity": "uncommon",
            "size": {
                "value": "med"
            },
            "traits": {
                "custom": "",
                "value": [
                    "clockwork",
                    "haunt",
                    "mechanical"
                ]
            }
        }
    },
    "effects": [],
    "flags": {},
    "img": "systems/pf2e/icons/default-icons/hazard.svg",
    "items": [
        {
            "_id": "Q2074Gj6y8XUUgAk",
            "data": {
                "actionCategory": {
                    "value": ""
                },
                "actionType": {
                    "value": "reaction"
                },
                "actions": {
                    "value": null
                },
                "description": {
                    "value": "<p><strong>Trigger</strong> A creature comes within 30 feet of a mannequin</p>\n<p><strong>Effect</strong> The mannequins all lurch towards the triggering creature, Striding up to 50 feet, then roll initiative.</p>"
                },
                "requirements": {
                    "value": ""
                },
                "rules": [],
                "slug": null,
                "source": {
                    "value": ""
                },
                "traits": {
                    "custom": "",
                    "rarity": "common",
                    "value": []
                },
                "trigger": {
                    "value": ""
                }
            },
            "effects": [],
            "flags": {},
            "img": "systems/pf2e/icons/actions/Reaction.webp",
            "name": "Awaken",
            "sort": 0,
            "type": "action"
        },
        {
            "_id": "h1kUAmChVAo2xByF",
            "data": {
                "attack": {
                    "value": ""
                },
                "attackEffects": {
                    "value": []
                },
                "bonus": {
                    "value": 29
                },
                "damageRolls": {
                    "m9gfpuesqgzgmj2cr5tg": {
                        "damage": "2d10 + 18",
                        "damageType": "bludgeoning"
                    }
                },
                "description": {
                    "value": ""
                },
                "rules": [],
                "slug": null,
                "source": {
                    "value": ""
                },
                "traits": {
                    "custom": "",
                    "rarity": "common",
                    "value": []
                },
                "weaponType": {
                    "value": "melee"
                }
            },
            "effects": [],
            "flags": {},
            "img": "systems/pf2e/icons/default-icons/melee.svg",
            "name": "Clockwork Fist",
            "sort": 0,
            "type": "melee"
        }
    ],
    "name": "Malevolent Mannequins",
    "token": {
        "disposition": 0,
        "height": 1,
        "img": "systems/pf2e/icons/default-icons/hazard.svg",
        "name": "Malevolent Mannequins",
        "width": 1
    },
    "type": "hazard"
}
