{
    "_id": "m4PRYxFq9ojcwesh",
    "data": {
        "attributes": {
            "ac": {
                "value": 0
            },
            "hardness": 0,
            "hasHealth": false,
            "hp": {
                "details": "",
                "max": 0,
                "temp": 0,
                "tempmax": 0,
                "value": 0
            },
            "stealth": {
                "details": "(expert)",
                "value": 15
            }
        },
        "creatureType": "",
        "details": {
            "description": "<p>A curse is imbued on an entryway's threshold.</p>",
            "disable": "<p><span data-pf2-check=\"thievery\" data-pf2-label=\"Remove the Lintel DC\" data-pf2-dc=\"27\" data-pf2-show-dc=\"gm\">Thievery</span> (master) to painstakingly remove the lintel without triggering the magic, or <em>@Compendium[pf2e.spells-srd.Dispel Magic]{Dispel Magic}</em> (4th level; counteract DC 25) to counteract the rune</p>",
            "isComplex": false,
            "level": {
                "value": 7
            },
            "reset": "<p>The trap resets when the door is shut.</p>",
            "routine": ""
        },
        "saves": {
            "fortitude": {
                "saveDetail": "",
                "value": 0
            },
            "reflex": {
                "saveDetail": "",
                "value": 0
            },
            "will": {
                "saveDetail": "",
                "value": 0
            }
        },
        "source": {
            "value": "Pathfinder Core Rulebook"
        },
        "statusEffects": [],
        "traits": {
            "ci": [],
            "di": {
                "custom": "",
                "selected": {},
                "value": []
            },
            "dr": [],
            "dv": [],
            "rarity": "common",
            "size": {
                "value": "med"
            },
            "traits": {
                "custom": "",
                "value": [
                    "magical",
                    "trap"
                ]
            }
        }
    },
    "effects": [],
    "flags": {},
    "img": "systems/pf2e/icons/default-icons/hazard.svg",
    "items": [
        {
            "_id": "Cc30YjKZ7qSxVjSC",
            "data": {
                "actionCategory": {
                    "value": "offensive"
                },
                "actionType": {
                    "value": "reaction"
                },
                "actions": {
                    "value": null
                },
                "description": {
                    "value": "<p data-visibility=\"gm\"><strong>Trigger</strong> The seal on the tomb is broken from the outside.</p>\n<p><strong>Effect</strong> Each living creature within 60 feet must succeed at a <span data-pf2-check=\"will\" data-pf2-dc=\"23\" data-pf2-traits=\"curse,divine,necromancy\" data-pf2-label=\"Curse the Intruders DC\" data-pf2-show-dc=\"gm\">Will</span> save or be subjected to the pharaoh's curse. A cursed creature takes a -2 status penalty to Fortitude saves, and any natural or magical healing it receives is halved. The curse remains until removed by <em>@Compendium[pf2e.spells-srd.Remove Curse]{Remove Curse}</em> or similar magic.</p>"
                },
                "requirements": {
                    "value": ""
                },
                "rules": [],
                "slug": null,
                "source": {
                    "value": ""
                },
                "traits": {
                    "custom": "",
                    "rarity": "common",
                    "value": [
                        "curse",
                        "divine",
                        "necromancy"
                    ]
                },
                "trigger": {
                    "value": ""
                },
                "weapon": {
                    "value": ""
                }
            },
            "effects": [],
            "flags": {},
            "img": "systems/pf2e/icons/actions/Reaction.webp",
            "name": "Curse the Intruders",
            "sort": 100000,
            "type": "action"
        }
    ],
    "name": "Pharaoh's Ward",
    "token": {
        "disposition": 0,
        "height": 1,
        "img": "systems/pf2e/icons/default-icons/hazard.svg",
        "name": "Pharaoh's Ward",
        "width": 1
    },
    "type": "hazard"
}
