{
    "_id": "8ewUvJlvn6LVjoXJ",
    "data": {
        "attributes": {
            "ac": {
                "value": 10
            },
            "hardness": 0,
            "hasHealth": false,
            "hp": {
                "details": "",
                "max": 0,
                "temp": 0,
                "tempmax": 0,
                "value": 0
            },
            "stealth": {
                "details": "(legendary)",
                "value": 34
            }
        },
        "creatureType": "",
        "details": {
            "description": "Powerful warding magic tied to an object or location tries to regress the ages of a creature and its allies.",
            "disable": "Thievery DC 46 (legendary) to take apart the spell one tiny piece at a time, with eyes closed, while recalling every vivid life memory in order, starting from the earliest memory",
            "isComplex": false,
            "level": {
                "value": 21
            },
            "reset": "",
            "routine": ""
        },
        "saves": {
            "fortitude": {
                "saveDetail": "",
                "value": 0
            },
            "reflex": {
                "saveDetail": "",
                "value": 0
            },
            "will": {
                "saveDetail": "",
                "value": 0
            }
        },
        "source": {
            "value": "Pathfinder Core Rulebook"
        },
        "statusEffects": [],
        "traits": {
            "ci": [],
            "di": {
                "custom": "",
                "selected": {},
                "value": []
            },
            "dr": [],
            "dv": [],
            "rarity": "common",
            "size": {
                "value": "med"
            },
            "traits": {
                "custom": "",
                "value": [
                    "magical"
                ]
            }
        }
    },
    "effects": [],
    "flags": {},
    "img": "systems/pf2e/icons/default-icons/hazard.svg",
    "items": [
        {
            "_id": "ddB24NYRgK5YbbcR",
            "data": {
                "actionCategory": {
                    "value": ""
                },
                "actionType": {
                    "value": "reaction"
                },
                "actions": {
                    "value": null
                },
                "description": {
                    "value": "<p data-visibility=\"gm\"><strong>Trigger</strong> A creature tries to steal the object or intrude upon the location. If someone uses a proxy or dupe for the theft or intrusion, the You can make a summoning rune of nearly any level. It summons a creature of a level equal to the trap's level. Use DCs by Level to determine the Thievery DC and spell DC, using the trap's level and applying a hard adjustment (+2). The Stealth modifier for the trap is equal to this number - 10. Stronger summoning runes usually require expert proficiency or better in Perception to find, and they might require a higher proficiency rank in Thievery to disable.trap unerringly targets the true perpetrator or perpetrators at any distance-even across planes.</p>\n<p><strong>Effect</strong> The triggering creature and up to five coconspirators instantly revert to infants, losing all memories, class abilities, and other skills acquired during their lives (<span data-pf2-check=\"fortitude\" data-pf2-dc=\"44\" data-pf2-traits=\"divine,transmutation\" data-pf2-label=\"In the Beginning DC\" data-pf2-show-dc=\"gm\">Fortitude</span> negates). Reversing this effect is nearly impossible, requiring powerful magic such as <i>wish</i>.</p>"
                },
                "requirements": {
                    "value": ""
                },
                "rules": [],
                "slug": null,
                "source": {
                    "value": ""
                },
                "traits": {
                    "custom": "",
                    "rarity": "common",
                    "value": [
                        "divine",
                        "transmutation"
                    ]
                },
                "trigger": {
                    "value": ""
                },
                "weapon": {
                    "value": ""
                }
            },
            "effects": [],
            "flags": {},
            "img": "systems/pf2e/icons/actions/Reaction.webp",
            "name": "In the Beginning",
            "sort": 100000,
            "type": "action"
        }
    ],
    "name": "Second Chance",
    "token": {
        "disposition": 0,
        "height": 1,
        "img": "systems/pf2e/icons/default-icons/hazard.svg",
        "name": "Second Chance",
        "width": 1
    },
    "type": "hazard"
}
