{
    "_id": "6In2S3lDnxNgZ2np",
    "data": {
        "attributes": {
            "ac": {
                "value": 21
            },
            "hardness": 0,
            "hasHealth": true,
            "hp": {
                "details": "",
                "max": 56,
                "temp": 0,
                "tempmax": 0,
                "value": 56
            },
            "stealth": {
                "details": "(trained)",
                "value": 15
            }
        },
        "creatureType": "",
        "details": {
            "description": "On the surface, a titanic flytrap appears to be a patch of the more common flytrap plant, but beneath murky waters it hides a far larger set of jaws, reaching 10 feet across and reinforced with woody branches and lined with paralytic hairs.",
            "disable": "DC 22 Survival (trained) to mislead the flytrap's sense of weight and pressure",
            "isComplex": false,
            "level": {
                "value": 4
            },
            "reset": "1 hour (or longer, after a large meal)",
            "routine": ""
        },
        "saves": {
            "fortitude": {
                "saveDetail": "",
                "value": 15
            },
            "reflex": {
                "saveDetail": "",
                "value": 8
            },
            "will": {
                "saveDetail": "",
                "value": 0
            }
        },
        "source": {
            "value": "Pathfinder Gamemastery Guide"
        },
        "statusEffects": [],
        "traits": {
            "ci": [],
            "di": {
                "custom": "",
                "selected": {},
                "value": [
                    "mental"
                ]
            },
            "dr": [],
            "dv": [
                {
                    "exceptions": "",
                    "label": "Acid",
                    "type": "acid",
                    "value": "20"
                },
                {
                    "exceptions": "",
                    "label": "Fire",
                    "type": "fire",
                    "value": "10"
                }
            ],
            "rarity": "common",
            "size": {
                "value": "med"
            },
            "traits": {
                "custom": "",
                "value": [
                    "environmental"
                ]
            }
        }
    },
    "effects": [],
    "flags": {},
    "img": "systems/pf2e/icons/default-icons/hazard.svg",
    "items": [
        {
            "_id": "f9aVsy30iGDJTtb4",
            "data": {
                "actionCategory": {
                    "value": ""
                },
                "actionType": {
                    "value": "reaction"
                },
                "actions": {
                    "value": null
                },
                "description": {
                    "value": "<p data-visibility=\"gm\"><strong>Trigger</strong> A Small or Medium creature moves into a square that is within reach of the flytrap's hidden jaws.</p>\n<p><strong>Effect</strong> The flytrap's jaws snap shut, making a jaws Strike against the triggering creature.</p>"
                },
                "requirements": {
                    "value": ""
                },
                "rules": [],
                "slug": null,
                "source": {
                    "value": ""
                },
                "traits": {
                    "custom": "",
                    "rarity": "common",
                    "value": []
                },
                "trigger": {
                    "value": ""
                },
                "weapon": {
                    "value": ""
                }
            },
            "effects": [],
            "flags": {},
            "img": "systems/pf2e/icons/actions/Reaction.webp",
            "name": "Snap Shut",
            "sort": 100000,
            "type": "action"
        },
        {
            "_id": "Yw05wWhZB9fLdatc",
            "data": {
                "attack": {
                    "value": ""
                },
                "attackEffects": {
                    "custom": "",
                    "value": [
                        "devour"
                    ]
                },
                "bonus": {
                    "value": 17
                },
                "damageRolls": {},
                "description": {
                    "value": ""
                },
                "rules": [],
                "slug": null,
                "source": {
                    "value": ""
                },
                "traits": {
                    "custom": "",
                    "rarity": "common",
                    "value": []
                },
                "weaponType": {
                    "value": "melee"
                }
            },
            "effects": [],
            "flags": {},
            "img": "systems/pf2e/icons/default-icons/melee.svg",
            "name": "Jaws",
            "sort": 200000,
            "type": "melee"
        },
        {
            "_id": "eauYGISAGprcOwH4",
            "data": {
                "actionCategory": {
                    "value": ""
                },
                "actionType": {
                    "value": "passive"
                },
                "actions": {
                    "value": null
                },
                "description": {
                    "value": "<p>The target is trapped by the flytrap's jaws, gaining the grabbed condition until it Escapes (DC 21). Additionally, it is exposed to the titanic flytrap toxin from the hundreds of tiny hairs that line the inside of its leaves. If the flytrap's jaws Strike was a critical success, the target takes a -2 circumstance penalty to its saving throws against this poison. At the end of each of target's turns that it remains grabbed, the target takes 3d6 acid damage.</p>"
                },
                "requirements": {
                    "value": ""
                },
                "rules": [],
                "slug": null,
                "source": {
                    "value": ""
                },
                "traits": {
                    "custom": "",
                    "rarity": "common",
                    "value": []
                },
                "trigger": {
                    "value": ""
                },
                "weapon": {
                    "value": ""
                }
            },
            "effects": [],
            "flags": {},
            "img": "systems/pf2e/icons/actions/Passive.webp",
            "name": "Devour",
            "sort": 300000,
            "type": "action"
        },
        {
            "_id": "qBQpsAk64L9c0sJ2",
            "data": {
                "actionCategory": {
                    "value": ""
                },
                "actionType": {
                    "value": "passive"
                },
                "actions": {
                    "value": null
                },
                "description": {
                    "value": "<p><strong>SavingThrow</strong> <span data-pf2-check=\"fortitude\" data-pf2-dc=\"21\" data-pf2-traits=\"contact,poison\" data-pf2-label=\"Titanic Flytrap Toxin DC\" data-pf2-show-dc=\"gm\">Fortitude</span>; <strong>MaximumDuration</strong> 4 rounds</p>\n<p><strong>Stage 1</strong> 2d6 poison damage and stunned 1 (1 round)</p>\n<p><strong>Stage 2</strong> 3d6 poison damage and stunned 2 (1 round)</p>\n<p><strong>Stage 3</strong> 4d6 poison damage and paralyzed (1 round)</p>"
                },
                "requirements": {
                    "value": ""
                },
                "rules": [],
                "slug": null,
                "source": {
                    "value": ""
                },
                "traits": {
                    "custom": "",
                    "rarity": "common",
                    "value": [
                        "contact",
                        "poison"
                    ]
                },
                "trigger": {
                    "value": ""
                },
                "weapon": {
                    "value": ""
                }
            },
            "effects": [],
            "flags": {},
            "img": "systems/pf2e/icons/actions/Passive.webp",
            "name": "Titanic Flytrap Toxin",
            "sort": 400000,
            "type": "action"
        }
    ],
    "name": "Titanic Flytrap",
    "token": {
        "disposition": 0,
        "height": 1,
        "img": "systems/pf2e/icons/default-icons/hazard.svg",
        "name": "Titanic Flytrap",
        "width": 1
    },
    "type": "hazard"
}
