{
    "_id": "hLFBAs2NpyGjQiDA",
    "content": "<h1>Cavalier</h1>\n<p>You are a skilled and dedicated warrior of the battlefield who specializes in fighting astride a powerful animal companion that serves as your mount. You and your mount are an unparalleled team, moving with shared intent to become a powerful force on the battlefield. You might wield a banner in the name of a greater organization, a liege, or an ideal you uphold, or you might fight solely to further enrich your own prestige, reputation, and coffers.</p>\n<p><strong>CAVALIER PLEDGES</strong></p>\n<p>Many cavaliers pledge themselves in service to a specific organization or individual, such as a noble family or sovereign ruler, a knightly order or another organization, or a particular ideal. A cavalier pledged to an order or ideal must uphold its edicts and is beholden to any anathema it has; for example, a cavalier pledged to the druid's animal order would be tied to that anathema, while a cavalier pledged to the church of Abadar would be held to the same standards as a cleric of that god. If you pledge yourself to an entity or cause without a stated anathema, you should work with your GM to determine the edicts and anathema associated with your pledge. Cavaliers who have pledged themselves can gain access to certain abilities related to that pledge, such as Cavalier's Banner. If you violate the anathema of your pledge, you lose access to those feats until you benefit from an atone ritual. Changing the subject of your pledge is equivalent to retraining a class feature.</p>\n<p><span style=\"font-size: 1.5em;\">@Compendium[pf2e.feats-srd.Cavalier Dedication]{Cavalier Dedication} Feat 2</span></p>\n<p><strong>Prerequisites</strong> trained in Nature or Society</p>\n<hr />\n<p>You gain a young animal companion that serves as your mount. You can choose from animal companions with the mount special ability, as well as any additional options from your pledge, as determined by your GM. You must choose an animal companion that's at least one size larger than you, but if the animal usually starts as Small, you can begin with a Medium version of that animal (changing no statistics other than its size).</p>\n<p><strong>Special</strong> You cannot select another dedication feat until you have gained two other feats from the cavalier archetype. This restriction is waived if you have pledged to the organization associated with the other dedication feat. For example, if you are pledged to a Hellknight order, you could take Hellknight dedication feats without needing to gain other feats from the cavalier archetype first.</p>\n<h2>@Compendium[pf2e.feats-srd.Cavalier's Banner]{Cavalier's Banner} Feat 4</h2>\n<p><strong>Prerequisites</strong> Cavalier Dedication</p>\n<p><strong>Requirements</strong> You have pledged your service to a specific organization or ideal (see Cavalier Pledges sidebar).</p>\n<hr />\n<p>You fly the banner of your pledge from your mount, raising your allies' spirits. You and all allies within 30 feet gain a +1 circumstance bonus to Will saves and DCs against fear effects. If your banner is destroyed or removed, allies within 30 feet become frightened 1.</p>\n<h2>@Compendium[pf2e.feats-srd.Cavalier's Charge]{Cavalier's Charge} Feat 4</h2>\n<p><strong>Prerequisites</strong> Cavalier Dedication</p>\n<p><strong>Requirements</strong> You are riding your mount.</p>\n<hr />\n<p>You Command an Animal to order your mount to Stride twice. At any point during this movement, you can Strike one enemy within reach or within the first range increment of a ranged weapon. You gain a +1 circumstance bonus to your attack roll.</p>\n<h2>@Compendium[pf2e.feats-srd.Impressive Mount]{Impressive Mount} Feat 4</h2>\n<p><strong>Prerequisites</strong> Cavalier Dedication</p>\n<hr />\n<p>You've trained your mount to become a powerful force on the battlefield. The mount you gained through the Cavalier Dedication feat becomes a mature animal companion, granting it additional capabilities. During an encounter, even if you don't use the Command an Animal action, your animal companion can still use 1 action on your turn to Stride or Strike.</p>\n<h2>@Compendium[pf2e.feats-srd.Quick Mount]{Quick Mount} Feat 4</h2>\n<p><strong>Prerequisites</strong> Cavalier Dedication, expert in Nature</p>\n<p><strong>Requirements</strong> You are adjacent to a creature that is at least one size larger than you and is willing to be your mount.</p>\n<hr />\n<p>You and your mount can spring into action at a moment's notice. You Mount the creature and Command an Animal to issue it an order of your choice.</p>\n<h2>@Compendium[pf2e.feats-srd.Defend Mount]{Defend Mount} Feat 6</h2>\n<p><strong>Prerequisites</strong> Cavalier Dedication</p>\n<p><strong>Trigger</strong> An enemy makes an attack roll against your mount while you're riding it.</p>\n<hr />\n<p>You interpose yourself between an attacker and your mount, defending your mount from harm. Use your own AC against the triggering attack instead your mount's AC. If the triggering attack hits, you take the effects of the attack instead of your mount.</p>\n<h2>@Compendium[pf2e.feats-srd.Mounted Shield]{Mounted Shield} Feat 6</h2>\n<p><strong>Prerequisites</strong> Cavalier Dedication</p>\n<hr />\n<p>You've trained with your shield to defend both yourself and our mount. When you Raise a Shield while mounted, both you and your mount gain the shield's circumstance bonus to AC. If you have the Shield Block reaction, you can use it in response to your mount taking damage, as long as you're riding your mount. If you do, the shield prevents your mount from taking damage instead of preventing you from taking damage, following the normal rules for Shield Block.</p>\n<h2>@Compendium[pf2e.feats-srd.Incredible Mount]{Incredible Mount} Feat 8</h2>\n<p><strong>Prerequisites</strong> Impresive Mount</p>\n<hr />\n<p>Under your care and training, your mount has realized its innate potential. The mount you gained through the Cavalier Dedication feat becomes a nimble or savage animal companion (your choice), gaining additional capabilities determined by the type of companion.</p>\n<h2>@Compendium[pf2e.feats-srd.Trampling Charge]{Trampling Charge} Feat 10</h2>\n<p><strong>Prerequisites</strong> Cavalier Dedication</p>\n<p><strong>Requirements</strong> You are riding a mount that has a melee Strike using its legs (claw, talons, hoof, etc.).</p>\n<hr />\n<p>You urge your mount forward, trampling enemies in your path. You command your mount to Stride up to its Speed (or to Burrow, Climb, Fly, or Swim, if it has the corresponding movement type), moving through the spaces of any foes in your path up to one size smaller than your mount. Your mount deals damage equal to the melee Strike using its legs to each creature whose space you move through, subject to a basic Reflex save against your mount's Athletics DC. On a critical failure, the creature also becomes flat-footed until the end of your next turn. You can damage a given creature only once during this movement.</p>\n<h2>@Compendium[pf2e.feats-srd.Unseat]{Unseat} Feat 10</h2>\n<p><strong>Prerequisites</strong> Cavalier Dedication</p>\n<p><strong>Requirements</strong> You are riding a mount and wielding a jousting weapon.</p>\n<hr />\n<p>You attempt to knock an opponent off their mount. Make a melee Strike against a mounted opponent. If your attack hits, attempt an Athletics check against the opponent's Fortitude DC. If you succeed, the foe is knocked off its mount into a space of its choice adjacent to its mount. If you critically succeed, it lands prone.</p>\n<h2>@Compendium[pf2e.feats-srd.Specialized Mount]{Specialized Mount} Feat 14</h2>\n<p><strong>Prerequisites</strong> Incredible Mount</p>\n<hr />\n<p>You've trained your mount to perform in unusual or even extreme circumstances, granting it abilities far beyond others of its kind. Your mount gains one specialization of your choice.</p>\n<p><strong>Special</strong> You can select this feat up to three times. Each time, add a different specialization to your mount. You mount can't have more than three specializations.</p>\n<h2>@Compendium[pf2e.feats-srd.Legendary Rider]{Legendary Rider} Feat 20</h2>\n<p><strong>Prerequisites</strong> Cavalier Dedication</p><hr />\n<p>You and your mount move like one being, effortlessly reading each other's signals. Whenever you are riding your mount, you are quickened; you can use the extra action only to command your mount using the Command an Animal skill action.</p>",
    "flags": {},
    "name": "Cavalier",
    "permission": {
        "default": 0
    }
}
