{
    "_id": "cEiMI4QGqjv69pJ6",
    "content": "<h1>Herbalist</h1>\n<p>The plants around you can provide more remedies than the finest hospital or temple, and you are skilled in their use.</p>\n<h2>@Compendium[pf2e.feats-srd.Herbalist Dedication]{Herbalist Dedication} Feat 2</h2>\n<p><strong>Prerequisites</strong> trained in Nature, Natural Medicine</p>\n<hr />\n<p>You can create remedies and other herbal products. You gain the basic alchemy benefits, though they apply only for herbal items: alchemical items with the healing trait, plus antidote and antiplague. You gain batches of infused reagents per day equal to your level or half your level if you didn't make your daily preparations in the wilderness. Your advanced alchemy level for creating these is 1 and doesn't increase on its own.</p>\n<p>You become an expert in Nature and can use Nature instead of Crafting to Craft herbal items. You don't need to be trained in Crafting or have the Alchemical Crafting feat to do so, and you can use healer's tools instead of alchemist's tools.</p>\n<p><strong>Special</strong> You can't select another dedication feat until you have gained two other feats from the Herbalist archetype.</p>\n<h2>@Compendium[pf2e.feats-srd.Fresh Ingredients]{Fresh Ingredients} Feat 4</h2>\n<p><strong>Prerequisites</strong> Herbalist Dedication, expert in Nature</p>\n<hr />\n<p>When using Natural Medicine to Treat Wounds, you can spend a batch of herbs to gain the +2 circumstance bonus from having fresh ingredients, even if not in wilderness. If you spend a batch of herbs in wilderness, you gain a +4 circumstance bonus instead.</p>\n<h2>@Compendium[pf2e.feats-srd.Poultice Preparation]{Poultice Preparation} Feat 4</h2>\n<p><strong>Prerequisites</strong> Herbalist Dedication</p>\n<hr />\n<p>When you create an herbal elixir, you can prepare it as a poultice instead. A poultice gains the oil trait (but remains alchemical, not magical) and loses the elixir and ingested traits. You can apply a poultice by Interacting with one hand. When you apply a poultice, in addition to the item's normal effects, the recipient can attempt an immediate flat check to recover from a single source of persistent acid, bleed, or fire damage, with the DC reduction from appropriate assistance.</p>\n<h2>@Compendium[pf2e.feats-srd.Endemic Herbs]{Endemic Herbs} Feat 6</h2>\n<p><strong>Prerequisites</strong> Herbalist Dedication, trained in Survival</p>\n<hr />\n<p>During your daily preparations, you find medicinal plants endemic to your location. Until your next preparations, you can spend an additional batch of herbs to add a benefit to an item you create with your herbalism. The benefit of the special herbs affects the creature that the item is applied to; if the benefit is not immediate, it lasts for 1 minute unless otherwise stated. This adjustment counts as an additive, so you can't include another additive without spoiling the item.</p>\n<ul>\n<li>Aquatic Gain a +1 circumstance bonus to Fortitude saves.</li>\n<li>Arctic For 1 hour, treat environmental cold effects as if they were one step less severe.</li>\n<li>Desert For 1 hour, treat environmental heat effects as if they were one step less severe.</li>\n<li>Forest Gain a +2 circumstance bonus to saves against disease and poison effects.</li>\n<li>Mountain Gain a +1 circumstance bonus to Reflex saves.</li>\n<li>Plains Gain a +1 circumstance bonus to Will saves.</li>\n<li>Swamp Remove one source of persistent bleed damage.</li>\n<li>Underground Gain a +1 circumstance bonus to Perception.</li>\n</ul>\n<h2>@Compendium[pf2e.feats-srd.Expert Herbalism]{Expert Herbalism} Feat 6</h2>\n<p><strong>Prerequisites</strong> Herbalist Dedication, expert in Nature</p>\n<hr />\n<p>Your advanced alchemy level for herbalism increases to your level - 3. You gain the formulas for elixirs of life as soon as your advanced alchemy level is high enough to create them: lesser at 8th level, moderate at 12th level, greater at 16th level, and major at 18th level.</p>",
    "flags": {},
    "name": "Herbalist",
    "permission": {
        "default": 0
    }
}
