{
    "_id": "GADKhvTRWCqlI9vy",
    "content": "<h1>Oozemorph</h1>\n<p>You have suffered from the deadly touch of an ooze or other amorphous creature, like a gibbering mouther or a shoggoth, and have come away changed. Alternatively, you might have been exposed to some alchemical accident involving experiments with oozes, such as those performed in the city of Oenopion in Nex. Parts of your body occasionally liquefy and threaten to slough off, and only through force of will can you keep your natural form intact. Your affliction is plainly supernatural in origin and distressingly permanent.</p>\n<h2 style=\"text-align: left;\">@Compendium[pf2e.feats-srd.Oozemorph Dedication]{Oozemorph Dedication} Feat 2</h2><p>You are plagued by sporadic anatomical rearrangements, which grant you insights into other creatures with unusual anatomies. You become trained in Occultism and Ooze Lore; if you were already trained, you become an expert instead. You gain a +2 circumstance bonus to Reflex saves to avoid being Engulfed by creatures, and to checks to Escape after being Engulfed.</p>\n<p>As you develop more abilities based on your amorphous affliction, you become increasingly off-putting to mundane creatures. You take a penalty to Diplomacy checks against animals and humanoids. This penalty is equal to your number of class feats from the oozemorph archetype, to a maximum of -4 for four or more feats.</p>\n<p><strong>Special</strong> You can't select another dedication feat until you have gained two other feats from the oozemorph archetype.</p>\n<h2>@Compendium[pf2e.feats-srd.Disturbing Defense]{Disturbing Defense} Feat 4</h2>\n<p><strong>Prerequisites</strong> Oozemorph Dedication</p>\n<hr />\n<p>Your internal organs and blood vessels have shifted and changed, and even you don't know precisely where in your body they are. You gain resistance to precision damage equal to 2 + your number of class feats from the oozemorph archetype. The DC of your flat checks to recover from persistent bleed damage is 13, rather than 15.</p>\n<h2>@Compendium[pf2e.feats-srd.Hideous Ululation]{Hideous Ululation} Feat 4</h2>\n<p><strong>Prerequisites</strong> Oozemorph Dedication, trained in Performance</p>\n<hr />\n<p>Your throat has multiple separate chambers that can give your voice an eerie echo. You can be clearly heard at distances of up to 300 feet regardless of ambient sound, although your voice doesn't penetrate a magical silence effect.</p>\n<h2>@Compendium[pf2e.feats-srd.Vacate Vision]{Vacate Vision} Feat 6</h2>\n<p><strong>Prerequisites</strong> Oozemorph Dedication</p>\n<p><strong>Trigger</strong> You fail (but don't critically fail) a saving throw against an effect with the visual trait.</p>\n<hr />\n<p>You cause your eyes to liquefy and run out of your eye sockets, leaving them empty. You get a success on the save against the triggering effect, but you are blinded for the duration the effect would have had on a failure. At that time, your eyes regrow and your normal vision returns.</p>\n<h2>@Compendium[pf2e.feats-srd.Ooze Empathy]{Ooze Empathy} Feat 8</h2>\n<p><strong>Prerequisites</strong> Oozemorph Dedication, at least two other class feats from the oozemorph archetype</p>\n<hr />\n<p>You can connect with oozes (and other amorphous aberrations, at the GM's discretion) on a rudimentary level. You can use Diplomacy to Make an Impression on oozes and to make very simple Requests of them. In most instances, oozes will give you time to make your case.</p>\n<h2>@Compendium[pf2e.feats-srd.Rubbery Skin]{Rubbery Skin} Feat 10</h2>\n<p><strong>Prerequisites</strong> Disturbing Defense</p>\n<hr />\n<p>Your skin develops a malleable, rubbery quality. You gain resistance to bludgeoning damage equal to 2 + your number of class feats from the oozemorph archetype. You also gain resistance equal to twice that amount to extra damage from critical hits; if the resistance is greater than the extra damage, it reduces the extra damage to 0 but doesn't reduce the attack's normal damage.</p>\n<h2>@Compendium[pf2e.feats-srd.Uncanny Suction]{Uncanny Suction} Feat 12</h2>\n<p><strong>Prerequisites</strong> Oozemorph Dedication</p>\n<hr />\n<p>Your limbs produce strange, sucker-like growths that allow you to adhere to walls, objects, and most other surfaces. You gain a climb Speed equal to your half your land Speed (minimum 5 feet). If you have the Quick Climb feat, your climb Speed is equal to your land Speed. In addition, you gain a +2 circumstance bonus to your Reflex DC to avoid being Disarmed.</p>\n<h2>@Compendium[pf2e.feats-srd.Peculiar Anatomy]{Peculiar Anatomy} Feat 14</h2>\n<p><strong>Prerequisites</strong> Disturbing Defense</p>\n<hr />\n<p>Your circulatory system contains viscous protoplasmic fluid instead of ordinary blood. You gain a +2 circumstance bonus to saving throws against disease and poison, and resistance to poison damage equal to half your level.</p>\n<p>In addition, your resistance to precision damage from Disturbing Defense increases to an amount equal to 7 + your number of class feats from the oozemorph archetype, and the DC of your flat checks to recover from persistent bleed damage is 8 rather than 13.</p>",
    "flags": {},
    "name": "Oozemorph",
    "permission": {
        "default": 0
    }
}
