{
    "_id": "eEyxTQ3oHfthdg0e",
    "content": "<h1>Scrounger</h1>\n<p>You have spent countless hours disassembling and rebuilding complex items to learn how they work, giving you the skill to create just about anything from the most unlikely materials. While your improvised items don't last long, they tend to be just what you need in a pinch, and your enemies find that while they might be able to disarm you, the real challenge is keeping you that way. Locked rooms, diabolical traps, and desperate situations are each their own sort of puzzle to you, and the mundane objects around you are the pieces you use to improvise your own solution.</p>\n<h2>@Compendium[pf2e.feats-srd.Scrounger Dedication]{Scrounger Dedication} Feat 2</h2>\n<p><strong>Prerequisites</strong> trained in Crafting</p>\n<hr />\n<p>You can Craft items even without appropriate tools or a workshop, though you take a -2 item penalty to your Crafting check. Additionally, you don't need a physical formula book to remember all of your formulas; you pay the same cost as normal to learn them, but you memorize them all.</p>\n<p>You can Craft temporary items out of anything, anywhere, with whatever materials happen to be on hand, spending only 10 minutes to perform the initial Crafting check. The temporary item must be common, non-magical, 1st level or lower, and must be a weapon, armor, or a nonconsumable piece of adventuring gear (nonconsumable adventuring gear appears on Table 6-9). Instead of a single item, you can create 10 pieces of a single type of ammunition. This is a shoddy item, but you don't take the normal penalty when using shoddy items you made using this feat. Your temporary item lasts for [[/br 1d4 #hours]]{1d4 hours} before falling apart into its raw components; the GM rolls the number of hours secretly. You can create only the physical item, not any information or magic, so for example, while you could create a blank journal or one of random pages, you couldn't use it as a scholarly journal or a religious text.</p>\n<p>You can incorporate any materials or items that you have on hand, even if they're not the type of materials that would ordinarily be used to Craft a given item, though you must have enough volume of material to make the item you want. Unless all the materials you used were an appropriate type to make the item, you take a -5 penalty to the Crafting check (or a -10 penalty if the materials you used were particularly unsuitable, as determined by the GM).</p>\n<p><strong>Special</strong> You can't select another dedication feat until you have gained two other feats from the Scrounger archetype.</p>\n<h2>@Compendium[pf2e.feats-srd.Reverse Engineering]{Reverse Engineering} Feat 4</h2>\n<p><strong>Prerequisites</strong> expert in Crafting, Scrounger Dedication</p>\n<hr />\n<p>You are able to reverse engineer items into formulas more effectively than most. You gain a +2 circumstance bonus to Crafting checks to reverse engineer a formula from an item. Additionally, if you get a critical success on your Crafting check, you can opt to not only create the formula but also reassemble the original item at the same time, leaving you with the formula and the item instead ofthe formula and raw materials equal to half the item's value.</p>\n<h2>@Compendium[pf2e.feats-srd.High-quality Scrounger]{High-quality Scrounger} Feat 8</h2>\n<p><strong>Prerequisites</strong> Scrounger Dedication</p>\n<hr />\n<p>When you Craft a temporary item using Scrounger Dedication, it can be an item of up to 3rd level (though the item ust still be a weapon, armor, or a nonconsumable piece of adventuring gear). You can instead Craft it for someone else's use, allowing them to avoid taking the penalty for using a shoddy item when using it, but causing you to take the penalty if you use it.</p>\n<h2>@Compendium[pf2e.feats-srd.Expert Disassembler]{Expert Disassembly} Feat 7</h2>\n<p><strong>Prerequisites</strong> master in Crafting, Scrounger Dedication</p>\n<hr />\n<p>You can apply the same techniques you use to reverse engineer objects to disable them. You can use Crafting instead of Thievery to Disable a Device or Pick a Lock.</p>",
    "flags": {},
    "name": "Scrounger",
    "permission": {
        "default": 0
    }
}
