{
    "_id": "1HIqZAGVSR2pAiY6",
    "data": {
        "attributes": {
            "ac": {
                "value": 10
            },
            "hardness": 0,
            "hasHealth": true,
            "hp": {
                "details": "",
                "max": 10,
                "temp": 0,
                "value": 10
            },
            "stealth": {
                "details": "<p>(master)</p>",
                "value": 37
            }
        },
        "creatureType": "",
        "details": {
            "description": "<p>A Utopian glyph transforms trespassers into aeons.</p>",
            "disable": "<p><span data-pf2-check=\"thievery\" data-pf2-dc=\"48\" data-pf2-traits=\"magical,trap\" data-pf2-label=\"Drain the Glyph's Power DC\" data-pf2-show-dc=\"gm\">Thievery</span> (master) to drain the glyph's power harmlessly, or <em>@Compendium[pf2e.spells-srd.Dispel Magic]{Dispel Magic}</em> (9th level; counteract DC 42) to counteract the glyph</p>",
            "isComplex": false,
            "level": {
                "value": 20
            },
            "reset": "<p>1 hour</p>",
            "routine": ""
        },
        "saves": {
            "fortitude": {
                "saveDetail": "",
                "value": 0
            },
            "reflex": {
                "saveDetail": "",
                "value": 0
            },
            "will": {
                "saveDetail": "",
                "value": 0
            }
        },
        "source": {
            "value": "Pathfinder #156: The Apocalypse Prophet"
        },
        "statusEffects": [],
        "traits": {
            "ci": [],
            "di": {
                "custom": "",
                "selected": {},
                "value": []
            },
            "dr": [],
            "dv": [],
            "rarity": "common",
            "size": {
                "value": "med"
            },
            "traits": {
                "custom": "",
                "value": [
                    "magical",
                    "trap"
                ]
            }
        }
    },
    "effects": [],
    "flags": {},
    "img": "systems/pf2e/icons/default-icons/hazard.svg",
    "items": [
        {
            "_id": "Neq70NbSJ4xaMcQZ",
            "data": {
                "actionCategory": {
                    "value": "offensive"
                },
                "actionType": {
                    "value": "reaction"
                },
                "actions": {
                    "value": null
                },
                "description": {
                    "value": "<p data-visibility=\"gm\"><strong>Trigger</strong> A creature moves within 10 feet of the entryway to the Hall of Wonders (area <strong>N4</strong>) without speaking the passphrase (\"The History and Future of Humanity\") in Utopian</p>\n<p><strong>Effect</strong> Each creature within 20 feet of the door is targeted by <em>@Compendium[pf2e.spells-srd.Baleful Polymorph]{Baleful Polymorph}</em> (<span data-pf2-check=\"will\" data-pf2-dc=\"42\" data-pf2-traits=\"incapacitation,polymorph,transmutation,magical\" data-pf2-label=\"Baleful Polymorph DC\" data-pf2-show-dc=\"gm\">Will</span> save)<span data-visibility=\"gm\">, except the effect transforms creatures into the form of an @Compendium[pf2e.pathfinder-bestiary.Arbiter]{Arbiter} aeon rather than that of an animal</span>.</p>"
                },
                "requirements": {
                    "value": ""
                },
                "rules": [],
                "slug": null,
                "source": {
                    "value": ""
                },
                "traits": {
                    "custom": "",
                    "rarity": "common",
                    "value": [
                        "divine",
                        "transmutation"
                    ]
                },
                "trigger": {
                    "value": ""
                }
            },
            "effects": [],
            "flags": {},
            "img": "systems/pf2e/icons/actions/Reaction.webp",
            "name": "Axiomatic Polymorph",
            "sort": 0,
            "type": "action"
        }
    ],
    "name": "Axiomatic Polymorph Trap",
    "token": {
        "disposition": 0,
        "height": 1,
        "img": "systems/pf2e/icons/default-icons/hazard.svg",
        "name": "Axiomatic Polymorph Trap",
        "width": 1
    },
    "type": "hazard"
}
