{
    "_id": "G2i7CUiYmyl1yjQo",
    "data": {
        "attributes": {
            "ac": {
                "value": 33
            },
            "hardness": 21,
            "hasHealth": true,
            "hp": {
                "details": "",
                "max": 84,
                "temp": 0,
                "tempmax": 0,
                "value": 84
            },
            "stealth": {
                "details": "(master)",
                "value": 32
            }
        },
        "creatureType": "",
        "details": {
            "description": "An invisible rune on the door begins emitting a very loud buzzing sound, potentially paralyzing an intruder.",
            "disable": "DC 34 Thievery (master) to disrupt the rune without triggering it or dispel magic (6th level; counteract DC 31) to magically counteract the rune",
            "isComplex": false,
            "level": {
                "value": 13
            },
            "reset": "The trap resets after 1 hour.",
            "routine": ""
        },
        "saves": {
            "fortitude": {
                "saveDetail": "",
                "value": 25
            },
            "reflex": {
                "saveDetail": "",
                "value": 19
            },
            "will": {
                "saveDetail": "",
                "value": 0
            }
        },
        "source": {
            "value": "Pathfinder #154: Siege of the Dinosaurs"
        },
        "statusEffects": [],
        "traits": {
            "ci": [],
            "di": {
                "custom": "",
                "selected": {},
                "value": [
                    "critical-hits",
                    "object-immunities",
                    "precision"
                ]
            },
            "dr": [],
            "dv": [],
            "rarity": "common",
            "size": {
                "value": "med"
            },
            "traits": {
                "custom": "",
                "value": [
                    "electricity",
                    "magical",
                    "sonic"
                ]
            }
        }
    },
    "effects": [],
    "flags": {},
    "img": "systems/pf2e/icons/default-icons/hazard.svg",
    "items": [
        {
            "_id": "z346znqdZJAlbClQ",
            "data": {
                "actionCategory": {
                    "value": ""
                },
                "actionType": {
                    "value": "reaction"
                },
                "actions": {
                    "value": null
                },
                "description": {
                    "value": "<p data-visibility=\"gm\"><strong>Trigger</strong> A creature attempts to open the door without using the key</p>\n<p><strong>Effect</strong> The trap makes a loud buzz and deals [[/r {5d10}[electricity]]]{5d10 electricity damage} and [[{5d10}[sonic]]] sonic damage to the triggering creature (<span data-pf2-check=\"reflex\" data-pf2-dc=\"32\" data-pf2-traits=\"electricity,evocation,primal,sonic,damaging-effect\" data-pf2-label=\"Jolting Buzz DC\" data-pf2-show-dc=\"gm\">basic Reflex</span> save; this save applies to both the electricity damage and the sonic damage). Further, the creature must attempt a <span data-pf2-check=\"fortitude\" data-pf2-dc=\"32\" data-pf2-traits=\"electricity,evocation,primal,sonic\" data-pf2-label=\"Jolting Buzz DC\" data-pf2-show-dc=\"gm\">Fortitude</span> save.</p>\n<hr />\n<p><strong>Critical Success</strong> No effect.</p>\n<p><strong>Success</strong> The target is @Compendium[pf2e.conditionitems.Paralyzed]{Paralyzed} for 1 round.</p>\n<p><strong>Failure</strong> The target is paralyzed for [[/br 1d4 #rounds]]{1d4 rounds}. At the end of each of its turns, it can attempt a new <span data-pf2-check=\"fortitude\" data-pf2-dc=\"32\" data-pf2-traits=\"electricity,evocation,primal,sonic\" data-pf2-label=\"Jolting Buzz DC\" data-pf2-show-dc=\"gm\">Fortitude</span> save to reduce the remaining duration by 1 round, or end it entirely on a critical success.</p>\n<p><strong>Critical Failure</strong> The target is paralyzed for 1 minute. At the end of each of its turns, it can attempt a new Fortitude save to reduce the remaining duration by 1 round, or end it entirely on a critical success.</p>"
                },
                "requirements": {
                    "value": ""
                },
                "rules": [],
                "slug": null,
                "source": {
                    "value": ""
                },
                "traits": {
                    "custom": "",
                    "rarity": "common",
                    "value": [
                        "electricity",
                        "evocation",
                        "primal",
                        "sonic"
                    ]
                },
                "trigger": {
                    "value": ""
                },
                "weapon": {
                    "value": ""
                }
            },
            "effects": [],
            "flags": {},
            "img": "systems/pf2e/icons/actions/Reaction.webp",
            "name": "Jolting Buzz",
            "sort": 100000,
            "type": "action"
        }
    ],
    "name": "Buzzing Latch Rune",
    "token": {
        "disposition": 0,
        "height": 1,
        "img": "systems/pf2e/icons/default-icons/hazard.svg",
        "name": "Buzzing Latch Rune",
        "width": 1
    },
    "type": "hazard"
}
