{
    "_id": "UNXMz1Q7hinlaxek",
    "data": {
        "attributes": {
            "ac": {
                "value": 28
            },
            "hardness": 18,
            "hasHealth": true,
            "hp": {
                "details": "",
                "max": 64,
                "temp": 0,
                "tempmax": 0,
                "value": 64
            },
            "stealth": {
                "details": "(trained) to detect the magical runes in the maze; noticing the maze itself has a DC of 0",
                "value": 18
            }
        },
        "creatureType": "",
        "details": {
            "description": "Invisible runes in the maze disorient those within it and cause its mirrored walls to shift about.",
            "disable": "DC 26 Thievery (expert) or dispel magic (5th level; counteract DC 28) to stop the mirrors' shuffling; DC 28 Occultism or Religion (expert) to dispel the minotaur",
            "isComplex": true,
            "level": {
                "value": 9
            },
            "reset": "The trap deactivates and resets if 1 minute passes without any creature in the maze.",
            "routine": "[[3-actions]] The trap uses its first action to magically shuffle the mirrors, rendering markings or maps of the maze ineffective. Creatures in the maze that fail a DC 26 Will save are stupefied 1 until they leave the maze. If the target fails additional saves against this ability, the condition value increases by 1 (to a maximum of stupefied 4). For its second action, the trap's ghostly minotaur attacks a random creature in the maze with its spectral gore. For its third action, the trap makes another spectral gore attack against a random creature."
        },
        "saves": {
            "fortitude": {
                "saveDetail": "",
                "value": 29
            },
            "reflex": {
                "saveDetail": "",
                "value": 14
            },
            "will": {
                "saveDetail": "",
                "value": 0
            }
        },
        "source": {
            "value": "Pathfinder #152: Legacy of the Lost God"
        },
        "statusEffects": [],
        "traits": {
            "ci": [],
            "di": {
                "custom": "",
                "selected": {},
                "value": [
                    "critical-hits",
                    "object-immunities",
                    "precision"
                ]
            },
            "dr": [],
            "dv": [],
            "rarity": "rare",
            "size": {
                "value": "med"
            },
            "traits": {
                "custom": "",
                "value": [
                    "magical",
                    "mechanical"
                ]
            }
        }
    },
    "effects": [],
    "flags": {},
    "img": "systems/pf2e/icons/default-icons/hazard.svg",
    "items": [
        {
            "_id": "KVrMIzW0i6AHJQvS",
            "data": {
                "actionCategory": {
                    "value": ""
                },
                "actionType": {
                    "value": "reaction"
                },
                "actions": {
                    "value": null
                },
                "description": {
                    "value": "<p data-visibility=\"gm\"><strong>Trigger</strong> A creature enters the maze</p>\n<p><strong>Effect</strong> Creatures in the maze can't escape it except by use of teleportation magic or as described in Trapped in the Maze. The trap rolls initiative.</p>"
                },
                "requirements": {
                    "value": ""
                },
                "rules": [],
                "slug": null,
                "source": {
                    "value": ""
                },
                "traits": {
                    "custom": "",
                    "rarity": "common",
                    "value": []
                },
                "trigger": {
                    "value": ""
                },
                "weapon": {
                    "value": ""
                }
            },
            "effects": [],
            "flags": {},
            "img": "systems/pf2e/icons/actions/Reaction.webp",
            "name": "The Maze Awakens",
            "sort": 100000,
            "type": "action"
        },
        {
            "_id": "yaYZxfRFuqY5ZKUv",
            "data": {
                "actionCategory": {
                    "value": ""
                },
                "actionType": {
                    "value": "passive"
                },
                "actions": {
                    "value": null
                },
                "description": {
                    "value": "<p>Once each turn after it has taken a move action within the maze, each target in the maze can spend 1 action to attempt a <span data-pf2-check=\"perception\" data-pf2-dc=\"26\" data-pf2-label=\"Escape the Maze DC\" data-pf2-show-dc=\"gm\">Perception</span> or <span data-pf2-check=\"survival\" data-pf2-label=\"Escape the Maze DC\" data-pf2-dc=\"26\" data-pf2-show-dc=\"gm\">Survival</span> check to escape it. A group traveling the maze together is treated as a single target; no more than one creature in the group can attempt this check each round, but accompanying creatures can Aid this check. The possible outcomes follow. A target attempting to leave the maze the same way it entered uses the outcome for one degree of success better than the result of its roll when attempting this check (failure to success, for example).</p>\n<hr />\n<p><strong>Critical Success</strong> The target escapes the maze.</p>\n<p><strong>Success</strong> The target is on the right path to the exit. If the target was already on the right path, it escapes the maze.</p>\n<p><strong>Failure</strong> The target makes no progress toward escape.</p>\n<p><strong>Critical Failure</strong> The target makes no progress toward escape, and if it was on the right path, it no longer is.</p>"
                },
                "requirements": {
                    "value": ""
                },
                "rules": [],
                "slug": null,
                "source": {
                    "value": ""
                },
                "traits": {
                    "custom": "",
                    "rarity": "common",
                    "value": []
                },
                "trigger": {
                    "value": ""
                },
                "weapon": {
                    "value": ""
                }
            },
            "effects": [],
            "flags": {},
            "img": "systems/pf2e/icons/actions/Passive.webp",
            "name": "Trapped in the Maze",
            "sort": 200000,
            "type": "action"
        },
        {
            "_id": "BTkdHTwWzCskxz7S",
            "data": {
                "attack": {
                    "value": ""
                },
                "attackEffects": {
                    "value": []
                },
                "bonus": {
                    "value": 21
                },
                "damageRolls": {
                    "28d8zzwzplb7y2djjl3e8e": {
                        "damage": "2d8+8",
                        "damageType": "mental"
                    }
                },
                "description": {
                    "value": ""
                },
                "rules": [],
                "slug": null,
                "source": {
                    "value": ""
                },
                "traits": {
                    "custom": "",
                    "rarity": "common",
                    "value": []
                },
                "weaponType": {
                    "value": "melee"
                }
            },
            "effects": [],
            "flags": {},
            "img": "systems/pf2e/icons/default-icons/melee.svg",
            "name": "Spectral Gore",
            "sort": 300000,
            "type": "melee"
        }
    ],
    "name": "Maze of Mirrors",
    "token": {
        "disposition": 0,
        "height": 1,
        "img": "systems/pf2e/icons/default-icons/hazard.svg",
        "name": "Maze of Mirrors",
        "width": 1
    },
    "type": "hazard"
}
