{
    "_id": "FOs2eLbehUzPh9p9",
    "content": "<p>When you were a child, you found, stole, or were given a magic item that gave you an extraordinary ability.</p>\n<p>Add the @Compendium[pf2e.feats-srd.Arcane Sense]{Arcane Sense} skill feat to your background options.</p>",
    "flags": {},
    "name": "Attained a Magical Gift",
    "permission": {
        "default": 0
    }
}
