{
    "_id": "jtgfTYpcv4FFpWsL",
    "content": "<p>You died or came so close that you walked the boundary between life and death.</p>\n<p>Add the @Compendium[pf2e.feats-srd.Diehard]{Diehard} feat to your background options. If you select it instead of a skill feat, you aren't trained in a background skill.</p>",
    "flags": {},
    "name": "Died",
    "permission": {
        "default": 0
    }
}
