{
    "_id": "llfG8iMTFMzVIF9s",
    "content": "<p>You're imprisoned by a 10th-level @Compendium[pf2e.spells-srd.Imprisonment]{Imprisonment} ritual. This uses the prison option, typically sequestering you in a distant part of the world. You also lose all your items. Cease drawing cards.</p>",
    "flags": {},
    "name": "Donjon",
    "permission": {
        "default": 0
    }
}
