{
    "_id": "BAs1fCaUTmvRjvVT",
    "content": "<p>Immediately reduce your Intelligence score by [[/r {1d4+1} #Dullard Intelligence Decrease]]{1d4+1}. You can then draw an additional card, and the Dullard card then disappears forever.</p>",
    "flags": {},
    "name": "Dullard",
    "permission": {
        "default": 0
    }
}
