{
    "_id": "jVh90bfsC6w6iVyy",
    "content": "<p>A medusa's image curses you with a permanent -1 status penalty to all saving throws. This can be removed by only a deity or @Compendium[pf2e.equipment-effects.Effect: Euryale (Curse) Card]{Effect: Euryale (Curse) Card}</p>",
    "flags": {},
    "name": "Euryale (curse)",
    "permission": {
        "default": 0
    }
}
