{
    "_id": "OHKKQ7zTf61vz35h",
    "content": "<p>You and this character worked together to free some captives-including one of your friends or relatives-from a gang of slavers.</p>\n<p>Add the @Compendium[pf2e.feats-srd.Lengthy Diversion]{Lengthy Diversion} skill feat to your background options.</p>",
    "flags": {},
    "name": "Liberators",
    "permission": {
        "default": 0
    }
}
