{
    "_id": "7qsQBWD5sSGz7Fik",
    "content": "<p>To encourage an employer to hire you instead of this character, you worked hard to demonstrate your keen mercantile sense. It didn't work; the employer hired this character anyway.</p>\n<p>Add the @Compendium[pf2e.feats-srd.Bargain Hunter]{Bargain Hunter} skill feat to your background options.</p>",
    "flags": {},
    "name": "Mercantile Expertise",
    "permission": {
        "default": 0
    }
}
