{
    "_id": "vMTOwBTqs8JeE8bH",
    "content": "<p>You and this character worked for a time as rival hunters, whether tracking animals or escaped criminals.</p>\n<p>Add the @Compendium[pf2e.feats-srd.Experienced Tracker]{Experienced Tracker} skill feat to your background options.</p>",
    "flags": {},
    "name": "Rival Trackers",
    "permission": {
        "default": 0
    }
}
