{
    "_id": "VEFcfA4NnWdJSRtp",
    "content": "<p>You spied upon this character in the past, either at the behest of someone else or because of your own suspicions.</p>\n<p>Add the @Compendium[pf2e.feats-srd.Read Lips]{Read Lips} skill feat to your background options.</p>",
    "flags": {},
    "name": "Spy",
    "permission": {
        "default": 0
    }
}
