{
    "_id": "CfD81LilQAtGuvyx",
    "content": "<p>Your mind becomes trapped forever. This card is fickle, but it often throws the psyche into a prison in an object on a distant plane or planet. @Compendium[pf2e.spells-srd.Wish]{Wish} or similarly powerful magic can reveal your psyche's location, but it doesn't bring you back. Your comatose body continues to function. Cease drawing cards.</p>",
    "flags": {},
    "name": "The Void",
    "permission": {
        "default": 0
    }
}
