{
    "_id": "9pK15dQJVypSCjzO",
    "data": {
        "boosts": {
            "0": {
                "value": [
                    "cha",
                    "wis"
                ]
            },
            "1": {
                "value": [
                    "cha",
                    "con",
                    "dex",
                    "int",
                    "str",
                    "wis"
                ]
            }
        },
        "description": {
            "value": "<p>You have been blessed by a divinity. For an unknown reason, and irrespective of your actual beliefs, a deity has granted you a boon to use for good or ill. Your blessing grants wisdom and insight to aid you in your struggles. You may or may not even know the identity of the being who blessed you, and the blessing might come with a cost you discover later on.</p>\n<p>Choose two ability boosts. One must be to <strong>Wisdom</strong> or <strong>Charisma</strong>, and one is a free ability boost.</p>\n<p>You are trained in a Lore skill associated with the deity who blessed you (such as Shelyn Lore) if you know their identity, or else in a Lore skill of the GM's choice if you don't. Either you can cast <em>@Compendium[pf2e.spells-srd.Guidance]{Guidance}</em> as a divine innate spell at will, or you gain a similar blessing determined by the GM.</p>"
        },
        "items": {},
        "rules": [],
        "source": {
            "value": "Pathfinder Advanced Player's Guide"
        },
        "trainedLore": "<Deity> or <GM Choice> Lore",
        "trainedSkills": {
            "value": []
        },
        "traits": {
            "custom": "",
            "rarity": "rare",
            "value": []
        }
    },
    "effects": [],
    "flags": {},
    "img": "systems/pf2e/icons/default-icons/background.svg",
    "name": "Blessed",
    "type": "background"
}
