{
    "_id": "gv6RoDRYqT7iUX5C",
    "data": {
        "boosts": {
            "0": {
                "value": []
            },
            "1": {
                "value": [
                    "cha",
                    "con",
                    "dex",
                    "int",
                    "str",
                    "wis"
                ]
            }
        },
        "description": {
            "value": "<p>You were the subject of a harrow reading at a pivotal point in your life, such as on an important birthday, or upon reaching adulthood. The reading was eerily accurate and has been relevant, for good or ill, at more points in your life than you could call mere coincidence.</p>\n<p>Randomly determine two harrow suits tied to your character, each reflecting a specific ability score. You can do so by drawing cards from a harrow deck or by rolling a [[/r 1d6]]{d6}:</p>\n<table class=\"pf2-table\">\n<thead>\n<tr>\n<th>d6</th>\n<th>Result</th>\n<th>Ability</th>\n</tr>\n</thead>\n<tbody>\n<tr>\n<td>1</td>\n<td>Hammers</td>\n<td>Strength</td>\n</tr>\n<tr>\n<td>2</td>\n<td>Keys</td>\n<td>Dexterity</td>\n</tr>\n<tr>\n<td>3</td>\n<td>Shields</td>\n<td>Constitution</td>\n</tr>\n<tr>\n<td>4</td>\n<td>Books</td>\n<td>Intelligence</td>\n</tr>\n<tr>\n<td>5</td>\n<td>Stars</td>\n<td>Wisdom</td>\n</tr>\n<tr>\n<td>6</td>\n<td>Crowns</td>\n<td>Charisma</td>\n</tr>\n</tbody>\n</table>\n<p>The first suit is your aligned score, and the second suit is your misaligned score.</p>\n<p>Choose two ability boosts. One must be to your <strong>aligned or misaligned</strong> score, and one is a free ability boost. You're trained in the Occultism skill and the Harrow Lore skill. You gain the @Compendium[pf2e.feats-srd.Dubious Knowledge]{Dubious Knowledge} skill feat.</p>"
        },
        "items": {
            "38k5r": {
                "id": "1Bt7uCW2WI4sM84P",
                "img": "systems/pf2e/icons/features/feats/feats.webp",
                "level": "1",
                "name": "Dubious Knowledge",
                "pack": "pf2e.feats-srd"
            }
        },
        "rules": [],
        "source": {
            "value": "Pathfinder #160: Assault on Hunting Lodge Seven"
        },
        "trainedLore": "Harrow Lore",
        "trainedSkills": {
            "custom": "",
            "value": [
                "occ"
            ]
        },
        "traits": {
            "custom": "",
            "rarity": "common",
            "value": []
        }
    },
    "effects": [],
    "flags": {},
    "img": "systems/pf2e/icons/default-icons/background.svg",
    "name": "Harrow-Led (Occultism)",
    "type": "background"
}
