{
    "_id": "HdnmIaLadhRfZq8X",
    "data": {
        "boosts": {
            "0": {
                "value": [
                    "str",
                    "wis"
                ]
            },
            "1": {
                "value": [
                    "cha",
                    "con",
                    "dex",
                    "int",
                    "str",
                    "wis"
                ]
            }
        },
        "description": {
            "value": "<p>You were more than a rebel; you were a revolutionary, fighting for the promise of a new or better country. You may or may not still believe in the cause, or perhaps victory or exile has led you on this new journey to trumpet your glory... or to escape the consequences of your defeat.</p>\n<p>Choose two ability boosts. One must be to <strong>Strength</strong> or <strong>Wisdom</strong>, and one is a free ability boost.</p>\n<p>You're trained in the Deception skill and the Warfare Lore skill. You gain the @Compendium[pf2e.feats-srd.Lengthy Diversion]{Lengthy Diversion} skill feat.</p>"
        },
        "items": {
            "ltz28": {
                "id": "HEBXaS656MZTiWFu",
                "img": "systems/pf2e/icons/features/feats/feats.webp",
                "level": "1",
                "name": "Lengthy Diversion",
                "pack": "pf2e.feats-srd"
            }
        },
        "rules": [],
        "source": {
            "value": "Pathfinder Advanced Player's Guide"
        },
        "trainedLore": "Warfare Lore",
        "trainedSkills": {
            "value": [
                "dec"
            ]
        },
        "traits": {
            "custom": "",
            "rarity": "common",
            "value": []
        }
    },
    "effects": [],
    "flags": {},
    "img": "systems/pf2e/icons/default-icons/background.svg",
    "name": "Insurgent",
    "type": "background"
}
