{
    "_id": "fML6YrXYDqQy0g7L",
    "data": {
        "boosts": {
            "0": {
                "value": [
                    "con",
                    "int"
                ]
            },
            "1": {
                "value": [
                    "cha",
                    "con",
                    "dex",
                    "int",
                    "str",
                    "wis"
                ]
            }
        },
        "description": {
            "value": "<p><strong>Prerequisites</strong> Hobgoblin Ancestry</p>\n<hr />\n<p>The Iolite Squad was Oprak's first foray into training hobgoblins for Pathfinder membership. You've added the archival and archaeological skills they sent back to Oprak into your military training.</p>\n<p>Choose two ability boosts. One must be to <strong>Constitution</strong> or <strong>Intelligence</strong>, and one is a free ability boost.</p>\n<p>You're trained in the Society skill and the Warfare Lore skill. You gain the @Compendium[pf2e.feats-srd.Sign Language]{Sign Language} skill feat.</p>"
        },
        "items": {
            "ltsp0": {
                "id": "aAoFc10cOpxGypOY",
                "img": "systems/pf2e/icons/features/feats/feats.webp",
                "level": "1",
                "name": "Sign Language",
                "pack": "pf2e.feats-srd"
            }
        },
        "rules": [],
        "source": {
            "value": "Pathfinder Society Scenario #1-19: Iolite Squad Alpha"
        },
        "trainedLore": "Warfare Lore",
        "trainedSkills": {
            "value": [
                "soc"
            ]
        },
        "traits": {
            "custom": "",
            "rarity": "common",
            "value": []
        }
    },
    "effects": [],
    "flags": {},
    "img": "systems/pf2e/icons/default-icons/background.svg",
    "name": "Iolite Trainee Hobgoblin",
    "type": "background"
}
