{
    "_id": "84uVpQFCqn0Atfpo",
    "data": {
        "boosts": {
            "0": {
                "value": [
                    "cha",
                    "dex"
                ]
            },
            "1": {
                "value": [
                    "cha",
                    "con",
                    "dex",
                    "int",
                    "str",
                    "wis"
                ]
            }
        },
        "description": {
            "value": "<p><strong>[Legacy - Age of Ashes]</strong></p>\n<p>One or more of your parents (either biological or adoptive) were heroes of the Age of Ashes Adventure Path. Others tend to treat you with a bit more respect, or perhaps fear your connections to people of great power.</p>\n<p>Choose two ability boosts. One must be to <strong>Dexterity</strong> or <strong>Charisma</strong>, and one is a free ability boost.</p>\n<p>You're trained in the Intimidation skill, and the Genealogy Lore skill. You gain the @Compendium[pf2e.feats-srd.Group Coercion]{Group Coercion} skill feat.</p>"
        },
        "items": {
            "sce5j": {
                "id": "gUqvezs2zzoTXFAI",
                "img": "systems/pf2e/icons/features/feats/feats.webp",
                "level": "1",
                "name": "Group Coercion",
                "pack": "pf2e.feats-srd"
            }
        },
        "rules": [],
        "source": {
            "value": "Pathfinder #150: Broken Promises"
        },
        "trainedLore": "Genealogy Lore",
        "trainedSkills": {
            "value": [
                "itm"
            ]
        },
        "traits": {
            "custom": "",
            "rarity": "rare",
            "value": []
        }
    },
    "effects": [],
    "flags": {},
    "img": "systems/pf2e/icons/default-icons/background.svg",
    "name": "Legendary Parents",
    "type": "background"
}
