{
    "_id": "D00NdG0WtUNMO546",
    "data": {
        "boosts": {
            "0": {
                "value": [
                    "cha",
                    "wis"
                ]
            },
            "1": {
                "value": [
                    "cha",
                    "con",
                    "dex",
                    "int",
                    "str",
                    "wis"
                ]
            }
        },
        "description": {
            "value": "<p>You're adept at calming, wrangling, and living beside woolly mammoths and other megafauna commonly found in the Realm of the Mammoth Lords. Perhaps you've even formed a particularly strong bond with one or two of your following's animals, and you tend to get along with other herders in the following, such as young Imek or old Chultei. When the Broken Tusk following must move, you and the other herders know how to convey this message to the animals in your herd.</p>\n<p>Choose two ability boosts. One must be to <strong>Wisdom</strong> or <strong>Charisma</strong>, and one is a free ability boost.</p>\n<p>You're trained in the Nature skill and the Herding Lore skill. You gain the @Compendium[pf2e.feats-srd.Train Animal]{Train Animal} skill feat.</p>"
        },
        "items": {
            "9bwxw": {
                "id": "nowEaHgIyij7im8F",
                "img": "systems/pf2e/icons/features/feats/feats.webp",
                "level": 1,
                "name": "Train Animal",
                "pack": "pf2e.feats-srd"
            }
        },
        "rules": [],
        "source": {
            "value": "Pathfinder: Quest for the Frozen Flame Player's Guide"
        },
        "trainedLore": "Herding",
        "trainedSkills": {
            "custom": "",
            "value": [
                "nat"
            ]
        },
        "traits": {
            "custom": "",
            "rarity": "uncommon",
            "value": []
        }
    },
    "effects": [],
    "flags": {},
    "img": "systems/pf2e/icons/default-icons/background.svg",
    "name": "Mammoth Herder",
    "type": "background"
}
