{
    "_id": "a45LqkSRX07ljKdW",
    "data": {
        "boosts": {
            "0": {
                "value": [
                    "dex",
                    "int"
                ]
            },
            "1": {
                "value": [
                    "cha",
                    "con",
                    "dex",
                    "int",
                    "str",
                    "wis"
                ]
            }
        },
        "description": {
            "value": "<p><strong>Prerequisite</strong> Region - Golden Road</p>\n<hr />\n<p>Even in a city renowned for its alchemy, you were able to rise above the competition.</p>\n<p>Choose two ability boosts. One must be to <strong>Dexterity</strong> or <strong>Intelligence</strong>, and one is a free ability boost.</p>\n<p>You're trained in the Crafting skill and the Alchemical Lore skill. You gain the @Compendium[pf2e.feats-srd.Specialty Crafting]{Specialty Crafting} skill feat with alchemy</p>"
        },
        "items": {},
        "rules": [
            {
                "key": "GrantItem",
                "preselectChoices": {
                    "specialtyCrafting": "alchemy"
                },
                "uuid": "Compendium.pf2e.feats-srd.Specialty Crafting"
            }
        ],
        "source": {
            "value": "Pathfinder Lost Omens: World Guide"
        },
        "trainedLore": "Alchemical Lore",
        "trainedSkills": {
            "value": [
                "cra"
            ]
        },
        "traits": {
            "custom": "",
            "rarity": "common",
            "value": []
        }
    },
    "effects": [],
    "flags": {},
    "img": "systems/pf2e/icons/default-icons/background.svg",
    "name": "Merabite Prodigy",
    "type": "background"
}
