{
    "_id": "PO94ilqe62V6jtBE",
    "data": {
        "boosts": {
            "0": {
                "value": [
                    "int",
                    "wis"
                ]
            },
            "1": {
                "value": [
                    "cha",
                    "con",
                    "dex",
                    "int",
                    "str",
                    "wis"
                ]
            }
        },
        "description": {
            "value": "<p>Conventional magic can only hold your attention for so long. Instead, you've devoted yourself to understanding truly esoteric spells, which invariably draws you to explore the world and all its eldritch traditions.</p>\n<p>Choose two ability boosts. One must be to <strong>Intelligence</strong> or <strong>Wisdom</strong>, and one is a free ability boost.</p>\n<p>You're trained in the Occult skill, as well as the Library Lore skill. You gain the @Compendium[pf2e.feats-srd.Recognize Spell]{Recognize Spell} skill feat.</p>"
        },
        "items": {
            "2k7dh": {
                "id": "MjQyTcV8Jiv1Jtln",
                "img": "systems/pf2e/icons/features/feats/feats.webp",
                "level": "1",
                "name": "Recognize Spell",
                "pack": "pf2e.feats-srd"
            }
        },
        "rules": [],
        "source": {
            "value": "Pathfinder Lost Omens: Pathfinder Society Guide"
        },
        "trainedLore": "Library Lore",
        "trainedSkills": {
            "custom": "",
            "value": [
                "occ"
            ]
        },
        "traits": {
            "custom": "",
            "rarity": "common",
            "value": []
        }
    },
    "effects": [],
    "flags": {},
    "img": "systems/pf2e/icons/default-icons/background.svg",
    "name": "Spell Seeker (Occult)",
    "type": "background"
}
