{
    "_id": "he1oXWjCqyb4CUx8",
    "data": {
        "boosts": {
            "0": {
                "value": [
                    "cha",
                    "int"
                ]
            },
            "1": {
                "value": [
                    "cha",
                    "con",
                    "dex",
                    "int",
                    "str",
                    "wis"
                ]
            }
        },
        "description": {
            "value": "<p>Several members of your family have studied at the Magaambya, although not all of them have graduated as lore-speakers (or even advanced past initiates to become attendants). Your family has decided that you're an excellent candidate to join their ranks. Although lore-speakers of the Magaambya know they are supported by the strength of thousands of graduates who have come before them, you can take the smaller, more personal comfort in the support of your family.</p>\n<p>Choose two ability boosts. One must be to <strong>Intelligence</strong> or <strong>Charisma</strong>, and one is a free ability boost.</p>\n<p>You're trained in the Diplomacy skill. You gain the @Compendium[pf2e.feats-srd.Hobnobber]{Hobnobber} skill feat. You're also trained in Magaambya Lore.</p>\n<p>Your recommended primary branch is the Uzunjati.</p>"
        },
        "items": {
            "9b8wk": {
                "id": "4RjDxgvNXNl5GG9d",
                "img": "systems/pf2e/icons/features/feats/feats.webp",
                "level": 1,
                "name": "Hobnobber",
                "pack": "pf2e.feats-srd"
            }
        },
        "rules": [],
        "source": {
            "value": "Strength of Thousands Player's Guide"
        },
        "trainedLore": "Magaambya Lore",
        "trainedSkills": {
            "custom": "",
            "value": [
                "dip"
            ]
        },
        "traits": {
            "custom": "",
            "rarity": "uncommon",
            "value": []
        }
    },
    "effects": [],
    "flags": {},
    "img": "systems/pf2e/icons/default-icons/background.svg",
    "name": "Sponsored by Family (Diplomacy)",
    "type": "background"
}
