{
    "_id": "IOcjPmcemrQFFb2b",
    "data": {
        "boosts": {
            "0": {
                "value": [
                    "dex",
                    "int"
                ]
            },
            "1": {
                "value": [
                    "cha",
                    "con",
                    "dex",
                    "int",
                    "str",
                    "wis"
                ]
            }
        },
        "description": {
            "value": "<p>You come from a different time. Whether by your own doing or a terrible accident, powerful magic has resulted in you coming to this time from the future or from the past, but you are unable to return. You might be from New Thassilon, an entire nation of time travelers.</p>\n<p>Choose two ability boosts. One must be to <strong>Dexterity</strong> or <strong>Intelligence</strong>, and one is a free ability boost.</p>\n<p>You are trained in three Lore skills of your choice that represent your knowledge from your old time. You gain the Bend Time reaction.</p>"
        },
        "items": {},
        "rules": [],
        "source": {
            "value": "Pathfinder Secrets of Magic"
        },
        "trainedLore": "<Three Different> Lore",
        "trainedSkills": {
            "value": []
        },
        "traits": {
            "custom": "",
            "rarity": "rare",
            "value": []
        }
    },
    "effects": [],
    "flags": {},
    "img": "systems/pf2e/icons/default-icons/background.svg",
    "name": "Time Traveler",
    "type": "background"
}
