{
    "_id": "BZhPPw9VD9U2ur6B",
    "data": {
        "boosts": {
            "0": {
                "value": [
                    "dex",
                    "wis"
                ]
            },
            "1": {
                "value": [
                    "cha",
                    "con",
                    "dex",
                    "int",
                    "str",
                    "wis"
                ]
            }
        },
        "description": {
            "value": "<p>While in a dismal forest or remote swamp, you caught sight of a string of lights bobbing through the trees. You stepped forward for a closer look, and then still further when the lights retreated a few paces. Then you remembered the rumors. Will-o'-wisps, rushlights, corpse lanterns—whatever they're called—such evil creatures lead people to their doom. With a supreme effort of will, you broke free from the alluring enchantment, and you've resolved to never let the strange lights of remote wildernesses claim you again.</p>\n<p>Choose two ability boosts. One must be to <strong>Dexterity</strong> or <strong>Wisdom</strong>, and one is a free ability boost.</p>\n<p>You're trained in Survival and the Wisp Lore skill. You gain the @Compendium[pf2e.feats-srd.Terrain Expertise]{Terrain Expertise} skill feat with both swamp terrain and subterranean bodies of water.</p>"
        },
        "items": {
            "pz84g": {
                "id": "4tTkRyOQ0VuRBac3",
                "img": "systems/pf2e/icons/features/feats/feats.webp",
                "level": "1",
                "name": "Terrain Expertise",
                "pack": "pf2e.feats-srd"
            }
        },
        "rules": [],
        "source": {
            "value": "Pathfinder: Abomination Vaults Player's Guide"
        },
        "trainedLore": "Wisp Lore",
        "trainedSkills": {
            "value": [
                "sur"
            ]
        },
        "traits": {
            "custom": "",
            "rarity": "common",
            "value": []
        }
    },
    "effects": [],
    "flags": {},
    "img": "systems/pf2e/icons/default-icons/background.svg",
    "name": "Witchlight Follower",
    "type": "background"
}
