{
    "_id": "qZUo5SmGxp5BlqFN",
    "data": {
        "armor": {
            "value": 2
        },
        "baseItem": "studded-leather-armor",
        "brokenThreshold": {
            "value": null
        },
        "bulkCapacity": {
            "value": ""
        },
        "category": "light",
        "check": {
            "value": -1
        },
        "collapsed": {
            "value": false
        },
        "containerId": {
            "value": ""
        },
        "description": {
            "value": "<p>Viciously sharp spiked chains wrap around this @Compendium[pf2e.equipment-srd.Studded Leather Armor]{Studded Leather Armor} that can be used to magically harm the wearer and channel supernatural abilities without somehow tearing at the leather itself.</p>\n<p>The barbed vest doesn't fuse to you in the usual way. It can be removed and discarded, but 1 day after doing so, you feel driven to recollect the vest at any cost until the curse is removed with a <em>@Compendium[pf2e.spells-srd.Remove Curse]{Remove Curse}</em> spell.</p>\n<p>Anytime you activate the barbed vest, its chains tighten around you, dealing [[/r {1d6}[persistent,piercing]]] @Compendium[pf2e.conditionitems.Persistent Damage]{Persistent Piercing Damage}. You can remove this persistent damage as normal, but only after deactivating the item's magic as a single action.</p>\n<p><strong>Activate</strong> <span class=\"pf2-icon\">2</span> Interact;</p>\n<p><strong>Frequency</strong> Once per day;</p>\n<p><strong>Effect</strong> The barbed vest casts <em>@Compendium[pf2e.spells-srd.Spiritual Weapon]{Spiritual Weapon}</em>, summoning a @Compendium[pf2e.equipment-srd.Spiked Chain]{Spiked Chain} to fight for you.</p>"
        },
        "dex": {
            "value": 3
        },
        "equipped": {
            "value": false
        },
        "equippedBulk": {
            "value": "1"
        },
        "group": "leather",
        "hardness": {
            "value": null
        },
        "hp": {
            "value": null
        },
        "identification": {
            "misidentified": {},
            "status": "identified",
            "unidentified": {
                "data": {
                    "description": {
                        "value": ""
                    }
                },
                "img": "",
                "name": ""
            }
        },
        "invested": {
            "value": false
        },
        "level": {
            "value": 10
        },
        "maxHp": {
            "value": null
        },
        "negateBulk": {
            "value": "0"
        },
        "potency": {},
        "potencyRune": {
            "value": 0
        },
        "preciousMaterial": {
            "value": null
        },
        "preciousMaterialGrade": {
            "value": null
        },
        "price": {
            "value": "0 gp"
        },
        "propertyRune1": {
            "value": ""
        },
        "propertyRune2": {
            "value": ""
        },
        "propertyRune3": {
            "value": ""
        },
        "propertyRune4": {
            "value": ""
        },
        "quantity": {
            "value": 1
        },
        "resiliencyRune": {
            "value": ""
        },
        "rules": [],
        "size": {
            "value": "med"
        },
        "source": {
            "value": "Pathfinder #159: All or Nothing"
        },
        "speed": {
            "value": 0
        },
        "stackGroup": {
            "value": ""
        },
        "strength": {
            "value": 12
        },
        "traits": {
            "custom": "",
            "rarity": "rare",
            "value": [
                "cursed",
                "invested",
                "magical",
                "necromancy"
            ]
        },
        "usage": {
            "value": "wornarmor"
        },
        "weight": {
            "value": "2"
        }
    },
    "effects": [],
    "flags": {},
    "img": "systems/pf2e/icons/equipment/cursed-items/barbed-vest.webp",
    "name": "Barbed Vest",
    "type": "armor"
}
