{
    "_id": "NFFgDfLBkCjkj0dc",
    "data": {
        "baseItem": null,
        "brokenThreshold": {
            "value": 0
        },
        "bulkCapacity": {
            "value": ""
        },
        "collapsed": {
            "value": false
        },
        "containerId": {
            "value": ""
        },
        "description": {
            "value": "<p>This gaudy and extravagant cloak is adorned with brilliant gems and a fur trim. While wearing the cloak, you gain instant fame and notoriety, granting you a +3 item bonus to Diplomacy checks to Make an Impression. Creatures attempting to learn about you gain the same bonus to Gather Information about you.</p>\n<p><strong>Activate</strong> <span class=\"pf2-icon\">D</span> command</p>\n<p><strong>Frequency</strong> three times per day</p>\n<p><strong>Effect</strong> You wield your great stature to make a Request of a creature. If you roll a success on the check, you get a critical success instead. If you roll a critical failure on your Diplomacy check when you activate the cloak, you get a failure instead.</p>\n<hr />\n<p>Automatically applied effects:</p>\n<ul>\n<li>+3 item bonus to Diplomacy checks to Make an Impression</li>\n</ul>"
        },
        "equipped": {
            "value": false
        },
        "equippedBulk": {
            "value": ""
        },
        "hardness": {
            "value": 0
        },
        "hp": {
            "value": 0
        },
        "identification": {
            "misidentified": {},
            "status": "identified",
            "unidentified": {
                "data": {
                    "description": {
                        "value": ""
                    }
                },
                "img": "",
                "name": ""
            }
        },
        "invested": {
            "value": false
        },
        "level": {
            "value": 17
        },
        "maxHp": {
            "value": 0
        },
        "negateBulk": {
            "value": "0"
        },
        "preciousMaterial": {
            "value": ""
        },
        "preciousMaterialGrade": {
            "value": ""
        },
        "price": {
            "value": "21,750 gp"
        },
        "quantity": {
            "value": 1
        },
        "rules": [
            {
                "key": "FlatModifier",
                "label": "Cloak of Repute (Make an Impression)",
                "predicate": {
                    "any": [
                        "action:make-an-impression"
                    ]
                },
                "selector": "diplomacy",
                "type": "item",
                "value": 3
            }
        ],
        "size": {
            "value": "med"
        },
        "source": {
            "value": "Pathfinder Lost Omens: Character Guide"
        },
        "stackGroup": {
            "value": ""
        },
        "traits": {
            "custom": "",
            "rarity": "common",
            "value": [
                "enchantment",
                "invested",
                "magical"
            ]
        },
        "usage": {
            "value": "worncloak"
        },
        "weight": {
            "value": "1"
        }
    },
    "effects": [],
    "flags": {},
    "img": "systems/pf2e/icons/equipment/worn-items/other-worn-items/cloak-of-repute.webp",
    "name": "Cloak of Repute (Major)",
    "type": "equipment"
}
