{
    "_id": "idw9HdfR4QvseXsc",
    "data": {
        "baseItem": null,
        "brokenThreshold": {
            "value": 0
        },
        "bulkCapacity": {
            "value": ""
        },
        "collapsed": {
            "value": false
        },
        "containerId": {
            "value": ""
        },
        "description": {
            "value": "<p>A <em>dreamstone</em> can become cursed if left exposed to creatures that corrupt sleep, generate nightmares, or otherwise prey on sleeping or dreaming victims via supernatural methods. A <em>cursed dreamstone</em> seems to function as a normal <em>dreamstone</em> until the bearer falls asleep or is forced to attempt a saving throw against a sleep effect. At this point, the person carrying the cursed <em>dreamstone</em> must attempt a <span data-pf2-check=\"will\" data-pf2-dc=\"26\" data-pf2-traits=\"cursed,enchantment,magical\" data-pf2-label=\"Cursed Dreamstone DC\" data-pf2-show-dc=\"gm\">Will</span> save to resist the curse's effects.</p>\n<hr />\n<p><strong>Critical Success</strong> The character resists the curse entirely and experiences a vivid dream while sleeping that warns them of the nature of the <em>cursed dreamstone</em>.</p>\n<p><strong>Success</strong> The character resists the curse.</p>\n<p><strong>Failure</strong> As long as the cursed character possesses the stone, they are fatigued whenever they wake from sleep, whether natural or magically induced, and they take a -2 item penalty to all saving throws against sleep effects instead of gaining the normal bonus from a <em>dreamstone</em>.</p>\n<p><strong>Critical Failure</strong> As failure, and whenever the bearer attempts a saving throw against a sleep effect, they get the outcome that is one degree worse than the result of their saving throw.</p>"
        },
        "equipped": {
            "value": false
        },
        "equippedBulk": {
            "value": ""
        },
        "hardness": {
            "value": 0
        },
        "hp": {
            "value": 0
        },
        "identification": {
            "misidentified": {},
            "status": "identified",
            "unidentified": {
                "data": {
                    "description": {
                        "value": ""
                    }
                },
                "img": "",
                "name": ""
            }
        },
        "invested": {
            "value": false
        },
        "level": {
            "value": 9
        },
        "maxHp": {
            "value": 0
        },
        "negateBulk": {
            "value": ""
        },
        "preciousMaterial": {
            "value": ""
        },
        "preciousMaterialGrade": {
            "value": ""
        },
        "price": {
            "value": "0 gp"
        },
        "quantity": {
            "value": 1
        },
        "rules": [],
        "size": {
            "value": "med"
        },
        "source": {
            "value": "Pathfinder #147: Tomorrow Must Burn"
        },
        "stackGroup": {
            "value": ""
        },
        "traits": {
            "custom": "",
            "rarity": "rare",
            "value": [
                "cursed",
                "enchantment",
                "magical"
            ]
        },
        "usage": {
            "value": "held-in-one-hand"
        },
        "weight": {
            "value": "L"
        }
    },
    "effects": [],
    "flags": {},
    "img": "systems/pf2e/icons/equipment/held-items/dreamstone.webp",
    "name": "Cursed Dreamstone",
    "type": "equipment"
}
