{
    "_id": "8qUja4YdvewN4es0",
    "data": {
        "activation": {
            "condition": "",
            "cost": 0,
            "type": ""
        },
        "autoDestroy": {
            "_deprecated": true,
            "value": true
        },
        "autoUse": {
            "_deprecated": true,
            "value": true
        },
        "baseItem": null,
        "brokenThreshold": {
            "value": 0
        },
        "bulkCapacity": {
            "value": ""
        },
        "charges": {
            "_deprecated": true,
            "max": "1",
            "value": "1"
        },
        "collapsed": {
            "value": false
        },
        "consumableType": {
            "value": "poison"
        },
        "consume": {
            "_deprecated": true,
            "value": null
        },
        "containerId": {
            "value": ""
        },
        "description": {
            "value": "<p><strong>Activate</strong> <span class=\"pf2-icon\">2</span> Interact</p>\n<p>This poison is made from toxic spores of death knell mushrooms, which are reduced to a gray powder and suffused with necromantic energy. If you're reduced to 0 Hit Points while under the effect of <em>death knell powder</em>, you must succeed at a <span data-pf2-check=\"will\" data-pf2-dc=\"34\" data-pf2-traits=\"divine,injury,poison\" data-pf2-label=\"Death Knell Powder DC\" data-pf2-show-dc=\"gm\">Will</span> save or die (this is a death effect). If you die, a random creature adjacent to you is bolstered by your departing life force and gains 20 temporary HP and a +1 status bonus to attack and damage rolls for 10 minutes.</p>\n<hr />\n<p><strong>Saving Throw</strong> <span data-pf2-check=\"fortitude\" data-pf2-dc=\"34\" data-pf2-traits=\"divine,injury,poison\" data-pf2-label=\"Death Knell Powder DC\" data-pf2-show-dc=\"gm\">Fortitude</span></p>\n<p><strong>Maximum Duration</strong> 6 rounds</p>\n<p><strong>Stage 1</strong>[[/r {7d6}[poison]]]{7d6 poison damage} (1 round)</p>\n<p><strong>Stage 2</strong>[[/r {9d6}[poison]]]{9d6 poison damage} (1 round)</p>\n<p><strong>Stage 3</strong> [[/r {12d6}[poison]]]{12d6 poison damage} (1 round)</p>\n<hr />\n<p><strong>Craft Requirements</strong> Supply one casting of <em>@Compendium[pf2e.spells-srd.Death Knell]{Death Knell}</em>.</p>"
        },
        "duration": {
            "units": "",
            "value": null
        },
        "equipped": {
            "value": false
        },
        "equippedBulk": {
            "value": ""
        },
        "hardness": {
            "value": 0
        },
        "hp": {
            "value": 0
        },
        "identification": {
            "misidentified": {},
            "status": "identified",
            "unidentified": {
                "data": {
                    "description": {
                        "value": ""
                    }
                },
                "img": "",
                "name": ""
            }
        },
        "level": {
            "value": 14
        },
        "maxHp": {
            "value": 0
        },
        "negateBulk": {
            "value": "0"
        },
        "preciousMaterial": {
            "value": ""
        },
        "preciousMaterialGrade": {
            "value": ""
        },
        "price": {
            "value": "625 gp"
        },
        "quantity": {
            "value": 1
        },
        "range": {
            "long": null,
            "units": "",
            "value": null
        },
        "rules": [],
        "size": {
            "value": "med"
        },
        "source": {
            "value": "Pathfinder #160: Assault on Hunting Lodge Seven"
        },
        "spell": {
            "data": null,
            "heightenedLevel": null
        },
        "stackGroup": {
            "value": ""
        },
        "target": {
            "type": "",
            "units": "",
            "value": null
        },
        "traits": {
            "custom": "",
            "rarity": "uncommon",
            "value": [
                "consumable",
                "divine",
                "injury",
                "poison"
            ]
        },
        "usage": {
            "value": "held-in-one-hand"
        },
        "uses": {
            "autoDestroy": true,
            "autoUse": true,
            "max": 0,
            "per": null,
            "value": 0
        },
        "weight": {
            "value": "L"
        }
    },
    "effects": [],
    "flags": {},
    "img": "systems/pf2e/icons/equipment/alchemical-items/alchemical-poisons/death-knell-powder.webp",
    "name": "Death Knell Powder",
    "type": "consumable"
}
