{
    "_id": "oVrVzML63VFvVfKk",
    "data": {
        "baseItem": null,
        "brokenThreshold": {
            "value": 0
        },
        "bulkCapacity": {
            "value": ""
        },
        "collapsed": {
            "value": false
        },
        "containerId": {
            "value": ""
        },
        "description": {
            "value": "<p>A <em>disrupting</em> weapon pulses with positive energy, dealing an extra 2d6 positive damage to undead. On a critical hit, the undead creature must attempt a <span data-pf2-check=\"fortitude\" data-pf2-dc=\"34\" data-pf2-traits=\"magical,incapacitation,necromancy\" data-pf2-label=\"Greater Disrupting DC\" data-pf2-show-dc=\"gm\">Fortitude</span> save with the following effects. This is an incapacitation effect.</p>\n<hr />\n<p><strong>Critical Success</strong> It's @Compendium[pf2e.conditionitems.Enfeebled]{Enfeebled 1} until the end of your next turn.</p>\n<p><strong>Success</strong> It's @Compendium[pf2e.conditionitems.Enfeebled]{Enfeebled 2} until the end of your next turn.</p>\n<p><strong>Failure</strong> It's @Compendium[pf2e.conditionitems.Enfeebled]{Enfeebled 3} until the end of your next turn.</p>\n<p><strong>Critical Failure</strong> It's destroyed.</p>"
        },
        "equipped": {
            "value": false
        },
        "equippedBulk": {
            "value": ""
        },
        "hardness": {
            "value": 0
        },
        "hp": {
            "value": 0
        },
        "identification": {
            "misidentified": {},
            "status": "identified",
            "unidentified": {
                "data": {
                    "description": {
                        "value": ""
                    }
                },
                "img": "",
                "name": ""
            }
        },
        "invested": {
            "value": false
        },
        "level": {
            "value": 14
        },
        "maxHp": {
            "value": 0
        },
        "negateBulk": {
            "value": "0"
        },
        "preciousMaterial": {
            "value": ""
        },
        "preciousMaterialGrade": {
            "value": ""
        },
        "price": {
            "value": "4,300 gp"
        },
        "quantity": {
            "value": 1
        },
        "rules": [],
        "size": {
            "value": "med"
        },
        "source": {
            "value": "Pathfinder Core Rulebook"
        },
        "stackGroup": {
            "value": ""
        },
        "traits": {
            "custom": "",
            "rarity": "uncommon",
            "value": [
                "magical",
                "necromancy",
                "incapacitation"
            ]
        },
        "usage": {
            "value": "held-in-one-hand"
        },
        "weight": {
            "value": "-"
        }
    },
    "effects": [],
    "flags": {},
    "img": "systems/pf2e/icons/equipment/runes/weapon-property-runes/weapon-property-runes.webp",
    "name": "Disrupting (Greater)",
    "type": "equipment"
}
