{
    "_id": "hBGFCZbI9nAjSdfE",
    "data": {
        "baseItem": null,
        "brokenThreshold": {
            "value": 0
        },
        "bulkCapacity": {
            "value": ""
        },
        "collapsed": {
            "value": false
        },
        "containerId": {
            "value": ""
        },
        "description": {
            "value": "<p>This black leather wrist guard has a bright red gem on the inside of the wrist. Faint glyphs and words of domination in Infernal swim inside the gem. Your words become harsh and clipped when you have this magic item invested.</p>\n<hr />\n<p><strong>Activate</strong> <span class=\"pf2-icon\">3</span> command</p>\n<p><strong>Frequency</strong> once per day</p>\n<p><strong>Effect</strong> You exert your will over a mindless creature within 30 feet. If the target is a mindless creature of 3rd level or lower, it must attempt a <span data-pf2-check=\"will\" data-pf2-dc=\"20\" data-pf2-traits=\"incapacitation,magical,enchantment,invested,magical\" data-pf2-label=\"Drover's Band DC\" data-pf2-show-dc=\"gm\">Will</span> save. If you are a devil, the target uses an outcome one degree of success worse than the result of its saving throw.</p>\n<hr />\n<p><strong>Critical Success</strong> The target creature is unaffected.</p>\n<p><strong>Success</strong> The target creature is @Compendium[pf2e.conditionitems.Slowed]{Slowed 1} for 1 round as its responses are muddled by your commands.</p>\n<p><strong>Failure</strong> The creature is @Compendium[pf2e.conditionitems.Controlled]{Controlled} by you for 1 hour, although it doesn't follow commands that are obviously self-destructive.</p>\n<p><strong>Critical Failure</strong> As failure, but the duration is 1 day.</p>"
        },
        "equipped": {
            "value": false
        },
        "equippedBulk": {
            "value": ""
        },
        "hardness": {
            "value": 0
        },
        "hp": {
            "value": 0
        },
        "identification": {
            "misidentified": {},
            "status": "identified",
            "unidentified": {
                "data": {
                    "description": {
                        "value": ""
                    }
                },
                "img": "",
                "name": ""
            }
        },
        "invested": {
            "value": false
        },
        "level": {
            "value": 7
        },
        "maxHp": {
            "value": 0
        },
        "negateBulk": {
            "value": "0"
        },
        "preciousMaterial": {
            "value": ""
        },
        "preciousMaterialGrade": {
            "value": ""
        },
        "price": {
            "value": "675 gp"
        },
        "quantity": {
            "value": 1
        },
        "rules": [],
        "size": {
            "value": "med"
        },
        "source": {
            "value": "Pathfinder #164: Hands of the Devil"
        },
        "stackGroup": {
            "value": ""
        },
        "traits": {
            "custom": "",
            "rarity": "rare",
            "value": [
                "enchantment",
                "incapacitation",
                "invested",
                "magical"
            ]
        },
        "usage": {
            "value": "wornbracers"
        },
        "weight": {
            "value": "L"
        }
    },
    "effects": [],
    "flags": {},
    "img": "systems/pf2e/icons/equipment/worn-items/other-worn-items/droverss_band.webp",
    "name": "Drover's Band",
    "type": "equipment"
}
