{
    "_id": "DIQg2Tml1wWjSC1q",
    "data": {
        "activation": {
            "condition": "",
            "cost": 0,
            "type": ""
        },
        "autoDestroy": {
            "_deprecated": true,
            "value": true
        },
        "autoUse": {
            "_deprecated": true,
            "value": true
        },
        "baseItem": null,
        "brokenThreshold": {
            "value": 0
        },
        "bulkCapacity": {
            "value": ""
        },
        "charges": {
            "_deprecated": true,
            "max": "1",
            "value": "1"
        },
        "collapsed": {
            "value": false
        },
        "consumableType": {
            "value": "snare"
        },
        "consume": {
            "_deprecated": true,
            "value": ""
        },
        "containerId": {
            "value": ""
        },
        "description": {
            "value": "<p>You arrange a spiky cage of bones, particularly tough vegetation, or other material to spring up when disturbed. The snare deals [[/r {9d8}[piercing]]]{9d8 piercing damage} to the first creature to enter this square; that creature must attempt a <span data-pf2-check=\"reflex\" data-pf2-dc=\"31\" data-pf2-traits=\"mechanical,snare,trap\" data-pf2-label=\"Engulfing Snare DC\" data-pf2-show-dc=\"gm\">Reflex</span> save.</p>\n<hr />\n<p><strong>Critical Success</strong> The creature is unaffected.</p>\n<p><strong>Success</strong> The creature is knocked aside by the snare's deployment, taking half damage, and is @Compendium[pf2e.conditionitems.Flat-Footed]{Flat-Footed} until the end of its next turn.</p>\n<p><strong>Failure</strong> The creature is captured by the cage, taking full damage and falling @Compendium[pf2e.conditionitems.Prone]{Prone}. It is @Compendium[pf2e.conditionitems.Immobilized]{Immobilized} while it remains within the cage. It can get free by @Compendium[pf2e.actionspf2e.Escape]{Escaping} (DC 31) or by destroying the cage (Hardness 5, HP 30, object immunities).</p>\n<p><strong>Critical Failure</strong> As failure, but the creature takes double damage.</p>"
        },
        "duration": {
            "units": "",
            "value": null
        },
        "equipped": {
            "value": false
        },
        "equippedBulk": {
            "value": ""
        },
        "hardness": {
            "value": 0
        },
        "hp": {
            "value": 0
        },
        "identification": {
            "misidentified": {},
            "status": "identified",
            "unidentified": {
                "data": {
                    "description": {
                        "value": ""
                    }
                },
                "img": "",
                "name": ""
            }
        },
        "level": {
            "value": 14
        },
        "maxHp": {
            "value": 0
        },
        "negateBulk": {
            "value": "0"
        },
        "preciousMaterial": {
            "value": ""
        },
        "preciousMaterialGrade": {
            "value": ""
        },
        "price": {
            "value": "900 gp"
        },
        "quantity": {
            "value": 1
        },
        "range": {
            "long": null,
            "units": "",
            "value": null
        },
        "rules": [],
        "size": {
            "value": "med"
        },
        "source": {
            "value": "Pathfinder Advanced Player's Guide"
        },
        "spell": {
            "data": null,
            "heightenedLevel": null
        },
        "stackGroup": {
            "value": ""
        },
        "target": {
            "type": "",
            "units": "",
            "value": null
        },
        "traits": {
            "custom": "",
            "rarity": "common",
            "value": [
                "consumable",
                "mechanical",
                "snare",
                "trap"
            ]
        },
        "usage": {
            "value": "held-in-one-hand"
        },
        "uses": {
            "autoDestroy": true,
            "autoUse": true,
            "max": 0,
            "per": null,
            "value": 0
        },
        "weight": {
            "value": "-"
        }
    },
    "effects": [],
    "flags": {},
    "img": "systems/pf2e/icons/equipment/snares/engulfing-snare.webp",
    "name": "Engulfing Snare",
    "type": "consumable"
}
