{
    "_id": "OI20gS0SRKVAORqm",
    "data": {
        "baseItem": null,
        "brokenThreshold": {
            "value": 0
        },
        "bulkCapacity": {
            "value": ""
        },
        "collapsed": {
            "value": false
        },
        "containerId": {
            "value": ""
        },
        "description": {
            "value": "<p>You tap into the fiendish ability to slip through space. When you Stride, you gain a +3 item bonus to Armor Class against reactions triggered by your movement. Once per day, from any distance, Abrogail Thrune II can call on a provision in your Thrune contract as a single action, causing you to become <em>paralyzed </em>for 1 hour or until Abrogail releases you, whichever comes first.</p>\n<p><strong>Activate</strong> <span class=\"pf2-icon\">2</span> command</p>\n<p><strong>Frequency</strong> once per day</p>\n<p><strong>Effect</strong> You recite a subclause of your contract regarding change in venue. You cast dimension <em>door.</em> The space you leave and the one you appear in are filled with the scent of brimstone, dealing 2d6 evil damage to creatures adjacent to both spaces.</p>"
        },
        "equipped": {
            "value": false
        },
        "equippedBulk": {
            "value": ""
        },
        "hardness": {
            "value": 0
        },
        "hp": {
            "value": 0
        },
        "identification": {
            "misidentified": {},
            "status": "identified",
            "unidentified": {
                "data": {
                    "description": {
                        "value": ""
                    }
                },
                "img": "",
                "name": ""
            }
        },
        "invested": {
            "value": false
        },
        "level": {
            "value": 11
        },
        "maxHp": {
            "value": 0
        },
        "negateBulk": {
            "value": "0"
        },
        "preciousMaterial": {
            "value": ""
        },
        "preciousMaterialGrade": {
            "value": ""
        },
        "price": {
            "value": "0 gp"
        },
        "quantity": {
            "value": 1
        },
        "rules": [],
        "size": {
            "value": "med"
        },
        "source": {
            "value": "Pathfinder Lost Omens: Legends"
        },
        "stackGroup": {
            "value": ""
        },
        "traits": {
            "custom": "",
            "rarity": "rare",
            "value": [
                "conjuration",
                "contract",
                "invested",
                "magical"
            ]
        },
        "usage": {
            "value": "held-in-one-hand"
        },
        "weight": {
            "value": "-"
        }
    },
    "effects": [],
    "flags": {},
    "img": "systems/pf2e/icons/equipment/contracts/infernal-contracts/fiendish-teleportation.webp",
    "name": "Fiendish Teleportation",
    "type": "equipment"
}
