{
    "_id": "5Q5MfHX43Sjm8C6Z",
    "data": {
        "baseItem": null,
        "brokenThreshold": {
            "value": 0
        },
        "bulkCapacity": {
            "value": ""
        },
        "collapsed": {
            "value": false
        },
        "containerId": {
            "value": null
        },
        "description": {
            "value": "<p>A Large or smaller restrained or willing creature can be executed by a final blade.</p>\n<hr />\n<p><strong>Activate</strong> 1 minute (Interact)</p>\n<p><strong>Effect</strong> You execute a creature restrained beneath the blade. The creature you execute takes [[/r {11d10}[slashing]]]{11d10 slashing damage} and must succeed at a <span data-pf2-check=\"fortitude\" data-pf2-traits=\"artifact,death,evil,necromancy,occult\" data-pf2-label=\"Avoid Decapitation DC\" data-pf2-dc=\"45\" data-pf2-show-dc=\"gm\">Fortitude</span> save or be decapitated as though it suffered a critical hit with a natural 20 from a <em>+3 major striking vorpal scythe</em>. The soul of a creature executed with a final blade is trapped, and the creature can't be returned to life, not even by miracle or similar magic. A final blade can hold any number of souls in this way, and a sufficient number of captured souls forms a monster called a gray death.</p>\n<p><strong>Destruction</strong> A final blade can be destroyed via the rare ritual, blunt the final blade.</p>"
        },
        "equipped": {
            "value": false
        },
        "equippedBulk": {
            "value": ""
        },
        "hardness": {
            "value": 0
        },
        "hp": {
            "value": 0
        },
        "identification": {
            "misidentified": {},
            "status": "identified",
            "unidentified": {
                "data": {
                    "description": {
                        "value": ""
                    }
                },
                "img": "",
                "name": ""
            }
        },
        "invested": {
            "value": null
        },
        "level": {
            "value": 20
        },
        "maxHp": {
            "value": 0
        },
        "negateBulk": {
            "value": "0"
        },
        "preciousMaterial": {
            "value": null
        },
        "preciousMaterialGrade": {
            "value": null
        },
        "price": {
            "value": "0 gp"
        },
        "quantity": {
            "value": 1
        },
        "rules": [],
        "size": {
            "value": "med"
        },
        "source": {
            "value": "Pathfinder Adventure: Night of the Gray Death"
        },
        "stackGroup": {
            "value": ""
        },
        "traits": {
            "custom": "",
            "rarity": "rare",
            "value": [
                "artifact",
                "death",
                "evil",
                "necromancy",
                "occult"
            ]
        },
        "usage": {
            "value": "held-in-one-hand"
        },
        "weight": {
            "value": "40"
        }
    },
    "effects": [],
    "flags": {},
    "img": "systems/pf2e/icons/default-icons/equipment.svg",
    "name": "Final Blade",
    "type": "equipment"
}
