{
    "_id": "alV162EF3qZrbxt0",
    "data": {
        "baseItem": null,
        "brokenThreshold": {
            "value": 0
        },
        "bulkCapacity": {
            "value": ""
        },
        "collapsed": {
            "value": false
        },
        "containerId": {
            "value": null
        },
        "description": {
            "value": "<p>Identical feathers radiate from the center of this spellheart, held in place by woven straw. The spell attack roll of any spell cast by Activating this item is +14, and the spell DC is 24.</p>\n<ul>\n<li><strong>Armor</strong> You gain a +1 item bonus to Acrobatics checks and resistance 5 to falling damage. @Compendium[pf2e.equipment-effects.Equipment Effect: Greater Five-Feather Wreath]{Equipment Effect: Greater Five-Feather Wreath}</li>\n<li><strong>Weapon</strong> After you cast an air spell by Activating the wreath, you can Fly 5 feet as a single action, or you can Fly 25 feet as a free action if the spell you cast wasn't a cantrip. This must be your next action, and if you don't have a fly Speed, you must end the flight on solid ground or fall.</li>\n</ul>\n<p><strong>Activate</strong> Cast a Spell</p>\n<p><strong>Effect</strong> You cast <em>@Compendium[pf2e.spells-srd.Gale Blast]{Gale Blast}</em>.</p>\n<hr />\n<p><strong>Activate</strong> Cast a Spell</p>\n<p><strong>Frequency</strong> once per day</p>\n<p><strong>Effect</strong> You cast <em>@Compendium[pf2e.spells-srd.Wall of Wind]{Wall of Wind}</em>.</p>"
        },
        "equipped": {
            "value": false
        },
        "equippedBulk": {
            "value": ""
        },
        "hardness": {
            "value": 0
        },
        "hp": {
            "value": 0
        },
        "identification": {
            "misidentified": {},
            "status": "identified",
            "unidentified": {
                "data": {
                    "description": {
                        "value": ""
                    }
                },
                "img": "",
                "name": ""
            }
        },
        "invested": {
            "value": null
        },
        "level": {
            "value": 8
        },
        "maxHp": {
            "value": 0
        },
        "negateBulk": {
            "value": "0"
        },
        "preciousMaterial": {
            "value": null
        },
        "preciousMaterialGrade": {
            "value": null
        },
        "price": {
            "value": "425 gp"
        },
        "quantity": {
            "value": 1
        },
        "rules": [],
        "size": {
            "value": "med"
        },
        "source": {
            "value": "Pathfinder Secrets of Magic"
        },
        "stackGroup": {
            "value": ""
        },
        "traits": {
            "custom": "",
            "rarity": "common",
            "value": [
                "air",
                "magical",
                "spellheart",
                "transmutation"
            ]
        },
        "usage": {
            "value": "held-in-one-hand"
        },
        "weight": {
            "value": "-"
        }
    },
    "effects": [],
    "flags": {},
    "img": "systems/pf2e/icons/default-icons/equipment.svg",
    "name": "Five-Feather Wreath (Greater)",
    "type": "equipment"
}
