{
    "_id": "UYCQoe8sKZgbKYHg",
    "data": {
        "activation": {
            "condition": "",
            "cost": 0,
            "type": ""
        },
        "autoDestroy": {
            "_deprecated": true,
            "value": true
        },
        "autoUse": {
            "_deprecated": true,
            "value": true
        },
        "baseItem": null,
        "brokenThreshold": {
            "value": 0
        },
        "bulkCapacity": {
            "value": ""
        },
        "charges": {
            "_deprecated": true,
            "max": 0,
            "value": 0
        },
        "collapsed": {
            "value": false
        },
        "consumableType": {
            "value": "other"
        },
        "consume": {
            "_deprecated": true,
            "value": ""
        },
        "containerId": {
            "value": null
        },
        "description": {
            "value": "<p><strong>Activate</strong> <span class=\"pf2-icon\">1</span> Interact</p>\n<hr />\n<p>These savory breaded snacks stuffed with cheese, peppers, and \"secret ingredients\" of draconic or demonic origin are often offered alongside a challenge-complete a full portion and get a free drink. For 1 hour after consuming follypops, your stomach gurgles and rumbles with magical potential. During this time, you can unleash magic in the area up to three times as a single action, which has the concentrate trait, with an area and damage determined by the type of pop; the third time you use this magic, the effects of your <em>follypops</em> end. All creatures within the area must attempt a DC 27 basic saving throw each time you unleash magic, as noted by the type of pop.</p>\n<hr />\n<p><strong>Type</strong> hotpops</p>\n<p>You begin to sweat profusely after consuming the serving. When you unleash magic, you breathe out a blast of fire in a @Template[type:cone|distance:15]. Creatures in the cone take [[/r {4d6}[fire] #first blast]]{4d6 fire damage} with the first blast, [[/r {2d6}[fire] #second blast]]{2d6 fire damage} with the second blast, and [[/r {1d6}[fire] #third blast]]{1d6 fire damage} with the final blast. The creatures must attempt a <span data-pf2-check=\"reflex\" data-pf2-traits=\"consumable,evocation,magical,uncommon,fire\" data-pf2-label=\"Hotpops Follypop DC\" data-pf2-dc=\"27\" data-pf2-show-dc=\"all\">basic Reflex</span> for each blast.</p>\n<hr />\n<p><strong>Type</strong> rotters</p>\n<p>Your breath smells of rotting garbage after you consume the serving. When you unleash magic, you exhale a noxious breath in a @Template[type:cone|distance:15]. Creatures in the cone take [[/r {4d6}[poison] #first blast]]{4d6 poison damage} with the first breath, [[/r {2d6}[poison] #second blast]]{2d6 poison damage} with the second breath, and [[/r {1d6}[poison] #third blast]]{1d6 poison damage} with the final breath. The creatures must attempt a <span data-pf2-check=\"fortitude\" data-pf2-traits=\"consumable,evocation,magical,uncommon,poison\" data-pf2-label=\"RottersFollypop DC\" data-pf2-dc=\"27\" data-pf2-show-dc=\"all\">basic Fortitude</span> for each breath.</p>\n<hr />\n<p><strong>Type</strong> sizzlers</p>\n<p>Your skin crawls and your hair stands on end after consuming the serving. When you unleash magic, you release a bolt of lightning from your hand that travels in a @Template[type:line|distance:30]. The first bolt deals [[/r {2d12}[electricity] #first jolt]]{2d12 electricity damage}, the second [[/r {1d12}[electricity] #second jolt]]{1d12 electricity damage}, and the third [[/r {1d6}[electricity] #third jolt]]{1d6 electricity damage}. The targeted creatures must attempt a <span data-pf2-check=\"reflex\" data-pf2-traits=\"consumable,evocation,magical,uncommon,electricity\" data-pf2-label=\"Sizzlers Follypop DC\" data-pf2-dc=\"27\" data-pf2-show-dc=\"all\">basic Reflex</span> for each bolt.</p>"
        },
        "duration": {
            "units": "",
            "value": null
        },
        "equipped": {
            "value": false
        },
        "equippedBulk": {
            "value": ""
        },
        "hardness": {
            "value": 0
        },
        "hp": {
            "value": 0
        },
        "identification": {
            "misidentified": {},
            "status": "identified",
            "unidentified": {
                "data": {
                    "description": {
                        "value": ""
                    }
                },
                "img": "",
                "name": ""
            }
        },
        "level": {
            "value": 10
        },
        "maxHp": {
            "value": 0
        },
        "negateBulk": {
            "value": "0"
        },
        "preciousMaterial": {
            "value": null
        },
        "preciousMaterialGrade": {
            "value": null
        },
        "price": {
            "value": "175 gp"
        },
        "quantity": {
            "value": 1
        },
        "range": {
            "long": null,
            "units": "",
            "value": null
        },
        "rules": [],
        "size": {
            "value": "med"
        },
        "source": {
            "value": "Pathfinder Lost Omens: The Grand Bazaar"
        },
        "spell": {
            "data": null,
            "heightenedLevel": null
        },
        "stackGroup": {
            "value": ""
        },
        "target": {
            "type": "",
            "units": "",
            "value": null
        },
        "traits": {
            "custom": "",
            "rarity": "uncommon",
            "value": [
                "consumable",
                "evocation",
                "magical"
            ]
        },
        "usage": {
            "value": "held-in-one-hand"
        },
        "uses": {
            "autoDestroy": true,
            "autoUse": true,
            "max": 0,
            "per": null,
            "value": 0
        },
        "weight": {
            "value": "L"
        }
    },
    "effects": [],
    "flags": {},
    "img": "systems/pf2e/icons/default-icons/consumable.svg",
    "name": "Follypops",
    "type": "consumable"
}
