{
    "_id": "y9Ln2q1EhD3Jdu9H",
    "data": {
        "baseItem": null,
        "brokenThreshold": {
            "value": 0
        },
        "bulkCapacity": {
            "value": ""
        },
        "collapsed": {
            "value": false
        },
        "containerId": {
            "value": null
        },
        "description": {
            "value": "<p>This pale, malleable metal's unusual molecular structure allows it to partially pass through iron and steel without touching them. While this property is useful for making weapons that bypass metal armor, inubrix is barely sturdier than lead. Even in an alloyed state, this skymetal is so fragile that it's difficult to use in crafting reliable shields and less than ideal for crafting armor.</p>\n<h2>Inubrix Items</h2>\n<table class=\"pf2-table\">\n<thead>\n<tr>\n<th>Inubrix Items</th>\n<th>Hardness</th>\n<th>HP</th>\n<th>BT</th>\n</tr>\n</thead>\n<tbody>\n<tr>\n<td><strong>Thin Items</strong></td>\n<td> </td>\n<td> </td>\n<td> </td>\n</tr>\n<tr>\n<td>Standard-grade</td>\n<td>4</td>\n<td>16</td>\n<td>8</td>\n</tr>\n<tr>\n<td>High-grade</td>\n<td>7</td>\n<td>28</td>\n<td>14</td>\n</tr>\n<tr>\n<td><strong>Items</strong></td>\n<td> </td>\n<td> </td>\n<td> </td>\n</tr>\n<tr>\n<td>Standard-grade</td>\n<td>8</td>\n<td>32</td>\n<td>16</td>\n</tr>\n<tr>\n<td>High-grade</td>\n<td>11</td>\n<td>44</td>\n<td>22</td>\n</tr>\n<tr>\n<td><strong>Structures</strong></td>\n<td> </td>\n<td> </td>\n<td> </td>\n</tr>\n<tr>\n<td>Standard-grade</td>\n<td>17</td>\n<td>68</td>\n<td>34</td>\n</tr>\n<tr>\n<td>High-grade</td>\n<td>23</td>\n<td>92</td>\n<td>46</td>\n</tr>\n</tbody>\n</table>"
        },
        "equipped": {
            "value": false
        },
        "equippedBulk": {
            "value": ""
        },
        "hardness": {
            "value": 0
        },
        "hp": {
            "value": 0
        },
        "identification": {
            "misidentified": {},
            "status": "identified",
            "unidentified": {
                "data": {
                    "description": {
                        "value": ""
                    }
                },
                "img": "",
                "name": ""
            }
        },
        "invested": {
            "value": null
        },
        "level": {
            "value": 0
        },
        "maxHp": {
            "value": 0
        },
        "negateBulk": {
            "value": "0"
        },
        "preciousMaterial": {
            "value": null
        },
        "preciousMaterialGrade": {
            "value": null
        },
        "price": {
            "value": "5500 gp"
        },
        "quantity": {
            "value": 1
        },
        "rules": [],
        "size": {
            "value": "med"
        },
        "source": {
            "value": "Pathfinder Lost Omens: The Grand Bazaar"
        },
        "stackGroup": {
            "value": ""
        },
        "traits": {
            "custom": "",
            "rarity": "rare",
            "value": [
                "precious"
            ]
        },
        "usage": {
            "value": "held-in-one-hand"
        },
        "weight": {
            "value": "1"
        }
    },
    "effects": [],
    "flags": {},
    "img": "systems/pf2e/icons/default-icons/equipment.svg",
    "name": "Inubrix Ingot",
    "type": "equipment"
}
