{
    "_id": "dRi775Uhzqgn7aBs",
    "data": {
        "activation": {
            "condition": "",
            "cost": 0,
            "type": ""
        },
        "autoDestroy": {
            "_deprecated": true,
            "value": true
        },
        "autoUse": {
            "_deprecated": true,
            "value": true
        },
        "baseItem": null,
        "brokenThreshold": {
            "value": 0
        },
        "bulkCapacity": {
            "value": ""
        },
        "charges": {
            "_deprecated": true,
            "max": 1,
            "value": 1
        },
        "collapsed": {
            "value": false
        },
        "consumableType": {
            "value": "poison"
        },
        "consume": {
            "_deprecated": true,
            "value": ""
        },
        "containerId": {
            "value": ""
        },
        "description": {
            "value": "<p>This potent poison consists of crystals whose flavor and appearance mimics edible salt but whose effects are deadly: victims experience periods of waking nightmares that overload the senses and eventually result in death through a combination of shock and exhaustion.</p>\n<hr />\n<p><strong>Activate</strong> <span class=\"pf2-icon\">T</span> Interact (Ingested)</p>\n<p><strong>Saving Throw</strong> <span data-pf2-check=\"fortitude\" data-pf2-dc=\"43\" data-pf2-traits=\"alchemical,consumable,ingested,poison\" data-pf2-label=\"Nightmare Salt DC\" data-pf2-show-dc=\"gm\">Fortitude</span></p>\n<p><strong>Onset</strong> 1 hour</p>\n<p><strong>Maximum Duration</strong> 5 days</p>\n<p><strong>Stage 1</strong> @Compendium[pf2e.conditionitems.Frightened]{Frightened 2} once every [[/r 1d4]] hours, plus @Compendium[pf2e.conditionitems.Fatigued]{Fatigued} (1 day)</p>\n<p><strong>Stage 2</strong> @Compendium[pf2e.conditionitems.Confused]{Confused} for 1 minute once every [[/r 1d4]] hours, plus frightened 3 and fatigued (1 day)</p>\n<p><strong>Stage 3</strong> frightened 3, plus confused for [[/r 1d4]] minutes, once every hour, plus fatigued (1 day)</p>\n<p><strong>Stage 4</strong> death</p>"
        },
        "duration": {
            "units": "",
            "value": null
        },
        "equipped": {
            "value": false
        },
        "equippedBulk": {
            "value": ""
        },
        "hardness": {
            "value": 0
        },
        "hp": {
            "value": 0
        },
        "identification": {
            "misidentified": {},
            "status": "identified",
            "unidentified": {
                "data": {
                    "description": {
                        "value": ""
                    }
                },
                "img": "",
                "name": ""
            }
        },
        "level": {
            "value": 20
        },
        "maxHp": {
            "value": 0
        },
        "negateBulk": {
            "value": "0"
        },
        "preciousMaterial": {
            "value": ""
        },
        "preciousMaterialGrade": {
            "value": ""
        },
        "price": {
            "value": "14,000 gp"
        },
        "quantity": {
            "value": 1
        },
        "range": {
            "long": null,
            "units": "",
            "value": null
        },
        "rules": [],
        "size": {
            "value": "med"
        },
        "source": {
            "value": "Pathfinder #149: Against the Scarlet Triad"
        },
        "spell": {
            "data": null,
            "heightenedLevel": null
        },
        "stackGroup": {
            "value": ""
        },
        "target": {
            "type": "",
            "units": "",
            "value": null
        },
        "traits": {
            "custom": "",
            "rarity": "rare",
            "value": [
                "alchemical",
                "consumable",
                "ingested",
                "poison"
            ]
        },
        "usage": {
            "value": "held-in-one-hand"
        },
        "uses": {
            "autoDestroy": true,
            "autoUse": true,
            "max": 0,
            "per": null,
            "value": 0
        },
        "weight": {
            "value": "L"
        }
    },
    "effects": [],
    "flags": {},
    "img": "systems/pf2e/icons/equipment/alchemical-items/alchemical-poisons/nightmare-salt.webp",
    "name": "Nightmare Salt",
    "type": "consumable"
}
