{
    "_id": "80G0z7iFUCjHeYGf",
    "data": {
        "MAP": {
            "value": ""
        },
        "baseItem": "nightstick",
        "bonus": {
            "value": 0
        },
        "bonusDamage": {
            "value": 0
        },
        "brokenThreshold": {
            "value": 0
        },
        "bulkCapacity": {
            "value": ""
        },
        "category": "simple",
        "collapsed": {
            "value": false
        },
        "containerId": {
            "value": ""
        },
        "damage": {
            "damageType": "bludgeoning",
            "dice": 1,
            "die": "d4",
            "value": ""
        },
        "description": {
            "value": "<p>This collapsible baton consists of several nested, telescoping metal shafts that can be extended as a free action by flicking the wrist. Once extended to its full length (usually around 2 feet), the baton locks into shape until the wielder uses an Interact action to collapse it-a collapsed nightstick is 8 inches long, making it easily concealed. Lighter and more maneuverable than an ordinary club or truncheon, nightsticks are designed to subdue foes without causing permanent injury. A nightstick is an uncommon simple melee weapon.</p>"
        },
        "equipped": {
            "value": false
        },
        "equippedBulk": {
            "value": ""
        },
        "group": "club",
        "hands": {
            "value": ""
        },
        "hardness": {
            "value": 0
        },
        "hp": {
            "value": 0
        },
        "identification": {
            "misidentified": {},
            "status": "identified",
            "unidentified": {
                "data": {
                    "description": {
                        "value": ""
                    }
                },
                "img": "",
                "name": ""
            }
        },
        "invested": {
            "value": false
        },
        "level": {
            "value": 0
        },
        "maxHp": {
            "value": 0
        },
        "negateBulk": {
            "value": "0"
        },
        "potencyRune": {
            "value": null
        },
        "preciousMaterial": {
            "value": ""
        },
        "preciousMaterialGrade": {
            "value": ""
        },
        "price": {
            "value": "1 gp"
        },
        "property1": {
            "critDamage": "",
            "critDamageType": "",
            "critDice": null,
            "critDie": "",
            "criticalConditionType": "",
            "criticalConditionValue": null,
            "damageType": "",
            "dice": null,
            "die": "",
            "strikeConditionType": "",
            "strikeConditionValue": null,
            "value": ""
        },
        "propertyRune1": {
            "value": ""
        },
        "propertyRune2": {
            "value": ""
        },
        "propertyRune3": {
            "value": ""
        },
        "propertyRune4": {
            "value": ""
        },
        "quantity": {
            "value": 1
        },
        "range": null,
        "reload": {
            "value": ""
        },
        "rules": [],
        "size": {
            "value": "med"
        },
        "source": {
            "value": "Pathfinder #157: Devil at the Dreaming Palace"
        },
        "splashDamage": {
            "value": 0
        },
        "stackGroup": {
            "value": ""
        },
        "strikingRune": {
            "value": ""
        },
        "traits": {
            "custom": "",
            "rarity": "uncommon",
            "value": [
                "agile",
                "finesse",
                "nonlethal",
                "parry",
                "thrown-10"
            ]
        },
        "usage": {
            "value": "held-in-one-hand"
        },
        "weight": {
            "value": "L"
        }
    },
    "effects": [],
    "flags": {},
    "img": "systems/pf2e/icons/equipment/weapons/nightstick.webp",
    "name": "Nightstick",
    "type": "weapon"
}
