{
    "_id": "q1mt1F9q1XmJWAKY",
    "data": {
        "MAP": {
            "value": ""
        },
        "baseItem": "dueling-pistol",
        "bonus": {
            "value": 0
        },
        "bonusDamage": {
            "value": 0
        },
        "brokenThreshold": {
            "value": 0
        },
        "bulkCapacity": {
            "value": ""
        },
        "category": "martial",
        "collapsed": {
            "value": false
        },
        "containerId": {
            "value": null
        },
        "damage": {
            "damageType": "piercing",
            "dice": 1,
            "die": "d6",
            "value": ""
        },
        "description": {
            "value": "<p>Wielded in over a hundred duels by the famed Ustalavic noblewoman Countess Tasya Iserav, this <em>+1 striking fearsome dueling pistol</em> is a work of master craftsmanship, almost eerie in the axiomatic perfection present in each dimension and detail.</p>\n<p>Commissioned at great expense and artfully designed by a team of the finest gunsmiths, this exquisite mahogany pistol has adamantine detailing. The ruby-eyed, leering devil's face that surrounds the barrel was intended to strike fear into the Countess's opponents-of which there were many. Countess Tasya credited this weapon with her exceptional success in dueling circles and refused to name the weapon's creators for fear their works would fall into an opponent's hands. In the past decade, seven replicas of the Countess's famed pistol have arisen, each said to be crafted by the Countess's anonymous gunsmiths. That each of these weapon's wielders have quickly risen to become exceptional duelists in their own right has lent credence to their claims. Despite public pressure, wielders of these replicas have refused to square off against the Countess.</p>\n<p>Despite the weapon's beauty and utility, a <em>pact-bound pistol</em> is a cursed weapon and a physical manifestation of an infernal contract sworn between the bearer of the weapon and the Archdevil Mephistopheles. Each <em>pact-bound pistol</em> was crafted not by a team of master artisans, but by Countess Tasya Iserav herself, a secret diabolist and devoted priestess of The Crimson Son. The very act of firing the weapon is an acceptance of the contract's terms and causes the weapon to fuse to you. Thereafter, the weapon reappears in your possessions within 1 minute of you discarding it, and can't be destroyed or thrown away permanently, until the curse is removed.</p>\n<p>Whenever you attack a living creature with the <em>pact-bound pistol</em>, text from the infernal contract is seared into your flesh, causing you to lose 1 Hit Point, or 2 Hit Points if the attack was a critical success. The text appears one sentence at a time, from the beginning to the end and is written in Infernal. When the contract is fully scribed (see below), you no longer lose Hit Points when you attack a living creature. These burned phrases heal over as scars which can't be removed while you are fused to the weapon, although they can be covered and disguised.</p>\n<p>Each time a creature dies within 1 hour of being damaged by a <em>pact-bound pistol</em>, that creature must attempt a <span data-pf2-check=\"will\" data-pf2-traits=\"cursed,enchantment,evil,fire,magical\" data-pf2-label=\"Pact Bound Pistol DC\" data-pf2-dc=\"25\" data-pf2-show-dc=\"gm\">Will</span> saving throw. On a failure, their soul is consigned to the Archdevil Mephistopheles; their soul immediately goes to Hell and they can't be returned to life through any means short of divine intervention, a heist, or a successful appeal in the courts of Hell; even powerful magic such as wish is insufficient. After you have consigned 9 souls to Mephistopheles in this way, the contract is fully scribed upon your flesh. You become immune to fire damage and the <em>pact-bound pistol</em> becomes a +2 striking greater fearsome dueling pistol. Your soul belongs to Mephistopheles and immediately goes to Hell when you die. You can't be returned to life through any means, even through the divine intervention of a deity.</p>\n<p>Failing to wield a <em>pact-bound pistol</em> is a breach of contract. Each day you go without firing the <em>pact-bound pistol</em> at a living creature, you must attempt a Will saving throw. On a failure, you become @Compendium[pf2e.conditionitems.Stupefied]{Stupefied 1}. If you are already stupefied, the value of your stupefied condition increases by 1, to a maximum of stupefied 4. While you're fused with the <em>pact-bound pistol</em>, you can't reduce the value of your stupefied condition except by damaging a living creature with it. Whenever you damage a living creature with it, if you are suffering from the stupefied condition due to the <em>pact-bound pistol</em>, your stupefied condition is removed.</p>"
        },
        "equipped": {
            "value": false
        },
        "equippedBulk": {
            "value": ""
        },
        "group": "firearm",
        "hands": {
            "value": false
        },
        "hardness": {
            "value": 0
        },
        "hp": {
            "value": 0
        },
        "identification": {
            "misidentified": {},
            "status": "identified",
            "unidentified": {
                "data": {
                    "description": {
                        "value": ""
                    }
                },
                "img": "",
                "name": ""
            }
        },
        "invested": {
            "value": null
        },
        "level": {
            "value": 5
        },
        "maxHp": {
            "value": 0
        },
        "negateBulk": {
            "value": "0"
        },
        "potencyRune": {
            "value": 1
        },
        "preciousMaterial": {
            "value": null
        },
        "preciousMaterialGrade": {
            "value": null
        },
        "price": {
            "value": "260 gp"
        },
        "property1": {
            "critDamage": "",
            "critDamageType": "",
            "critDice": 0,
            "critDie": "",
            "criticalConditionType": "",
            "criticalConditionValue": null,
            "damageType": "",
            "dice": 0,
            "die": "",
            "strikeConditionType": "",
            "strikeConditionValue": null,
            "value": ""
        },
        "propertyRune1": {
            "value": "fearsome"
        },
        "propertyRune2": {
            "value": null
        },
        "propertyRune3": {
            "value": null
        },
        "propertyRune4": {
            "value": null
        },
        "quantity": {
            "value": 1
        },
        "range": 60,
        "reload": {
            "value": "1"
        },
        "rules": [],
        "size": {
            "value": "med"
        },
        "source": {
            "value": "Pathfinder Guns & Gears"
        },
        "specific": {
            "material": null,
            "price": "260 gp",
            "runes": {
                "potency": 1,
                "striking": "striking"
            },
            "value": true
        },
        "splashDamage": {
            "value": 0
        },
        "stackGroup": {
            "value": ""
        },
        "strikingRune": {
            "value": "striking"
        },
        "traits": {
            "custom": "",
            "rarity": "rare",
            "value": [
                "concealable",
                "concussive",
                "cursed",
                "enchantment",
                "evil",
                "fatal-d10",
                "fire",
                "magical"
            ]
        },
        "usage": {
            "value": "held-in-one-hand"
        },
        "weight": {
            "value": "L"
        }
    },
    "effects": [],
    "flags": {},
    "img": "systems/pf2e/icons/equipment/weapons/dueling-pistol.webp",
    "name": "Pact-Bound Pistol",
    "type": "weapon"
}
