{
    "_id": "wJOW9YfEp5RDYHc1",
    "data": {
        "baseItem": null,
        "brokenThreshold": {
            "value": 0
        },
        "bulkCapacity": {
            "value": ""
        },
        "collapsed": {
            "value": false
        },
        "containerId": {
            "value": ""
        },
        "description": {
            "value": "<p><strong>Devil</strong> @Compendium[pf2e.pathfinder-bestiary.Barbazu]{Barbazu}</p>\n<p><strong>Decipher Writing</strong> Society, Warfare Lore</p>\n<hr />\n<p>You negotiate for might and viciousness.</p>\n<p><strong>Benefit</strong> Your successful Strikes with slashing and piercing melee weapons deal [[/r {1}[persistent,bleed]]] @Compendium[pf2e.conditionitems.Persistent Damage]{Persistent Bleed Damage}. On a critical success, this persistent bleed damage is equal to half your level.</p>\n<p><strong>Payment</strong> You regain half the normal number of Hit Points from resting (including Hit Points gained from long-term rest) and from any application of the Medicine skill.</p>\n<p><strong>Hidden Condition</strong> The barbazu owns any weapons you find. No more often than once per month, the barbazu can demand a single weapon of its choice (often the best weapon in your possession). You are compelled to hand over the weapon immediately, without question.</p>\n<p><strong>Termination Clause</strong> The contract guarantees that you will not “be slain by the barbazu or by barbazu action.” This wording is vague; if any barbazu kills you, or if you die from persistent bleed damage from any source, the contract is voided.</p>"
        },
        "equipped": {
            "value": false
        },
        "equippedBulk": {
            "value": ""
        },
        "hardness": {
            "value": 0
        },
        "hp": {
            "value": 0
        },
        "identification": {
            "misidentified": {},
            "status": "identified",
            "unidentified": {
                "data": {
                    "description": {
                        "value": ""
                    }
                },
                "img": "",
                "name": ""
            }
        },
        "invested": {
            "value": false
        },
        "level": {
            "value": 5
        },
        "maxHp": {
            "value": 0
        },
        "negateBulk": {
            "value": "0"
        },
        "preciousMaterial": {
            "value": ""
        },
        "preciousMaterialGrade": {
            "value": ""
        },
        "price": {
            "value": "0 gp"
        },
        "quantity": {
            "value": 1
        },
        "rules": [],
        "size": {
            "value": "med"
        },
        "source": {
            "value": "Pathfinder #164: Hands of the Devil"
        },
        "stackGroup": {
            "value": ""
        },
        "traits": {
            "custom": "",
            "rarity": "rare",
            "value": [
                "contract",
                "invested",
                "magical",
                "necromancy"
            ]
        },
        "usage": {
            "value": "held-in-one-hand"
        },
        "weight": {
            "value": "-"
        }
    },
    "effects": [],
    "flags": {},
    "img": "systems/pf2e/icons/equipment/contracts/infernal-contracts/pact-of-blood-taking.webp",
    "name": "Pact of Blood-Taking",
    "type": "equipment"
}
