{
    "_id": "YmTGzsenhogSNDXK",
    "data": {
        "MAP": {
            "value": ""
        },
        "ability": {
            "value": ""
        },
        "baseItem": null,
        "bonus": {
            "value": 0
        },
        "bonusDamage": {
            "value": 0
        },
        "brokenThreshold": {
            "value": 0
        },
        "bulkCapacity": {
            "value": ""
        },
        "collapsed": {
            "value": false
        },
        "containerId": {
            "value": ""
        },
        "damage": {
            "damageType": "slashing",
            "dice": 1,
            "die": "d6",
            "value": ""
        },
        "description": {
            "value": "<p>This lustrous, rat-shaped pyrite statuette is 1 inch tall. When activated, the statuette transforms into a flesh-and-blood giant rat. You can use the following action when you hold the <em>pyrite rat</em>. You can use this action only once per day, and the rat remains transformed for 1 hour.</p>\n<p><strong>Transform Statue</strong><span class=\"pf2-icon\">2</span> (concentrate, manipulate)</p>\n<p><strong>Effect</strong> You place the statue on solid ground and speak the rat's secret name, causing the statuette to transform into a living @Compendium[pf2e.pathfinder-bestiary.Giant Rat]{Giant Rat}.</p>\n<p>In creature form, the giant rat acts on your turn. It gets 2 actions and can't use reactions. You have to spend an action each turn to tell it what to do; otherwise, it tries to run away from danger or cowers where it is.</p>\n<p>If the rat is slain while in animal form, it reverts to its statue shape and can't be transformed again until 1 week has passed. If the figurine is destroyed while in its statue form, it's shattered and its magical properties are lost forever.</p>"
        },
        "equipped": {
            "value": false
        },
        "equippedBulk": {
            "value": ""
        },
        "group": {
            "value": ""
        },
        "hands": {
            "value": ""
        },
        "hardness": {
            "value": 0
        },
        "hp": {
            "value": 0
        },
        "identification": {
            "misidentified": {},
            "status": "identified",
            "unidentified": {
                "data": {
                    "description": {
                        "value": ""
                    }
                },
                "img": "",
                "name": ""
            }
        },
        "invested": {
            "value": false
        },
        "level": {
            "value": 2
        },
        "maxHp": {
            "value": 0
        },
        "negateBulk": {
            "value": "0"
        },
        "potencyRune": {
            "value": ""
        },
        "preciousMaterial": {
            "value": ""
        },
        "preciousMaterialGrade": {
            "value": ""
        },
        "price": {
            "value": "32 gp"
        },
        "propertyRune1": {
            "value": ""
        },
        "propertyRune2": {
            "value": ""
        },
        "propertyRune3": {
            "value": ""
        },
        "propertyRune4": {
            "value": ""
        },
        "quantity": {
            "value": 1
        },
        "range": {
            "value": ""
        },
        "reload": {
            "value": ""
        },
        "rules": [],
        "size": {
            "value": "med"
        },
        "source": {
            "value": "Pathfinder Beginners Box"
        },
        "splashDamage": {
            "value": 0
        },
        "stackGroup": {
            "value": ""
        },
        "strikingRune": {
            "value": ""
        },
        "traits": {
            "custom": "",
            "rarity": "common",
            "value": [
                "conjuration",
                "magical"
            ]
        },
        "usage": {
            "value": "held-in-one-hand"
        },
        "weaponType": {
            "value": ""
        },
        "weight": {
            "value": "-"
        }
    },
    "effects": [],
    "flags": {},
    "img": "systems/pf2e/icons/equipment/held-items/wondrous-figurine-golden-lion.webp",
    "name": "Pyrite Rat",
    "type": "equipment"
}
