{
    "_id": "UtT7TVT7M6uJTlJH",
    "data": {
        "activation": {
            "condition": "",
            "cost": 0,
            "type": ""
        },
        "autoDestroy": {
            "_deprecated": true,
            "value": true
        },
        "autoUse": {
            "_deprecated": true,
            "value": true
        },
        "baseItem": null,
        "brokenThreshold": {
            "value": 0
        },
        "bulkCapacity": {
            "value": ""
        },
        "charges": {
            "_deprecated": true,
            "max": 0,
            "value": 0
        },
        "collapsed": {
            "value": false
        },
        "consumableType": {
            "value": "fulu"
        },
        "consume": {
            "_deprecated": true,
            "value": ""
        },
        "containerId": {
            "value": null
        },
        "description": {
            "value": "<p><strong>Usage</strong> affixed to a creature</p>\n<p><strong>Activate</strong> <span class=\"pf2-icon\">f</span> envision</p>\n<p><strong>Duration</strong> 1 hour</p>\n<hr />\n<p>This fulu depicts the five-spoke wheel of Qi Zhong, god of magic and medicine, and burns away slowly, like incense. If you fall asleep within the fulu's duration, you regain double the amount of Hit Points you usually gain from resting. You also gain a +2 status bonus to saves against mental effects that occur in your dreams, such as the <em>@Compendium[pf2e.spells-srd.Nightmare]{Nightmare}</em> spell.</p>"
        },
        "duration": {
            "units": "",
            "value": null
        },
        "equipped": {
            "value": false
        },
        "equippedBulk": {
            "value": ""
        },
        "hardness": {
            "value": 0
        },
        "hp": {
            "value": 0
        },
        "identification": {
            "misidentified": {},
            "status": "identified",
            "unidentified": {
                "data": {
                    "description": {
                        "value": ""
                    }
                },
                "img": "",
                "name": ""
            }
        },
        "level": {
            "value": 6
        },
        "maxHp": {
            "value": 0
        },
        "negateBulk": {
            "value": "0"
        },
        "preciousMaterial": {
            "value": null
        },
        "preciousMaterialGrade": {
            "value": null
        },
        "price": {
            "value": "32 gp"
        },
        "quantity": {
            "value": 1
        },
        "range": {
            "long": null,
            "units": "",
            "value": null
        },
        "rules": [],
        "size": {
            "value": "med"
        },
        "source": {
            "value": "Pathfinder Secrets of Magic"
        },
        "spell": {
            "data": null,
            "heightenedLevel": null
        },
        "stackGroup": {
            "value": ""
        },
        "target": {
            "type": "",
            "units": "",
            "value": null
        },
        "traits": {
            "custom": "",
            "rarity": "common",
            "value": [
                "consumable",
                "enchantment",
                "fulu",
                "magical",
                "necromancy"
            ]
        },
        "usage": {
            "value": "held-in-one-hand"
        },
        "uses": {
            "autoDestroy": true,
            "autoUse": true,
            "max": 0,
            "per": null,
            "value": 0
        },
        "weight": {
            "value": "-"
        }
    },
    "effects": [],
    "flags": {},
    "img": "systems/pf2e/icons/equipment/consumables/fulus/fulu-modest.webp",
    "name": "Restful Sleep Fulu",
    "type": "consumable"
}
