{
    "_id": "3RPYWoUv1VKGjJ7i",
    "data": {
        "baseItem": null,
        "brokenThreshold": {
            "value": 0
        },
        "bulkCapacity": {
            "value": ""
        },
        "collapsed": {
            "value": false
        },
        "containerId": {
            "value": ""
        },
        "description": {
            "value": "<p>This rose-gold ring is adorned in the center by a somewhat ominous-looking horned skull. This ring gives you the power to cast the following innate arcane cantrips any number of times each day: <em>@Compendium[pf2e.spells-srd.Detect Magic]{Detect Magic}</em>, <em>@Compendium[pf2e.spells-srd.Mage Hand]{Mage Hand}</em>, and <em>@Compendium[pf2e.spells-srd.Prestidigitation]{Prestidigitation}</em>. Each is cast as a 1st-level spell. If you are an arcane spellcaster, these can instead be heightened to the level of your cantrips.</p>"
        },
        "equipped": {
            "value": false
        },
        "equippedBulk": {
            "value": ""
        },
        "hardness": {
            "value": 0
        },
        "hp": {
            "value": 0
        },
        "identification": {
            "misidentified": {},
            "status": "identified",
            "unidentified": {
                "data": {
                    "description": {
                        "value": ""
                    }
                },
                "img": "",
                "name": ""
            }
        },
        "invested": {
            "value": false
        },
        "level": {
            "value": 5
        },
        "maxHp": {
            "value": 0
        },
        "negateBulk": {
            "value": ""
        },
        "preciousMaterial": {
            "value": ""
        },
        "preciousMaterialGrade": {
            "value": ""
        },
        "price": {
            "value": "160 gp"
        },
        "quantity": {
            "value": 1
        },
        "rules": [],
        "size": {
            "value": "med"
        },
        "source": {
            "value": "Pathfinder Adventure: The Fall of Plaguestone"
        },
        "stackGroup": {
            "value": ""
        },
        "traits": {
            "custom": "",
            "rarity": "uncommon",
            "value": [
                "arcane",
                "evocation",
                "invested"
            ]
        },
        "usage": {
            "value": "worn"
        },
        "weight": {
            "value": "-"
        }
    },
    "effects": [],
    "flags": {},
    "img": "systems/pf2e/icons/equipment/worn-items/other-worn-items/ring-of-minor-arcana.webp",
    "name": "Ring of Minor Arcana",
    "type": "equipment"
}
