{
    "_id": "Xv6NlFohsFtIHp6K",
    "data": {
        "baseItem": null,
        "brokenThreshold": {
            "value": 0
        },
        "bulkCapacity": {
            "value": ""
        },
        "collapsed": {
            "value": false
        },
        "containerId": {
            "value": ""
        },
        "description": {
            "value": "<p>This fanciful golden ring has an ornate band cast with delicate, swirling decorations and is inlaid with three bright-green emeralds. While wearing this ring, you gain a +10-foot item bonus to your Speed, but only when determining your overland movement per hour.</p>\n<p><strong>Activate</strong> <span class=\"pf2-icon\">T</span> envision, interact</p>\n<p><strong>Effect</strong> You refresh yourself from fatigue. For 10 minutes, you can ignore the penalties from the fatigued condition. This does not remove the condition, it merely suppresses the penalties and drawbacks of having the condition. If something would cause you to become fatigued again while the ring's power is in effect, the suppression ends, and you immediately take the penalties again.</p>"
        },
        "equipped": {
            "value": false
        },
        "equippedBulk": {
            "value": ""
        },
        "hardness": {
            "value": 0
        },
        "hp": {
            "value": 0
        },
        "identification": {
            "misidentified": {},
            "status": "identified",
            "unidentified": {
                "data": {
                    "description": {
                        "value": ""
                    }
                },
                "img": "",
                "name": ""
            }
        },
        "invested": {
            "value": false
        },
        "level": {
            "value": 5
        },
        "maxHp": {
            "value": 0
        },
        "negateBulk": {
            "value": ""
        },
        "preciousMaterial": {
            "value": ""
        },
        "preciousMaterialGrade": {
            "value": ""
        },
        "price": {
            "value": "160 gp"
        },
        "quantity": {
            "value": 1
        },
        "rules": [],
        "size": {
            "value": "med"
        },
        "source": {
            "value": "Pathfinder Adventure: The Fall of Plaguestone"
        },
        "stackGroup": {
            "value": ""
        },
        "traits": {
            "custom": "",
            "rarity": "uncommon",
            "value": [
                "invested",
                "transmutation"
            ]
        },
        "usage": {
            "value": "worn"
        },
        "weight": {
            "value": "-"
        }
    },
    "effects": [],
    "flags": {},
    "img": "systems/pf2e/icons/equipment/worn-items/other-worn-items/ring-of-the-weary-traveler.webp",
    "name": "Ring of the Weary Traveler",
    "type": "equipment"
}
