{
    "_id": "aQEQkwuAabZG8wY1",
    "data": {
        "baseItem": null,
        "brokenThreshold": {
            "value": 0
        },
        "bulkCapacity": {
            "value": ""
        },
        "collapsed": {
            "value": false
        },
        "containerId": {
            "value": null
        },
        "description": {
            "value": "<p>The thin, glittering strands of rope that comprise this thick belt appear to be spun gold. Strung along the front of the belt are a collection of four multicolored, perfectly spherical beads: jade, turquoise, quartz, and amethyst. While wearing the lash, you gain a +3 item bonus to Religion.</p>\n<p>When you invest the belt, you either increase your Wisdom score by 2 or to 18, whichever would give you a higher score.</p>\n<p>@Compendium[pf2e.equipment-effects.Equipment Effect: Sage's Lash (Turquoise)]{Equipment Effect: Sage's Lash (Turquoise)}</p>\n<hr />\n<p><strong>Activate</strong> <span class=\"pf2-icon\">2</span> command, Interact</p>\n<p><strong>Effect</strong> You touch one of the jewels affixed to the sage's lash and speak a command word. Depending on the jewel, a different effect is produced that affects you and all living creatures in a @Template[type:emanation|distance:30]. After the effect occurs, all four jewels disappear from the lash, reappearing at the next dawn.</p>\n<ul>\n<li><strong>Jade</strong> (healing, positive) Speak “purity” to produce a wave of green light that ends any sickened condition and any ongoing poison damage affecting creatures in the emanation.</li>\n<li><strong>Turquoise</strong> Speak “clarity” to grant all affected a +2 status bonus to their next Will save for 1 minute.</li>\n<li><strong>Quartz</strong> (healing, positive) Speak “lenity” to have each creature regain 30 Hit Points.</li>\n<li><strong>Amethyst</strong> (divination, light, revelation) Speak “verity” to emit a magical trail of light from the lash that reveals the location of each creature in the emanation. For 1 round, if they would be @Compendium[pf2e.conditionitems.Invisible]{Invisible}, they become @Compendium[pf2e.conditionitems.Concealed]{Concealed} instead, and if they would be @Compendium[pf2e.conditionitems.Undetected]{Undetected} or @Compendium[pf2e.conditionitems.Unnoticed]{Unnoticed} by a creature, they're @Compendium[pf2e.conditionitems.Hidden]{Hidden} instead. A creature can attempt a <span data-pf2-check=\"stealth\" data-pf2-traits=\"apex,invested,magical,necromancy,divination,light,revelation\" data-pf2-label=\"Avoid Sage's Lash Detection DC\" data-pf2-dc=\"43\" data-pf2-show-dc=\"gm\">Stealth</span> check to avoid the lash's detection.</li>\n</ul>"
        },
        "equipped": {
            "value": false
        },
        "equippedBulk": {
            "value": ""
        },
        "hardness": {
            "value": 0
        },
        "hp": {
            "value": 0
        },
        "identification": {
            "misidentified": {},
            "status": "identified",
            "unidentified": {
                "data": {
                    "description": {
                        "value": ""
                    }
                },
                "img": "",
                "name": ""
            }
        },
        "invested": {
            "value": null
        },
        "level": {
            "value": 18
        },
        "maxHp": {
            "value": 0
        },
        "negateBulk": {
            "value": "0"
        },
        "preciousMaterial": {
            "value": null
        },
        "preciousMaterialGrade": {
            "value": null
        },
        "price": {
            "value": "24000 gp"
        },
        "quantity": {
            "value": 1
        },
        "rules": [
            {
                "key": "FlatModifier",
                "selector": "religion",
                "type": "item",
                "value": 3
            },
            {
                "key": "ActiveEffectLike",
                "mode": "add",
                "path": "data.abilities.wis.value",
                "value": 2
            },
            {
                "key": "ActiveEffectLike",
                "mode": "upgrade",
                "path": "data.abilities.wis.value",
                "value": 18
            }
        ],
        "size": {
            "value": "med"
        },
        "source": {
            "value": "Pathfinder Secrets of Magic"
        },
        "stackGroup": {
            "value": ""
        },
        "traits": {
            "custom": "",
            "rarity": "common",
            "value": [
                "apex",
                "invested",
                "magical",
                "necromancy"
            ]
        },
        "usage": {
            "value": "wornbelt"
        },
        "weight": {
            "value": "-"
        }
    },
    "effects": [],
    "flags": {},
    "img": "systems/pf2e/icons/default-icons/equipment.svg",
    "name": "Sage's Lash",
    "type": "equipment"
}
