{
    "_id": "RF12ziGVG9YKGaqU",
    "data": {
        "baseItem": null,
        "brokenThreshold": {
            "value": 0
        },
        "bulkCapacity": {
            "value": ""
        },
        "collapsed": {
            "value": false
        },
        "containerId": {
            "value": ""
        },
        "description": {
            "value": "<p>Each of these full-face masks is made of stitched materials — often including humanoid skin — and has a single, bulbous eye. While wearing the mask, you gain a +1 item bonus to Deception checks to Lie and the mask doesn't impair your vision. The mask can also be activated, with an ability based on its type.</p>\n<hr />\n<p>This featureless mask is made of thin, papery skin. Its single eye is a fragile bubble of venom-filled glass.</p>\n<hr />\n<p><strong>Activate</strong> <span class=\"pf2-icon\">2</span> Interact (divination)</p>\n<p><strong>Frequency</strong> once per day</p>\n<p><strong>Effect</strong> You twist the mask's eye and peer at an object. You know whether the object is poison or has been poisoned, but you don't learn the number or type of poisons present in the object.</p>"
        },
        "equipped": {
            "value": false
        },
        "equippedBulk": {
            "value": ""
        },
        "hardness": {
            "value": 0
        },
        "hp": {
            "value": 0
        },
        "identification": {
            "misidentified": {},
            "status": "identified",
            "unidentified": {
                "data": {
                    "description": {
                        "value": ""
                    }
                },
                "img": "",
                "name": ""
            }
        },
        "invested": {
            "value": false
        },
        "level": {
            "value": 3
        },
        "maxHp": {
            "value": 0
        },
        "negateBulk": {
            "value": "0"
        },
        "preciousMaterial": {
            "value": ""
        },
        "preciousMaterialGrade": {
            "value": ""
        },
        "price": {
            "value": "60 gp"
        },
        "quantity": {
            "value": 1
        },
        "rules": [
            {
                "key": "FlatModifier",
                "label": "Secret-Keeper's Mask",
                "predicate": {
                    "any": [
                        "action:lie"
                    ]
                },
                "selector": "deception",
                "type": "item",
                "value": 1
            }
        ],
        "size": {
            "value": "med"
        },
        "source": {
            "value": "Pathfinder GM's Toolkit: Secret Keeper's Mask"
        },
        "stackGroup": {
            "value": ""
        },
        "traits": {
            "custom": "",
            "rarity": "rare",
            "value": [
                "divination",
                "enchantment",
                "invested",
                "magical"
            ]
        },
        "usage": {
            "value": "wornmask"
        },
        "weight": {
            "value": "-"
        }
    },
    "effects": [],
    "flags": {},
    "img": "systems/pf2e/icons/equipment/worn-items/other-worn-items/secret-keepers-mask.webp",
    "name": "Secret-Keeper's Mask (Blackfingers)",
    "type": "equipment"
}
