{
    "_id": "jerA2fFiK5wb32r5",
    "data": {
        "baseItem": null,
        "brokenThreshold": {
            "value": 0
        },
        "bulkCapacity": {
            "value": ""
        },
        "collapsed": {
            "value": false
        },
        "containerId": {
            "value": ""
        },
        "description": {
            "value": "<p>Silver weapons are a bane to creatures ranging from devils to werewolves. Silver items are less durable than steel items, and low-grade silver items are usually merely silver-plated.</p><h2>Silver Items</h2>\n<table class=\"pf2-table\">\n<thead>\n<tr>\n<th>Silver Items</th>\n<th>Hardness\n</th>\n<th>HP</th>\n<th>BT</th>\n</tr>\n</thead>\n<tbody>\n<tr>\n<td>Thin Items</td>\n<td> </td>\n<td> </td>\n<td> </td>\n</tr>\n<tr>\n<td>Low-grade</td>\n<td>3</td>\n<td>12</td>\n<td>6</td>\n</tr>\n<tr>\n<td>Standard-grade</td>\n<td>5</td>\n<td>20</td>\n<td>10</td>\n</tr>\n<tr>\n<td>High-grade</td>\n<td>8</td>\n<td>32</td>\n<td>16</td>\n</tr>\n<tr>\n<td>Items</td>\n<td> </td>\n<td> </td>\n<td> </td>\n</tr>\n<tr>\n<td>Low-grade<strong></strong><p><strong></strong></p></td>\n<td>5</td>\n<td>20</td>\n<td>10</td>\n</tr>\n<tr>\n<td>Standard-grade<strong></strong><p><strong></strong></p></td>\n<td>7</td>\n<td>28</td>\n<td>14</td>\n</tr>\n<tr>\n<td>High-grade</td>\n<td>10</td>\n<td>40</td>\n<td>20</td>\n</tr>\n<tr>\n<td>Structure</td>\n<td> </td>\n<td> </td>\n<td> </td>\n</tr>\n<tr>\n<td>Low-grade<strong></strong><p><strong></strong></p></td>\n<td>10</td>\n<td>40</td>\n<td>20</td>\n</tr>\n<tr>\n<td>Standard-grade<strong></strong><p><strong></strong></p></td>\n<td>14</td>\n<td>56</td>\n<td>28</td>\n</tr>\n<tr>\n<td>High-grade</td>\n<td>20</td>\n<td>80</td>\n<td>40</td>\n</tr>\n</tbody>\n</table>"
        },
        "equipped": {
            "value": false
        },
        "equippedBulk": {
            "value": ""
        },
        "hardness": {
            "value": 0
        },
        "hp": {
            "value": 0
        },
        "identification": {
            "misidentified": {},
            "status": "identified",
            "unidentified": {
                "data": {
                    "description": {
                        "value": ""
                    }
                },
                "img": "",
                "name": ""
            }
        },
        "invested": {
            "value": false
        },
        "level": {
            "value": 0
        },
        "maxHp": {
            "value": 0
        },
        "negateBulk": {
            "value": "0"
        },
        "preciousMaterial": {
            "value": ""
        },
        "preciousMaterialGrade": {
            "value": ""
        },
        "price": {
            "value": "100 gp"
        },
        "quantity": {
            "value": 1
        },
        "rules": [],
        "size": {
            "value": "med"
        },
        "source": {
            "value": "Pathfinder Core Rulebook"
        },
        "stackGroup": {
            "value": ""
        },
        "traits": {
            "custom": "",
            "rarity": "common",
            "value": [
                "precious"
            ]
        },
        "usage": {
            "value": "held-in-one-hand"
        },
        "weight": {
            "value": "1"
        }
    },
    "effects": [],
    "flags": {},
    "img": "systems/pf2e/icons/equipment/materials/silver-ingot.webp",
    "name": "Silver Ingot",
    "type": "equipment"
}
