{
    "_id": "ul4LuDff24Kz9n7e",
    "data": {
        "MAP": {
            "value": ""
        },
        "baseItem": "composite-shortbow",
        "bonus": {
            "value": 0
        },
        "bonusDamage": {
            "value": 0
        },
        "brokenThreshold": {
            "value": 0
        },
        "bulkCapacity": {
            "value": ""
        },
        "category": "martial",
        "collapsed": {
            "value": false
        },
        "containerId": {
            "value": null
        },
        "damage": {
            "damageType": "piercing",
            "dice": 1,
            "die": "d6",
            "value": ""
        },
        "description": {
            "value": "<p>Rather than a normal bowstring, this <em>+3 greater striking greater thundering composite shortbow</em> has a string made of animal gut, much like a musical instrument's. When you shoot the bow, it releases a soft musical note: sonorous if your aim is true and discordant if your shot goes off-target.</p>\n<hr />\n<p><strong>Activate</strong> <span class=\"pf2-icon\">2</span> command (auditory)</p>\n<p><strong>Frequency</strong> once per hour</p>\n<p><strong>Effect</strong> You sing, hum, or whistle a note, and your bow provides appropriate accompaniment. Make a Strike with the bow. If it hits, the bow generates a magical effect determined by the note you sung, which has the traits indicated in parentheses. This affects every creature in a @Template[type:emanation|distance:10] from the creature you hit. As normal for an emanation, you choose whether the creature you hit is affected.</p>\n<ul>\n<li><strong>Song of Soothing</strong> (emotion, enchantment, healing, mental) Each creature regains [[/r {5d10}[healing]]]{5d10 Hit Points} and gains a +1 status bonus to saves against mental effects for 1 minute.</li>\n<li><strong>Song of Suffering</strong> (evocation, sonic) Each creature takes [[/r {5d10}[sonic]]]{5d10 sonic damage} with a <span data-pf2-check=\"fortitude\" data-pf2-traits=\"enchantment,magical,evocation,sonic\" data-pf2-label=\"Song of Suffering DC\" data-pf2-dc=\"38\" data-pf2-show-dc=\"gm\">basic Fortitude</span> save.</li>\n</ul>"
        },
        "equipped": {
            "value": false
        },
        "equippedBulk": {
            "value": ""
        },
        "group": "bow",
        "hands": {
            "value": false
        },
        "hardness": {
            "value": 0
        },
        "hp": {
            "value": 0
        },
        "identification": {
            "misidentified": {},
            "status": "identified",
            "unidentified": {
                "data": {
                    "description": {
                        "value": ""
                    }
                },
                "img": "",
                "name": ""
            }
        },
        "invested": {
            "value": null
        },
        "level": {
            "value": 18
        },
        "maxHp": {
            "value": 0
        },
        "negateBulk": {
            "value": "0"
        },
        "potencyRune": {
            "value": 2
        },
        "preciousMaterial": {
            "value": null
        },
        "preciousMaterialGrade": {
            "value": null
        },
        "price": {
            "value": "22500 gp"
        },
        "property1": {
            "critDamage": "",
            "critDamageType": "",
            "critDice": 0,
            "critDie": "",
            "criticalConditionType": "",
            "criticalConditionValue": null,
            "damageType": "",
            "dice": 0,
            "die": "",
            "strikeConditionType": "",
            "strikeConditionValue": null,
            "value": ""
        },
        "propertyRune1": {
            "value": "greaterThundering"
        },
        "propertyRune2": {
            "value": null
        },
        "propertyRune3": {
            "value": null
        },
        "propertyRune4": {
            "value": null
        },
        "quantity": {
            "value": 1
        },
        "range": 60,
        "reload": {
            "value": ""
        },
        "rules": [],
        "size": {
            "value": "med"
        },
        "source": {
            "value": "Pathfinder Secrets of Magic"
        },
        "specific": {
            "material": null,
            "runes": {
                "potency": 2,
                "striking": "greaterStriking"
            },
            "value": true
        },
        "splashDamage": {
            "value": 0
        },
        "stackGroup": {
            "value": ""
        },
        "strikingRune": {
            "value": "greaterStriking"
        },
        "traits": {
            "custom": "",
            "rarity": "common",
            "value": [
                "deadly-d10",
                "enchantment",
                "magical",
                "propulsive"
            ]
        },
        "usage": {
            "value": "held-in-one-plus-hands"
        },
        "weight": {
            "value": "1"
        }
    },
    "effects": [],
    "flags": {},
    "img": "systems/pf2e/icons/default-icons/weapon.svg",
    "name": "Singing Shortbow (Greater)",
    "type": "weapon"
}
