{
    "_id": "y49tnkAWZqJRMkba",
    "data": {
        "MAP": {
            "value": ""
        },
        "baseItem": "greatsword",
        "bonus": {
            "value": 0
        },
        "bonusDamage": {
            "value": 0
        },
        "brokenThreshold": {
            "value": 0
        },
        "bulkCapacity": {
            "value": ""
        },
        "category": "martial",
        "collapsed": {
            "value": false
        },
        "containerId": {
            "value": ""
        },
        "damage": {
            "damageType": "slashing",
            "dice": 1,
            "die": "d12",
            "value": ""
        },
        "description": {
            "value": "<p>This <em>+3 greater striking greater shock greatsword</em> has a broad, flat blade that can support the weight of a Medium-sized or smaller wielder. Magic allows the weapon to soar through the air, carrying its wielder along with it.</p>\n<hr />\n<p><strong>Activate</strong> <span class=\"pf2-icon\">1</span> command</p>\n<p><strong>Requirements</strong> You're holding the sword in at least one hand</p>\n<p><strong>Effect</strong> You leap upon your sword as it soars through the air. You gain a fly Speed of 25 feet or your land Speed, whichever is slower, but you can't Strike with your weapon except via the weapon's other activation (see below). You can Dismiss the activation, and it ends automatically if you cease holding the weapon with at least one hand.</p>\n<p>@Compendium[pf2e.equipment-effects.Effect: Skyrider Sword (Greater)]{Effect: Skyrider Sword (Greater)}</p>\n<hr />\n<p><strong>Activate</strong> <span class=\"pf2-icon\">2</span> Interact</p>\n<p><strong>Requirements</strong> You are riding on your weapon</p>\n<p><strong>Effect</strong> You ride your weapon into a foe, attacking it as you fly past. You Fly, making a melee Strike with the weapon once at any point during your movement.</p>"
        },
        "equipped": {
            "value": false
        },
        "equippedBulk": {
            "value": ""
        },
        "group": "sword",
        "hands": {
            "value": ""
        },
        "hardness": {
            "value": 0
        },
        "hp": {
            "value": 0
        },
        "identification": {
            "misidentified": {},
            "status": "identified",
            "unidentified": {
                "data": {
                    "description": {
                        "value": ""
                    }
                },
                "img": "",
                "name": ""
            }
        },
        "invested": {
            "value": false
        },
        "level": {
            "value": 19
        },
        "maxHp": {
            "value": 0
        },
        "negateBulk": {
            "value": "0"
        },
        "potencyRune": {
            "value": 3
        },
        "preciousMaterial": {
            "value": null
        },
        "preciousMaterialGrade": {
            "value": null
        },
        "price": {
            "value": "32000 gp"
        },
        "property1": {
            "critDamage": "",
            "critDamageType": "",
            "critDice": null,
            "critDie": "",
            "criticalConditionType": "",
            "criticalConditionValue": null,
            "damageType": "",
            "dice": null,
            "die": "",
            "strikeConditionType": "",
            "strikeConditionValue": null,
            "value": ""
        },
        "propertyRune1": {
            "value": "greaterShock"
        },
        "propertyRune2": {
            "value": null
        },
        "propertyRune3": {
            "value": null
        },
        "propertyRune4": {
            "value": null
        },
        "quantity": {
            "value": 1
        },
        "range": null,
        "reload": {
            "value": ""
        },
        "rules": [],
        "size": {
            "value": "med"
        },
        "source": {
            "value": "Pathfinder Lost Omens: The Grand Bazaar"
        },
        "specific": {
            "material": null,
            "runes": {
                "potency": 3,
                "striking": "greaterStriking"
            },
            "value": true
        },
        "splashDamage": {
            "value": 0
        },
        "stackGroup": {
            "value": ""
        },
        "strikingRune": {
            "value": "greaterStriking"
        },
        "traits": {
            "custom": "",
            "rarity": "common",
            "value": [
                "air",
                "magical",
                "transmutation",
                "versatile-p"
            ]
        },
        "usage": {
            "value": "held-in-two-hands"
        },
        "weight": {
            "value": "2"
        }
    },
    "effects": [],
    "flags": {},
    "img": "systems/pf2e/icons/equipment/weapons/greatsword.webp",
    "name": "Skyrider Sword (Greater)",
    "type": "weapon"
}
