{
    "_id": "gza0CcZEYhPKIYEk",
    "data": {
        "activation": {
            "condition": "",
            "cost": 0,
            "type": ""
        },
        "autoDestroy": {
            "_deprecated": true,
            "value": true
        },
        "autoUse": {
            "_deprecated": true,
            "value": true
        },
        "baseItem": null,
        "brokenThreshold": {
            "value": 0
        },
        "bulkCapacity": {
            "value": ""
        },
        "charges": {
            "_deprecated": true,
            "max": 1,
            "value": 1
        },
        "collapsed": {
            "value": false
        },
        "consumableType": {
            "value": "poison"
        },
        "consume": {
            "_deprecated": true,
            "value": ""
        },
        "containerId": {
            "value": null
        },
        "description": {
            "value": "<p>This gray mold can be found growing on the remains of venomous arachnids - particularly, giant spiders. Its lack of color and faint taste make it particularly suited for mixing into meals meant to poison an unwary feaster.</p>\n<hr />\n<p><strong>Activate</strong> <span class=\"pf2-icon\">t</span> Interact</p>\n<p><strong>Saving Throw</strong> <span data-pf2-check=\"fortitude\" data-pf2-traits=\"alchemical, consumable, ingested, poison\" data-pf2-label=\"Spider Mold\" data-pf2-dc=\"20\" data-pf2-show-dc=\"gm\">basic Fortitude</span></p>\n<p><strong>Onset</strong> 10 minutes</p>\n<p><strong>Maximum Duration</strong> 8 hours</p>\n<hr />\n<p><strong>Stage 1</strong> @Compendium[pf2e.conditionitems.Slowed]{Slowed 1} (1 round)</p>\n<p><strong>Stage 2</strong> @Compendium[pf2e.conditionitems.Slowed]{Slowed 2} and @Compendium[pf2e.conditionitems.Stupefied]{Stupefied 1} (1 round)</p>\n<p><strong>Stage 3</strong> @Compendium[pf2e.conditionitems.Paralyzed]{Paralyzed} and Stupefied 1 (1 round)</p>\n<p><strong>Stage 4</strong> @Compendium[pf2e.conditionitems.Unconscious]{Unconscious} with no Perception check to wake up ([[/r 1d4 #hours]]{1d4 hours}).</p>"
        },
        "duration": {
            "units": "",
            "value": null
        },
        "equipped": {
            "value": false
        },
        "equippedBulk": {
            "value": ""
        },
        "hardness": {
            "value": 0
        },
        "hp": {
            "value": 0
        },
        "identification": {
            "misidentified": {},
            "status": "identified",
            "unidentified": {
                "data": {
                    "description": {
                        "value": ""
                    }
                },
                "img": "",
                "name": ""
            }
        },
        "level": {
            "value": 4
        },
        "maxHp": {
            "value": 0
        },
        "negateBulk": {
            "value": "0"
        },
        "preciousMaterial": {
            "value": ""
        },
        "preciousMaterialGrade": {
            "value": ""
        },
        "price": {
            "value": "20 gp"
        },
        "quantity": {
            "value": 1
        },
        "range": {
            "long": null,
            "units": "",
            "value": null
        },
        "rules": [],
        "size": {
            "value": "med"
        },
        "source": {
            "value": ""
        },
        "spell": {
            "data": null,
            "heightenedLevel": null
        },
        "stackGroup": {
            "value": ""
        },
        "target": {
            "type": "",
            "units": "",
            "value": null
        },
        "traits": {
            "custom": "",
            "rarity": "uncommon",
            "value": [
                "alchemical",
                "consumable",
                "ingested",
                "poison"
            ]
        },
        "usage": {
            "value": "held-in-two-hands"
        },
        "uses": {
            "autoDestroy": true,
            "autoUse": true,
            "max": 0,
            "per": null,
            "value": 0
        },
        "weight": {
            "value": "L"
        }
    },
    "effects": [],
    "flags": {},
    "img": "systems/pf2e/icons/equipment/consumables/potions/white-dragons-breath-potion.webp",
    "name": "Spider Mold",
    "type": "consumable"
}
