{
    "_id": "FNNfdpu1SfZtLohQ",
    "data": {
        "baseItem": null,
        "brokenThreshold": {
            "value": 0
        },
        "bulkCapacity": {
            "value": ""
        },
        "collapsed": {
            "value": false
        },
        "containerId": {
            "value": ""
        },
        "description": {
            "value": "<p>This tattoo consists of numerous asterisks at regular intervals along the fingers of one hand, perfect for measuring stars against the horizon. When used against a clear night sky, the tattoo grants a +2 circumstance bonus to Survival checks to Sense Direction and counts as a compass for the purpose of that action.</p>\n<hr />\n<p><strong>Activate</strong> <span class=\"pf2-icon\">1</span> Interact (divination, metamagic)</p>\n<p><strong>Frequency</strong> once per day</p>\n<p><strong>Effect</strong> The dots of the tattoo turn to points of light and fly above the head of a creature within 30 feet, where they form a three-star constellation that guides your spells further than they could normally travel. The constellation sheds dim light and remains visible even if the creature hides, aiding in locating it. Furthermore, while the constellation lasts, if you @Compendium[pf2e.actionspf2e.Cast a Spell]{Cast a Spell} that has a range and that spell would affect only the marked creature, the spell's range is increased by 30 feet. As is standard for increasing spell ranges, if the spell normally has a range of touch, you extend its range to 30 feet. Each time you use this benefit, one of the stars above the creature's head winks out; when all three have winked out or after 1 minute has passed, the effect ends.</p>"
        },
        "equipped": {
            "value": false
        },
        "equippedBulk": {
            "value": ""
        },
        "hardness": {
            "value": 0
        },
        "hp": {
            "value": 0
        },
        "identification": {
            "misidentified": {},
            "status": "identified",
            "unidentified": {
                "data": {
                    "description": {
                        "value": ""
                    }
                },
                "img": "",
                "name": ""
            }
        },
        "invested": {
            "value": false
        },
        "level": {
            "value": 10
        },
        "maxHp": {
            "value": 0
        },
        "negateBulk": {
            "value": ""
        },
        "preciousMaterial": {
            "value": ""
        },
        "preciousMaterialGrade": {
            "value": ""
        },
        "price": {
            "value": "900 gp"
        },
        "quantity": {
            "value": 1
        },
        "rules": [
            {
                "key": "FlatModifier",
                "predicate": {
                    "all": [
                        "action:sense-direction"
                    ]
                },
                "selector": "survival",
                "type": "circumstance",
                "value": 2
            }
        ],
        "size": {
            "value": "med"
        },
        "source": {
            "value": "Pathfinder Lost Omens: Monsters of Myth"
        },
        "stackGroup": {
            "value": ""
        },
        "traits": {
            "custom": "",
            "rarity": "rare",
            "value": [
                "divination",
                "invested",
                "magical",
                "tattoo"
            ]
        },
        "usage": {
            "value": "tattooed-on-the-body"
        },
        "weight": {
            "value": "-"
        }
    },
    "effects": [],
    "flags": {},
    "img": "systems/pf2e/icons/spells/asterism.webp",
    "name": "Star Chart Tattoo",
    "type": "equipment"
}
