{
    "_id": "HAEz4sSa6OH6C7Cs",
    "data": {
        "activation": {
            "condition": "",
            "cost": 0,
            "type": ""
        },
        "autoDestroy": {
            "_deprecated": true,
            "value": true
        },
        "autoUse": {
            "_deprecated": true,
            "value": true
        },
        "baseItem": null,
        "brokenThreshold": {
            "value": 0
        },
        "bulkCapacity": {
            "value": ""
        },
        "charges": {
            "_deprecated": true,
            "max": 1,
            "value": 1
        },
        "collapsed": {
            "value": false
        },
        "consumableType": {
            "value": "potion"
        },
        "consume": {
            "_deprecated": true,
            "value": ""
        },
        "containerId": {
            "value": ""
        },
        "description": {
            "value": "<p>For 10 minutes after drinking this astringent potion, you can't intentionally lie and may be compelled to tell the truth. Upon drinking the potion, attempt a <span data-pf2-check=\"will\" data-pf2-dc=\"19\" data-pf2-traits=\"enchantment,magical,mental,potion\" data-pf2-label=\"Truth Potion DC\" data-pf2-show-dc=\"gm\">Will</span> save. You can voluntarily fail or critically fail.</p>\n<p><strong>Success</strong> The potion does not affect you.</p>\n<p><strong>Failure</strong> When you speak, you must tell the truth.</p>\n<p><strong>Critical Failure</strong> As failure, and when someone asks you a question, you must attempt another <span data-pf2-check=\"will\" data-pf2-dc=\"19\" data-pf2-traits=\"enchantment,magical,mental,potion\" data-pf2-label=\"Truth Potion DC\" data-pf2-show-dc=\"gm\">Will</span> saving throw. If you fail this saving throw, you must answer the question truthfully if you are able to do so; if you succeed, you are temporarily immune to further attempts to ask the same question within the potion's duration.</p>"
        },
        "duration": {
            "units": "",
            "value": null
        },
        "equipped": {
            "value": false
        },
        "equippedBulk": {
            "value": ""
        },
        "hardness": {
            "value": 0
        },
        "hp": {
            "value": 0
        },
        "identification": {
            "misidentified": {},
            "status": "identified",
            "unidentified": {
                "data": {
                    "description": {
                        "value": ""
                    }
                },
                "img": "",
                "name": ""
            }
        },
        "level": {
            "value": 6
        },
        "maxHp": {
            "value": 0
        },
        "negateBulk": {
            "value": "0"
        },
        "preciousMaterial": {
            "value": ""
        },
        "preciousMaterialGrade": {
            "value": ""
        },
        "price": {
            "value": "46 gp"
        },
        "quantity": {
            "value": 1
        },
        "range": {
            "long": null,
            "units": "",
            "value": null
        },
        "rules": [],
        "size": {
            "value": "med"
        },
        "source": {
            "value": "Pathfinder Core Rulebook"
        },
        "spell": {
            "data": null,
            "heightenedLevel": null
        },
        "stackGroup": {
            "value": ""
        },
        "target": {
            "type": "",
            "units": "",
            "value": null
        },
        "traits": {
            "custom": "",
            "rarity": "uncommon",
            "value": [
                "consumable",
                "enchantment",
                "magical",
                "mental",
                "potion"
            ]
        },
        "usage": {
            "value": "held-in-one-hand"
        },
        "uses": {
            "autoDestroy": true,
            "autoUse": true,
            "max": 0,
            "per": null,
            "value": 0
        },
        "weight": {
            "value": "L"
        }
    },
    "effects": [],
    "flags": {},
    "img": "systems/pf2e/icons/equipment/consumables/potions/truth-potion.webp",
    "name": "Truth Potion",
    "type": "consumable"
}
