{
    "_id": "ZW8W30XqgFf1KB3I",
    "data": {
        "baseItem": null,
        "brokenThreshold": {
            "value": 0
        },
        "bulkCapacity": {
            "value": ""
        },
        "collapsed": {
            "value": false
        },
        "containerId": {
            "value": null
        },
        "description": {
            "value": "<p>This chime features carvings of destructive runes. When activated, it creates the effects of a 3rd-level <em>@Compendium[pf2e.spells-srd.Sound Burst]{Sound Burst}</em> centered on you (<span data-pf2-check=\"fortitude\" data-pf2-traits=\"evocation,magical,sonic,uncommon\" data-pf2-label=\"Warcaller's Chime Sound Burst DC\" data-pf2-dc=\"20\" data-pf2-show-dc=\"all\">basic Fortitude</span> save). Instead of the spell's normal range, it has a @Template[type:emanation|distance:5]. In addition, creatures that critically fail their save are knocked @Compendium[pf2e.conditionitems.Prone]{Prone} by the chime's effect. You can use this chime once per day.</p>"
        },
        "equipped": {
            "value": false
        },
        "equippedBulk": {
            "value": ""
        },
        "hardness": {
            "value": 0
        },
        "hp": {
            "value": 0
        },
        "identification": {
            "misidentified": {},
            "status": "identified",
            "unidentified": {
                "data": {
                    "description": {
                        "value": ""
                    }
                },
                "img": "",
                "name": ""
            }
        },
        "invested": {
            "value": null
        },
        "level": {
            "value": 6
        },
        "maxHp": {
            "value": 0
        },
        "negateBulk": {
            "value": "0"
        },
        "preciousMaterial": {
            "value": null
        },
        "preciousMaterialGrade": {
            "value": null
        },
        "price": {
            "value": "250 gp"
        },
        "quantity": {
            "value": 1
        },
        "rules": [],
        "size": {
            "value": "med"
        },
        "source": {
            "value": "Pathfinder #170: Spoken on the Song Wind"
        },
        "stackGroup": {
            "value": ""
        },
        "traits": {
            "custom": "",
            "rarity": "uncommon",
            "value": [
                "evocation",
                "magical"
            ]
        },
        "usage": {
            "value": "held-in-one-hand"
        },
        "weight": {
            "value": "L"
        }
    },
    "effects": [],
    "flags": {},
    "img": "systems/pf2e/icons/default-icons/equipment.svg",
    "name": "Warcaller's Chime of Blasting",
    "type": "equipment"
}
