{
    "_id": "c0gjWASSeNIRNmEw",
    "data": {
        "baseItem": null,
        "brokenThreshold": {
            "value": 0
        },
        "bulkCapacity": {
            "value": ""
        },
        "collapsed": {
            "value": false
        },
        "containerId": {
            "value": ""
        },
        "description": {
            "value": "<p>This ring is utilitarian in design-indicating its martial use. Its band is decorated only with a simple, sharp-edged sculpture on the band's center. While wearing this ring, you add your level to your attack rolls with all weapons with which you are untrained.</p>\n<p><strong>Activate</strong> <span class=\"pf2-icon\">F</span> envision</p>\n<p><strong>Frequency</strong> once per day</p>\n<p><strong>Trigger</strong> You make an attack with a weapon in which you're untrained</p>\n<p><strong>Effect</strong> You gain a +2 circumstance bonus to the attack roll. If you are an expert in any weapon, you instead gain a +4 circumstance bonus to the attack roll.</p>\n<hr />\n<p>Automatically applied effects:</p>\n<ul>\n<li> Add your level to attack rolls with all weapons with which you are untrained</li>\n</ul>"
        },
        "equipped": {
            "value": false
        },
        "equippedBulk": {
            "value": ""
        },
        "hardness": {
            "value": 0
        },
        "hp": {
            "value": 0
        },
        "identification": {
            "misidentified": {},
            "status": "identified",
            "unidentified": {
                "data": {
                    "description": {
                        "value": ""
                    }
                },
                "img": "",
                "name": ""
            }
        },
        "invested": {
            "value": false
        },
        "level": {
            "value": 5
        },
        "maxHp": {
            "value": 0
        },
        "negateBulk": {
            "value": ""
        },
        "preciousMaterial": {
            "value": ""
        },
        "preciousMaterialGrade": {
            "value": ""
        },
        "price": {
            "value": "160 gp"
        },
        "quantity": {
            "value": 1
        },
        "rules": [
            {
                "key": "FlatModifier",
                "predicate": {
                    "all": [
                        "proficiency:untrained"
                    ],
                    "not": [
                        "unarmed"
                    ]
                },
                "selector": "mundane-attack",
                "type": "proficiency",
                "value": "@actor.level"
            }
        ],
        "size": {
            "value": "med"
        },
        "source": {
            "value": "Pathfinder Adventure: The Fall of Plaguestone"
        },
        "stackGroup": {
            "value": ""
        },
        "traits": {
            "custom": "",
            "rarity": "uncommon",
            "value": [
                "divination",
                "invested"
            ]
        },
        "usage": {
            "value": "worn"
        },
        "weight": {
            "value": "-"
        }
    },
    "effects": [],
    "flags": {},
    "img": "systems/pf2e/icons/equipment/worn-items/other-worn-items/warriors-training-ring.webp",
    "name": "Warrior's Training Ring",
    "type": "equipment"
}
