{
    "_id": "rn6KT8OMYUi0EuCN",
    "data": {
        "attributes": {
            "ac": {
                "value": 16
            },
            "hardness": 5,
            "hasHealth": true,
            "hp": {
                "details": "",
                "max": 20,
                "temp": 0,
                "tempmax": 0,
                "value": 20
            },
            "stealth": {
                "details": "<p>(trained)</p>",
                "value": 7
            }
        },
        "creatureType": "",
        "details": {
            "description": "<p>A pressure-sensitive floorboard connects to a beam holding up debris in the crawlway's ceiling.</p>",
            "disable": "<p><span data-pf2-check=\"thievery\" data-pf2-dc=\"15\" data-pf2-traits=\"mechanical,trap,hazard\" data-pf2-label=\"Disable Trap DC\" data-pf2-show-dc=\"gm\">Thievery</span> (trained) on the floorboard before the debris falls</p>",
            "isComplex": false,
            "level": {
                "value": 1
            },
            "reset": "",
            "routine": ""
        },
        "saves": {
            "fortitude": {
                "saveDetail": "",
                "value": 8
            },
            "reflex": {
                "saveDetail": "",
                "value": 2
            },
            "will": {
                "saveDetail": "",
                "value": 0
            }
        },
        "source": {
            "value": "Pathfinder Adventure: The Fall of Plaguestone"
        },
        "statusEffects": [],
        "traits": {
            "ci": [],
            "di": {
                "custom": "",
                "selected": {},
                "value": [
                    "critical-hits",
                    "object-immunities",
                    "precision"
                ]
            },
            "dr": [],
            "dv": [],
            "rarity": "common",
            "size": {
                "value": "med"
            },
            "traits": {
                "custom": "",
                "value": [
                    "mechanical",
                    "trap"
                ]
            }
        }
    },
    "effects": [],
    "flags": {},
    "img": "systems/pf2e/icons/default-icons/hazard.svg",
    "items": [
        {
            "_id": "HY2Pfqwkwhn3BmVF",
            "data": {
                "actionCategory": {
                    "value": ""
                },
                "actionType": {
                    "value": "reaction"
                },
                "actions": {
                    "value": null
                },
                "description": {
                    "value": "<p data-visibility=\"gm\"><strong>Trigger</strong> Pressure is placed on the floorboard.</p>\n<p><strong>Effect</strong> The ceiling in the crawlway collapses in the square where the passage turns, and also in the two adjacent squares. Anyone in these three squares takes [[/r {3d6}[bludgeoning]]]{3d6 bludgeoning damage} and can attempt a <span data-pf2-check=\"reflex\" data-pf2-dc=\"14\" data-pf2-traits=\"damaging-effect\" data-pf2-label=\"Falling Debris DC\" data-pf2-show-dc=\"gm\">Reflex</span> save to reduce the damage. For the creature in the center square, where the trap is triggered, this is a basic save. Creatures in the two adjacent squares take no damage on a success or critical success as they avoid the falling debris entirely, but take full damage on a failed save, and take double damage on a critical failure. Creatures that take damage from the debris are @Compendium[pf2e.conditionitems.Immobilized]{Immobilized}, trapped under the crushing weight.</p>\n<p>Clearing out a square of debris requires a successful <span data-pf2-check=\"athletics\" data-pf2-dc=\"17\" data-pf2-label=\"Clear Debris DC\" data-pf2-show-dc=\"gm\">Athletics</span> skill check, with the following effects.</p>\n<div data-visibility=\"gm\"><hr />\n<p><strong>Critical Success</strong> The square is cleared in 1 minute.</p>\n<p><strong>Success</strong> The square is cleared in 5 minutes.</p>\n<p><strong>Failure</strong> The square is cleared in 10 minutes.</p>\n<p><strong>Critical Failure</strong> The ceiling above the square collapses further, dealing an additional [[/r {2d6}[bludgeoning]]]{2d6 bludgeoning damage} to the character digging out the square and any character trapped in that square. This takes 1 minute and no progress is made.</p>\n</div>"
                },
                "requirements": {
                    "value": ""
                },
                "rules": [],
                "slug": null,
                "source": {
                    "value": ""
                },
                "traits": {
                    "custom": "",
                    "rarity": "common",
                    "value": []
                },
                "trigger": {
                    "value": ""
                },
                "weapon": {
                    "value": ""
                }
            },
            "effects": [],
            "flags": {},
            "img": "systems/pf2e/icons/actions/Reaction.webp",
            "name": "Falling Debris",
            "sort": 100000,
            "type": "action"
        }
    ],
    "name": "Falling Debris",
    "token": {
        "disposition": 0,
        "height": 1,
        "img": "systems/pf2e/icons/default-icons/hazard.svg",
        "name": "Falling Debris",
        "width": 1
    },
    "type": "hazard"
}
