{
    "_id": "3H1rBpUQwTcNd6xZ",
    "data": {
        "abilities": {
            "cha": {
                "mod": 2
            },
            "con": {
                "mod": 0
            },
            "dex": {
                "mod": 5
            },
            "int": {
                "mod": 4
            },
            "str": {
                "mod": -5
            },
            "wis": {
                "mod": 3
            }
        },
        "attributes": {
            "ac": {
                "details": "",
                "value": 23
            },
            "allSaves": {
                "value": ""
            },
            "hp": {
                "details": "negative healing, rejuvenation",
                "max": 64,
                "temp": 0,
                "value": 64
            },
            "initiative": {
                "ability": "perception"
            },
            "perception": {
                "value": 17
            },
            "speed": {
                "details": "",
                "otherSpeeds": [
                    {
                        "type": "fly",
                        "value": "25"
                    }
                ],
                "value": "0"
            }
        },
        "details": {
            "alignment": {
                "value": "CE"
            },
            "blurb": "Female drow ghost administrator",
            "creatureType": "",
            "level": {
                "value": 6
            },
            "privateNotes": "",
            "publicNotes": "",
            "source": {
                "value": "Pathfinder #163: Ruins of Gauntlight"
            }
        },
        "resources": {},
        "saves": {
            "fortitude": {
                "saveDetail": "",
                "value": 12
            },
            "reflex": {
                "saveDetail": "",
                "value": 17
            },
            "will": {
                "saveDetail": "",
                "value": 11
            }
        },
        "traits": {
            "ci": [],
            "di": {
                "custom": "",
                "value": [
                    "death-effects",
                    "disease",
                    "paralyzed",
                    "poison",
                    "precision",
                    "unconscious"
                ]
            },
            "dr": [
                {
                    "exceptions": "except force, ghost touch, or positive; double resistance vs. non-magical",
                    "type": "all",
                    "value": 7
                }
            ],
            "dv": [],
            "languages": {
                "custom": "",
                "selected": [],
                "value": [
                    "common",
                    "elven",
                    "undercommon"
                ]
            },
            "rarity": "unique",
            "senses": {
                "value": "darkvision"
            },
            "size": {
                "value": "med"
            },
            "traits": {
                "custom": "",
                "value": [
                    "ghost",
                    "incorporeal",
                    "spirit",
                    "undead"
                ]
            }
        }
    },
    "effects": [],
    "flags": {},
    "img": "systems/pf2e/icons/default-icons/npc.svg",
    "items": [
        {
            "_id": "WersQyXKosWIiXXl",
            "data": {
                "attack": {
                    "value": ""
                },
                "attackEffects": {
                    "value": []
                },
                "bonus": {
                    "value": 16
                },
                "damageRolls": {
                    "17ohyj12v5eupw9hfteg": {
                        "damage": "3d8+4",
                        "damageType": "negative"
                    }
                },
                "description": {
                    "value": ""
                },
                "rules": [],
                "slug": null,
                "source": {
                    "value": ""
                },
                "traits": {
                    "custom": "",
                    "rarity": "common",
                    "value": [
                        "agile",
                        "finesse",
                        "magical"
                    ]
                },
                "weaponType": {
                    "value": "melee"
                }
            },
            "effects": [],
            "flags": {},
            "img": "systems/pf2e/icons/default-icons/melee.svg",
            "name": "Ghostly Hand",
            "sort": 100000,
            "type": "melee"
        },
        {
            "_id": "CpXxvpsrf7rcrJM4",
            "data": {
                "actionCategory": {
                    "value": "interaction"
                },
                "actionType": {
                    "value": "passive"
                },
                "actions": {
                    "value": null
                },
                "description": {
                    "value": "<p>@Localize[PF2E.NPC.Abilities.Glossary.Darkvision]</p>"
                },
                "requirements": {
                    "value": ""
                },
                "rules": [],
                "slug": "darkvision",
                "source": {
                    "value": ""
                },
                "traits": {
                    "custom": "",
                    "rarity": "common",
                    "value": []
                },
                "trigger": {
                    "value": ""
                },
                "weapon": {
                    "value": ""
                }
            },
            "effects": [],
            "flags": {
                "core": {
                    "sourceId": "Compendium.pf2e.bestiary-ability-glossary-srd.qCCLZhnp2HhP3Ex6"
                }
            },
            "img": "systems/pf2e/icons/actions/Passive.webp",
            "name": "Darkvision",
            "sort": 200000,
            "type": "action"
        },
        {
            "_id": "yJdnNORoa1KtMM7W",
            "data": {
                "actionCategory": {
                    "value": "interaction"
                },
                "actionType": {
                    "value": "passive"
                },
                "actions": {
                    "value": null
                },
                "description": {
                    "value": "<p>Area <strong>C36</strong> and <strong>C37</strong>.</p>\n<hr />\n<p>A typical ghost can stray only a short distance from where it was killed or the place it haunts. A typical limit is 120 feet. Some ghosts are instead bound to a room, building, item, or creature that was special to it rather than a location.</p>"
                },
                "requirements": {
                    "value": ""
                },
                "rules": [],
                "slug": "ghost-site-bound",
                "source": {
                    "value": ""
                },
                "traits": {
                    "custom": "",
                    "rarity": "common",
                    "value": []
                },
                "trigger": {
                    "value": ""
                },
                "weapon": {
                    "value": ""
                }
            },
            "effects": [],
            "flags": {
                "core": {
                    "sourceId": "Compendium.pf2e.bestiary-family-ability-glossary.BcSlVpaN72LoQ5BV"
                }
            },
            "img": "systems/pf2e/icons/actions/Passive.webp",
            "name": "Site Bound",
            "sort": 300000,
            "type": "action"
        },
        {
            "_id": "smJkeUn705exUfuJ",
            "data": {
                "actionCategory": {
                    "value": "defensive"
                },
                "actionType": {
                    "value": "passive"
                },
                "actions": {
                    "value": null
                },
                "description": {
                    "value": "<p>@Localize[PF2E.NPC.Abilities.Glossary.NegativeHealing]</p>"
                },
                "requirements": {
                    "value": ""
                },
                "rules": [
                    {
                        "key": "ActiveEffectLike",
                        "mode": "override",
                        "path": "data.attributes.hp.negativeHealing",
                        "value": true
                    }
                ],
                "slug": "negative-healing",
                "source": {
                    "value": ""
                },
                "traits": {
                    "custom": "",
                    "rarity": "common",
                    "value": []
                },
                "trigger": {
                    "value": ""
                },
                "weapon": {
                    "value": ""
                }
            },
            "effects": [],
            "flags": {
                "core": {
                    "sourceId": "Compendium.pf2e.bestiary-ability-glossary-srd.TTCw5NusiSSkJU1x"
                }
            },
            "img": "systems/pf2e/icons/actions/Passive.webp",
            "name": "Negative Healing",
            "sort": 400000,
            "type": "action"
        },
        {
            "_id": "rGX35xgDAZROYYQF",
            "data": {
                "actionCategory": {
                    "value": "defensive"
                },
                "actionType": {
                    "value": "passive"
                },
                "actions": {
                    "value": null
                },
                "description": {
                    "value": "<p>To put Chandriu to rest permanently, a hero must convince her to stop pining over Volluk with a successful <span data-pf2-check=\"diplomacy\" data-pf2-dc=\"21\" data-pf2-traits=\"divine,necromancy\" data-pf2-label=\"Convince Chandriu DC\" data-pf2-show-dc=\"gm\">Diplomacy</span> check.</p>\n<p data-visibility=\"gm\">Regardless of the result of this check, Chandriu flies into a rage and attacks, but if the Diplomacy check is successful, she is @Compendium[pf2e.conditionitems.Slowed]{Slowed 1} for 10 rounds while she fights. If defeated while she is slowed, she is put to rest.</p>\n<hr />\n<p>When a ghost is destroyed, it re-forms after [[/br 2d4 #days]]{2d4 days} within the location it's bound to, fully healed. A ghost can be permanently destroyed only if someone determines the reason for its existence and sets right whatever prevents the spirit from resting.</p>"
                },
                "requirements": {
                    "value": ""
                },
                "rules": [],
                "slug": "ghost-rejuvenation",
                "source": {
                    "value": ""
                },
                "traits": {
                    "custom": "",
                    "rarity": "common",
                    "value": [
                        "divine",
                        "necromancy"
                    ]
                },
                "trigger": {
                    "value": ""
                },
                "weapon": {
                    "value": ""
                }
            },
            "effects": [],
            "flags": {
                "core": {
                    "sourceId": "Compendium.pf2e.bestiary-family-ability-glossary.unR8VVR4yyRnsmnB"
                }
            },
            "img": "systems/pf2e/icons/actions/Passive.webp",
            "name": "Rejuvenation",
            "sort": 500000,
            "type": "action"
        },
        {
            "_id": "Pgdez88Zqu0dqgGI",
            "data": {
                "actionCategory": {
                    "value": "offensive"
                },
                "actionType": {
                    "value": "action"
                },
                "actions": {
                    "value": 2
                },
                "description": {
                    "value": "<p>Chandriu wails in despair at her loss and betrayal, forcing each living creature within 30 feet to attempt a <span data-pf2-check=\"will\" data-pf2-dc=\"24\" data-pf2-traits=\"auditory,divine,emotion,enchantment,mental\" data-pf2-label=\"Despairing Cry DC\" data-pf2-show-dc=\"gm\">Will</span> save.</p>\n<p data-visibility=\"gm\">On a failure, a creature becomes @Compendium[pf2e.conditionitems.Slowed]{Slowed 1} (@Compendium[pf2e.conditionitems.Slowed]{Slowed 2} on a critical failure) for 1 round as they are overcome with sadness over their own missed opportunities. On a success, a creature is temporarily immune to Chandriu's Despairing Cry for 1 minute.</p>"
                },
                "requirements": {
                    "value": ""
                },
                "rules": [],
                "slug": null,
                "source": {
                    "value": ""
                },
                "traits": {
                    "custom": "",
                    "rarity": "common",
                    "value": [
                        "auditory",
                        "divine",
                        "emotion",
                        "enchantment",
                        "mental"
                    ]
                },
                "trigger": {
                    "value": ""
                },
                "weapon": {
                    "value": ""
                }
            },
            "effects": [],
            "flags": {},
            "img": "systems/pf2e/icons/actions/TwoActions.webp",
            "name": "Despairing Cry",
            "sort": 600000,
            "type": "action"
        },
        {
            "_id": "41bzyFqCaaL6LCZF",
            "data": {
                "description": {
                    "value": ""
                },
                "item": {
                    "value": 0
                },
                "mod": {
                    "value": 18
                },
                "proficient": {
                    "value": 0
                },
                "rules": [],
                "slug": null,
                "source": {
                    "value": ""
                },
                "traits": {
                    "custom": "",
                    "rarity": "common",
                    "value": []
                }
            },
            "effects": [],
            "flags": {},
            "img": "systems/pf2e/icons/default-icons/lore.svg",
            "name": "Scriptorium Lore",
            "sort": 700000,
            "type": "lore"
        },
        {
            "_id": "a08Gf29QPITHX7mo",
            "data": {
                "description": {
                    "value": ""
                },
                "item": {
                    "value": 0
                },
                "mod": {
                    "value": 18
                },
                "proficient": {
                    "value": 0
                },
                "rules": [],
                "slug": null,
                "source": {
                    "value": ""
                },
                "traits": {
                    "custom": "",
                    "rarity": "common",
                    "value": []
                }
            },
            "effects": [],
            "flags": {},
            "img": "systems/pf2e/icons/default-icons/lore.svg",
            "name": "Scriptorium Lore",
            "sort": 800000,
            "type": "lore"
        },
        {
            "_id": "zYG8EuV0zKNI1RWM",
            "data": {
                "description": {
                    "value": ""
                },
                "item": {
                    "value": 0
                },
                "mod": {
                    "value": 16
                },
                "proficient": {
                    "value": 0
                },
                "rules": [],
                "slug": null,
                "source": {
                    "value": ""
                },
                "traits": {
                    "custom": "",
                    "rarity": "common",
                    "value": []
                }
            },
            "effects": [],
            "flags": {},
            "img": "systems/pf2e/icons/default-icons/lore.svg",
            "name": "Society",
            "sort": 900000,
            "type": "lore"
        },
        {
            "_id": "CMa1dfaIpWa90Qch",
            "data": {
                "description": {
                    "value": ""
                },
                "item": {
                    "value": 0
                },
                "mod": {
                    "value": 15
                },
                "proficient": {
                    "value": 0
                },
                "rules": [],
                "slug": null,
                "source": {
                    "value": ""
                },
                "traits": {
                    "custom": "",
                    "rarity": "common",
                    "value": []
                }
            },
            "effects": [],
            "flags": {},
            "img": "systems/pf2e/icons/default-icons/lore.svg",
            "name": "Stealth",
            "sort": 1000000,
            "type": "lore"
        }
    ],
    "name": "Chandriu Invisar",
    "token": {
        "disposition": -1,
        "height": 1,
        "img": "systems/pf2e/icons/default-icons/npc.svg",
        "name": "Chandriu Invisar",
        "width": 1
    },
    "type": "npc"
}
