{
    "_id": "s8Ofcsub5QJJmgA5",
    "data": {
        "attributes": {
            "ac": {
                "value": 0
            },
            "hardness": 0,
            "hasHealth": true,
            "hp": {
                "details": "",
                "max": 0,
                "temp": 0,
                "value": 0
            },
            "stealth": {
                "details": "<p>DC 30 (expert)</p>",
                "value": 20
            }
        },
        "creatureType": "",
        "details": {
            "description": "<p>The fog solidifies into tiny, gnawing creatures that devour everyone within before fading back into mist.</p>",
            "disable": "<p>DC 28 Survival (expert) to disrupt the fog before the hazard triggers or <em>@Compendium[pf2e.spells-srd.Dispel Magic]{Dispel Magic}</em> (5th level; counteract DC 26) to counteract the magic.</p>",
            "isComplex": false,
            "level": {
                "value": 9
            },
            "reset": "<p>The hazard resets over the course of an hour as the daemonic stain reenergizes the fog.</p>",
            "routine": ""
        },
        "saves": {
            "fortitude": {
                "saveDetail": "",
                "value": 0
            },
            "reflex": {
                "saveDetail": "",
                "value": 0
            },
            "will": {
                "saveDetail": "",
                "value": 0
            }
        },
        "source": {
            "value": "Pathfinder #165: Eyes of Empty Death"
        },
        "statusEffects": [],
        "traits": {
            "ci": [],
            "di": {
                "custom": "",
                "selected": {},
                "value": []
            },
            "dr": [],
            "dv": [],
            "rarity": "common",
            "size": {
                "value": "med"
            },
            "traits": {
                "custom": "",
                "value": [
                    "environmental",
                    "magical"
                ]
            }
        }
    },
    "effects": [],
    "flags": {},
    "img": "systems/pf2e/icons/default-icons/hazard.svg",
    "items": [
        {
            "_id": "FteyjzEwACt18LfC",
            "data": {
                "actionCategory": {
                    "value": "offensive"
                },
                "actionType": {
                    "value": "reaction"
                },
                "actions": {
                    "value": null
                },
                "description": {
                    "value": "<p data-visibility=\"gm\"><strong>Trigger</strong> A creature crosses the cavern's midpoint (the dotted line on the map)</p>\n<p><strong>Effect</strong> The hazard deals [[/r {9d6}[piercing]]]{9d6 piercing damage} (<span data-pf2-check=\"reflex\" data-pf2-dc=\"32\" data-pf2-traits=\"divine,evocation,damaging-effect\" data-pf2-label=\"Gnawing Fog DC\" data-pf2-show-dc=\"gm\">basic Reflex</span> save) to the triggering creature and all other non‑fiend creatures within 20 feet. A creature that critically fails the saving throw is confused for [[/br 1d4 #rounds]]{1d4 rounds}.</p>"
                },
                "requirements": {
                    "value": ""
                },
                "rules": [],
                "slug": null,
                "source": {
                    "value": ""
                },
                "traits": {
                    "custom": "",
                    "rarity": "common",
                    "value": [
                        "divine",
                        "evocation"
                    ]
                },
                "trigger": {
                    "value": ""
                },
                "weapon": {
                    "value": ""
                }
            },
            "effects": [],
            "flags": {},
            "img": "systems/pf2e/icons/actions/Reaction.webp",
            "name": "Gnawing Fog",
            "sort": 100000,
            "type": "action"
        }
    ],
    "name": "Daemonic Fog",
    "token": {
        "disposition": 0,
        "height": 1,
        "img": "systems/pf2e/icons/default-icons/hazard.svg",
        "name": "Daemonic Fog",
        "width": 1
    },
    "type": "hazard"
}
