{
    "_id": "UXBOvlJbnI76UoGp",
    "data": {
        "actionCategory": {
            "value": ""
        },
        "actionType": {
            "value": "passive"
        },
        "actions": {
            "value": null
        },
        "description": {
            "value": "<p>Your body is inured to the devastation inflicted by natural forces. You gain resistance to electricity damage equal to your level. You don't treat wind as difficult terrain or greater difficult terrain while flying, and you can't be moved by wind unless you choose to be. You gain a +1 status bonus to saves against primal magic. In addition, you can absorb this reinvigorating energy into your body to gain the following effect.</p>\n<hr />\n<p><strong>Activate</strong> <span class=\"pf2-icon\">2</span> envision</p>\n<p><strong>Frequency</strong> once per day</p>\n<p><strong>Effect</strong> You cast <em>@Compendium[pf2e.spells-srd.Moment of Renewal]{Moment of Renewal}</em> (self only) as an 8th-level divine innate spell and regain 1 Focus Point.</p>"
        },
        "featType": {
            "value": "deityboon"
        },
        "level": {
            "value": 17
        },
        "location": "",
        "prerequisites": {
            "value": []
        },
        "rules": [
            {
                "key": "FlatModifier",
                "predicate": {
                    "all": [
                        "primal"
                    ]
                },
                "selector": "saving-throw",
                "type": "status",
                "value": 1
            }
        ],
        "source": {
            "value": "Pathfinder #155: Lord of the Black Sands"
        },
        "traits": {
            "custom": "",
            "rarity": "common",
            "value": [
                "air",
                "electricity",
                "magical",
                "transmutation"
            ]
        }
    },
    "effects": [],
    "flags": {},
    "img": "systems/pf2e/icons/spells/chain-lightning.webp",
    "name": "Resonant Reflection: Reflection of Storm",
    "type": "feat"
}
