{
    "_id": "64x0nZk3QlENAgUU",
    "data": {
        "attributes": {
            "ac": {
                "value": 0
            },
            "hardness": 0,
            "hasHealth": false,
            "hp": {
                "details": "",
                "max": 0,
                "temp": 0,
                "value": 0
            },
            "stealth": {
                "details": "<p>(expert)</p>",
                "value": 20
            }
        },
        "creatureType": "",
        "details": {
            "description": "<p>High winds and forest fires intensified by Abyssal energy batters everything in the surge's path.</p>",
            "disable": "<p>@Check[type:arcana|traits:rare,fire,environmental,hazard,magical|name:Redirect the Storm Surge|dc:27], @Check[type:nature|traits:rare,fire,environmental,hazard,magical|name:Redirect the Storm Surge|dc:27], @Check[type:occultism|traits:rare,fire,environmental,hazard,magical|name:Redirect the Storm Surge|dc:27], or @Check[type:religion|traits:rare,fire,environmental,hazard,magical|name:Redirect the Storm Surge|dc:27] (trained) to redirect the storm surge or <em>@Compendium[pf2e.spells-srd.Dispel Magic]{Dispel Magic}</em> (4th level, counteract DC 23) to nullify it.</p>",
            "isComplex": false,
            "level": {
                "value": 7
            },
            "reset": "",
            "routine": ""
        },
        "flavourText": "",
        "recallKnowledgeText": "",
        "saves": {
            "fortitude": {
                "saveDetail": "",
                "value": 0
            },
            "reflex": {
                "saveDetail": "",
                "value": 0
            },
            "will": {
                "saveDetail": "",
                "value": 0
            }
        },
        "sidebarText": "",
        "source": {
            "value": "Pathfinder Society Scenario 2-24: Breaking The Storm: Parting Clouds"
        },
        "statusEffects": [],
        "traits": {
            "ci": [],
            "di": {
                "custom": "",
                "selected": {},
                "value": []
            },
            "dr": [],
            "dv": [],
            "rarity": "rare",
            "size": {
                "value": "med"
            },
            "traits": {
                "custom": "",
                "value": [
                    "environmental",
                    "fire",
                    "magical"
                ]
            }
        }
    },
    "effects": [],
    "flags": {},
    "img": "systems/pf2e/icons/default-icons/hazard.svg",
    "items": [
        {
            "_id": "kkd7rt71dwi8fo32",
            "data": {
                "actionCategory": {
                    "value": "offensive"
                },
                "actionType": {
                    "value": "reaction"
                },
                "actions": {
                    "value": null
                },
                "description": {
                    "value": "<p>The storm of wind and fire suddenly surges over everyone in the area. When this hazard activates, roll [[/r 1d10]] to determine the effect and type of damage.</p>\n<ul>\n<li><strong>1-2 Firestorm</strong> Embers and burning debris gets whipped around as the wind suddenly shifts direction, dealing [[/r {1d10}[bludgeoning]+{1d10+13}[fire]]]{1d10 bludgeoning damage and 1d10+13 fire damage} (@Check[type:reflex|traits:damaging-effect|name:Avoid Firestorm|dc:25|basic:true] save).</li>\n<li><strong>3-4 Battering Debris</strong> Wreckage rains down throughout the area, dealing [[/r {2d10+13}[bludgeoning]]]{2d10+13 bludgeoning damage} (@Check[type:fortitude|traits:damaging-effect|name:Avoid Battering Debris|dc:25|basic:true] save).</li>\n<li><strong>5-6 Abyssal Energy</strong> The storm blows about debris that has absorbed Abyssal energies. Creatures who come into contact with this debris are exposed to Abyssal plague.</li>\n<li><strong>7-8 Sharp Rain</strong> The storm picks up various objects, some of which are particularly sharp. The storm deals [[/r {1d10}[bludgeoning]+{1d10+13}[piercing]]]{1d10 bludgeoning damage and 1d10+13 piercing damage} (@Check[type:reflex|traits:damaging-effect|name:Avoid Sharp Rain|dc:25|basic:true] save).</li>\n<li><strong>9-10 Soot Storm</strong> Large amounts of soot blow in on the wind. The soot moves with supernatural malice, seeking out the lungs of any creatures caught nearby. Any creature that needs to breathe must succeed at a @Check[type:fortitude|traits:inhaled|name:Avoid Soot Storm|dc:25] save or become @Compendium[pf2e.conditionitems.Sickened]{Sickened 1} (sickened 2 on a critical failure). The sickened condition can't end or be reduced until a creature has spent 10 minutes breathing clean air.</li>\n</ul>"
                },
                "requirements": {
                    "value": ""
                },
                "rules": [],
                "slug": null,
                "source": {
                    "value": ""
                },
                "traits": {
                    "custom": "",
                    "rarity": "common",
                    "value": []
                },
                "trigger": {
                    "value": ""
                }
            },
            "effects": [],
            "flags": {},
            "img": "systems/pf2e/icons/actions/Reaction.webp",
            "name": "Surge",
            "sort": 0,
            "type": "action"
        },
        {
            "_id": "GuZkQ33QXAHRpoEM",
            "data": {
                "actionCategory": {
                    "value": "interaction"
                },
                "actionType": {
                    "value": "passive"
                },
                "actions": {
                    "value": null
                },
                "description": {
                    "value": "<p><strong>Level 7</strong></p>\n<p>A creeping malaise overcomes the afflicted, whose skin develops a sickly pallor.</p>\n<hr />\n<p><strong>Saving Throw</strong> @Check[type:fortitude|traits:disease|name:Resist Abyssal Plague|dc:25];</p>\n<div data-visibility=\"gm\">\n<p><strong>Stage 1</strong> @Compendium[pf2e.conditionitems.Drained]{Drained 1} (1 day);</p>\n<p><strong>Stage 2</strong> @Compendium[pf2e.conditionitems.Drained]{Drained 3} (1 day);</p>\n<p>The target can't recover from the drained condition from Abyssal plague until the disease is cured.</p>\n</div>"
                },
                "requirements": {
                    "value": ""
                },
                "rules": [],
                "slug": null,
                "source": {
                    "value": ""
                },
                "traits": {
                    "custom": "",
                    "rarity": "common",
                    "value": [
                        "disease"
                    ]
                },
                "trigger": {
                    "value": ""
                }
            },
            "effects": [],
            "flags": {},
            "img": "systems/pf2e/icons/actions/Passive.webp",
            "name": "Abyssal Plague",
            "sort": 0,
            "type": "action"
        }
    ],
    "name": "Abyssal Firestorm Surge (7-8)",
    "token": {
        "disposition": 0,
        "height": 1,
        "img": "systems/pf2e/icons/default-icons/npc.svg",
        "name": "Abyssal Firestorm Surge",
        "width": 1
    },
    "type": "hazard"
}
