{
    "_id": "NioUzYo4svyO981f",
    "data": {
        "attributes": {
            "ac": {
                "value": 0
            },
            "hardness": 0,
            "hasHealth": true,
            "hp": {
                "details": "",
                "max": 0,
                "temp": 0,
                "value": 0
            },
            "stealth": {
                "details": "<p>(expert)</p>",
                "value": 8
            }
        },
        "creatureType": "",
        "details": {
            "description": "<p>The room shakes violently, as it did during the Rending, and the spirits of dozens of dwarves make a mad dash for safety, their terror palpable.</p>",
            "disable": "<p><span data-pf2-check=\"diplomacy\" data-pf2-traits=\"unique,complex,haunt\" data-pf2-label=\"Calm the Spirits DC\" data-pf2-dc=\"18\" data-pf2-show-dc=\"gm\">Diplomacy</span>, <span data-pf2-check=\"intimidation\" data-pf2-traits=\"unique,complex,haunt\" data-pf2-label=\"Calm the Spirits DC\" data-pf2-dc=\"18\" data-pf2-show-dc=\"gm\">Intimidation</span>, or <span data-pf2-check=\"religion\" data-pf2-traits=\"unique,complex,haunt\" data-pf2-label=\"Calm the Spirits DC\" data-pf2-dc=\"18\" data-pf2-show-dc=\"gm\">Religion</span> to calm the panicked spirits, or <span data-pf2-check=\"athletics\" data-pf2-traits=\"unique,complex,haunt\" data-pf2-label=\"Wrestle Spirits into Order DC\" data-pf2-dc=\"20\" data-pf2-show-dc=\"gm\">Athletics</span> to wrestle them into a semblance of order. Two successful checks are required to deactivate the haunt, and each attempt requires two actions.</p>",
            "isComplex": true,
            "level": {
                "value": 2
            },
            "reset": "<p>Unless deactivated, the haunt deactivates 1 minute after all creatures leave the area but resets immediately thereafter. If deactivated, the haunt resets after 24 hours.</p>",
            "routine": "<p><span class=\"pf2-icon\">1</span> Phantom dwarves trample toward the exit, dealing [[/r {1d10+4}[bludgeoning]]]{1d10+4 bludgeoning damage} to each living creature in the area (<span data-pf2-check=\"reflex\" data-pf2-traits=\"complex,haunt,unique,damaging-effect\" data-pf2-label=\"Trampled by Spirits DC\" data-pf2-dc=\"20\" data-pf2-show-dc=\"gm\">basic Reflex</span> save). On a critical failure, a creature is also knocked @Compendium[pf2e.conditionitems.Prone]{Prone}.</p>\n<p>A creature that attempts to Stand after being inside the haunt's area must succeed at a <span data-pf2-check=\"flat\" data-pf2-dc=\"11\">DC 11 flat check</span> or else get knocked back down by the trampling spirits.</p>"
        },
        "saves": {
            "fortitude": {
                "saveDetail": "",
                "value": 0
            },
            "reflex": {
                "saveDetail": "",
                "value": 0
            },
            "will": {
                "saveDetail": "",
                "value": 0
            }
        },
        "source": {
            "value": "Pathfinder Society Scenario 2-19: Enter the Pallid Peak"
        },
        "statusEffects": [],
        "traits": {
            "ci": [],
            "di": {
                "custom": "",
                "selected": {},
                "value": []
            },
            "dr": [],
            "dv": [],
            "rarity": "unique",
            "size": {
                "value": "med"
            },
            "traits": {
                "custom": "",
                "value": [
                    "haunt"
                ]
            }
        }
    },
    "effects": [],
    "flags": {},
    "img": "systems/pf2e/icons/default-icons/hazard.svg",
    "items": [
        {
            "_id": "NM9kJLBc7AQTbD0I",
            "data": {
                "actionCategory": {
                    "value": "offensive"
                },
                "actionType": {
                    "value": "reaction"
                },
                "actions": {
                    "value": null
                },
                "description": {
                    "value": "<p data-visibility=\"gm\"><strong>Trigger</strong> A living creature approaches within 10 feet of the lava</p>\n<p><strong>Effect</strong> The room rumbles and a blast of heat hits each creature in the area, followed by a surge of fear. The creatures must attempt a <span data-pf2-check=\"will\" data-pf2-traits=\"emotion,enchantment,fear,mental\" data-pf2-label=\"Eruption DC\" data-pf2-dc=\"18\" data-pf2-show-dc=\"gm\">Will</span> save, and the haunt rolls initiative.</p>\n<div data-visibility=\"gm\">\n<p><strong>Critical Success</strong> The creature is unaffected.</p>\n<p><strong>Success</strong> The creature is @Compendium[pf2e.conditionitems.Frightened]{Frightened 1}.</p>\n<p><strong>Failure</strong> The creature is @Compendium[pf2e.conditionitems.Frightened]{Frightened 2}.</p>\n<p><strong>Critical Failure</strong> The creature is frightened 2 and is @Compendium[pf2e.conditionitems.Fleeing]{Fleeing} for 1 round.</p>\n</div>"
                },
                "requirements": {
                    "value": ""
                },
                "rules": [],
                "slug": null,
                "source": {
                    "value": ""
                },
                "traits": {
                    "custom": "",
                    "rarity": "common",
                    "value": [
                        "emotion",
                        "enchantment",
                        "fear",
                        "mental"
                    ]
                },
                "trigger": {
                    "value": ""
                }
            },
            "effects": [],
            "flags": {},
            "img": "systems/pf2e/icons/actions/Reaction.webp",
            "name": "Eruption",
            "sort": 0,
            "type": "action"
        }
    ],
    "name": "Relive the Rending (1-2)",
    "token": {
        "disposition": 0,
        "height": 1,
        "img": "systems/pf2e/icons/default-icons/hazard.svg",
        "name": "Relive the Rending",
        "width": 1
    },
    "type": "hazard"
}
