{
    "_id": "01alXdlOUvAC6woS",
    "data": {
        "abilities": {
            "cha": {
                "mod": -1
            },
            "con": {
                "mod": 4
            },
            "dex": {
                "mod": 2
            },
            "int": {
                "mod": -4
            },
            "str": {
                "mod": 3
            },
            "wis": {
                "mod": 1
            }
        },
        "attributes": {
            "ac": {
                "details": "",
                "value": 18
            },
            "allSaves": {
                "value": null
            },
            "hp": {
                "details": "",
                "max": 50,
                "temp": 0,
                "value": 50
            },
            "initiative": {
                "ability": "perception"
            },
            "perception": {
                "value": 12
            },
            "speed": {
                "otherSpeeds": [
                    {
                        "type": "fly",
                        "value": "35"
                    }
                ],
                "value": "10"
            }
        },
        "details": {
            "alignment": {
                "value": "N"
            },
            "blurb": "",
            "creatureType": "",
            "level": {
                "value": 3
            },
            "privateNotes": "",
            "publicNotes": "<p>Recognizable at a distance by their black feathers and bald necks, vultures drift along air currents looking for carrion to serve as their next meal. Often grouping in committees of four or five, these scavengers wheel above battles and plague‑stricken towns, eager to feed. This feeding cycle plays an important role, especially in hot regions, as their particularly potent stomach acid neutralizes dangerous bacteria in their meals and thus removes it from the environment.</p>\n<p>A giant vulture has a wingspan of up to 25 feet across and weighs up to 600 pounds. Less common than their smaller cousins, they typically live in areas that support a number of megafauna species. While imposing and certainly dangerous when provoked, even giant vultures are not hostile by nature, preferring to feast on the kills of others. They are more likely to vomit their last meal as a distraction while they flee than to attack other creatures. However, during particularly lean times, starving groups of giant vultures might work in unison to make a meal of livestock.</p>\n<p>Giant vultures occasionally form parasitic relationships with larger creatures such as dragons or giants, picking at the remains of an unattended or forgotten meal. Crafters who use bones in their work have come to value this type of behavior. Flensing a creature properly is far slower than letting a committee of vultures strip the carcass and leave behind a clean skeleton. As food-motivated predators, younger vultures raised this way can be made to imprint upon owners, leading to a trend of keeping them as unusual pets.</p>\n<p>While not magical in nature, vulture talons are traditionally used as charms in healing and removing disease, stemming from an old belief that the raptors were immune to the filth in which they strode. While this belief isn't strictly true, vultures do have several unique adaptations to avoid common diseases that would take out predators or even other scavengers. Due to their size, giant vulture talons in particular are sometimes used to craft weapons in regions where other resources are scarce.</p>",
            "source": {
                "value": "Pathfinder Bestiary 3"
            }
        },
        "resources": {},
        "saves": {
            "fortitude": {
                "saveDetail": "",
                "value": 13
            },
            "reflex": {
                "saveDetail": "",
                "value": 9
            },
            "will": {
                "saveDetail": "",
                "value": 6
            }
        },
        "traits": {
            "ci": [],
            "di": {
                "custom": "",
                "value": [
                    "sickened"
                ]
            },
            "dr": [],
            "dv": [],
            "languages": {
                "custom": "",
                "selected": [],
                "value": []
            },
            "rarity": "common",
            "senses": {
                "value": "low-light vision"
            },
            "size": {
                "value": "lg"
            },
            "traits": {
                "custom": "",
                "value": [
                    "animal"
                ]
            }
        }
    },
    "effects": [],
    "flags": {},
    "img": "systems/pf2e/icons/default-icons/npc.svg",
    "items": [
        {
            "_id": "ohHcoAMXMCHN6Scv",
            "data": {
                "attack": {
                    "value": ""
                },
                "attackEffects": {
                    "custom": "",
                    "value": [
                        "carrion-fever"
                    ]
                },
                "bonus": {
                    "value": 10
                },
                "damageRolls": {
                    "0": {
                        "damage": "1d10+5",
                        "damageType": "piercing"
                    }
                },
                "description": {
                    "value": ""
                },
                "rules": [],
                "slug": null,
                "source": {
                    "value": ""
                },
                "traits": {
                    "custom": "",
                    "rarity": "common",
                    "value": []
                },
                "weaponType": {
                    "value": "melee"
                }
            },
            "effects": [],
            "flags": {},
            "img": "systems/pf2e/icons/default-icons/melee.svg",
            "name": "Beak",
            "sort": 100000,
            "type": "melee"
        },
        {
            "_id": "mjVHIWJqPBBMeBhy",
            "data": {
                "attack": {
                    "value": ""
                },
                "attackEffects": {
                    "custom": "",
                    "value": []
                },
                "bonus": {
                    "value": 10
                },
                "damageRolls": {
                    "0": {
                        "damage": "1d8+5",
                        "damageType": "slashing"
                    }
                },
                "description": {
                    "value": ""
                },
                "rules": [],
                "slug": null,
                "source": {
                    "value": ""
                },
                "traits": {
                    "custom": "",
                    "rarity": "common",
                    "value": [
                        "agile"
                    ]
                },
                "weaponType": {
                    "value": "melee"
                }
            },
            "effects": [],
            "flags": {},
            "img": "systems/pf2e/icons/default-icons/melee.svg",
            "name": "Talon",
            "sort": 200000,
            "type": "melee"
        },
        {
            "_id": "fp6MDEvJKxcE7hE3",
            "data": {
                "actionCategory": {
                    "value": "interaction"
                },
                "actionType": {
                    "value": "passive"
                },
                "actions": {
                    "value": null
                },
                "description": {
                    "value": "<p>@Localize[PF2E.NPC.Abilities.Glossary.LowLightVision]</p>"
                },
                "requirements": {
                    "value": ""
                },
                "rules": [],
                "slug": "low-light-vision",
                "source": {
                    "value": ""
                },
                "traits": {
                    "custom": "",
                    "rarity": "common",
                    "value": []
                },
                "trigger": {
                    "value": ""
                },
                "weapon": {
                    "value": ""
                }
            },
            "effects": [],
            "flags": {
                "core": {
                    "sourceId": "Compendium.pf2e.bestiary-ability-glossary-srd.fFu2sZz4KB01fVRc"
                }
            },
            "img": "systems/pf2e/icons/actions/Passive.webp",
            "name": "Low-Light Vision",
            "sort": 300000,
            "type": "action"
        },
        {
            "_id": "6wmw4xZcc4sGgnNR",
            "data": {
                "actionCategory": {
                    "value": "offensive"
                },
                "actionType": {
                    "value": "passive"
                },
                "actions": {
                    "value": null
                },
                "description": {
                    "value": "<p>The sickened condition from carrion fever can't be reduced while the affliction remains</p>\n<p><strong>Saving Throw</strong> <span data-pf2-check=\"fortitude\" data-pf2-dc=\"18\" data-pf2-traits=\"disease\" data-pf2-label=\"Carrion Fever DC\" data-pf2-show-dc=\"gm\">Fortitude</span></p>\n<p><strong>Onset</strong> 1 day</p>\n<p><strong>Stage 1</strong> @Compendium[pf2e.conditionitems.Sickened]{Sickened 1} and @Compendium[pf2e.conditionitems.Fatigued]{Fatigued} (1 day)</p>\n<p><strong>Stage 2</strong> @Compendium[pf2e.conditionitems.Sickened]{Sickened 1}, @Compendium[pf2e.conditionitems.Slowed]{Slowed 1}, and @Compendium[pf2e.conditionitems.Fatigued]{Fatigued} (1 day)</p>"
                },
                "requirements": {
                    "value": ""
                },
                "rules": [],
                "slug": null,
                "source": {
                    "value": ""
                },
                "traits": {
                    "custom": "",
                    "rarity": "common",
                    "value": [
                        "disease"
                    ]
                },
                "trigger": {
                    "value": ""
                },
                "weapon": {
                    "value": ""
                }
            },
            "effects": [],
            "flags": {},
            "img": "systems/pf2e/icons/actions/Passive.webp",
            "name": "Carrion Fever",
            "sort": 400000,
            "type": "action"
        },
        {
            "_id": "mx7M2JUGpqZUL4LJ",
            "data": {
                "actionCategory": {
                    "value": "offensive"
                },
                "actionType": {
                    "value": "action"
                },
                "actions": {
                    "value": 1
                },
                "description": {
                    "value": "<p><strong>Frequency</strong> once per hour</p>\n<p><strong>Effect</strong> The giant vulture vomits up its last meal on a creature within 10 feet. The creature takes [[/r {3d6}[acid]]]{3d6 acid damage} with a <span data-pf2-check=\"fortitude\" data-pf2-dc=\"20\" data-pf2-traits=\"damaging-effect\" data-pf2-label=\"Projectile Vomit DC\" data-pf2-show-dc=\"gm\">basic Fortitude</span> save. On a failed save, the target is also @Compendium[pf2e.conditionitems.Sickened]{Sickened 1}.</p>"
                },
                "requirements": {
                    "value": ""
                },
                "rules": [],
                "slug": null,
                "source": {
                    "value": ""
                },
                "traits": {
                    "custom": "",
                    "rarity": "common",
                    "value": []
                },
                "trigger": {
                    "value": ""
                },
                "weapon": {
                    "value": ""
                }
            },
            "effects": [],
            "flags": {},
            "img": "systems/pf2e/icons/actions/OneAction.webp",
            "name": "Projectile Vomit",
            "sort": 500000,
            "type": "action"
        },
        {
            "_id": "Wkmcpikaz0xv8LwV",
            "data": {
                "description": {
                    "value": ""
                },
                "item": {
                    "value": 0
                },
                "mod": {
                    "value": 10
                },
                "proficient": {
                    "value": 0
                },
                "rules": [],
                "slug": null,
                "source": {
                    "value": ""
                },
                "traits": {
                    "custom": "",
                    "rarity": "common",
                    "value": []
                }
            },
            "effects": [],
            "flags": {},
            "img": "systems/pf2e/icons/default-icons/lore.svg",
            "name": "Athletics",
            "sort": 600000,
            "type": "lore"
        },
        {
            "_id": "AlX6VdYcT9F6f80w",
            "data": {
                "description": {
                    "value": ""
                },
                "item": {
                    "value": 0
                },
                "mod": {
                    "value": 9
                },
                "proficient": {
                    "value": 0
                },
                "rules": [],
                "slug": null,
                "source": {
                    "value": ""
                },
                "traits": {
                    "custom": "",
                    "rarity": "common",
                    "value": []
                }
            },
            "effects": [],
            "flags": {},
            "img": "systems/pf2e/icons/default-icons/lore.svg",
            "name": "Stealth",
            "sort": 700000,
            "type": "lore"
        }
    ],
    "name": "Giant Vulture",
    "token": {
        "disposition": -1,
        "height": 2,
        "img": "systems/pf2e/icons/default-icons/npc.svg",
        "name": "Giant Vulture",
        "width": 2
    },
    "type": "npc"
}
