{
    "_id": "Z5RBfl8x39uFpDUn",
    "data": {
        "abilities": {
            "cha": {
                "mod": 0
            },
            "con": {
                "mod": 4
            },
            "dex": {
                "mod": 3
            },
            "int": {
                "mod": -1
            },
            "str": {
                "mod": 4
            },
            "wis": {
                "mod": 2
            }
        },
        "attributes": {
            "ac": {
                "details": "",
                "value": 20
            },
            "allSaves": {
                "value": null
            },
            "hp": {
                "details": "",
                "max": 70,
                "temp": 0,
                "value": 70
            },
            "initiative": {
                "ability": "perception"
            },
            "perception": {
                "value": 10
            },
            "speed": {
                "otherSpeeds": [],
                "value": "20"
            }
        },
        "details": {
            "alignment": {
                "value": "NE"
            },
            "blurb": "",
            "creatureType": "",
            "level": {
                "value": 4
            },
            "privateNotes": "",
            "publicNotes": "<p>The ambulatory fungus creatures called myceloids are notorious for spreading deadly purple pox, controlling creatures' minds, and devouring humanoid flesh. For a myceloid colony, any battle with humanoids is cause for excitement, as this new fodder presents so many delicious possibilities.</p>\n<p>Myceloids consider humanoids to have an ideal life cycle of four simple steps. During childhood, they wander naive and afraid, unaware of myceloid colonies. In adulthood, humanoids discover their true purpose as they taste purple pox and become enslaved by the myceloids' spores. Next, they die, giving rise to a new myceloid. They're then sent on to the afterlife upon becoming a myceloid meal. Eating humanoid flesh is not a necessity-a myceloid can survive on any decaying matter-but it's certainly a pleasure.</p>\n<p>Myceloids rarely make alliances, but when they do, they invite their new allies to share a meal to seal the pact. Few outsiders appreciate this hospitality.</p>\n<p>Most myceloids have deep purple caps studded with off-white lumps. Their necks and bodies bear resemblance to the stipes of tough, leathery fungi. Smaller mushrooms often grow on a myceloid's body, which the creatures view as either adornments or particularly convenient snacks. They stand roughly as tall as a dwarf, with comparably stout builds.</p>",
            "source": {
                "value": "Pathfinder Bestiary 3"
            }
        },
        "resources": {},
        "saves": {
            "fortitude": {
                "saveDetail": "",
                "value": 14
            },
            "reflex": {
                "saveDetail": "",
                "value": 9
            },
            "will": {
                "saveDetail": "",
                "value": 10
            }
        },
        "traits": {
            "attitude": {
                "value": "hostile"
            },
            "ci": [],
            "di": {
                "custom": "",
                "value": []
            },
            "dr": [],
            "dv": [
                {
                    "exceptions": "",
                    "label": "Slashing",
                    "type": "slashing",
                    "value": "5"
                }
            ],
            "languages": {
                "custom": "Telepathy 100 feet (myceloids and those afflicted by purple pox only)",
                "selected": [],
                "value": [
                    "undercommon"
                ]
            },
            "rarity": "common",
            "senses": {
                "value": "darkvision, scent (imprecise) 30 feet"
            },
            "size": {
                "value": "med"
            },
            "traits": {
                "custom": "",
                "value": [
                    "fungus"
                ]
            }
        }
    },
    "effects": [],
    "flags": {},
    "img": "systems/pf2e/icons/default-icons/npc.svg",
    "items": [
        {
            "_id": "X4dbGwvffyOz8AAl",
            "data": {
                "attack": {
                    "value": ""
                },
                "attackEffects": {
                    "custom": "",
                    "value": [
                        "purple-pox"
                    ]
                },
                "bonus": {
                    "value": 14
                },
                "damageRolls": {
                    "0": {
                        "damage": "2d6+4",
                        "damageType": "bludgeoning"
                    }
                },
                "description": {
                    "value": ""
                },
                "rules": [],
                "slug": null,
                "source": {
                    "value": ""
                },
                "traits": {
                    "custom": "",
                    "rarity": "common",
                    "value": []
                },
                "weaponType": {
                    "value": "melee"
                }
            },
            "effects": [],
            "flags": {},
            "img": "systems/pf2e/icons/default-icons/melee.svg",
            "name": "Fist",
            "sort": 100000,
            "type": "melee"
        },
        {
            "_id": "8kIjzzH6mYzHjhor",
            "data": {
                "actionCategory": {
                    "value": "interaction"
                },
                "actionType": {
                    "value": "passive"
                },
                "actions": {
                    "value": null
                },
                "description": {
                    "value": "<p>@Localize[PF2E.NPC.Abilities.Glossary.Darkvision]</p>"
                },
                "requirements": {
                    "value": ""
                },
                "rules": [],
                "slug": "darkvision",
                "source": {
                    "value": ""
                },
                "traits": {
                    "custom": "",
                    "rarity": "common",
                    "value": []
                },
                "trigger": {
                    "value": ""
                },
                "weapon": {
                    "value": ""
                }
            },
            "effects": [],
            "flags": {
                "core": {
                    "sourceId": "Compendium.pf2e.bestiary-ability-glossary-srd.qCCLZhnp2HhP3Ex6"
                }
            },
            "img": "systems/pf2e/icons/actions/Passive.webp",
            "name": "Darkvision",
            "sort": 200000,
            "type": "action"
        },
        {
            "_id": "Mj3sDpLmMbVTOv59",
            "data": {
                "actionCategory": {
                    "value": "interaction"
                },
                "actionType": {
                    "value": "passive"
                },
                "actions": {
                    "value": null
                },
                "description": {
                    "value": "<p>@Localize[PF2E.NPC.Abilities.Glossary.Scent]</p>"
                },
                "requirements": {
                    "value": ""
                },
                "rules": [],
                "slug": "scent",
                "source": {
                    "value": ""
                },
                "traits": {
                    "custom": "",
                    "rarity": "common",
                    "value": []
                },
                "trigger": {
                    "value": ""
                },
                "weapon": {
                    "value": ""
                }
            },
            "effects": [],
            "flags": {
                "core": {
                    "sourceId": "Compendium.pf2e.bestiary-ability-glossary-srd.rqfnQ5VHT5hxm25r"
                }
            },
            "img": "systems/pf2e/icons/actions/Passive.webp",
            "name": "Scent (Imprecise) 30 feet",
            "sort": 300000,
            "type": "action"
        },
        {
            "_id": "whcEPoZw0dVdy1U1",
            "data": {
                "actionCategory": {
                    "value": "interaction"
                },
                "actionType": {
                    "value": "passive"
                },
                "actions": {
                    "value": null
                },
                "description": {
                    "value": "<p>(Myceloids and those afflicted by Purple Pox only)</p>\n<p>@Localize[PF2E.NPC.Abilities.Glossary.Telepathy]</p>"
                },
                "requirements": {
                    "value": ""
                },
                "rules": [],
                "slug": "telepathy",
                "source": {
                    "value": ""
                },
                "traits": {
                    "custom": "",
                    "rarity": "common",
                    "value": [
                        "aura",
                        "divination",
                        "magical"
                    ]
                },
                "trigger": {
                    "value": ""
                },
                "weapon": {
                    "value": ""
                }
            },
            "effects": [],
            "flags": {
                "core": {
                    "sourceId": "Compendium.pf2e.bestiary-ability-glossary-srd.kdhbPaBMK1d1fpbA"
                }
            },
            "img": "systems/pf2e/icons/actions/Passive.webp",
            "name": "Telepathy 100 feet (Myceloids and Those Afflicted by Purple Pox Only)",
            "sort": 400000,
            "type": "action"
        },
        {
            "_id": "uf75VmCg2lXJXIS6",
            "data": {
                "actionCategory": {
                    "value": "defensive"
                },
                "actionType": {
                    "value": "passive"
                },
                "actions": {
                    "value": null
                },
                "description": {
                    "value": "<p>If a myceloid is reduced to 0 HP by a critical hit, it pops, forcing it to immediately Emit Spores, even if it has already used the ability that day.</p>"
                },
                "requirements": {
                    "value": ""
                },
                "rules": [],
                "slug": null,
                "source": {
                    "value": ""
                },
                "traits": {
                    "custom": "",
                    "rarity": "common",
                    "value": []
                },
                "trigger": {
                    "value": ""
                },
                "weapon": {
                    "value": ""
                }
            },
            "effects": [],
            "flags": {},
            "img": "systems/pf2e/icons/actions/Passive.webp",
            "name": "Spore Pop",
            "sort": 500000,
            "type": "action"
        },
        {
            "_id": "7O5f2VrYGu8KYH37",
            "data": {
                "actionCategory": {
                    "value": "offensive"
                },
                "actionType": {
                    "value": "action"
                },
                "actions": {
                    "value": 1
                },
                "description": {
                    "value": "<p><strong>Frequency</strong> once per day</p>\n<p><strong>Effect</strong> The myceloid expels spores in a @Template[type:burst|distance:10] centered on a corner of its own space. This cloud lasts until the start of the myceloid's next turn. Each creature that is in the cloud or enters it is exposed to purple pox.</p>"
                },
                "requirements": {
                    "value": ""
                },
                "rules": [],
                "slug": null,
                "source": {
                    "value": ""
                },
                "traits": {
                    "custom": "",
                    "rarity": "common",
                    "value": []
                },
                "trigger": {
                    "value": ""
                },
                "weapon": {
                    "value": ""
                }
            },
            "effects": [],
            "flags": {},
            "img": "systems/pf2e/icons/actions/OneAction.webp",
            "name": "Emit Spores",
            "sort": 600000,
            "type": "action"
        },
        {
            "_id": "TjHnriTSE9y88Oaj",
            "data": {
                "actionCategory": {
                    "value": "offensive"
                },
                "actionType": {
                    "value": "passive"
                },
                "actions": {
                    "value": null
                },
                "description": {
                    "value": "<p>Myceloids are immune</p>\n<p><strong>Saving Throw</strong> <span data-pf2-check=\"fortitude\" data-pf2-dc=\"20\" data-pf2-traits=\"disease\" data-pf2-label=\"Purple Pox DC\" data-pf2-show-dc=\"gm\">Fortitude</span></p>\n<p><strong>Onset</strong> 1 minute</p>\n<p><strong>Stage 1</strong> [[/r {2d6}[poison]]]{2d6 poison damage} and @Compendium[pf2e.conditionitems.Stupefied]{Stupefied 1} (1 day)</p>\n<p><strong>Stage 2</strong>[[/r {6d6}[poison]]]{6d6 poison damage}, @Compendium[pf2e.conditionitems.Stupefied]{Stupefied 3}, and the creature is compelled to seek out the nearest myceloid colony—this compulsion is a mental emotion effect (1 day)</p>\n<p><strong>Stage 3</strong> The creature dies. Over 24 hours, its corpse becomes bloated and bursts, releasing a new, fully grown myceloid.</p>"
                },
                "requirements": {
                    "value": ""
                },
                "rules": [],
                "slug": null,
                "source": {
                    "value": ""
                },
                "traits": {
                    "custom": "",
                    "rarity": "common",
                    "value": [
                        "disease"
                    ]
                },
                "trigger": {
                    "value": ""
                },
                "weapon": {
                    "value": ""
                }
            },
            "effects": [],
            "flags": {},
            "img": "systems/pf2e/icons/actions/Passive.webp",
            "name": "Purple Pox",
            "sort": 700000,
            "type": "action"
        },
        {
            "_id": "Jyzm7OFRyidSiJk0",
            "data": {
                "actionCategory": {
                    "value": "offensive"
                },
                "actionType": {
                    "value": "action"
                },
                "actions": {
                    "value": 2
                },
                "description": {
                    "value": "<p>The myceloid targets one creature affected by purple pox within 60 feet. That creature must attempt a <span data-pf2-check=\"will\" data-pf2-dc=\"22\" data-pf2-traits=\"emotion,enchantment,incapacitation,mental,primal\" data-pf2-label=\"Spore Domination DC\" data-pf2-show-dc=\"gm\">Will</span> save. It is then temporarily immune to spore domination for 10 minutes.</p>\n<hr />\n<p><strong>Critical Success</strong> The target is unaffected.</p>\n<p><strong>Success</strong> Until the end of its next turn, the target is helpful to myceloids and can't take hostile actions against them.</p>\n<p><strong>Failure</strong> As success, but for 1 minute.</p>\n<p><strong>Critical Failure</strong> As success, but until the purple pox is cured.</p>"
                },
                "requirements": {
                    "value": ""
                },
                "rules": [],
                "slug": null,
                "source": {
                    "value": ""
                },
                "traits": {
                    "custom": "",
                    "rarity": "common",
                    "value": [
                        "emotion",
                        "enchantment",
                        "incapacitation",
                        "mental",
                        "primal"
                    ]
                },
                "trigger": {
                    "value": ""
                },
                "weapon": {
                    "value": ""
                }
            },
            "effects": [],
            "flags": {},
            "img": "systems/pf2e/icons/actions/TwoActions.webp",
            "name": "Spore Domination",
            "sort": 800000,
            "type": "action"
        },
        {
            "_id": "8Pdy8L54ig1Tb5Sy",
            "data": {
                "description": {
                    "value": ""
                },
                "item": {
                    "value": 0
                },
                "mod": {
                    "value": 11
                },
                "proficient": {
                    "value": 0
                },
                "rules": [],
                "slug": null,
                "source": {
                    "value": ""
                },
                "traits": {
                    "custom": "",
                    "rarity": "common",
                    "value": []
                }
            },
            "effects": [],
            "flags": {},
            "img": "systems/pf2e/icons/default-icons/lore.svg",
            "name": "Stealth",
            "sort": 900000,
            "type": "lore"
        },
        {
            "_id": "8XglZdXD0iFYHQSF",
            "data": {
                "description": {
                    "value": ""
                },
                "item": {
                    "value": 0
                },
                "mod": {
                    "value": 10
                },
                "proficient": {
                    "value": 0
                },
                "rules": [],
                "slug": null,
                "source": {
                    "value": ""
                },
                "traits": {
                    "custom": "",
                    "rarity": "common",
                    "value": []
                }
            },
            "effects": [],
            "flags": {},
            "img": "systems/pf2e/icons/default-icons/lore.svg",
            "name": "Survival",
            "sort": 1000000,
            "type": "lore"
        }
    ],
    "name": "Myceloid",
    "token": {
        "disposition": -1,
        "height": 1,
        "img": "systems/pf2e/icons/default-icons/npc.svg",
        "name": "Myceloid",
        "width": 1
    },
    "type": "npc"
}
