{
    "_id": "2DrerJYEJon5U6Fx",
    "data": {
        "abilities": {
            "cha": {
                "mod": -5
            },
            "con": {
                "mod": 7
            },
            "dex": {
                "mod": -5
            },
            "int": {
                "mod": -5
            },
            "str": {
                "mod": 7
            },
            "wis": {
                "mod": 0
            }
        },
        "attributes": {
            "ac": {
                "details": "10 from inside the Dimensional Pit",
                "value": 14
            },
            "allSaves": {
                "value": null
            },
            "hp": {
                "details": "",
                "max": 220,
                "temp": 0,
                "value": 220
            },
            "initiative": {
                "ability": "perception"
            },
            "perception": {
                "value": 9
            },
            "speed": {
                "otherSpeeds": [],
                "value": "10"
            }
        },
        "details": {
            "alignment": {
                "value": "N"
            },
            "blurb": "",
            "creatureType": "",
            "level": {
                "value": 7
            },
            "privateNotes": "",
            "publicNotes": "<p>A slithering pit is a strange, nearly invisible ooze with an extradimensional space for its digestive system, which mimics the appearance of an acid-filled stone pit. It slowly dissolves its captives in stomach acid until they can be digested. A slithering pit can go weeks without feeding, affording it patience.</p>\n<p>Thriving in dilapidated areas, slithering pits take up positions among the plentiful potholes where they can easily pass for just another blemish. They crawl across ramshackle cobblestone streets and damp underground complexes, waiting for unwary prey to stumble by and fall in.</p>",
            "source": {
                "value": "Pathfinder Bestiary 3"
            }
        },
        "resources": {},
        "saves": {
            "fortitude": {
                "saveDetail": "",
                "value": 18
            },
            "reflex": {
                "saveDetail": "",
                "value": 6
            },
            "will": {
                "saveDetail": "",
                "value": 11
            }
        },
        "traits": {
            "attitude": {
                "value": "hostile"
            },
            "ci": [],
            "di": {
                "custom": "",
                "value": [
                    "acid",
                    "critical-hits",
                    "mental",
                    "precision",
                    "unconscious",
                    "visual"
                ]
            },
            "dr": [],
            "dv": [],
            "languages": {
                "custom": "",
                "selected": [],
                "value": []
            },
            "rarity": "rare",
            "senses": {
                "value": "no vision, tremorsense (imprecise) 60 feet"
            },
            "size": {
                "value": "med"
            },
            "traits": {
                "custom": "",
                "value": [
                    "mindless",
                    "ooze"
                ]
            }
        }
    },
    "effects": [],
    "flags": {},
    "img": "systems/pf2e/icons/default-icons/npc.svg",
    "items": [
        {
            "_id": "71vyIq4WtorjpuSI",
            "data": {
                "attack": {
                    "value": ""
                },
                "attackEffects": {
                    "custom": "",
                    "value": [
                        "improved-grab"
                    ]
                },
                "bonus": {
                    "value": 18
                },
                "damageRolls": {
                    "0": {
                        "damage": "2d8+9",
                        "damageType": "bludgeoning"
                    }
                },
                "description": {
                    "value": ""
                },
                "rules": [],
                "slug": null,
                "source": {
                    "value": ""
                },
                "traits": {
                    "custom": "",
                    "rarity": "common",
                    "value": [
                        "reach-10"
                    ]
                },
                "weaponType": {
                    "value": "melee"
                }
            },
            "effects": [],
            "flags": {},
            "img": "systems/pf2e/icons/default-icons/melee.svg",
            "name": "Pseudopod",
            "sort": 100000,
            "type": "melee"
        },
        {
            "_id": "K6p90DP5TOgu1uHl",
            "data": {
                "actionCategory": {
                    "value": "interaction"
                },
                "actionType": {
                    "value": "passive"
                },
                "actions": {
                    "value": null
                },
                "description": {
                    "value": "<p>@Localize[PF2E.NPC.Abilities.Glossary.Tremorsense]</p>"
                },
                "requirements": {
                    "value": ""
                },
                "rules": [],
                "slug": "tremorsense",
                "source": {
                    "value": ""
                },
                "traits": {
                    "custom": "",
                    "rarity": "common",
                    "value": []
                },
                "trigger": {
                    "value": ""
                },
                "weapon": {
                    "value": ""
                }
            },
            "effects": [],
            "flags": {
                "core": {
                    "sourceId": "Compendium.pf2e.bestiary-ability-glossary-srd.j2wsK6IsW5yMW1jW"
                }
            },
            "img": "systems/pf2e/icons/actions/Passive.webp",
            "name": "Tremorsense (Imprecise) 60 feet",
            "sort": 200000,
            "type": "action"
        },
        {
            "_id": "D6GffrGRbXblVQ49",
            "data": {
                "actionCategory": {
                    "value": "interaction"
                },
                "actionType": {
                    "value": "passive"
                },
                "actions": {
                    "value": null
                },
                "description": {
                    "value": "<p>A slithering pit is so clear it's difficult to spot. A successful <span data-pf2-check=\"perception\" data-pf2-dc=\"30\" data-pf2-label=\"Transparent DC\" data-pf2-show-dc=\"gm\">Perception</span> check is required to notice a stationary slithering pit, and a creature must be @Compendium[pf2e.actionspf2e.Search]{Searching} to attempt this check.</p>\n<p>A creature that walks into the pit's space might fall into any pit currently in effect due to Dimensional Pit.</p>"
                },
                "requirements": {
                    "value": ""
                },
                "rules": [],
                "slug": null,
                "source": {
                    "value": ""
                },
                "traits": {
                    "custom": "",
                    "rarity": "common",
                    "value": []
                },
                "trigger": {
                    "value": ""
                },
                "weapon": {
                    "value": ""
                }
            },
            "effects": [],
            "flags": {},
            "img": "systems/pf2e/icons/actions/Passive.webp",
            "name": "Transparent",
            "sort": 300000,
            "type": "action"
        },
        {
            "_id": "u5VmraPdTduQVeUa",
            "data": {
                "actionCategory": {
                    "value": "defensive"
                },
                "actionType": {
                    "value": "passive"
                },
                "actions": {
                    "value": null
                },
                "description": {
                    "value": "<p>Ingesting an extradimensional space like that found in a <em>bag of holding</em> deals [[/r {6d8}[force]]]{6d8 force damage} to the slithering pit and its occupants. The slithering pit then immediately uses Out You Go.</p>"
                },
                "requirements": {
                    "value": ""
                },
                "rules": [],
                "slug": null,
                "source": {
                    "value": ""
                },
                "traits": {
                    "custom": "",
                    "rarity": "common",
                    "value": []
                },
                "trigger": {
                    "value": ""
                },
                "weapon": {
                    "value": ""
                }
            },
            "effects": [],
            "flags": {},
            "img": "systems/pf2e/icons/actions/Passive.webp",
            "name": "Breach Vulnerability",
            "sort": 400000,
            "type": "action"
        },
        {
            "_id": "eiuG3n39AiXSGDav",
            "data": {
                "actionCategory": {
                    "value": "offensive"
                },
                "actionType": {
                    "value": "action"
                },
                "actions": {
                    "value": 2
                },
                "description": {
                    "value": "<p>The slithering pit opens an extradimensional, 20-foot-deep pit that covers its own space and all adjacent squares unless they're walls or similar blocking terrain.</p>\n<p>Any other creature occupying or entering pit spaces must succeed at a <span data-pf2-check=\"reflex\" data-pf2-dc=\"22\" data-pf2-traits=\"conjuration,extradimensional,occult,damaging-effect\" data-pf2-label=\"Dimensional Pit DC\" data-pf2-show-dc=\"gm\">Reflex</span> save or fall into the pit, taking damage from the fall (typically 10 bludgeoning damage). Any creature grabbed by the ooze falls in and is no longer grabbed, even if it was outside the pit squares.</p>\n<p>While a dimensional pit is open, the slithering pit is immobilized, can't be forced to move, and can make pseudopod Strikes originating from the walls of the pit. A creature that starts its turn at the bottom of the pit takes [[/r {2d6}[acid]]]{2d6 acid damage}. Climbing the walls of the pit requires a <span data-pf2-check=\"athletics\" data-pf2-dc=\"22\" data-pf2-traits=\"conjuration,extradimensional,occult,damaging-effect\" data-pf2-label=\"Climb Dimensional Pit DC\" data-pf2-show-dc=\"gm\">Athletics</span> check.</p>\n<p>When the slithering pit dies, the dimensional pit closes and creatures inside are ejected, with the effects of Out You Go.</p>"
                },
                "requirements": {
                    "value": ""
                },
                "rules": [],
                "slug": null,
                "source": {
                    "value": ""
                },
                "traits": {
                    "custom": "",
                    "rarity": "common",
                    "value": [
                        "conjuration",
                        "extradimensional",
                        "occult"
                    ]
                },
                "trigger": {
                    "value": ""
                },
                "weapon": {
                    "value": ""
                }
            },
            "effects": [],
            "flags": {},
            "img": "systems/pf2e/icons/actions/TwoActions.webp",
            "name": "Dimensional Pit",
            "sort": 500000,
            "type": "action"
        },
        {
            "_id": "foR7mgXEL0XMHJ6J",
            "data": {
                "actionCategory": {
                    "value": "offensive"
                },
                "actionType": {
                    "value": "action"
                },
                "actions": {
                    "value": 2
                },
                "description": {
                    "value": "<p>The slithering pit makes a single pseudopod Strike against each target within range it doesn't already have grabbed. These attacks count toward the slithering pit's multiple attack penalty, but the penalty doesn't increase until after all of these attacks.</p>"
                },
                "requirements": {
                    "value": ""
                },
                "rules": [],
                "slug": null,
                "source": {
                    "value": ""
                },
                "traits": {
                    "custom": "",
                    "rarity": "common",
                    "value": []
                },
                "trigger": {
                    "value": ""
                },
                "weapon": {
                    "value": ""
                }
            },
            "effects": [],
            "flags": {},
            "img": "systems/pf2e/icons/actions/TwoActions.webp",
            "name": "Flurry of Pods",
            "sort": 600000,
            "type": "action"
        },
        {
            "_id": "QE9gzkXJFMTGYg19",
            "data": {
                "actionCategory": {
                    "value": "offensive"
                },
                "actionType": {
                    "value": "action"
                },
                "actions": {
                    "value": 1
                },
                "description": {
                    "value": "<p>The slithering pit closes all pit spaces it created using Dimensional Pit, ejecting all its occupants onto the ground into random free spaces where the pit opened. Each occupant takes [[/r {4d6}[bludgeoning]]]{4d6 bludgeoning damage} (<span data-pf2-check=\"reflex\" data-pf2-dc=\"22\" data-pf2-traits=\"damaging-effect\" data-pf2-label=\"Out You Go DC\" data-pf2-show-dc=\"gm\">basic Reflex</span> save).</p>"
                },
                "requirements": {
                    "value": ""
                },
                "rules": [],
                "slug": null,
                "source": {
                    "value": ""
                },
                "traits": {
                    "custom": "",
                    "rarity": "common",
                    "value": []
                },
                "trigger": {
                    "value": ""
                },
                "weapon": {
                    "value": ""
                }
            },
            "effects": [],
            "flags": {},
            "img": "systems/pf2e/icons/actions/OneAction.webp",
            "name": "Out You Go",
            "sort": 700000,
            "type": "action"
        },
        {
            "_id": "c85RY0nsV1xyDA3t",
            "data": {
                "actionCategory": {
                    "value": "offensive"
                },
                "actionType": {
                    "value": "free"
                },
                "actions": {
                    "value": null
                },
                "description": {
                    "value": "<p>@Localize[PF2E.NPC.Abilities.Glossary.ImprovedGrab]</p>"
                },
                "requirements": {
                    "value": ""
                },
                "rules": [],
                "slug": "improved-grab",
                "source": {
                    "value": ""
                },
                "traits": {
                    "custom": "",
                    "rarity": "common",
                    "value": []
                },
                "trigger": {
                    "value": ""
                },
                "weapon": {
                    "value": ""
                }
            },
            "effects": [],
            "flags": {
                "core": {
                    "sourceId": "Compendium.pf2e.bestiary-ability-glossary-srd.i18TlebMzwONyPhI"
                }
            },
            "img": "systems/pf2e/icons/actions/FreeAction.webp",
            "name": "Improved Grab",
            "sort": 800000,
            "type": "action"
        },
        {
            "_id": "wWCraGnPMN2ddhRp",
            "data": {
                "description": {
                    "value": ""
                },
                "item": {
                    "value": 0
                },
                "mod": {
                    "value": 18
                },
                "proficient": {
                    "value": 0
                },
                "rules": [],
                "slug": null,
                "source": {
                    "value": ""
                },
                "traits": {
                    "custom": "",
                    "rarity": "common",
                    "value": []
                }
            },
            "effects": [],
            "flags": {},
            "img": "systems/pf2e/icons/default-icons/lore.svg",
            "name": "Athletics",
            "sort": 900000,
            "type": "lore"
        },
        {
            "_id": "vFb83KAff5g7HE8V",
            "data": {
                "description": {
                    "value": ""
                },
                "item": {
                    "value": 0
                },
                "mod": {
                    "value": 10
                },
                "proficient": {
                    "value": 0
                },
                "rules": [],
                "slug": null,
                "source": {
                    "value": ""
                },
                "traits": {
                    "custom": "",
                    "rarity": "common",
                    "value": []
                }
            },
            "effects": [],
            "flags": {},
            "img": "systems/pf2e/icons/default-icons/lore.svg",
            "name": "Stealth",
            "sort": 1000000,
            "type": "lore"
        }
    ],
    "name": "Slithering Pit",
    "token": {
        "disposition": -1,
        "height": 1,
        "img": "systems/pf2e/icons/default-icons/npc.svg",
        "name": "Slithering Pit",
        "width": 1
    },
    "type": "npc"
}
