{
    "_id": "ga0Oj7mmjSwWQgmR",
    "data": {
        "actionCategory": {
            "value": "offensive"
        },
        "actionType": {
            "value": "action"
        },
        "actions": {
            "value": 2
        },
        "description": {
            "value": "<p>The ghost stares at a creature it can see within 30 feet. The target takes [[/r {1d6}[negative]]]{1d6 negative damage} + 1d6 per 2 levels with a <span data-pf2-check=\"will\" data-pf2-dc=\"\" data-pf2-label=\"Corrupting Gaze DC\" data-pf2-show-dc=\"gm\">basic Will</span> save.</p>\n<p data-visibility=\"gm\">A creature that fails its save is also @Compendium[pf2e.conditionitems.Stupefied]{Stupefied 1} for 1 minute.</p>"
        },
        "requirements": {
            "value": ""
        },
        "rules": [],
        "source": {
            "value": "Pathfinder Bestiary"
        },
        "traits": {
            "custom": "",
            "rarity": "common",
            "value": []
        },
        "trigger": {
            "value": ""
        },
        "weapon": {
            "value": ""
        }
    },
    "effects": [],
    "flags": {},
    "img": "systems/pf2e/icons/actions/TwoActions.webp",
    "name": "(Ghost) Corrupting Gaze",
    "type": "action"
}
