{
    "_id": "4Aj4FWKObfMYoSvh",
    "data": {
        "actionCategory": {
            "value": "defensive"
        },
        "actionType": {
            "value": "reaction"
        },
        "actions": {
            "value": null
        },
        "description": {
            "value": "<p data-visibility=\"gm\"><strong>Requirements</strong> A creature the ghost is aware of targets the ghost with an attack</p>\n<p><strong>Effect</strong> The ghost has an unusually pitiable appearance or can change its features to look like someone close to the attacker, which causes the target to pull back on its attack.</p>\n<p>The triggering creature must attempt a <span data-pf2-check=\"will\" data-pf2-dc=\"\" data-pf2-traits=\"divine,enchantment\" data-pf2-label=\"Beatific Appearance DC\" data-pf2-show-dc=\"gm\">Will</span> save. On a failure, the creature takes a -1 circumstance penalty to its attack roll (-2 on a critical failure).</p>"
        },
        "requirements": {
            "value": ""
        },
        "rules": [],
        "source": {
            "value": "Pathfinder #165: Eyes of Empty Death"
        },
        "traits": {
            "custom": "",
            "rarity": "common",
            "value": [
                "divine",
                "enchantment"
            ]
        },
        "trigger": {
            "value": ""
        }
    },
    "effects": [],
    "flags": {},
    "img": "systems/pf2e/icons/actions/Reaction.webp",
    "name": "(Ghost) Beatific Appearance",
    "type": "action"
}
