{
    "_id": "iwLj14liESK5OBN8",
    "data": {
        "actionCategory": {
            "value": "offensive"
        },
        "actionType": {
            "value": "action"
        },
        "actions": {
            "value": 2
        },
        "description": {
            "value": "<p>The ghost attempts to possess an adjacent corporeal creature. This has the same effect as the <em>@Compendium[pf2e.spells-srd.Possession]{Possession}</em> spell, except since the ghost doesn't have a physical body, it is unaffected by that restriction of the spell.</p>"
        },
        "requirements": {
            "value": "Pathfinder Bestiary"
        },
        "rules": [],
        "source": {
            "value": ""
        },
        "traits": {
            "custom": "",
            "rarity": "common",
            "value": [
                "incapacitation",
                "mental",
                "possession"
            ]
        },
        "trigger": {
            "value": ""
        },
        "weapon": {
            "value": ""
        }
    },
    "effects": [],
    "flags": {},
    "img": "systems/pf2e/icons/actions/TwoActions.webp",
    "name": "(Ghost) Malevolent Possession",
    "type": "action"
}
