{
    "_id": "RvzFTym3r22VhMrm",
    "data": {
        "actionCategory": {
            "value": "offensive"
        },
        "actionType": {
            "value": "action"
        },
        "actions": {
            "value": 3
        },
        "description": {
            "value": "<p>Kuworsys Strides up to twice its Speed. At the end of its movement, it can make a melee limb Strike. On a successful Strike, the creature becomes @Compendium[pf2e.conditionitems.Grabbed]{Grabbed} until the end of Kuworsys's next turn</p>"
        },
        "requirements": {
            "value": ""
        },
        "rules": [],
        "source": {
            "value": "Pathfinder Lost Omens: Monsters of Myth"
        },
        "traits": {
            "custom": "",
            "rarity": "common",
            "value": []
        },
        "trigger": {
            "value": ""
        }
    },
    "effects": [],
    "flags": {},
    "img": "systems/pf2e/icons/actions/ThreeActions.webp",
    "name": "(Kuworsys) Smash and Grab",
    "type": "action"
}
