{
    "_id": "yaDe9hO9fm2N4SqH",
    "data": {
        "actionCategory": {
            "value": "offensive"
        },
        "actionType": {
            "value": "action"
        },
        "actions": {
            "value": 1
        },
        "description": {
            "value": "<p>Spring-Heeled Jack glares at a creature he can see within 30 feet. The target must immediately attempt a Will save (DC equal to the DC of Jack's Breath Weapon) or become @Compendium[pf2e.conditionitems.Frightened]{Frightened 1} (@Compendium[pf2e.conditionitems.Frightened]{Frightened 2} on a critical failure), and it can't reduce its frightened condition below 1 for 24 hours or until this curse is removed. After attempting its save, the creature is temporarily immune to this ability for 24 hours.</p>"
        },
        "requirements": {
            "value": ""
        },
        "rules": [],
        "source": {
            "value": "Pathfinder Lost Omens: Monsters of Myth"
        },
        "traits": {
            "custom": "",
            "rarity": "common",
            "value": [
                "concentrate",
                "curse",
                "emotion",
                "enchantment",
                "fear",
                "mental",
                "primal"
            ]
        },
        "trigger": {
            "value": ""
        }
    },
    "effects": [],
    "flags": {},
    "img": "systems/pf2e/icons/actions/OneAction.webp",
    "name": "(Spring-Heeled Jack) Resonant Terror",
    "type": "action"
}
