{
    "_id": "KwmYKsaXHKfZgB2c",
    "data": {
        "actionCategory": {
            "value": "offensive"
        },
        "actionType": {
            "value": "free"
        },
        "actions": {
            "value": null
        },
        "description": {
            "value": "<p data-visibility=\"gm\"><strong>Trigger</strong> Spring-Heeled Jack uses Vault</p>\n<p><strong>Effect</strong> Spring-Heeled Jack becomes @Compendium[pf2e.conditionitems.Invisible]{Invisible} for 1 round.</p>"
        },
        "requirements": {
            "value": ""
        },
        "rules": [],
        "source": {
            "value": "Pathfinder Lost Omens: Monsters of Myth"
        },
        "traits": {
            "custom": "",
            "rarity": "common",
            "value": [
                "illusion",
                "primal"
            ]
        },
        "trigger": {
            "value": ""
        }
    },
    "effects": [],
    "flags": {},
    "img": "systems/pf2e/icons/actions/FreeAction.webp",
    "name": "(Spring-Heeled Jack) Vanishing Leap",
    "type": "action"
}
