{
    "_id": "08egiRxOvMX97XTc",
    "data": {
        "actionCategory": {
            "value": "offensive"
        },
        "actionType": {
            "value": "action"
        },
        "actions": {
            "value": 1
        },
        "description": {
            "value": "<p>The werecreature changes into its humanoid, hybrid, or animal shape. Each shape has a specific, persistent appearance. A true werecreature's natural form is its hybrid shape.</p>\n<p>In humanoid shape, the werecreature uses its original humanoid size, loses its jaws and claws Strikes, and gains a melee fist Strike that deals bludgeoning damage equal to the slashing damage dealt by its claw.</p>\n<p>In animal shape, its Speed and size change to that of the animal, it gains any special Strike effects of the animal that it didn't already have (such as Grab), and it loses its weapon Strikes.</p>\n<hr />\n<p>@Localize[PF2E.NPC.Abilities.Glossary.ChangeShape]</p>"
        },
        "requirements": {
            "value": ""
        },
        "rules": [],
        "source": {
            "value": "Pathfinder Bestiary"
        },
        "traits": {
            "custom": "",
            "rarity": "common",
            "value": [
                "concentrate",
                "polymorph",
                "primal",
                "transmutation"
            ]
        },
        "trigger": {
            "value": ""
        },
        "weapon": {
            "value": ""
        }
    },
    "effects": [],
    "flags": {},
    "img": "systems/pf2e/icons/actions/OneAction.webp",
    "name": "(Werecreature) Change Shape",
    "type": "action"
}
