{
    "_id": "v51J7K27abdDyLgJ",
    "data": {
        "attributes": {
            "ac": {
                "value": 18
            },
            "hardness": 8,
            "hasHealth": true,
            "hp": {
                "details": "",
                "max": 15,
                "temp": 0,
                "tempmax": 0,
                "value": 15
            },
            "stealth": {
                "details": "",
                "value": 10
            }
        },
        "creatureType": "",
        "customModifiers": {},
        "details": {
            "description": "",
            "disable": "DC 20 Thievery on each corner mechanism (must disable all three working corners to disable the trap)",
            "isComplex": true,
            "level": {
                "value": 3
            },
            "reset": "",
            "routine": "Each turn, the fountain uses 1 action. Roll a d10 and look up the result on the following list to determine which action it uses that round."
        },
        "saves": {
            "fortitude": {
                "saveDetail": "",
                "value": 7
            },
            "reflex": {
                "saveDetail": "",
                "value": 5
            },
            "will": {
                "saveDetail": "",
                "value": 0
            }
        },
        "source": {
            "value": "Pathfinder Beginners Box"
        },
        "statusEffects": [],
        "traits": {
            "ci": [],
            "di": {
                "custom": "",
                "selected": {},
                "value": []
            },
            "dr": [],
            "dv": [],
            "rarity": "common",
            "size": {
                "value": "med"
            },
            "traits": {
                "custom": "",
                "value": []
            }
        }
    },
    "effects": [],
    "flags": {},
    "img": "systems/pf2e/icons/default-icons/hazard.svg",
    "items": [
        {
            "_id": "xgk3V5ZbQS1GvbQB",
            "data": {
                "actionCategory": {
                    "value": ""
                },
                "actionType": {
                    "value": "passive"
                },
                "actions": {
                    "value": null
                },
                "description": {
                    "value": "<p><strong>Single Target</strong> The statue spins about and sprays water at a single random target in the room. Roll a [[/r 1d4]] and count to the number you rolled, starting with the player on your left, to determine which hero gets attacked. The spray is a ranged Strike with [[/r 1d20+10]] to hit. On a hit, it deals [[/r {2d6}[bludgeoning]]]{2d6 bludgeoning damage} (doubled on a critical hit as normal).</p>"
                },
                "requirements": {
                    "value": ""
                },
                "rules": [],
                "slug": null,
                "source": {
                    "value": ""
                },
                "traits": {
                    "custom": "",
                    "rarity": "common",
                    "value": []
                },
                "trigger": {
                    "value": ""
                },
                "weapon": {
                    "value": ""
                }
            },
            "effects": [],
            "flags": {},
            "img": "systems/pf2e/icons/actions/Passive.webp",
            "name": "1-4",
            "sort": 100000,
            "type": "action"
        },
        {
            "_id": "buvj2acJ8mvP9j4m",
            "data": {
                "actionCategory": {
                    "value": ""
                },
                "actionType": {
                    "value": "passive"
                },
                "actions": {
                    "value": null
                },
                "description": {
                    "value": "<p><strong>Full Room</strong> This works just like the half-room attack, but it targets everyone in the room.</p>"
                },
                "requirements": {
                    "value": ""
                },
                "rules": [],
                "slug": null,
                "source": {
                    "value": ""
                },
                "traits": {
                    "custom": "",
                    "rarity": "common",
                    "value": []
                },
                "trigger": {
                    "value": ""
                },
                "weapon": {
                    "value": ""
                }
            },
            "effects": [],
            "flags": {},
            "img": "systems/pf2e/icons/actions/Passive.webp",
            "name": "10",
            "sort": 350000,
            "type": "action"
        },
        {
            "_id": "So5nXOAcJSx8v08y",
            "data": {
                "actionCategory": {
                    "value": ""
                },
                "actionType": {
                    "value": "passive"
                },
                "actions": {
                    "value": null
                },
                "description": {
                    "value": "<p><strong>Half Room</strong> The statue spins about, spraying half of the room with water. Roll any die. If the result is even, it sprays the west half; otherwise, it sprays the east half. This deals [[/r {2d6}[bludgeoning]]]{2d6 bludgeoning damage} to each creature in that half of the room, and each hero must attempt a <span data-pf2-check=\"reflex\" data-pf2-dc=\"15\" data-pf2-traits=\"damaging-effect\" data-pf2-label=\"8-9 DC\" data-pf2-show-dc=\"gm\">basic Reflex</span> save.</p>"
                },
                "requirements": {
                    "value": ""
                },
                "rules": [],
                "slug": null,
                "source": {
                    "value": ""
                },
                "traits": {
                    "custom": "",
                    "rarity": "common",
                    "value": []
                },
                "trigger": {
                    "value": ""
                },
                "weapon": {
                    "value": ""
                }
            },
            "effects": [],
            "flags": {},
            "img": "systems/pf2e/icons/actions/Passive.webp",
            "name": "8-9",
            "sort": 300000,
            "type": "action"
        },
        {
            "_id": "bXfSzOjkpZ8nDBmp",
            "data": {
                "actionCategory": {
                    "value": ""
                },
                "actionType": {
                    "value": "passive"
                },
                "actions": {
                    "value": null
                },
                "description": {
                    "value": "<p><strong>Corner Spray</strong> The statue spins about, firing a spray of water at each corner of the room that still has a functioning corner mechanism. This hits any creature adjacent to the corner mechanism, dealing [[/r {2d6}[bludgeoning]]]{2d6 bludgeoning damage}. Each hero must attempt a <span data-pf2-check=\"reflex\" data-pf2-dc=\"15\" data-pf2-traits=\"damaging-effect\" data-pf2-label=\"5-7 DC\" data-pf2-show-dc=\"gm\">basic Reflex</span> save, taking no damage on a critical success, half damage on a success, full damage on a failure, and double damage on a critical failure.</p>"
                },
                "requirements": {
                    "value": ""
                },
                "rules": [],
                "slug": null,
                "source": {
                    "value": ""
                },
                "traits": {
                    "custom": "",
                    "rarity": "common",
                    "value": []
                },
                "trigger": {
                    "value": ""
                },
                "weapon": {
                    "value": ""
                }
            },
            "effects": [],
            "flags": {},
            "img": "systems/pf2e/icons/actions/Passive.webp",
            "name": "5-7",
            "sort": 200000,
            "type": "action"
        }
    ],
    "name": "Mermaid Fountain",
    "token": {
        "disposition": 0,
        "height": 1,
        "img": "systems/pf2e/icons/default-icons/hazard.svg",
        "name": "Mermaid Fountain",
        "width": 1
    },
    "type": "hazard"
}
