{
    "_id": "0B39GdScyZMPWalX",
    "data": {
        "actionCategory": {
            "value": "offensive"
        },
        "actionType": {
            "value": "action"
        },
        "actions": {
            "value": 2
        },
        "description": {
            "value": "<p>@Localize[PF2E.NPC.Abilities.Glossary.PowerAttack]</p>"
        },
        "requirements": {
            "value": ""
        },
        "rules": [
            {
                "key": "ToggleProperty",
                "property": "flags.pf2e.rollOptions.damage-roll.power-attack"
            },
            {
                "diceNumber": 1,
                "key": "DamageDice",
                "predicate": {
                    "all": [
                        "melee",
                        "power-attack"
                    ]
                },
                "selector": "damage"
            }
        ],
        "source": {
            "value": ""
        },
        "traits": {
            "custom": "",
            "rarity": "common",
            "value": []
        },
        "trigger": {
            "value": ""
        },
        "weapon": {
            "value": ""
        }
    },
    "effects": [],
    "flags": {},
    "img": "systems/pf2e/icons/actions/TwoActions.webp",
    "name": "Power Attack",
    "type": "action"
}
