{
    "_id": "z3zWW4jLADAei1uo",
    "data": {
        "attributes": {
            "ac": {
                "value": 28
            },
            "hardness": 0,
            "hasHealth": true,
            "hp": {
                "details": "",
                "max": 100,
                "temp": 0,
                "tempmax": 0,
                "value": 100
            },
            "stealth": {
                "details": "<p>(expert)</p>",
                "value": 21
            }
        },
        "creatureType": "",
        "details": {
            "description": "<p>This dangerous sooty black mold readily releases its toxic spores when disturbed. The entire swath of fungus in area <strong>B2</strong> is a single organism. There are nine 10-foot-square patches to remove, but the whole organism dies once it takes enough damage.</p>",
            "disable": "<p><span data-pf2-check=\"survival\" data-pf2-traits=\"environmental,fungus\" data-pf2-label=\"Remove Patch DC\" data-pf2-dc=\"27\" data-pf2-show-dc=\"gm\">Survival</span> (expert) to remove a 10-foot-square patch of ash web without triggering the spores</p>",
            "isComplex": false,
            "level": {
                "value": 10
            },
            "reset": "<p>This large patch of ash web resets automatically at the start of the round.</p>",
            "routine": ""
        },
        "saves": {
            "fortitude": {
                "saveDetail": "",
                "value": 22
            },
            "reflex": {
                "saveDetail": "",
                "value": 14
            },
            "will": {
                "saveDetail": "",
                "value": 0
            }
        },
        "source": {
            "value": ""
        },
        "statusEffects": [],
        "traits": {
            "ci": [],
            "di": {
                "custom": "",
                "selected": {},
                "value": [
                    "acid",
                    "critical-hits",
                    "electricity",
                    "fire",
                    "object-immunities",
                    "precision"
                ]
            },
            "dr": [],
            "dv": [],
            "rarity": "common",
            "size": {
                "value": "med"
            },
            "traits": {
                "custom": "",
                "value": [
                    "environmental",
                    "fungus"
                ]
            }
        }
    },
    "effects": [],
    "flags": {},
    "img": "systems/pf2e/icons/default-icons/hazard.svg",
    "items": [
        {
            "_id": "eV1zBAr9CgzQ2C5X",
            "data": {
                "actionCategory": {
                    "value": "offensive"
                },
                "actionType": {
                    "value": "reaction"
                },
                "actions": {
                    "value": null
                },
                "description": {
                    "value": "<p data-visibility=\"gm\"><strong>Trigger</strong> A creature moves into the ash web's space or damages the web with any type of damage other than cold damage.</p>\n<p><strong>Requirements</strong> The ash web is not in direct sunlight.</p>\n<p><strong>Effect</strong> The triggering creature and all creatures within 10 feet of that creature are exposed to ash web spores.</p>"
                },
                "requirements": {
                    "value": ""
                },
                "rules": [],
                "slug": null,
                "source": {
                    "value": ""
                },
                "traits": {
                    "custom": "",
                    "rarity": "common",
                    "selected": {},
                    "value": []
                },
                "trigger": {
                    "value": ""
                },
                "weapon": {
                    "value": ""
                }
            },
            "effects": [],
            "flags": {},
            "img": "systems/pf2e/icons/actions/Reaction.webp",
            "name": "Spore Explosion",
            "sort": 100000,
            "type": "action"
        },
        {
            "_id": "0tHs3BRTN0UIM4j7",
            "data": {
                "actionCategory": {
                    "value": "offensive"
                },
                "actionType": {
                    "value": "passive"
                },
                "actions": {
                    "value": null
                },
                "description": {
                    "value": "<p data-visibility=\"gm\">The enfeebled condition from ash web remains even after the poison's duration ends. The condition's value reduces by 1 per hour. Gugs are immune to this poison; instead, they have vivid and strange dreams when they sleep after ingesting ash web.</p>\n<p><strong>Saving Throw</strong> <span data-pf2-check=\"fortitude\" data-pf2-traits=\"inhaled,poison\" data-pf2-label=\"Ash Web Spores DC\" data-pf2-dc=\"29\" data-pf2-show-dc=\"gm\">Fortitude</span></p>\n<div data-visibility=\"gm\">\n<p><strong>Maximum Duration</strong> 6 rounds</p>\n<hr />\n<p><strong>Stage 1</strong> [[/r {2d6}[poison]]]{2d6 poison damage} and @Compendium[pf2e.conditionitems.Enfeebled]{Enfeebled 1} (1 round)</p>\n<p><strong>Stage 2</strong> [[/r {4d6}[poison]]]{4d6 poison damage} and @Compendium[pf2e.conditionitems.Enfeebled]{Enfeebled 2} (1 round)</p>\n<p><strong>Stage 3</strong> [[/r {6d6}[poison]]]{6d6 poison damage} and @Compendium[pf2e.conditionitems.Enfeebled]{Enfeebled 3} (1 round).</p></div>"
                },
                "requirements": {
                    "value": ""
                },
                "rules": [],
                "slug": null,
                "source": {
                    "value": ""
                },
                "traits": {
                    "custom": "",
                    "rarity": "common",
                    "value": [
                        "poison",
                        "inhaled"
                    ]
                },
                "trigger": {
                    "value": ""
                },
                "weapon": {
                    "value": ""
                }
            },
            "effects": [],
            "flags": {},
            "img": "systems/pf2e/icons/actions/Passive.webp",
            "name": "Ash Web Spores",
            "sort": 200000,
            "type": "action"
        }
    ],
    "name": "Ash Web",
    "token": {
        "disposition": 0,
        "height": 1,
        "img": "systems/pf2e/icons/default-icons/hazard.svg",
        "name": "Ash Web",
        "width": 1
    },
    "type": "hazard"
}
