{
    "_id": "BudeoAoJ4dOxjj0K",
    "data": {
        "attributes": {
            "ac": {
                "value": 0
            },
            "hardness": 0,
            "hasHealth": true,
            "hp": {
                "details": "",
                "max": 0,
                "temp": 0,
                "tempmax": 0,
                "value": 0
            },
            "stealth": {
                "details": "<p>or <em>@Compendium[pf2e.spells-srd.Detect Magic]{Detect Magic}</em></p>",
                "value": 0
            }
        },
        "creatureType": "",
        "customModifiers": {},
        "details": {
            "description": "<p>A ring of eight dragon pillar replicas mark the border of a dome of magical prismatic energy that entirely contains the Fortress of Sorrow.</p>",
            "disable": "<p>Each dragon pillar that is destroyed removes the corresponding color's effect from Dahak's shell; as long as even one color remains active, the pillars marking the shell's border cannot be damaged themselves, but a successful <span data-pf2-check=\"thievery\" data-pf2-traits=\"magical,trap,hazard\" data-pf2-label=\"Disable Color DC\" data-pf2-dc=\"32\" data-pf2-show-dc=\"gm\">Thievery</span> (master) check or a successful <em>@Compendium[pf2e.spells-srd.Dispel Magic]{Dispel Magic}</em> (6th level; counteract DC 30) against one of the eight pillars can cause a randomly determined active color in the shell defense (below) to become deactivated for [[/br 1d4 #rounds]]{1d4 rounds}.</p>",
            "isComplex": false,
            "level": {
                "value": 12
            },
            "reset": "",
            "routine": ""
        },
        "saves": {
            "fortitude": {
                "saveDetail": "",
                "value": 0
            },
            "reflex": {
                "saveDetail": "",
                "value": 0
            },
            "will": {
                "saveDetail": "",
                "value": 0
            }
        },
        "source": {
            "value": "Pathfinder #146: Cult of Cinders"
        },
        "statusEffects": [],
        "traits": {
            "ci": [],
            "di": {
                "custom": "",
                "selected": {},
                "value": []
            },
            "dr": [],
            "dv": [],
            "rarity": "unique",
            "size": {
                "value": "med"
            },
            "traits": {
                "custom": "",
                "value": [
                    "magical",
                    "trap"
                ]
            }
        }
    },
    "effects": [],
    "flags": {},
    "img": "systems/pf2e/icons/default-icons/hazard.svg",
    "items": [
        {
            "_id": "uapfpdQSjUz13nBn",
            "data": {
                "attack": {
                    "value": ""
                },
                "attackEffects": {
                    "custom": "",
                    "value": []
                },
                "bonus": {
                    "value": 20
                },
                "damageRolls": {},
                "description": {
                    "value": "<p>The target suffers an effect corresponding to the eye beam's color. On a critical hit, the target's save result is one degree worse.</p>"
                },
                "rules": [],
                "slug": null,
                "source": {
                    "value": ""
                },
                "traits": {
                    "custom": "",
                    "rarity": "common",
                    "value": [
                        "range-120"
                    ]
                },
                "weaponType": {
                    "value": "ranged"
                }
            },
            "effects": [],
            "flags": {},
            "img": "systems/pf2e/icons/default-icons/melee.svg",
            "name": "Eye Beam",
            "sort": 1400000,
            "type": "melee"
        },
        {
            "_id": "wXqVDCpWmbgHRsvv",
            "data": {
                "actionCategory": {
                    "value": "offensive"
                },
                "actionType": {
                    "value": "reaction"
                },
                "actions": {
                    "value": null
                },
                "description": {
                    "value": "<p data-visibility=\"gm\"><strong>Trigger</strong> a creature attempts and fails to disable one of the shell colors via Thievery or <em>@Compendium[pf2e.spells-srd.Dispel Magic]{Dispel Magic}</em></p>\n<p><strong>Effect</strong> Dahak's shell Strikes the triggering creature with a random eye beam. Roll [[/r 1d8 #Eye Beam]] to determine the color:</p>\n<ol>\n<li>Red</li>\n<li>Orange</li>\n<li>Yellow</li>\n<li>Green</li>\n<li>Blue</li>\n<li>Indigo</li>\n<li>Violet</li>\n<li>Black</li>\n</ol>"
                },
                "requirements": {
                    "value": ""
                },
                "rules": [],
                "slug": null,
                "source": {
                    "value": ""
                },
                "traits": {
                    "custom": "",
                    "rarity": "common",
                    "selected": {},
                    "value": [
                        "abjuration",
                        "divine",
                        "light"
                    ]
                },
                "trigger": {
                    "value": ""
                },
                "weapon": {
                    "value": ""
                }
            },
            "effects": [],
            "flags": {},
            "img": "systems/pf2e/icons/actions/Reaction.webp",
            "name": "Prismatic Beam",
            "sort": 2200000,
            "type": "action"
        },
        {
            "_id": "qfAZ12H9DKd8pEad",
            "data": {
                "actionCategory": {
                    "value": ""
                },
                "actionType": {
                    "value": "passive"
                },
                "actions": {
                    "value": null
                },
                "description": {
                    "value": "<p>When a creature physically passes through the shell, the creature is affected simultaneously by all colors of energy currently active in the shell; apply these effects in the following order: red, orange, yellow, green, blue, indigo, violet, black. These effects are the same as that of the eye beams. Each effect requires its own save.</p>"
                },
                "requirements": {
                    "value": ""
                },
                "rules": [],
                "slug": null,
                "source": {
                    "value": ""
                },
                "traits": {
                    "custom": "",
                    "rarity": "common",
                    "value": [
                        "abjuration",
                        "divine",
                        "light"
                    ]
                },
                "trigger": {
                    "value": ""
                },
                "weapon": {
                    "value": ""
                }
            },
            "effects": [],
            "flags": {},
            "img": "systems/pf2e/icons/actions/Passive.webp",
            "name": "Shell Defense",
            "sort": 2400000,
            "type": "action"
        },
        {
            "_id": "iVZygV9OkEH28o2Q",
            "data": {
                "actionCategory": {
                    "value": "offensive"
                },
                "actionType": {
                    "value": "passive"
                },
                "actions": {
                    "value": null
                },
                "description": {
                    "value": "<p><span data-pf2-check=\"fortitude\" data-pf2-dc=\"32\" data-pf2-traits=\"divine,abjuration,incapacitation,hazard,trap,light\" data-pf2-label=\"Black Eye Beam DC\" data-pf2-show-dc=\"gm\">Fortitude</span> save.</p>\n<div data-visibility=\"gm\"><hr />\n<p><strong>Critical Success</strong> The target is unaffected.</p>\n<p><strong>Success</strong> The target is @Compendium[pf2e.conditionitems.Blinded]{Blinded} for 1 round.</p>\n<p><strong>Failure</strong> The target is blinded for 1 hour.</p>\n<p><strong>Critical Failure</strong> The target is blinded for 24 hours.</p>\n</div>"
                },
                "requirements": {
                    "value": ""
                },
                "rules": [],
                "slug": null,
                "source": {
                    "value": ""
                },
                "traits": {
                    "custom": "",
                    "rarity": "common",
                    "value": [
                        "abjuration",
                        "divine",
                        "incapacitation",
                        "light"
                    ]
                },
                "trigger": {
                    "value": ""
                },
                "weapon": {
                    "value": ""
                }
            },
            "effects": [],
            "flags": {},
            "img": "systems/pf2e/icons/actions/Passive.webp",
            "name": "Black Eye Beam",
            "sort": 1300000,
            "type": "action"
        },
        {
            "_id": "YsvmoSYwOoP0KhQx",
            "data": {
                "actionCategory": {
                    "value": "offensive"
                },
                "actionType": {
                    "value": "passive"
                },
                "actions": {
                    "value": null
                },
                "description": {
                    "value": "<p><span data-pf2-check=\"fortitude\" data-pf2-dc=\"32\" data-pf2-traits=\"divine,abjuration,incapacitation,trap,hazard,light\" data-pf2-label=\"Blue Eye Beam DC\" data-pf2-show-dc=\"gm\">Fortitude</span> save.</p>\n<div data-visibility=\"gm\"><hr />\n<p><strong>Critical Success</strong> The target is unaffected.</p>\n<p><strong>Success</strong> The target is @Compendium[pf2e.conditionitems.Petrified]{Petrified} for 1 round.</p>\n<p><strong>Failure</strong> The target is petrified for 1 hour.</p>\n<p><strong>Critical Failure</strong> The target is petrified permanently.</p>\n</div>"
                },
                "requirements": {
                    "value": ""
                },
                "rules": [],
                "slug": null,
                "source": {
                    "value": ""
                },
                "traits": {
                    "custom": "",
                    "rarity": "common",
                    "value": [
                        "abjuration",
                        "divine",
                        "incapacitation",
                        "light"
                    ]
                },
                "trigger": {
                    "value": ""
                },
                "weapon": {
                    "value": ""
                }
            },
            "effects": [],
            "flags": {},
            "img": "systems/pf2e/icons/actions/Passive.webp",
            "name": "Blue Eye Beam",
            "sort": 1500000,
            "type": "action"
        },
        {
            "_id": "9uKEXs9NLIvxXisk",
            "data": {
                "actionCategory": {
                    "value": "offensive"
                },
                "actionType": {
                    "value": "passive"
                },
                "actions": {
                    "value": null
                },
                "description": {
                    "value": "<p>[[/r {6d6}[poison]]]{6d6 poison damage} (<span data-pf2-check=\"reflex\" data-pf2-dc=\"32\" data-pf2-traits=\"divine,abjuration,poison,custom,damaging-effect,hazard,trap,light\" data-pf2-label=\"Green Eye Beam DC\" data-pf2-show-dc=\"gm\">basic Reflex</span> save).</p>"
                },
                "requirements": {
                    "value": ""
                },
                "rules": [],
                "slug": null,
                "source": {
                    "value": ""
                },
                "traits": {
                    "custom": "",
                    "rarity": "common",
                    "value": [
                        "abjuration",
                        "divine",
                        "light",
                        "poison"
                    ]
                },
                "trigger": {
                    "value": ""
                },
                "weapon": {
                    "value": ""
                }
            },
            "effects": [],
            "flags": {},
            "img": "systems/pf2e/icons/actions/Passive.webp",
            "name": "Green Eye Beam",
            "sort": 1600000,
            "type": "action"
        },
        {
            "_id": "oDodI8lhFK3QYtHx",
            "data": {
                "actionCategory": {
                    "value": "offensive"
                },
                "actionType": {
                    "value": "passive"
                },
                "actions": {
                    "value": null
                },
                "description": {
                    "value": "<p><span data-pf2-check=\"will\" data-pf2-dc=\"32\" data-pf2-traits=\"divination,abjuration,incapacitation,hazard,trap,light\" data-pf2-label=\"Indigo Eye Beam DC\" data-pf2-show-dc=\"gm\">Will</span> save.</p>\n<div data-visibility=\"gm\"><hr />\n<p><strong>Critical Success</strong> The target is unaffected.</p>\n<p><strong>Success</strong> The target is @Compendium[pf2e.conditionitems.Slowed]{Slowed 1} for 1 round.</p>\n<p><strong>Failure</strong> The target is @Compendium[pf2e.conditionitems.Confused]{Confused} for 1 round.</p>\n<p><strong>Critical Failure</strong> The target is controlled by the dragon pillar and remains within 60 feet of it at all times, defending the dragon pillar from all non-Cinderclaws. While a target is controlled, it is treated as a Cinderclaw ally by the dragon pillar. The dragon pillar can control up to 3 targets at a time; any targets in excess who critically fail this saving throw are instead confused for [[/br 1d4+1 #Confused Rounds]]{1d4+1} rounds. A controlled creature can attempt a new Will save once every 24 hours to escape control, but doing so automatically causes the dragon pillar to attack it with a new eye beam to attempt to re-establish control. The control ends if the pillar is destroyed.</p>\n</div>"
                },
                "requirements": {
                    "value": ""
                },
                "rules": [],
                "slug": null,
                "source": {
                    "value": ""
                },
                "traits": {
                    "custom": "",
                    "rarity": "common",
                    "value": [
                        "abjuration",
                        "divination",
                        "incapacitation",
                        "light"
                    ]
                },
                "trigger": {
                    "value": ""
                },
                "weapon": {
                    "value": ""
                }
            },
            "effects": [],
            "flags": {},
            "img": "systems/pf2e/icons/actions/Passive.webp",
            "name": "Indigo Eye Beam",
            "sort": 1700000,
            "type": "action"
        },
        {
            "_id": "Sohj5I5HF2aiJ17e",
            "data": {
                "actionCategory": {
                    "value": "offensive"
                },
                "actionType": {
                    "value": "passive"
                },
                "actions": {
                    "value": null
                },
                "description": {
                    "value": "<p>[[/r {6d6}[electricity]]]{6d6 electricity damage} (<span data-pf2-check=\"reflex\" data-pf2-dc=\"32\" data-pf2-traits=\"divine,abjuration,evocation,custom,damaging-effect,hazard,trap,light\" data-pf2-label=\"Yellow Eye Beam DC\" data-pf2-show-dc=\"gm\">basic Reflex</span> save).</p>"
                },
                "requirements": {
                    "value": ""
                },
                "rules": [],
                "slug": null,
                "source": {
                    "value": ""
                },
                "traits": {
                    "custom": "",
                    "rarity": "common",
                    "value": [
                        "abjuration",
                        "divine",
                        "electricity",
                        "light"
                    ]
                },
                "trigger": {
                    "value": ""
                },
                "weapon": {
                    "value": ""
                }
            },
            "effects": [],
            "flags": {},
            "img": "systems/pf2e/icons/actions/Passive.webp",
            "name": "Yellow Eye Beam",
            "sort": 1800000,
            "type": "action"
        },
        {
            "_id": "8OAdLpknHQWsmvmE",
            "data": {
                "actionCategory": {
                    "value": "offensive"
                },
                "actionType": {
                    "value": "passive"
                },
                "actions": {
                    "value": null
                },
                "description": {
                    "value": "<p>[[/r {6d6}[acid]]]{6d6 acid damage} (<span data-pf2-check=\"reflex\" data-pf2-dc=\"32\" data-pf2-traits=\"divine,acid,abjuration,custom,damaging-effect,hazard,trap,light\" data-pf2-label=\"Orange Eye Beam DC\" data-pf2-show-dc=\"gm\">basic Reflex</span> save).</p>"
                },
                "requirements": {
                    "value": ""
                },
                "rules": [],
                "slug": null,
                "source": {
                    "value": ""
                },
                "traits": {
                    "custom": "",
                    "rarity": "common",
                    "value": [
                        "abjuration",
                        "acid",
                        "divine",
                        "light"
                    ]
                },
                "trigger": {
                    "value": ""
                },
                "weapon": {
                    "value": ""
                }
            },
            "effects": [],
            "flags": {},
            "img": "systems/pf2e/icons/actions/Passive.webp",
            "name": "Orange Eye Beam",
            "sort": 1900000,
            "type": "action"
        },
        {
            "_id": "lfmWRoj9CXxKLkCs",
            "data": {
                "actionCategory": {
                    "value": "offensive"
                },
                "actionType": {
                    "value": "passive"
                },
                "actions": {
                    "value": null
                },
                "description": {
                    "value": "<p>[[/r {6d6}[fire]]]{6d6 fire damage} (<span data-pf2-check=\"reflex\" data-pf2-dc=\"32\" data-pf2-traits=\"divine,fire,abjuration,damaging-effect,hazard,trap,light\" data-pf2-label=\"Red Eye Beam DC\" data-pf2-show-dc=\"gm\">basic Reflex</span> save).</p>"
                },
                "requirements": {
                    "value": ""
                },
                "rules": [],
                "slug": null,
                "source": {
                    "value": ""
                },
                "traits": {
                    "custom": "",
                    "rarity": "common",
                    "value": [
                        "abjuration",
                        "divine",
                        "fire",
                        "light"
                    ]
                },
                "trigger": {
                    "value": ""
                },
                "weapon": {
                    "value": ""
                }
            },
            "effects": [],
            "flags": {},
            "img": "systems/pf2e/icons/actions/Passive.webp",
            "name": "Red Eye Beam",
            "sort": 2000000,
            "type": "action"
        },
        {
            "_id": "sjs5I4Em4t7kFOwK",
            "data": {
                "actionCategory": {
                    "value": "offensive"
                },
                "actionType": {
                    "value": "passive"
                },
                "actions": {
                    "value": null
                },
                "description": {
                    "value": "<p><span data-pf2-check=\"will\" data-pf2-dc=\"32\" data-pf2-traits=\"divine,abjuration,incapacitation,hazard,trap,light\" data-pf2-label=\"Violet Eye Beam DC\" data-pf2-show-dc=\"gm\">Will</span> save.</p>\n<div data-visibility=\"gm\"><hr />\n<p><strong>Critical Success</strong> The target is unaffected.</p>\n<p><strong>Success</strong> The target is @Compendium[pf2e.conditionitems.Stunned]{Stunned 1}.</p>\n<p><strong>Failure</strong> The target is @Compendium[pf2e.conditionitems.Stunned]{Stunned 3}.</p>\n<p><strong>Critical Failure</strong> The target is @Compendium[pf2e.conditionitems.Stunned]{Stunned 7}.</p>\n</div>"
                },
                "requirements": {
                    "value": ""
                },
                "rules": [],
                "slug": null,
                "source": {
                    "value": ""
                },
                "traits": {
                    "custom": "",
                    "rarity": "common",
                    "value": [
                        "abjuration",
                        "divine",
                        "incapacitation",
                        "light"
                    ]
                },
                "trigger": {
                    "value": ""
                },
                "weapon": {
                    "value": ""
                }
            },
            "effects": [],
            "flags": {},
            "img": "systems/pf2e/icons/actions/Passive.webp",
            "name": "Violet Eye Beam",
            "sort": 2100000,
            "type": "action"
        }
    ],
    "name": "Dahak's Shell",
    "token": {
        "disposition": 0,
        "height": 1,
        "img": "systems/pf2e/icons/default-icons/hazard.svg",
        "name": "Dahak's Shell",
        "width": 1
    },
    "type": "hazard"
}
