{
    "_id": "2PtjynRwj4bBm4rZ",
    "content": "<table class=\"pf2-table\">\n<thead>\n<tr>\n<th>\n<h3><strong>Name</strong></h3>\n</th>\n<th>\n<h3><strong>Crit Effect</strong></h3>\n</th>\n<th>\n<h3><strong>Type</strong></h3>\n</th>\n</tr>\n</thead>\n<tbody>\n<tr>\n<td>Hand it Over</td>\n<td>Unless you succeed at a Reflex saving throw, your target gains possessions of your weapon.</td>\n<td>\n<h3>Melee</h3>\n</td>\n</tr>\n<tr>\n<td>Broken</td>\n<td>Your weapon's current Hit Points are reduced to its Broken Threshold. If already broken, the weapon takes 3d6 damage, ignoring Hardness.</td>\n<td>\n<h3>Ranged</h3>\n</td>\n</tr>\n<tr>\n<td>Smash the Floor</td>\n<td>You kick up a cloud of dust, becoming blinded until the end of your next turn.</td>\n<td>\n<h3>Unarmed</h3>\n</td>\n</tr>\n<tr>\n<td>You made 'em Faster</td>\n<td>The target is quickened for 2 rounds.</td>\n<td>\n<h3>Spell</h3>\n</td>\n</tr>\n</tbody>\n</table>\n<h3 style=\"text-align: left;\"> </h3>",
    "flags": {},
    "name": "Critical Fumble Deck #44",
    "permission": {
        "default": 0
    }
}
