{
    "_id": "cm09iVg6JGpCu3Rh",
    "data": {
        "attributes": {
            "ac": {
                "value": 16
            },
            "hardness": 5,
            "hasHealth": true,
            "hp": {
                "details": "",
                "max": 24,
                "temp": 0,
                "value": 24
            },
            "stealth": {
                "details": "<p>(trained) or <span data-pf2-check=\"perception\" data-pf2-traits=\"hazard,complex,fire,magical,trap\" data-pf2-label=\"Notice Control Panel DC\" data-pf2-dc=\"15\" data-pf2-show-dc=\"gm\">Perception</span> check to notice the control panel</p>",
                "value": 7
            }
        },
        "creatureType": "",
        "customModifiers": {},
        "details": {
            "description": "<p>A @Template[type:burst|distance:5] pillar of magical fire travels along a track throughout the room. The pillar emits bright light out to 20 feet.</p>",
            "disable": "<p><span data-pf2-check=\"arcana\" data-pf2-traits=\"complex,fire,magical,trap,hazard\" data-pf2-label=\"Deactivate Control Panel DC\" data-pf2-dc=\"20\" data-pf2-show-dc=\"gm\">Arcana</span> (trained) or <span data-pf2-check=\"thievery\" data-pf2-traits=\"complex,fire,magical,trap,hazard\" data-pf2-label=\"Deactivate Control Panel DC\" data-pf2-dc=\"20\" data-pf2-show-dc=\"gm\">Thievery</span> (trained) once on the control panel deactivates the whole trap, or <span data-pf2-check=\"thievery\" data-pf2-traits=\"complex,fire,magical,trap,hazard\" data-pf2-label=\"Deactivate Tracks DC\" data-pf2-dc=\"17\" data-pf2-show-dc=\"gm\">Thievery</span> (trained) twice on the track prevents the pillar from moving. Each check requires two actions.</p>",
            "isComplex": true,
            "level": {
                "value": 1
            },
            "reset": "<p>The trap deactivates once it no longer detects the presence of creatures in the room.</p>",
            "routine": "<p>(2 actions) The pillar Strides, following the track in the room. If the trap's track is broken, the pillar can still Stride, but its Speed is only 10 feet. The pillar cannot move at all if the track is destroyed. When the pillar moves, it deals [[/r {1d6+3}[fire]]]{1d6+3 fire damage} to any creatures whose space it moves through.</p>"
        },
        "saves": {
            "fortitude": {
                "saveDetail": "",
                "value": 8
            },
            "reflex": {
                "saveDetail": "",
                "value": 10
            },
            "will": {
                "saveDetail": "",
                "value": 0
            }
        },
        "source": {
            "value": ""
        },
        "statusEffects": [],
        "traits": {
            "ci": [],
            "di": {
                "custom": "",
                "selected": {},
                "value": [
                    "critical-hits",
                    "object-immunities",
                    "precision"
                ]
            },
            "dr": [],
            "dv": [],
            "rarity": "uncommon",
            "size": {
                "value": "med"
            },
            "traits": {
                "custom": "",
                "value": [
                    "fire",
                    "magical",
                    "trap"
                ]
            }
        }
    },
    "effects": [],
    "flags": {},
    "img": "systems/pf2e/icons/default-icons/hazard.svg",
    "items": [
        {
            "_id": "2O2MPPNHmPEoqChK",
            "data": {
                "actionCategory": {
                    "value": "defensive"
                },
                "actionType": {
                    "value": "reaction"
                },
                "actions": {
                    "value": null
                },
                "description": {
                    "value": "<p data-visibility=\"gm\"><strong>Trigger</strong> Skyreach's defenses are active, and a creature who is not carrying a <em>@Compendium[pf2e.equipment-srd.Wayfinder]{Wayfinder}</em> enters the room.</p>\n<p><strong>Effect</strong> A pillar of magical fire surges forth. The hazard rolls initiative.</p>"
                },
                "requirements": {
                    "value": ""
                },
                "rules": [],
                "slug": null,
                "source": {
                    "value": ""
                },
                "traits": {
                    "custom": "",
                    "rarity": "common",
                    "value": [
                        "arcane",
                        "fire"
                    ]
                },
                "trigger": {
                    "value": ""
                }
            },
            "effects": [],
            "flags": {},
            "img": "systems/pf2e/icons/actions/Reaction.webp",
            "name": "Flaming Circuit",
            "sort": 0,
            "type": "action"
        },
        {
            "_id": "1GdWjUP7TWz03AEK",
            "data": {
                "actionCategory": {
                    "value": "defensive"
                },
                "actionType": {
                    "value": "passive"
                },
                "actions": {
                    "value": null
                },
                "description": {
                    "value": ""
                },
                "requirements": {
                    "value": ""
                },
                "rules": [],
                "slug": null,
                "source": {
                    "value": ""
                },
                "traits": {
                    "custom": "",
                    "rarity": "common",
                    "value": []
                },
                "trigger": {
                    "value": ""
                }
            },
            "effects": [],
            "flags": {},
            "img": "systems/pf2e/icons/actions/Passive.webp",
            "name": "Speed 20 feet",
            "sort": 0,
            "type": "action"
        }
    ],
    "name": "Fire Sentry",
    "token": {
        "disposition": 0,
        "height": 1,
        "img": "systems/pf2e/icons/default-icons/hazard.svg",
        "name": "Fire Sentry",
        "width": 1
    },
    "type": "hazard"
}
