{
    "_id": "5V49l0K460CcvBOO",
    "data": {
        "actionCategory": {
            "value": "interaction"
        },
        "actionType": {
            "value": "reaction"
        },
        "actions": {
            "value": null
        },
        "description": {
            "value": "<p><strong>Trigger</strong> The target takes damage</p>\n<p><strong>Requirements</strong> You're within 1 mile of the target</p>\n<p><strong>Effect</strong> After calculating the amount of damage the target would take (applying weaknesses, resistances, and the like), you lose an equal number of Hit Points, and the target doesn't take any of the damage. You can't reduce the amount of Hit Points you lose in this way. The target still takes any effects that would come with the damage, however, such as the venom on a viper's fangs Strike.</p>"
        },
        "requirements": {
            "value": ""
        },
        "rules": [],
        "source": {
            "value": ""
        },
        "traits": {
            "custom": "",
            "rarity": "common",
            "value": [
                "concentrate"
            ]
        },
        "trigger": {
            "value": ""
        },
        "weapon": {
            "value": ""
        }
    },
    "effects": [],
    "flags": {},
    "img": "systems/pf2e/icons/actions/Reaction.webp",
    "name": "Defend Life",
    "type": "action"
}
