{
    "_id": "cYdz2grcOcRt4jk6",
    "data": {
        "actionCategory": {
            "value": ""
        },
        "actionType": {
            "value": "action"
        },
        "actions": {
            "value": 2
        },
        "description": {
            "value": "<p><strong>Requirements</strong> Some devices require you to use @Compendium[pf2e.equipment-srd.Thieves' Tools]{Thieves' Tools} when disabling them.</p>\n<hr />\n<p>This action allows you to disarm a trap or another complex device. Often, a device requires numerous successes before becoming disabled, depending on its construction and complexity. Thieves' tools are helpful and sometimes even required to Disable a Device, as determined by the GM, and sometimes a device requires a higher proficiency rank in Thievery to disable it.</p>\n<p>Your Thievery check result determines how much progress you make.</p>\n<hr />\n<p><strong>Critical Success</strong> You disable the device, or you achieve two successes toward disabling a complex device. You leave no trace of your tampering, and you can rearm the device later, if that type of device can be rearmed.</p>\n<p><strong>Success</strong> You disable the device, or you achieve one success toward disabling a complex device.</p>\n<p><strong>Critical Failure</strong> You trigger the device.</p>"
        },
        "requirements": {
            "value": ""
        },
        "rules": [],
        "source": {
            "value": "Pathfinder Core Rulebook"
        },
        "traits": {
            "custom": "",
            "rarity": "common",
            "value": [
                "manipulate",
                "skill"
            ]
        },
        "trigger": {
            "value": ""
        },
        "weapon": {
            "value": ""
        }
    },
    "effects": [],
    "flags": {},
    "img": "systems/pf2e/icons/actions/TwoActions.webp",
    "name": "Disable Device",
    "type": "action"
}
