{
    "_id": "jftNJjBNxp2cleoi",
    "data": {
        "actionCategory": {
            "value": ""
        },
        "actionType": {
            "value": "free"
        },
        "actions": {
            "value": null
        },
        "description": {
            "value": "<p><strong>Frequency</strong> once per 10 minutes</p>\n<hr />\n<p>You observe and assess your surroundings with great speed. You @Compendium[pf2e.actionspf2e.Recall Knowledge (Arcana)]{Recall Knowledge}, @Compendium[pf2e.actionspf2e.Seek]{Seek}, or @Compendium[pf2e.actionspf2e.Sense Motive]{Sense Motive}.</p>"
        },
        "requirements": {
            "value": ""
        },
        "rules": [],
        "source": {
            "value": "Pathfinder Advanced Player's Guide"
        },
        "traits": {
            "custom": "",
            "rarity": "common",
            "value": [
                "investigator"
            ]
        },
        "trigger": {
            "value": ""
        },
        "weapon": {
            "value": ""
        }
    },
    "effects": [],
    "flags": {},
    "img": "systems/pf2e/icons/actions/FreeAction.webp",
    "name": "Expeditious Inspection",
    "type": "action"
}
