{
    "_id": "h4Tzdhqfryp5m2fO",
    "data": {
        "actionCategory": {
            "value": "offensive"
        },
        "actionType": {
            "value": "reaction"
        },
        "actions": {
            "value": null
        },
        "description": {
            "value": "<p><strong>Requirements</strong> You're inside Kothogaz's body.</p>\n<hr />\n<p>You attempt to steal a section of Kothogaz's heart. Attempt an attack roll or a <span data-pf2-check=\"acrobatics\" data-pf2-traits=\"manipulate\" data-pf2-label=\"Harvest Heartsliver DC (Acrobatics)\" data-pf2-dc=\"40\" data-pf2-show-dc=\"gm\">Acrobatics</span>, <span data-pf2-check=\"athletics\" data-pf2-traits=\"manipulate\" data-pf2-label=\"Harvest Heartsliver DC (Athletics)\" data-pf2-dc=\"40\" data-pf2-show-dc=\"gm\">Athletics</span>, <span data-pf2-check=\"medicine\" data-pf2-traits=\"manipulate\" data-pf2-label=\"Harvest Heartsliver DC (Medicine)\" data-pf2-dc=\"40\" data-pf2-show-dc=\"gm\">Medicine</span>, <span data-pf2-check=\"nature\" data-pf2-traits=\"manipulate\" data-pf2-label=\"Harvest Heartsliver DC (Nature)\" data-pf2-dc=\"40\" data-pf2-show-dc=\"gm\">Nature</span>, <span data-pf2-check=\"occultism\" data-pf2-traits=\"manipulate\" data-pf2-label=\"Harvest Heartsliver DC (Occultism)\" data-pf2-dc=\"40\" data-pf2-show-dc=\"gm\">Occultism</span>, or<span data-pf2-check=\"religion\" data-pf2-traits=\"manipulate\" data-pf2-label=\"Harvest Heartsliver DC (Religion)\" data-pf2-dc=\"40\" data-pf2-show-dc=\"gm\">Religion</span> check.</p>\n<hr />\n<p><strong>Critical Success</strong> You steal a small disharmonic heartsliver, stow it on your person, and can exit Kothogaz's body.</p>\n<p><strong>Success</strong> As critical success, but you can't exit.</p>\n<p><strong>Failure</strong> You take Kothogaz's Swallow Whole damage.</p>\n<p><strong>Critical Failure</strong> You take double Kothogaz's Swallow Whole damage and are @Compendium[pf2e.conditionitems.Deafened]{Deafened} by its heartbeat for 1 minute.</p>"
        },
        "requirements": {
            "value": ""
        },
        "rules": [],
        "source": {
            "value": "Pathfinder Lost Omens: Monsters of Myth"
        },
        "traits": {
            "custom": "",
            "rarity": "common",
            "value": [
                "manipulate"
            ]
        },
        "trigger": {
            "value": ""
        }
    },
    "effects": [],
    "flags": {},
    "img": "systems/pf2e/icons/actions/Reaction.webp",
    "name": "Harvest Heartsilver",
    "type": "action"
}
