{
    "_id": "XMcnh4cSI32tljXa",
    "data": {
        "actionCategory": {
            "value": ""
        },
        "actionType": {
            "value": "action"
        },
        "actions": {
            "value": 1
        },
        "description": {
            "value": "<p>You huddle behind cover or greater cover or deeper into concealment to become @Compendium[pf2e.conditionitems.Hidden]{Hidden}, rather than @Compendium[pf2e.conditionitems.Observed]{Observed}. The GM rolls your <span data-pf2-action=\"hide\" data-pf2-glyph=\"A\">Stealth</span> check in secret and compares the result to the Perception DC of each creature you're observed by but that you have cover or greater cover against or are concealed from. You gain the circumstance bonus from cover or greater cover to your check.</p>\n<hr />\n<p><strong>Success</strong> If the creature could see you, you're now hidden from it instead of observed. If you were hidden from or @Compendium[pf2e.conditionitems.Undetected]{Undetected} by the creature, you retain that condition.</p>\n<p>If you successfully become hidden to a creature but then cease to have cover or greater cover against it or be concealed from it, you become observed again. You cease being hidden if you do anything except Hide, @Compendium[pf2e.actionspf2e.Sneak]{Sneak}, or Step. If you attempt to Strike a creature, the creature remains @Compendium[pf2e.conditionitems.Flat-Footed]{Flat-Footed} against that attack, and you then become observed. If you do anything else, you become observed just before you act unless the GM determines otherwise. The GM might allow you to perform a particularly unobtrusive action without being noticed, possibly requiring another Stealth check.</p>\n<p>If a creature uses @Compendium[pf2e.actionspf2e.Seek]{Seek} to make you observed by it, you must successfully Hide to become hidden from it again.</p>"
        },
        "requirements": {
            "value": ""
        },
        "rules": [],
        "source": {
            "value": "Pathfinder Core Rulebook"
        },
        "traits": {
            "custom": "",
            "rarity": "common",
            "value": [
                "skill",
                "secret"
            ]
        },
        "trigger": {
            "value": ""
        },
        "weapon": {
            "value": ""
        }
    },
    "effects": [],
    "flags": {},
    "img": "systems/pf2e/icons/actions/OneAction.webp",
    "name": "Hide",
    "type": "action"
}
