{
    "_id": "JUvAvruz7yRQXfz2",
    "data": {
        "actionCategory": {
            "value": ""
        },
        "actionType": {
            "value": "action"
        },
        "actions": {
            "value": 2
        },
        "description": {
            "value": "<p>You Stride, then make a horizontal Leap and attempt an <span data-pf2-action=\"longJump\" data-pf2-glyph=\"D\">Athletics</span> check to increase the length of your jump. The DC of the Athletics check is equal to the total distance in feet you're attempting to move during your Leap (so you'd need to succeed at a DC 20 check to Leap 20 feet). You can't Leap farther than your Speed.</p>\n<p>If you didn't Stride at least 10 feet, or if you attempt to jump in a different direction than your Stride, you automatically fail your check. This DC might be increased or decreased due to the situation, as determined by the GM.</p>\n<hr />\n<p><strong>Success</strong> Increase the maximum horizontal distance you @Compendium[pf2e.actionspf2e.Leap]{Leap} to the desired distance.</p>\n<p><strong>Failure</strong> You Leap normally.</p>\n<p><strong>Critical Failure</strong> You Leap normally, but then fall and land @Compendium[pf2e.conditionitems.Prone]{Prone}.</p>"
        },
        "requirements": {
            "value": ""
        },
        "rules": [],
        "source": {
            "value": "Pathfinder Core Rulebook"
        },
        "traits": {
            "custom": "",
            "rarity": "common",
            "value": [
                "move",
                "skill"
            ]
        },
        "trigger": {
            "value": ""
        },
        "weapon": {
            "value": ""
        }
    },
    "effects": [],
    "flags": {},
    "img": "systems/pf2e/icons/actions/TwoActions.webp",
    "name": "Long Jump",
    "type": "action"
}
