{
    "_id": "bCDMuu3tE4d6KHrJ",
    "data": {
        "actionCategory": {
            "value": "offensive"
        },
        "actionType": {
            "value": "reaction"
        },
        "actions": {
            "value": null
        },
        "description": {
            "value": "<p><strong>Requirements</strong> You're wielding a one-handed firearm or one-handed crossbow.</p>\n<p><strong>Trigger</strong> A foe within the first range increment of the one- handed firearm or one-handed crossbow you're wielding critically fails an attack roll against you.</p>\n<hr />\n<p>You punish your foe's failure with a shot. Make a Strike against the triggering foe with a one-handed firearm or one-handed crossbow.</p>"
        },
        "requirements": {
            "value": ""
        },
        "rules": [],
        "source": {
            "value": ""
        },
        "traits": {
            "custom": "",
            "rarity": "common",
            "value": [
                "gunslinger"
            ]
        },
        "trigger": {
            "value": ""
        }
    },
    "effects": [],
    "flags": {},
    "img": "systems/pf2e/icons/actions/Reaction.webp",
    "name": "Pistolero's Retort",
    "type": "action"
}
