{
    "_id": "bT3skovyLUtP22ME",
    "data": {
        "actionCategory": {
            "value": ""
        },
        "actionType": {
            "value": "passive"
        },
        "actions": {
            "value": null
        },
        "description": {
            "value": "<p><strong>Requirements</strong> You are holding or wearing a @Compendium[pf2e.equipment-srd.Repair Kit]{Repair Kit}</p>\n<hr />\n<p>You spend 10 minutes attempting to fix a damaged item, placing the item on a stable surface and using the repair kit with both hands. The GM sets the DC, but it's usually about the same DC to Repair a given item as it is to Craft it in the first place. You can't Repair a destroyed item.</p>\n<hr />\n<p><strong>Critical Success</strong> You restore 10 Hit Points to the item, plus an additional 10 Hit Points per proficiency rank you have in Crafting (a total of 20 HP if you're trained, 30 HP if you're an expert, 40 HP if you're a master, or 50 HP if you're legendary).</p>\n<p><strong>Success</strong> You restore 5 Hit Points to the item, plus an additional 5 per proficiency rank you have in Crafting (for a total of 10 HP if you are trained, 15 HP if you're an expert, 20 HP if you're a master, or 25 HP if you're legendary).</p>\n<p><strong>Critical Failure</strong> You deal [[/r {2d6}]]{2d6 damage} to the item. Apply the item's Hardness to this damage.</p>"
        },
        "requirements": {
            "value": ""
        },
        "rules": [],
        "source": {
            "value": "Pathfinder Core Rulebook"
        },
        "traits": {
            "custom": "",
            "rarity": "common",
            "value": [
                "manipulate",
                "skill",
                "exploration"
            ]
        },
        "trigger": {
            "value": ""
        },
        "weapon": {
            "value": ""
        }
    },
    "effects": [],
    "flags": {},
    "img": "systems/pf2e/icons/default-icons/mystery-man.svg",
    "name": "Repair",
    "type": "action"
}
