{
    "_id": "A4L90h7FIgO5EyBx",
    "data": {
        "actionCategory": {
            "value": "offensive"
        },
        "actionType": {
            "value": "action"
        },
        "actions": {
            "value": 2
        },
        "description": {
            "value": "<p><strong>Requirements</strong> You're wielding a firearm that has the kickback or scatter trait, or a two-handed crossbow.</p>\n<hr />\n<p>With unbelievable force, you charge and smash your weapon into a target before digging in your heels and pulling the trigger. Leap or Stride, then make a Strike with the required firearm or crossbow against an adjacent target. This Strike deals an additional [[/r {3d8}[bludgeoning]]]{3d8 bludgeoning damage} and ignores 10 points of the target's Hardness (if any), or of their shield's Hardness if the target uses Shield Block.</p>\n<p>After the Strike, you become @Compendium[pf2e.conditionitems.Immobilized]{Immobilized} and position the required weapon defensively, gaining a +1 circumstance bonus to AC, or a +2 circumstance bonus if the chosen weapon has the parry trait. Both effects last until the start of your next turn. If a force would move you while you're immobilized in this way, it must succeed at an appropriate check against your class DC.</p>"
        },
        "requirements": {
            "value": ""
        },
        "rules": [],
        "source": {
            "value": ""
        },
        "traits": {
            "custom": "",
            "rarity": "common",
            "value": [
                "gunslinger"
            ]
        },
        "trigger": {
            "value": ""
        }
    },
    "effects": [],
    "flags": {},
    "img": "systems/pf2e/icons/actions/TwoActions.webp",
    "name": "Siegebreaker",
    "type": "action"
}
