{
    "_id": "D2PNfIw7U6Ks0VY4",
    "data": {
        "actionCategory": {
            "value": ""
        },
        "actionType": {
            "value": "action"
        },
        "actions": {
            "value": null
        },
        "description": {
            "value": "<p><strong>Cost</strong> 1 Resolve Point</p>\n<hr />\n<p>Regain Stamina Points equal to half your maximum.</p>"
        },
        "requirements": {
            "value": ""
        },
        "rules": [],
        "source": {
            "value": ""
        },
        "traits": {
            "custom": "",
            "rarity": "common",
            "selected": {
                "general": "General"
            },
            "value": [
                "general"
            ]
        },
        "trigger": {
            "value": ""
        },
        "weapon": {
            "value": ""
        }
    },
    "effects": [],
    "flags": {},
    "img": "systems/pf2e/icons/actions/OneAction.webp",
    "name": "Steel your Resolve",
    "type": "action"
}
