{
    "_id": "ev8OHpBO3xq3Zt08",
    "data": {
        "actionCategory": {
            "value": ""
        },
        "actionType": {
            "value": "action"
        },
        "actions": {
            "value": 1
        },
        "description": {
            "value": "<p><strong>Frequency</strong> once per day</p>\n<p><strong>Requirements</strong> You are wielding a piercing or slashing weapon</p>\n<hr />\n<p>You apply your tail's venom to a piercing or slashing weapon. If your next Strike with that weapon before the end of your next turn hits and deals damage, you deal @Compendium[pf2e.conditionitems.Persistent Damage]{Persistent Poison Damage} equal to your level to the target.</p>"
        },
        "requirements": {
            "value": ""
        },
        "rules": [],
        "source": {
            "value": "Pathfinder Advanced Player's Guide"
        },
        "traits": {
            "custom": "",
            "rarity": "common",
            "value": [
                "kobold",
                "poison"
            ]
        },
        "trigger": {
            "value": ""
        },
        "weapon": {
            "value": ""
        }
    },
    "effects": [],
    "flags": {},
    "img": "systems/pf2e/icons/actions/OneAction.webp",
    "name": "Tail Toxin",
    "type": "action"
}
