{
    "_id": "21WIfSu7Xd7uKqV8",
    "data": {
        "actionCategory": {
            "value": ""
        },
        "actionType": {
            "value": "action"
        },
        "actions": {
            "value": 1
        },
        "description": {
            "value": "<p>You Stride up to your Speed. During this movement, you can try to move through the space of one enemy. Attempt an <span data-pf2-action=\"tumbleThrough\" data-pf2-glyph=\"A\">Acrobatics</span> check against the enemy's Reflex DC as soon as you try to enter its space. You can Tumble Through using @Compendium[pf2e.actionspf2e.Climb]{Climb}, @Compendium[pf2e.actionspf2e.Fly]{Fly}, @Compendium[pf2e.actionspf2e.Swim]{Swim}, or another action instead of Stride in the appropriate environment.</p>\n<hr />\n<p><strong>Success</strong> You move through the enemy's space, treating the squares in its space as difficult terrain (every 5 feet costs 10 feet of movement). If you don't have enough Speed to move all the way through its space, you get the same effect as a failure.</p>\n<p><strong>Failure</strong> Your movement ends, and you trigger reactions as if you had moved out of the square you started in.</p>"
        },
        "requirements": {
            "value": ""
        },
        "rules": [],
        "source": {
            "value": "Pathfinder Core Rulebook"
        },
        "traits": {
            "custom": "",
            "rarity": "common",
            "value": [
                "move",
                "skill"
            ]
        },
        "trigger": {
            "value": ""
        },
        "weapon": {
            "value": ""
        }
    },
    "effects": [],
    "flags": {},
    "img": "systems/pf2e/icons/actions/OneAction.webp",
    "name": "Tumble Through",
    "type": "action"
}
