{
    "_id": "tu5viJZT4zFE1sYn",
    "data": {
        "actionCategory": {
            "value": "offensive"
        },
        "actionType": {
            "value": "action"
        },
        "actions": {
            "value": 2
        },
        "description": {
            "value": "<p>Your eidolon lashes out in all directions. It makes a melee unarmed Strike against up to four enemies within reach. It can choose different unarmed attacks for each enemy. Each attack counts toward your multiple attack penalty, but you don't increase your penalty until the eidolon has made all its attacks.</p>"
        },
        "requirements": {
            "value": ""
        },
        "rules": [],
        "source": {
            "value": ""
        },
        "traits": {
            "custom": "",
            "rarity": "common",
            "value": [
                "eidolon"
            ]
        },
        "trigger": {
            "value": ""
        },
        "weapon": {
            "value": ""
        }
    },
    "effects": [],
    "flags": {},
    "img": "systems/pf2e/icons/actions/TwoActions.webp",
    "name": "Whirlwind Maul",
    "type": "action"
}
