{
    "_id": "rH6RHxy6sNTLusKX",
    "data": {
        "description": {
            "value": "<p>For 1 round you gain a +1 item bonus to attack rolls, saving throws, and DCs.</p>"
        },
        "duration": {
            "expiry": "turn-start",
            "sustained": false,
            "unit": "rounds",
            "value": 1
        },
        "level": {
            "value": 1
        },
        "rules": [
            {
                "key": "FlatModifier",
                "predicate": {
                    "any": [
                        "magical",
                        "arcane",
                        "primal",
                        "occult",
                        "divine"
                    ]
                },
                "selector": "saving-throw",
                "type": "item",
                "value": 2
            }
        ],
        "source": {
            "value": ""
        },
        "start": {
            "initiative": null,
            "value": 0
        },
        "target": null,
        "tokenIcon": {
            "show": true
        },
        "traits": {
            "custom": "",
            "rarity": "common",
            "value": []
        }
    },
    "effects": [],
    "flags": {},
    "img": "systems/pf2e/icons/default-icons/effect.svg",
    "name": "Effect: Emerald Fulcrum Lens (Saving Throw)",
    "type": "effect"
}
