{
    "_id": "ClsVhp5baFRjZQ23",
    "data": {
        "description": {
            "value": "<p>The weapon becomes imbued with the triggering energy type. It deals an additional 1d8 acid damage until the end of your next turn.</p>"
        },
        "duration": {
            "expiry": "turn-end",
            "sustained": false,
            "unit": "rounds",
            "value": 1
        },
        "level": {
            "value": 1
        },
        "rules": [
            {
                "damageType": "acid",
                "diceNumber": 1,
                "dieSize": "d8",
                "key": "DamageDice",
                "label": "Energizing Rune (Acid)",
                "predicate": {},
                "selector": "damage"
            }
        ],
        "source": {
            "value": ""
        },
        "start": {
            "initiative": null,
            "value": 0
        },
        "target": null,
        "tokenIcon": {
            "show": true
        },
        "traits": {
            "custom": "",
            "rarity": "common",
            "value": []
        }
    },
    "effects": [],
    "flags": {},
    "img": "systems/pf2e/icons/default-icons/effect.svg",
    "name": "Effect: Energizing Rune (Acid)",
    "type": "effect"
}
