{
    "_id": "qOBdeZ4FXYc5qHsm",
    "data": {
        "description": {
            "value": "<p>The workshop is stocked with mundane tools and can be used to Craft items appropriate to the workshop with a +1 item bonus, but you must supply any raw materials.</p>"
        },
        "duration": {
            "expiry": "turn-end",
            "sustained": true,
            "unit": "unlimited",
            "value": -1
        },
        "level": {
            "value": 6
        },
        "rules": [
            {
                "key": "FlatModifier",
                "label": "Crafting an Item Appropriate to the Workshop",
                "selector": "crafting",
                "type": "item",
                "value": 1
            }
        ],
        "source": {
            "value": ""
        },
        "start": {
            "initiative": null,
            "value": 0
        },
        "target": null,
        "tokenIcon": {
            "show": false
        },
        "traits": {
            "custom": "",
            "rarity": "common",
            "value": []
        }
    },
    "effects": [],
    "flags": {},
    "img": "systems/pf2e/icons/default-icons/effect.svg",
    "name": "Effect: Private Workshop (Using for Crafting)",
    "type": "effect"
}
