{
    "_id": "yL6944LrPo2HNdEJ",
    "data": {
        "ancestry": {
            "name": "Dwarf",
            "uuid": "Compendium.pf2e.ancestries.BYj5ZvlXZdpaEgA6"
        },
        "description": {
            "value": "<p>Dwarven heroes of old could shrug off their enemies' magic, and some of that resistance manifests in you. You gain the @Compendium[pf2e.actionspf2e.Call on Ancient Blood]{Call on Ancient Blood} reaction.</p>"
        },
        "rules": [
            {
                "key": "GrantItem",
                "uuid": "Compendium.pf2e.actionspf2e.Call on Ancient Blood"
            }
        ],
        "source": {
            "value": ""
        },
        "traits": {
            "custom": "",
            "rarity": "common",
            "value": []
        }
    },
    "effects": [],
    "flags": {},
    "img": "systems/pf2e/icons/features/ancestry/ancient-blooded-dwarf.webp",
    "name": "Ancient-Blooded Dwarf",
    "type": "heritage"
}
