{
    "_id": "udMXXjFirjARYr4p",
    "data": {
        "ancestry": {
            "name": "Gnoll",
            "uuid": "Compendium.pf2e.ancestries.vxbQ1Yw4qwgjTzqo"
        },
        "description": {
            "value": "<p>You're a sharp-featured, big-eared gnoll about three feet tall. Many are skeptical that you are in fact a gnoll. Your size is Small instead of Medium. You are trained in Deception (or another skill if you were already trained in Deception). You gain a +1 circumstance bonus to Deception checks to Lie when specifically claiming innocence, to Deception DCs against Sense Motive checks to uncover such lies, and to initiative checks when you roll Deception for initiative.</p>\n<hr />\n<p><em>Note: If you are already trained in the skill provided by this feat, you need to manually select an alternative skill.</em></p>"
        },
        "rules": [
            {
                "key": "FlatModifier",
                "predicate": {
                    "all": [
                        "deception"
                    ]
                },
                "selector": "initiative",
                "type": "circumstance",
                "value": 1
            },
            {
                "key": "FlatModifier",
                "label": "Lying to Claim Innocence",
                "predicate": {
                    "all": [
                        "action:lie"
                    ]
                },
                "selector": "deception",
                "type": "circumstance",
                "value": 1
            },
            {
                "key": "CreatureSize",
                "value": "sm"
            },
            {
                "key": "ActiveEffectLike",
                "mode": "upgrade",
                "path": "data.skills.dec.rank",
                "value": 1
            }
        ],
        "source": {
            "value": ""
        },
        "traits": {
            "custom": "",
            "rarity": "common",
            "value": []
        }
    },
    "effects": [],
    "flags": {},
    "img": "systems/pf2e/icons/default-icons/heritage.svg",
    "name": "Ant Gnoll",
    "type": "heritage"
}
