{
    "_id": "VgL18yU7pysdoZZG",
    "data": {
        "ancestry": {
            "name": "Android",
            "uuid": "Compendium.pf2e.ancestries.GfLwE884NoRC7cRi"
        },
        "description": {
            "value": "<p>Your body was originally designed to create works of art, complex tools, or maintain advanced machinery. You become trained in Crafting (or another skill if you're already trained in Crafting), and you gain the @Compendium[pf2e.feats-srd.Specialty Crafting]{Specialty Crafting} skill feat in a specialty of your choice.</p>"
        },
        "rules": [
            {
                "key": "ActiveEffectLike",
                "mode": "upgrade",
                "path": "data.skills.cra.rank",
                "value": 1
            },
            {
                "key": "GrantItem",
                "uuid": "Compendium.pf2e.feats-srd.Specialty Crafting"
            }
        ],
        "source": {
            "value": ""
        },
        "traits": {
            "custom": "",
            "rarity": "common",
            "value": []
        }
    },
    "effects": [],
    "flags": {},
    "img": "systems/pf2e/icons/default-icons/heritage.svg",
    "name": "Artisan Android",
    "type": "heritage"
}
