{
    "_id": "NWbdAN5gDse0ad7C",
    "data": {
        "ancestry": {
            "name": "Kitsune",
            "uuid": "Compendium.pf2e.ancestries.4BL5wf1VF9feC2rY"
        },
        "description": {
            "value": "<p>You can exert your unsettling presence to subtly Demoralize others. When you do, Demoralize loses the auditory trait and gains the visual trait, and you don't take a penalty when you attempt to Demoralize a creature that doesn't understand your language. You also gain the @Compendium[pf2e.actionspf2e.Invigorating Fear]{Invigorating Fear} reaction. Your alternate form is a fox, which has the statistics of 1st-level <em>@Compendium[pf2e.spells-srd.Pest Form]{Pest Form}</em>.</p>"
        },
        "rules": [
            {
                "key": "GrantItem",
                "uuid": "Compendium.pf2e.actionspf2e.Invigorating Fear"
            }
        ],
        "source": {
            "value": ""
        },
        "traits": {
            "custom": "",
            "rarity": "common",
            "value": []
        }
    },
    "effects": [],
    "flags": {},
    "img": "systems/pf2e/icons/default-icons/heritage.svg",
    "name": "Dark Fields Kitsune",
    "type": "heritage"
}
