{
    "_id": "KJ2dSDXP9d5hJHzd",
    "data": {
        "ancestry": {
            "name": "Goloma",
            "uuid": "Compendium.pf2e.ancestries.c4secsSNG2AO7I5i"
        },
        "description": {
            "value": "<p>Your face has a particularly off-putting appearance. You are trained in Intimidation (or another skill of your choice if you were already trained in Intimidation) and gain the @Compendium[pf2e.feats-srd.Intimidating Glare]{Intimidating Glare} skill feat as a bonus feat.</p>\n<hr />\n<p><em>Note: If you are already trained in the skill provided by this feat, you need to manually select an alternative skill.</em></p>"
        },
        "rules": [
            {
                "key": "ActiveEffectLike",
                "mode": "upgrade",
                "path": "data.skills.itm.rank",
                "value": 1
            },
            {
                "key": "GrantItem",
                "uuid": "Compendium.pf2e.feats-srd.Intimidating Glare"
            }
        ],
        "source": {
            "value": ""
        },
        "traits": {
            "custom": "",
            "rarity": "common",
            "value": []
        }
    },
    "effects": [],
    "flags": {},
    "img": "systems/pf2e/icons/default-icons/heritage.svg",
    "name": "Frightful Goloma",
    "type": "heritage"
}
