{
    "_id": "87h0jepQuzIbN7jN",
    "data": {
        "ancestry": {
            "name": "Leshy",
            "uuid": "Compendium.pf2e.ancestries.cdhgByGG1WtuaK73"
        },
        "description": {
            "value": "<p>Your body was made from fungi that grows in the shade of caves and trees, and you are at home in dark caverns and warrens. You gain @Compendium[pf2e.ancestryfeatures.Darkvision]{Darkvision}. You lose the plant trait and gain the fungus trait.</p>"
        },
        "rules": [
            {
                "add": [
                    "fungus"
                ],
                "key": "ActorTraits",
                "remove": [
                    "plant"
                ]
            },
            {
                "key": "Sense",
                "selector": "darkvision"
            }
        ],
        "source": {
            "value": ""
        },
        "traits": {
            "custom": "",
            "rarity": "common",
            "value": []
        }
    },
    "effects": [],
    "flags": {},
    "img": "systems/pf2e/icons/features/ancestry/fungus-leshy.webp",
    "name": "Fungus Leshy",
    "type": "heritage"
}
