{
    "_id": "N36ZR4lh9eCazDaN",
    "data": {
        "ancestry": {
            "name": "Human",
            "uuid": "Compendium.pf2e.ancestries.IiG7DgeLWYrSNXuX"
        },
        "description": {
            "value": "<p>Either one of your parents was an elf, or one or both were half-elves. You have pointed ears and other telltale signs of elf heritage. You gain the elf trait, the half-elf trait, and @Compendium[pf2e.ancestryfeatures.Low-Light Vision]{Low-Light Vision}. In addition, you can select elf, half-elf, and human feats whenever you gain an ancestry feat.</p>"
        },
        "rules": [
            {
                "key": "Sense",
                "label": "PF2E.SensesLowLightVision",
                "selector": "lowLightVision"
            },
            {
                "add": [
                    "elf",
                    "half-elf"
                ],
                "key": "ActorTraits"
            }
        ],
        "source": {
            "value": "Pathfinder Core Rulebook"
        },
        "traits": {
            "custom": "",
            "rarity": "common",
            "value": [
                "half-elf"
            ]
        }
    },
    "effects": [],
    "flags": {},
    "img": "systems/pf2e/icons/features/ancestry/half-elf.webp",
    "name": "Half-Elf",
    "type": "heritage"
}
