{
    "_id": "2kMltxs2rmxRSxfV",
    "data": {
        "ancestry": {
            "name": "Automaton",
            "uuid": "Compendium.pf2e.ancestries.kYsBAJ103T44agJF"
        },
        "description": {
            "value": "<p>You were designed to serve as a scout or assassin and have a body resembling a pack hunter like a large cat or wolf. Though you typically move like a quadruped, you can still stand and fight like a biped, allowing you to use all equipment normally. Your quadruped design allows you to move quickly; if you have both hands free, you can increase your Speed to 30 feet as you run on all fours.</p>"
        },
        "rules": [
            {
                "key": "ToggleProperty",
                "label": "Running on all fours",
                "property": "flags.pf2e.rollOptions.all.quadrapedMode"
            },
            {
                "key": "FlatModifier",
                "predicate": {
                    "all": [
                        "quadrapedMode"
                    ]
                },
                "selector": "land-speed",
                "value": 5
            }
        ],
        "source": {
            "value": "Pathfinder Guns & Gears"
        },
        "traits": {
            "custom": "",
            "rarity": "common",
            "value": []
        }
    },
    "effects": [],
    "flags": {},
    "img": "systems/pf2e/icons/default-icons/heritage.svg",
    "name": "Hunter Automaton",
    "type": "heritage"
}
