{
    "_id": "Fgysc0A1pFQE8PMA",
    "data": {
        "ancestry": {
            "name": "Shisk",
            "uuid": "Compendium.pf2e.ancestries.x1YinOddgUxwOLqP"
        },
        "description": {
            "value": "<p>You grew up surrounded by knowledge and secrets. You become trained in one Lore skill and one other Intelligence- or Wisdom-based skill of your choice. At 5th level, you become expert in the chosen skills.</p>"
        },
        "rules": [],
        "source": {
            "value": ""
        },
        "traits": {
            "custom": "",
            "rarity": "common",
            "value": []
        }
    },
    "effects": [],
    "flags": {},
    "img": "systems/pf2e/icons/default-icons/heritage.svg",
    "name": "Lorekeeper Shisk",
    "type": "heritage"
}
