{
    "_id": "ievKYUc53q0mroGp",
    "data": {
        "ancestry": {
            "name": "Leshy",
            "uuid": "Compendium.pf2e.ancestries.cdhgByGG1WtuaK73"
        },
        "description": {
            "value": "<p>You effortlessly float on the surface of water. You can walk on the surface of still water and other non-damaging liquids, moving at half your normal Speed. You can attempt to walk along the surface of flowing water as well, still moving at half Speed, but doing so requires a successful Acrobatics check to Balance using the DC of a Swim check to move through the water; on a failure, you fall into the water. This Acrobatics check doesn't use an action.</p>"
        },
        "rules": [],
        "source": {
            "value": ""
        },
        "traits": {
            "custom": "",
            "rarity": "common",
            "value": []
        }
    },
    "effects": [],
    "flags": {},
    "img": "systems/pf2e/icons/default-icons/heritage.svg",
    "name": "Lotus Leshy",
    "type": "heritage"
}
