{
    "_id": "j1nzBc9Pui7vsJ9o",
    "data": {
        "ancestry": {
            "name": "Automaton",
            "uuid": "Compendium.pf2e.ancestries.kYsBAJ103T44agJF"
        },
        "description": {
            "value": "<p>Your lithe, humanoid shape is designed for speed and accuracy suitable for ranged combat. You gain the @Compendium[pf2e.actionspf2e.Automaton Aim]{Automaton Aim} action.</p>"
        },
        "rules": [
            {
                "key": "GrantItem",
                "uuid": "Compendium.pf2e.actionspf2e.Automaton Aim"
            }
        ],
        "source": {
            "value": "Pathfinder Guns & Gears"
        },
        "traits": {
            "custom": "",
            "rarity": "common",
            "value": []
        }
    },
    "effects": [],
    "flags": {},
    "img": "systems/pf2e/icons/default-icons/heritage.svg",
    "name": "Sharpshooter Automaton",
    "type": "heritage"
}
