{
    "_id": "VRyX00OuPGsJSurM",
    "data": {
        "ancestry": {
            "name": "Kobold",
            "uuid": "Compendium.pf2e.ancestries.7oQxL6wgsokD3QXG"
        },
        "description": {
            "value": "<p>A trace of draconic magic flows through your veins. Choose one cantrip from the arcane spell list. You can Cast this Spell as an arcane innate spell at will. A cantrip is heightened to a spell level equal to half your level rounded up. You gain the trained proficiency rank in arcane spell attack rolls and spell DCs, and your key spellcasting ability is Charisma.</p>"
        },
        "rules": [],
        "source": {
            "value": ""
        },
        "traits": {
            "custom": "",
            "rarity": "common",
            "value": []
        }
    },
    "effects": [],
    "flags": {},
    "img": "systems/pf2e/icons/features/ancestry/spellscale-kobold.webp",
    "name": "Spellscale Kobold",
    "type": "heritage"
}
