{
    "_id": "9Iu1gFEuvVz9zaYU",
    "data": {
        "ancestry": {
            "name": "Azarketi",
            "uuid": "Compendium.pf2e.ancestries.yFoojz6q3ZjvceFw"
        },
        "description": {
            "value": "<p>Your fins conceal launchable toxic spines. You have a spine ranged unarmed attack with the unarmed trait that deals [[/r {1d4}[poison]]]{1d4 poison damage}, has a range increment of 10 feet, and is in the dart weapon group.</p>"
        },
        "rules": [
            {
                "category": "unarmed",
                "damage": {
                    "base": {
                        "damageType": "poison",
                        "dice": 1,
                        "die": "d4"
                    }
                },
                "group": "dart",
                "img": "systems/pf2e/icons/unarmed-attacks/spine.webp",
                "key": "Strike",
                "label": "PF2E.BattleForm.Attack.Spine",
                "range": null,
                "traits": [
                    "unarmed"
                ]
            }
        ],
        "source": {
            "value": ""
        },
        "traits": {
            "custom": "",
            "rarity": "common",
            "value": []
        }
    },
    "effects": [],
    "flags": {},
    "img": "systems/pf2e/icons/default-icons/heritage.svg",
    "name": "Spined Azarketi",
    "type": "heritage"
}
