{
    "_id": "kHHcvJBJNiPJTuna",
    "data": {
        "ancestry": {
            "name": "Fetchling",
            "uuid": "Compendium.pf2e.ancestries.hIA3qiUsxvLZXrFP"
        },
        "description": {
            "value": "<p>Your ancestors' exposure to the Shadow Plane wrought great physical changes. Your hair or skin sometimes appears insubstantial, and you're slighter and more agile than other fetchlings. You're <strong>Small</strong> instead of <strong>Medium</strong>. You gain the trained proficiency rank in Acrobatics, the @Compendium[pf2e.feats-srd.Quick Squeeze]{Quick Squeeze} skill feat, and a +1 circumstance bonus to Acrobatics checks to Tumble Through. If you would automatically become trained in Acrobatics (from your background or class, for example), you instead become trained in a skill of your choice.</p>"
        },
        "rules": [
            {
                "key": "CreatureSize",
                "value": "sm"
            },
            {
                "key": "ActiveEffectLike",
                "mode": "upgrade",
                "path": "data.skills.acr.rank",
                "value": 1
            },
            {
                "key": "GrantItem",
                "uuid": "Compendium.pf2e.feats-srd.Quick Squeeze"
            },
            {
                "key": "FlatModifier",
                "label": "Wisp Fetchling",
                "predicate": {
                    "all": [
                        "action:tumble-through"
                    ]
                },
                "selector": "acrobatics",
                "type": "circumstance",
                "value": 1
            }
        ],
        "source": {
            "value": ""
        },
        "traits": {
            "custom": "",
            "rarity": "common",
            "value": []
        }
    },
    "effects": [],
    "flags": {},
    "img": "systems/pf2e/icons/default-icons/heritage.svg",
    "name": "Wisp Fetchling",
    "type": "heritage"
}
