{
    "_id": "nW1gi13E62Feto2w",
    "data": {
        "ancestry": {
            "name": "Elf",
            "uuid": "Compendium.pf2e.ancestries.PgKmsA2aKdbLU6O0"
        },
        "description": {
            "value": "<p>You're adapted to life in the forest or the deep jungle, and you know how to climb trees and use foliage to your advantage. When @Compendium[pf2e.actionspf2e.Climb]{Climbing} trees, vines, and other foliage, you move at half your Speed on a success and at full Speed on a critical success (and you move at full Speed on a success if you have @Compendium[pf2e.feats-srd.Quick Climb]{Quick Climb}). This doesn't affect you if you're using a climb Speed.</p>\n<p>You can always use the @Compendium[pf2e.actionspf2e.Take Cover]{Take Cover}action when you are within forest terrain to gain cover, even if you're not next to an obstacle you can take cover behind.</p>"
        },
        "rules": [
            {
                "key": "Note",
                "predicate": {
                    "all": [
                        "action:climb",
                        "plants"
                    ]
                },
                "selector": "athletics",
                "text": "<p class='compact-text'><strong>{item|name}</strong> When you climb trees, vines or other foliage, you move at half your Speed on a success, and full speed on a critical success.</p>"
            }
        ],
        "source": {
            "value": ""
        },
        "traits": {
            "custom": "",
            "rarity": "common",
            "value": []
        }
    },
    "effects": [],
    "flags": {},
    "img": "systems/pf2e/icons/features/ancestry/woodland-elf.webp",
    "name": "Woodland Elf",
    "type": "heritage"
}
