{
    "_id": "YVP3pM7jxY9Gyouy",
    "data": {
        "abilities": {
            "cha": {
                "mod": -2
            },
            "con": {
                "mod": 5
            },
            "dex": {
                "mod": 5
            },
            "int": {
                "mod": -4
            },
            "str": {
                "mod": 7
            },
            "wis": {
                "mod": 4
            }
        },
        "attributes": {
            "ac": {
                "details": "",
                "value": 34
            },
            "allSaves": {
                "value": ""
            },
            "hp": {
                "details": "",
                "max": 235,
                "temp": 0,
                "value": 235
            },
            "initiative": {
                "ability": "perception"
            },
            "perception": {
                "value": 22
            },
            "speed": {
                "otherSpeeds": [],
                "value": "40"
            }
        },
        "details": {
            "alignment": {
                "value": "N"
            },
            "blurb": "",
            "creatureType": "",
            "level": {
                "value": 13
            },
            "privateNotes": "",
            "publicNotes": "<p>Caustic monitors are enormous lizards native to eastern Minata known and named for the corrosive enzyme in their mucus, saliva, and other bodily fluids. These corrosive fluids originally developed as a means of protection from large insects such as giant mosquitos. The thick layer of mucus that naturally coats the monitors' scaly skin makes it difficult for most other creatures to get too close, let alone prey upon the lizard.</p>\n<p>Caustic monitors also use their corrosive biological features to their hunting advantage, particularly by expelling the acidic contents of their stomach at prey. Even when not making use of their acid, caustic monitors can be deadly predators: They grab onto smaller creatures using their powerful forelimb muscles and are remarkably agile, considering their size and weight.</p>\n<p>Most caustic monitors live among rocky terrain such as pebble beaches, natural caves, and along sandy river shoals. A caustic monitor's mucus corrodes only flesh, so its den is safe from damage, but corroded plant life near a cave is a telltale sign that a caustic monitor lives nearby. Hardy adventurers and fortune seekers must weigh the potential benefits of hunting this beast -as its acid is highly prized among alchemists-against the obvious risks.</p>",
            "source": {
                "value": "Pathfinder #166: Despair on Danger Island"
            }
        },
        "resources": {},
        "saves": {
            "fortitude": {
                "saveDetail": "",
                "value": 24
            },
            "reflex": {
                "saveDetail": "",
                "value": 23
            },
            "will": {
                "saveDetail": "",
                "value": 20
            }
        },
        "traits": {
            "attitude": {
                "value": "hostile"
            },
            "ci": [],
            "di": {
                "custom": "",
                "value": []
            },
            "dr": [],
            "dv": [],
            "languages": {
                "custom": "",
                "selected": [],
                "value": []
            },
            "rarity": "rare",
            "senses": {
                "value": "low-light vision, scent (imprecise) 30 feet"
            },
            "size": {
                "value": "huge"
            },
            "traits": {
                "custom": "",
                "value": [
                    "animal"
                ]
            }
        }
    },
    "effects": [],
    "flags": {},
    "img": "systems/pf2e/icons/default-icons/npc.svg",
    "items": [
        {
            "_id": "skufhVK1SVupaF1j",
            "data": {
                "attack": {
                    "value": ""
                },
                "attackEffects": {
                    "custom": "",
                    "value": [
                        "caustic-monitor-venom",
                        "improved-grab"
                    ]
                },
                "bonus": {
                    "value": 27
                },
                "damageRolls": {
                    "xoa1wu06sqrkcafiwrom": {
                        "damage": "2d10+9",
                        "damageType": "piercing"
                    },
                    "ba79le3qdm9mq1yg61lb": {
                        "damage": "2d8",
                        "damageType": "acid"
                    }
                },
                "description": {
                    "value": ""
                },
                "rules": [],
                "slug": null,
                "source": {
                    "value": ""
                },
                "traits": {
                    "custom": "",
                    "rarity": "common",
                    "value": [
                        "reach-10"
                    ]
                },
                "weaponType": {
                    "value": "melee"
                }
            },
            "effects": [],
            "flags": {},
            "img": "systems/pf2e/icons/default-icons/melee.svg",
            "name": "Jaws",
            "sort": 100000,
            "type": "melee"
        },
        {
            "_id": "h1CT2QsnUJZaJ3fA",
            "data": {
                "attack": {
                    "value": ""
                },
                "attackEffects": {
                    "value": []
                },
                "bonus": {
                    "value": 27
                },
                "damageRolls": {
                    "9lfbsqd84gogyfx7j3yq": {
                        "damage": "2d8+13",
                        "damageType": "slashing"
                    }
                },
                "description": {
                    "value": ""
                },
                "rules": [
                    {
                        "key": "Note",
                        "selector": "{item|_id}-damage",
                        "text": "<p class='compact-text'><strong>Effect</strong> The talon also deals [[/r {2d6}[persistent,bleed]]] @Compendium[pf2e.conditionitems.Persistent Damage]{Persistent Bleed Damage}</p>"
                    }
                ],
                "slug": null,
                "source": {
                    "value": ""
                },
                "traits": {
                    "custom": "",
                    "rarity": "common",
                    "value": []
                },
                "weaponType": {
                    "value": "melee"
                }
            },
            "effects": [],
            "flags": {},
            "img": "systems/pf2e/icons/default-icons/melee.svg",
            "name": "Talon",
            "sort": 200000,
            "type": "melee"
        },
        {
            "_id": "w5UBGgqq8rOxtbxB",
            "data": {
                "actionCategory": {
                    "value": "interaction"
                },
                "actionType": {
                    "value": "passive"
                },
                "actions": {
                    "value": null
                },
                "description": {
                    "value": "<p>@Localize[PF2E.NPC.Abilities.Glossary.LowLightVision]</p>"
                },
                "requirements": {
                    "value": ""
                },
                "rules": [],
                "slug": "low-light-vision",
                "source": {
                    "value": ""
                },
                "traits": {
                    "custom": "",
                    "rarity": "common",
                    "value": []
                },
                "trigger": {
                    "value": ""
                },
                "weapon": {
                    "value": ""
                }
            },
            "effects": [],
            "flags": {
                "core": {
                    "sourceId": "Compendium.pf2e.bestiary-ability-glossary-srd.fFu2sZz4KB01fVRc"
                }
            },
            "img": "systems/pf2e/icons/actions/Passive.webp",
            "name": "Low-Light Vision",
            "sort": 300000,
            "type": "action"
        },
        {
            "_id": "cb9XWlbhZXxRxING",
            "data": {
                "actionCategory": {
                    "value": "interaction"
                },
                "actionType": {
                    "value": "passive"
                },
                "actions": {
                    "value": null
                },
                "description": {
                    "value": "<p>@Localize[PF2E.NPC.Abilities.Glossary.Scent]</p>"
                },
                "requirements": {
                    "value": ""
                },
                "rules": [],
                "slug": "scent",
                "source": {
                    "value": ""
                },
                "traits": {
                    "custom": "",
                    "rarity": "common",
                    "value": []
                },
                "trigger": {
                    "value": ""
                },
                "weapon": {
                    "value": ""
                }
            },
            "effects": [],
            "flags": {
                "core": {
                    "sourceId": "Compendium.pf2e.bestiary-ability-glossary-srd.rqfnQ5VHT5hxm25r"
                }
            },
            "img": "systems/pf2e/icons/actions/Passive.webp",
            "name": "Scent",
            "sort": 400000,
            "type": "action"
        },
        {
            "_id": "b5YXhirEFdSSDLH6",
            "data": {
                "actionCategory": {
                    "value": "offensive"
                },
                "actionType": {
                    "value": "passive"
                },
                "actions": {
                    "value": null
                },
                "description": {
                    "value": "<p><strong>Saving Throw</strong> <span data-pf2-check=\"fortitude\" data-pf2-traits=\"poison\" data-pf2-label=\"Caustic Monitor Venom DC\" data-pf2-dc=\"32\" data-pf2-show-dc=\"gm\">Fortitude</span></p>\n<p><strong>Maximum Duration</strong> 6 rounds</p>\n<p><strong>Stage 1</strong> [[/r {4d6}[poison]]]{4d6 poison damage} and @Compendium[pf2e.conditionitems.Enfeebled]{Enfeebled 1} (1 round)</p>\n<p><strong>Stage 2</strong> [[/r {4d6}[poison]]]{4d6 poison damage} and @Compendium[pf2e.conditionitems.Enfeebled]{Enfeebled 2} (1 round)</p>"
                },
                "requirements": {
                    "value": ""
                },
                "rules": [],
                "slug": null,
                "source": {
                    "value": ""
                },
                "traits": {
                    "custom": "",
                    "rarity": "common",
                    "value": [
                        "poison"
                    ]
                },
                "trigger": {
                    "value": ""
                },
                "weapon": {
                    "value": ""
                }
            },
            "effects": [],
            "flags": {},
            "img": "systems/pf2e/icons/actions/Passive.webp",
            "name": "Caustic Monitor Venom",
            "sort": 500000,
            "type": "action"
        },
        {
            "_id": "HTLhEnC9IDistr37",
            "data": {
                "actionCategory": {
                    "value": "offensive"
                },
                "actionType": {
                    "value": "action"
                },
                "actions": {
                    "value": 2
                },
                "description": {
                    "value": "<p>The caustic monitor spits a spray of corrosive bile that deals [[/r {5d8}[acid]]]{5d8 acid damage} in a @Template[type:cone|distance:20] (<span data-pf2-check=\"reflex\" data-pf2-traits=\"damaging-effect,acid\" data-pf2-label=\"Caustic Spray\" data-pf2-dc=\"32\" data-pf2-show-dc=\"gm\">basic Reflex</span> save). It can't use Caustic Spray again for [[/br 1d4 #rounds]]{1d4 rounds}.</p>"
                },
                "requirements": {
                    "value": ""
                },
                "rules": [],
                "slug": null,
                "source": {
                    "value": ""
                },
                "traits": {
                    "custom": "",
                    "rarity": "common",
                    "value": [
                        "acid"
                    ]
                },
                "trigger": {
                    "value": ""
                },
                "weapon": {
                    "value": ""
                }
            },
            "effects": [],
            "flags": {},
            "img": "systems/pf2e/icons/actions/TwoActions.webp",
            "name": "Caustic Spray",
            "sort": 600000,
            "type": "action"
        },
        {
            "_id": "9ZmnGbdzjkxjJW7a",
            "data": {
                "actionCategory": {
                    "value": "offensive"
                },
                "actionType": {
                    "value": "passive"
                },
                "actions": {
                    "value": null
                },
                "description": {
                    "value": "<p>A creature that touches the caustic monitor takes [[/r {2d8}[acid]]]{2d8 acid damage} (<span data-pf2-check=\"fortitude\" data-pf2-traits=\"damaging-effect,acid\" data-pf2-label=\"Corrosive Flesh DC\" data-pf2-dc=\"32\" data-pf2-show-dc=\"gm\">basic Fortitude</span> save).</p>"
                },
                "requirements": {
                    "value": ""
                },
                "rules": [],
                "slug": null,
                "source": {
                    "value": ""
                },
                "traits": {
                    "custom": "",
                    "rarity": "common",
                    "value": []
                },
                "trigger": {
                    "value": ""
                },
                "weapon": {
                    "value": ""
                }
            },
            "effects": [],
            "flags": {},
            "img": "systems/pf2e/icons/actions/Passive.webp",
            "name": "Corrosive Flesh",
            "sort": 700000,
            "type": "action"
        },
        {
            "_id": "Bifu56yEAvTSjDrJ",
            "data": {
                "actionCategory": {
                    "value": "offensive"
                },
                "actionType": {
                    "value": "reaction"
                },
                "actions": {
                    "value": null
                },
                "description": {
                    "value": "<p data-visibility=\"gm\"><strong>Trigger</strong> A creature grabbed by the caustic monitor's jaws fails a check to Escape.</p>\n<p><strong>Effect</strong> The caustic monitor's jaws deal [[/r {2d8}[piercing]]]{2d8 piercing damage} and the triggering creature is exposed to caustic monitor venom.</p>"
                },
                "requirements": {
                    "value": ""
                },
                "rules": [],
                "slug": null,
                "source": {
                    "value": ""
                },
                "traits": {
                    "custom": "",
                    "rarity": "common",
                    "value": []
                },
                "trigger": {
                    "value": ""
                },
                "weapon": {
                    "value": ""
                }
            },
            "effects": [],
            "flags": {},
            "img": "systems/pf2e/icons/actions/Reaction.webp",
            "name": "Gnashing Grip",
            "sort": 800000,
            "type": "action"
        },
        {
            "_id": "Zk1ji35jlTOW4n2n",
            "data": {
                "actionCategory": {
                    "value": "offensive"
                },
                "actionType": {
                    "value": "action"
                },
                "actions": {
                    "value": 2
                },
                "description": {
                    "value": "<p>The caustic monitor Strides twice, then makes a jaws Strike. If the monitor moved at least 20 feet away from its starting position, it gains a +2 circumstance bonus to this attack roll.</p>"
                },
                "requirements": {
                    "value": ""
                },
                "rules": [
                    {
                        "key": "FlatModifier",
                        "predicate": {
                            "all": [
                                "lurching-charge"
                            ]
                        },
                        "selector": "attack",
                        "type": "circumstance",
                        "value": 2
                    },
                    {
                        "key": "ToggleProperty",
                        "property": "flags.pf2e.rollOptions.attack-roll.lurching-charge"
                    }
                ],
                "slug": null,
                "source": {
                    "value": ""
                },
                "traits": {
                    "custom": "",
                    "rarity": "common",
                    "value": []
                },
                "trigger": {
                    "value": ""
                },
                "weapon": {
                    "value": ""
                }
            },
            "effects": [],
            "flags": {},
            "img": "systems/pf2e/icons/actions/TwoActions.webp",
            "name": "Lurching Charge",
            "sort": 900000,
            "type": "action"
        },
        {
            "_id": "57sFpqjTiGpvUUzL",
            "data": {
                "description": {
                    "value": ""
                },
                "mod": {
                    "value": 24
                },
                "proficient": {
                    "value": 0
                },
                "rules": [],
                "slug": null,
                "source": {
                    "value": ""
                },
                "traits": {
                    "custom": "",
                    "rarity": "common",
                    "value": []
                }
            },
            "effects": [],
            "flags": {},
            "img": "systems/pf2e/icons/default-icons/lore.svg",
            "name": "Acrobatics",
            "sort": 1000000,
            "type": "lore"
        },
        {
            "_id": "PnrpvE8MtTanLTP5",
            "data": {
                "description": {
                    "value": ""
                },
                "mod": {
                    "value": 28
                },
                "proficient": {
                    "value": 0
                },
                "rules": [],
                "slug": null,
                "source": {
                    "value": ""
                },
                "traits": {
                    "custom": "",
                    "rarity": "common",
                    "value": []
                }
            },
            "effects": [],
            "flags": {},
            "img": "systems/pf2e/icons/default-icons/lore.svg",
            "name": "Athletics",
            "sort": 1100000,
            "type": "lore"
        },
        {
            "_id": "cv66U1roWK5TMKtv",
            "data": {
                "description": {
                    "value": ""
                },
                "mod": {
                    "value": 20
                },
                "proficient": {
                    "value": 0
                },
                "rules": [],
                "slug": null,
                "source": {
                    "value": ""
                },
                "traits": {
                    "custom": "",
                    "rarity": "common",
                    "value": []
                }
            },
            "effects": [],
            "flags": {},
            "img": "systems/pf2e/icons/default-icons/lore.svg",
            "name": "Stealth",
            "sort": 1200000,
            "type": "lore"
        }
    ],
    "name": "Caustic Monitor",
    "token": {
        "disposition": -1,
        "height": 3,
        "img": "systems/pf2e/icons/default-icons/npc.svg",
        "name": "Caustic Monitor",
        "width": 3
    },
    "type": "npc"
}
