{
    "_id": "BcRxQjtyMNgiEpvb",
    "data": {
        "attributes": {
            "ac": {
                "value": 42
            },
            "hardness": 25,
            "hasHealth": true,
            "hp": {
                "details": "",
                "max": 100,
                "temp": 0,
                "value": 100
            },
            "stealth": {
                "details": "<p>+23 (expert) or DC 38 (master) to notice the pattern of the orb's trajectory</p>",
                "value": 23
            }
        },
        "creatureType": "",
        "details": {
            "description": "<p>A floating skull of fire swoops around the arena, rotating as it weaves through the ring and releasing huge gouts of flame in random directions.</p>",
            "disable": "<p>three <span data-pf2-check=\"thievery\" data-pf2-traits=\"hazard,magical,trap,fire\" data-pf2-label=\"Floating Flamethrower Disable DC\" data-pf2-dc=\"40\" data-pf2-show-dc=\"gm\">Thievery</span> (legendary) checks or castings of dispel magic (7th level; counteract DC 40), one each to pull out or disable the elemental cores hidden in the floating skull's right eye, left eye, and mouth</p>",
            "isComplex": true,
            "level": {
                "value": 16
            },
            "reset": "",
            "routine": "<p>(3 actions) The trap loses 1 action per turn per successful check to disable. The floating flamethrower uses its first action to release a gout of flame in a @Template[type:cone|distance:15] that deals [[/r {4d6+4}[fire]]]{4d6+4 fire damage} (<span data-pf2-check=\"reflex\" data-pf2-traits=\"damaging-effect\" data-pf2-label=\"Floating Flamethrower DC\" data-pf2-dc=\"40\" data-pf2-show-dc=\"gm\">basic Reflex</span> save), its second action to fly in a U-shape in a random direction, and its third action to release another gout of flame.</p>"
        },
        "saves": {
            "fortitude": {
                "saveDetail": "",
                "value": 30
            },
            "reflex": {
                "saveDetail": "",
                "value": 33
            },
            "will": {
                "saveDetail": "",
                "value": 0
            }
        },
        "source": {
            "value": "Pathfinder #167: Ready? Fight!"
        },
        "statusEffects": [],
        "traits": {
            "ci": [],
            "di": {
                "custom": "",
                "selected": {},
                "value": [
                    "fire"
                ]
            },
            "dr": [],
            "dv": [
                {
                    "label": "Cold",
                    "type": "cold",
                    "value": "15"
                }
            ],
            "rarity": "common",
            "size": {
                "value": "med"
            },
            "traits": {
                "custom": "",
                "value": [
                    "fire",
                    "magical",
                    "trap"
                ]
            }
        }
    },
    "effects": [],
    "flags": {},
    "img": "systems/pf2e/icons/default-icons/hazard.svg",
    "items": [
        {
            "_id": "gHHe473InFt8KHS2",
            "data": {
                "actionCategory": {
                    "value": "interaction"
                },
                "actionType": {
                    "value": "reaction"
                },
                "actions": {
                    "value": null
                },
                "description": {
                    "value": "<p data-visibility=\"gm\"><strong>Trigger</strong> Hao Jin signals the start of the bout</p>\n<p><strong>Effect</strong> The trap roars with fire and rolls initiative.</p>"
                },
                "requirements": {
                    "value": ""
                },
                "rules": [],
                "slug": null,
                "source": {
                    "value": ""
                },
                "traits": {
                    "custom": "",
                    "rarity": "common",
                    "value": [
                        "fire",
                        "evocation"
                    ]
                },
                "trigger": {
                    "value": ""
                },
                "weapon": {
                    "value": ""
                }
            },
            "effects": [],
            "flags": {},
            "img": "systems/pf2e/icons/actions/Reaction.webp",
            "name": "Blaze",
            "sort": 0,
            "type": "action"
        },
        {
            "_id": "naExmUwTL8vkSeQQ",
            "data": {
                "actionCategory": {
                    "value": "interaction"
                },
                "actionType": {
                    "value": "passive"
                },
                "actions": {
                    "value": null
                },
                "description": {
                    "value": ""
                },
                "requirements": {
                    "value": ""
                },
                "rules": [],
                "slug": null,
                "source": {
                    "value": ""
                },
                "traits": {
                    "custom": "",
                    "rarity": "common",
                    "value": []
                },
                "trigger": {
                    "value": ""
                },
                "weapon": {
                    "value": ""
                }
            },
            "effects": [],
            "flags": {},
            "img": "systems/pf2e/icons/actions/Passive.webp",
            "name": "Speed Fly 50 feet",
            "sort": 0,
            "type": "action"
        }
    ],
    "name": "Floating Flamethrower",
    "token": {
        "disposition": 0,
        "height": 1,
        "img": "systems/pf2e/icons/default-icons/hazard.svg",
        "name": "Floating Flamethrower",
        "width": 1
    },
    "type": "hazard"
}
