{
    "_id": "REJfFezELjc5Gzsy",
    "data": {
        "description": {
            "value": "<p>You can summon your familiar to your side. Once per day, you can use a 3-action activity, which has the concentrate trait, to teleport your familiar to your space. Your familiar must be within 1 mile or the attempt to summon it fails. This is a conjuration and teleport effect.</p>"
        },
        "duration": {
            "expiry": "turn-start",
            "sustained": false,
            "unit": "unlimited",
            "value": -1
        },
        "level": {
            "value": 1
        },
        "rules": [],
        "source": {
            "value": "Pathfinder Lost Omens: The Grand Bazaar"
        },
        "start": {
            "initiative": null,
            "value": 0
        },
        "target": null,
        "tokenIcon": {
            "show": false
        },
        "traits": {
            "custom": "",
            "rarity": "common",
            "value": []
        }
    },
    "effects": [],
    "flags": {},
    "img": "systems/pf2e/icons/actions/Passive.webp",
    "name": "Recall Familiar",
    "type": "effect"
}
