{
    "_id": "wOgvBymJOVQDSm1Q",
    "data": {
        "description": {
            "value": "<p>If your familiar is in your space, you can cast a spell with a range of touch, transfer its power to your familiar, and command the familiar to deliver the spell. If you do, the familiar uses its 2 actions for the round to move to a target of your choice and touch that target. If it doesn’t reach the target to touch it this turn, the spell has no effect.</p>"
        },
        "duration": {
            "expiry": "turn-start",
            "sustained": false,
            "unit": "unlimited",
            "value": -1
        },
        "level": {
            "value": 1
        },
        "rules": [],
        "source": {
            "value": "Pathfinder Core Rulebook"
        },
        "start": {
            "initiative": null,
            "value": 0
        },
        "target": null,
        "tokenIcon": {
            "show": false
        },
        "traits": {
            "custom": "",
            "rarity": "common",
            "value": []
        }
    },
    "effects": [],
    "flags": {},
    "img": "systems/pf2e/icons/actions/Passive.webp",
    "name": "Spell Delivery",
    "type": "effect"
}
