{
    "_id": "2C1HuKDQDGFZuv7l",
    "data": {
        "description": {
            "value": "<p>Granted by @Compendium[pf2e.equipment-srd.Boulderhead Bock]{Boulderhead Bock}.</p>\n<p>Automatically applied effects:</p>\n<ul>\n<li>+1 item bonus to saving throws against effects that would make you stunned or stupefied.</li>\n<li>-2 item penalty to Perception </li>\n</ul>"
        },
        "duration": {
            "expiry": "turn-start",
            "sustained": false,
            "unit": "hours",
            "value": 1
        },
        "level": {
            "value": 2
        },
        "rules": [
            {
                "key": "FlatModifier",
                "label": "Boulderhead Bock (vs. stunned/stupefied)",
                "predicate": {
                    "any": [
                        "stunned",
                        "stupefied"
                    ]
                },
                "selector": "saving-throw",
                "type": "item",
                "value": 1
            },
            {
                "key": "FlatModifier",
                "selector": "perception",
                "type": "item",
                "value": -2
            }
        ],
        "source": {
            "value": ""
        },
        "start": {
            "initiative": null,
            "value": 0
        },
        "target": null,
        "tokenIcon": {
            "show": true
        },
        "traits": {
            "custom": "",
            "rarity": "common",
            "value": []
        }
    },
    "effects": [],
    "flags": {},
    "img": "systems/pf2e/icons/equipment/alchemical-items/alchemical-elixirs/boulderhead-bock.webp",
    "name": "Effect: Boulderhead Bock",
    "type": "effect"
}
