{
    "_id": "zd85Ny1RS46OL0TD",
    "data": {
        "description": {
            "value": "<p>Granted by @Compendium[pf2e.equipment-srd.Shrinking Potion (Greater)]{Shrinking Potion (Greater)}</p>\n<hr />\n<p>Automatically applied effects:</p>\n<ul>\n<li>gain a +2 item bonus to Stealth while shrunken</li>\n</ul>"
        },
        "duration": {
            "expiry": "turn-start",
            "sustained": false,
            "unit": "hours",
            "value": 1
        },
        "level": {
            "value": 8
        },
        "rules": [
            {
                "key": "FlatModifier",
                "selector": "stealth",
                "type": "item",
                "value": 2
            }
        ],
        "source": {
            "value": ""
        },
        "start": {
            "initiative": null,
            "value": 0
        },
        "target": null,
        "tokenIcon": {
            "show": true
        },
        "traits": {
            "custom": "",
            "rarity": "common",
            "value": []
        }
    },
    "effects": [],
    "flags": {},
    "img": "systems/pf2e/icons/equipment/consumables/potions/shrinking-potion.webp",
    "name": "Effect: Shrinking Potion (Greater)",
    "type": "effect"
}
