{
    "_id": "a1vTm01GBVF4TI8f",
    "data": {
        "abilities": {
            "cha": {
                "mod": 9
            },
            "con": {
                "mod": 7
            },
            "dex": {
                "mod": 9
            },
            "int": {
                "mod": 6
            },
            "str": {
                "mod": 8
            },
            "wis": {
                "mod": 8
            }
        },
        "attributes": {
            "ac": {
                "details": "",
                "value": 43
            },
            "allSaves": {
                "value": ""
            },
            "hp": {
                "details": "",
                "max": 400,
                "temp": 0,
                "value": 400
            },
            "initiative": {
                "ability": "perception"
            },
            "perception": {
                "value": 33
            },
            "speed": {
                "details": "",
                "otherSpeeds": [
                    {
                        "type": "swim",
                        "value": "30"
                    }
                ],
                "special": "",
                "value": "50"
            }
        },
        "details": {
            "alignment": {
                "value": "CN"
            },
            "blurb": "",
            "creatureType": "",
            "level": {
                "value": 18
            },
            "privateNotes": "",
            "publicNotes": "<p>The form of Taljjae's body can vary from visit to visit or even moment to moment, but it's easily recognized due to its signature cloak and masks. So long as Taljjae's mood is placid, it can be approached safely, but its mercurial temperament can be hard to predict.</p>\n<p>With this mask, Taljjae assumes a low stance and gathers power.</p>",
            "source": {
                "value": "Pathfinder Lost Omens: Monsters of Myth"
            }
        },
        "resources": {},
        "saves": {
            "fortitude": {
                "saveDetail": "",
                "value": 27
            },
            "reflex": {
                "saveDetail": "",
                "value": 33
            },
            "will": {
                "saveDetail": "",
                "value": 30
            }
        },
        "traits": {
            "ci": [],
            "di": {
                "custom": "",
                "value": []
            },
            "dr": [],
            "dv": [],
            "languages": {
                "custom": "(Can't Speak Any Language)",
                "selected": [],
                "value": [
                    "hwan",
                    "senzar"
                ]
            },
            "rarity": "unique",
            "senses": {
                "value": "darkvision, jelly sense 120 feet"
            },
            "size": {
                "value": "lg"
            },
            "traits": {
                "custom": "",
                "value": [
                    "fey"
                ]
            }
        }
    },
    "effects": [],
    "flags": {},
    "img": "systems/pf2e/icons/default-icons/npc.svg",
    "items": [
        {
            "_id": "EWuGRALCscEtXmyM",
            "data": {
                "baseItem": null,
                "brokenThreshold": {
                    "value": 0
                },
                "bulkCapacity": {
                    "value": ""
                },
                "collapsed": {
                    "value": false
                },
                "containerId": {
                    "value": null
                },
                "description": {
                    "value": "<p>Those who gain one of Taljjae's masks, either by defeating Taljjae or some other means, are known as its understudies and gain a fraction of its power. Each of Taljjae's masks is an 18th-level unique item with the invested and magical traits; if broken, they're automatically repaired to full HP when invested during daily preparations. The effect of a mask on a PC is noted in the mask's Understudy entry. Wearing one of Taljjae's masks also imposes Taljjae's jelly sense and jelly gluttony on the creature as long as it wears the mask.</p>\n<p>The Beast brings out its wearer's feral nature, granting it a claw melee unarmed attack that deals 1d4 slashing damage and has the agile trait, or increasing the damage die of their claw unarmed attack from 1d4 to 1d6 damage if they have a claw unarmed attack that deals 1d4 damage.</p>"
                },
                "equipped": {
                    "value": false
                },
                "equippedBulk": {
                    "value": ""
                },
                "hardness": {
                    "value": 0
                },
                "hp": {
                    "value": 0
                },
                "identification": {
                    "misidentified": {},
                    "status": "identified",
                    "unidentified": {
                        "data": {
                            "description": {
                                "value": ""
                            }
                        },
                        "img": "",
                        "name": ""
                    }
                },
                "invested": {
                    "value": null
                },
                "level": {
                    "value": 18
                },
                "maxHp": {
                    "value": 0
                },
                "negateBulk": {
                    "value": "0"
                },
                "preciousMaterial": {
                    "value": null
                },
                "preciousMaterialGrade": {
                    "value": null
                },
                "price": {
                    "value": "0 gp"
                },
                "quantity": {
                    "value": 1
                },
                "rules": [],
                "size": {
                    "value": "med"
                },
                "slug": "taljjaes-mask-the-beast",
                "source": {
                    "value": "Pathfinder Lost Omens: Monsters of Myth"
                },
                "stackGroup": {
                    "value": ""
                },
                "traits": {
                    "custom": "",
                    "rarity": "unique",
                    "value": [
                        "invested",
                        "magical"
                    ]
                },
                "usage": {
                    "value": "wornmask"
                },
                "weight": {
                    "value": "-"
                }
            },
            "effects": [],
            "flags": {
                "core": {
                    "sourceId": "Compendium.pf2e.equipment-srd.dPg0hrkIaCdMKQoK"
                }
            },
            "img": "systems/pf2e/icons/equipment/worn-items/other-worn-items/demon-mask.webp",
            "name": "Taljjae's Mask (The Beast)",
            "sort": 100000,
            "type": "equipment"
        },
        {
            "_id": "EdMWmBJd4aH6ZFCJ",
            "data": {
                "baseItem": null,
                "brokenThreshold": {
                    "value": 0
                },
                "bulkCapacity": {
                    "value": ""
                },
                "collapsed": {
                    "value": false
                },
                "containerId": {
                    "value": null
                },
                "description": {
                    "value": "<p>Those who gain one of Taljjae's masks, either by defeating Taljjae or some other means, are known as its understudies and gain a fraction of its power. Each of Taljjae's masks is an 18th-level unique item with the invested and magical traits; if broken, they're automatically repaired to full HP when invested during daily preparations. The effect of a mask on a PC is noted in the mask's Understudy entry. Wearing one of Taljjae's masks also imposes Taljjae's jelly sense and jelly gluttony on the creature as long as it wears the mask.</p>\n<p><strong>Activate</strong> <span class=\"pf2-icon\">1</span></p>\n<p><strong>Frequency</strong> once per day</p>\n<p><strong>Effect</strong> The General grants its wearer a +3 status bonus to attack rolls with polearms for 1 minute.</p>\n<p>@Compendium[pf2e.equipment-effects.Effect: Taljjae's Mask (The General)]{Effect: Taljjae's Mask (The General)}</p>"
                },
                "equipped": {
                    "value": false
                },
                "equippedBulk": {
                    "value": ""
                },
                "hardness": {
                    "value": 0
                },
                "hp": {
                    "value": 0
                },
                "identification": {
                    "misidentified": {},
                    "status": "identified",
                    "unidentified": {
                        "data": {
                            "description": {
                                "value": ""
                            }
                        },
                        "img": "",
                        "name": ""
                    }
                },
                "invested": {
                    "value": null
                },
                "level": {
                    "value": 18
                },
                "maxHp": {
                    "value": 0
                },
                "negateBulk": {
                    "value": "0"
                },
                "preciousMaterial": {
                    "value": null
                },
                "preciousMaterialGrade": {
                    "value": null
                },
                "price": {
                    "value": "0 gp"
                },
                "quantity": {
                    "value": 1
                },
                "rules": [],
                "size": {
                    "value": "med"
                },
                "slug": "taljjaes-mask-the-general",
                "source": {
                    "value": "Pathfinder Lost Omens: Monsters of Myth"
                },
                "stackGroup": {
                    "value": ""
                },
                "traits": {
                    "custom": "",
                    "rarity": "unique",
                    "value": [
                        "invested",
                        "magical"
                    ]
                },
                "usage": {
                    "value": "wornmask"
                },
                "weight": {
                    "value": "-"
                }
            },
            "effects": [],
            "flags": {
                "core": {
                    "sourceId": "Compendium.pf2e.equipment-srd.JSbBiTCtFctuJFhS"
                }
            },
            "img": "systems/pf2e/icons/equipment/worn-items/other-worn-items/demon-mask.webp",
            "name": "Taljjae's Mask (The General)",
            "sort": 200000,
            "type": "equipment"
        },
        {
            "_id": "NKXLANOm5FekkdWb",
            "data": {
                "baseItem": null,
                "brokenThreshold": {
                    "value": 0
                },
                "bulkCapacity": {
                    "value": ""
                },
                "collapsed": {
                    "value": false
                },
                "containerId": {
                    "value": null
                },
                "description": {
                    "value": "<p>Those who gain one of Taljjae's masks, either by defeating Taljjae or some other means, are known as its understudies and gain a fraction of its power. Each of Taljjae's masks is an 18th-level unique item with the invested and magical traits; if broken, they're automatically repaired to full HP when invested during daily preparations. The effect of a mask on a PC is noted in the mask's Understudy entry. Wearing one of Taljjae's masks also imposes Taljjae's jelly sense and jelly gluttony on the creature as long as it wears the mask.</p>\n<p>The <em>Grandmother</em> allows its wearer to cast 8th-level <em>@Compendium[pf2e.spells-srd.Heal]{Heal}</em> and 7th-level <em>@Compendium[pf2e.spells-srd.Breath of Life]{Breath of Life}</em>, each as a divine innate spell, once per day.</p>"
                },
                "equipped": {
                    "value": false
                },
                "equippedBulk": {
                    "value": ""
                },
                "hardness": {
                    "value": 0
                },
                "hp": {
                    "value": 0
                },
                "identification": {
                    "misidentified": {},
                    "status": "identified",
                    "unidentified": {
                        "data": {
                            "description": {
                                "value": ""
                            }
                        },
                        "img": "",
                        "name": ""
                    }
                },
                "invested": {
                    "value": null
                },
                "level": {
                    "value": 18
                },
                "maxHp": {
                    "value": 0
                },
                "negateBulk": {
                    "value": "0"
                },
                "preciousMaterial": {
                    "value": null
                },
                "preciousMaterialGrade": {
                    "value": null
                },
                "price": {
                    "value": "0 gp"
                },
                "quantity": {
                    "value": 1
                },
                "rules": [],
                "size": {
                    "value": "med"
                },
                "slug": "taljjaes-mask-the-grandmother",
                "source": {
                    "value": "Pathfinder Lost Omens: Monsters of Myth"
                },
                "stackGroup": {
                    "value": ""
                },
                "traits": {
                    "custom": "",
                    "rarity": "unique",
                    "value": [
                        "invested",
                        "magical"
                    ]
                },
                "usage": {
                    "value": "wornmask"
                },
                "weight": {
                    "value": "-"
                }
            },
            "effects": [],
            "flags": {
                "core": {
                    "sourceId": "Compendium.pf2e.equipment-srd.ma4BlTSjaMHrQmoz"
                }
            },
            "img": "systems/pf2e/icons/equipment/worn-items/other-worn-items/demon-mask.webp",
            "name": "Taljjae's Mask (The Grandmother)",
            "sort": 300000,
            "type": "equipment"
        },
        {
            "_id": "rIfnroE6HB4mWg2i",
            "data": {
                "baseItem": null,
                "brokenThreshold": {
                    "value": 0
                },
                "bulkCapacity": {
                    "value": ""
                },
                "collapsed": {
                    "value": false
                },
                "containerId": {
                    "value": null
                },
                "description": {
                    "value": "<p>Those who gain one of Taljjae's masks, either by defeating Taljjae or some other means, are known as its understudies and gain a fraction of its power. Each of Taljjae's masks is an 18th-level unique item with the invested and magical traits; if broken, they're automatically repaired to full HP when invested during daily preparations. The effect of a mask on a PC is noted in the mask's Understudy entry. Wearing one of Taljjae's masks also imposes Taljjae's jelly sense and jelly gluttony on the creature as long as it wears the mask.</p>\n<p>The <em>Hermit</em> allows its wearer to cast 8th-level <em>@Compendium[pf2e.spells-srd.Spirit Blast]{Spirit Blast}</em> and 7th-level <em>@Compendium[pf2e.spells-srd.Flame Strike]{Flame Strike}</em>, each as a divine innate spell, once per day.</p>"
                },
                "equipped": {
                    "value": false
                },
                "equippedBulk": {
                    "value": ""
                },
                "hardness": {
                    "value": 0
                },
                "hp": {
                    "value": 0
                },
                "identification": {
                    "misidentified": {},
                    "status": "identified",
                    "unidentified": {
                        "data": {
                            "description": {
                                "value": ""
                            }
                        },
                        "img": "",
                        "name": ""
                    }
                },
                "invested": {
                    "value": null
                },
                "level": {
                    "value": 18
                },
                "maxHp": {
                    "value": 0
                },
                "negateBulk": {
                    "value": "0"
                },
                "preciousMaterial": {
                    "value": null
                },
                "preciousMaterialGrade": {
                    "value": null
                },
                "price": {
                    "value": "0 gp"
                },
                "quantity": {
                    "value": 1
                },
                "rules": [],
                "size": {
                    "value": "med"
                },
                "slug": "taljjaes-mask-the-hermit",
                "source": {
                    "value": "Pathfinder Lost Omens: Monsters of Myth"
                },
                "stackGroup": {
                    "value": ""
                },
                "traits": {
                    "custom": "",
                    "rarity": "unique",
                    "value": [
                        "invested",
                        "magical"
                    ]
                },
                "usage": {
                    "value": "wornmask"
                },
                "weight": {
                    "value": "-"
                }
            },
            "effects": [],
            "flags": {
                "core": {
                    "sourceId": "Compendium.pf2e.equipment-srd.d8w28UjKHALM2GNu"
                }
            },
            "img": "systems/pf2e/icons/equipment/worn-items/other-worn-items/demon-mask.webp",
            "name": "Taljjae's Mask (The Hermit)",
            "sort": 400000,
            "type": "equipment"
        },
        {
            "_id": "9ZdslD20lwC7FT27",
            "data": {
                "baseItem": null,
                "brokenThreshold": {
                    "value": 0
                },
                "bulkCapacity": {
                    "value": ""
                },
                "collapsed": {
                    "value": false
                },
                "containerId": {
                    "value": null
                },
                "description": {
                    "value": "<p>Those who gain one of Taljjae's masks, either by defeating Taljjae or some other means, are known as its understudies and gain a fraction of its power. Each of Taljjae's masks is an 18th-level unique item with the invested and magical traits; if broken, they're automatically repaired to full HP when invested during daily preparations. The effect of a mask on a PC is noted in the mask's Understudy entry. Wearing one of Taljjae's masks also imposes Taljjae's jelly sense and jelly gluttony on the creature as long as it wears the mask.</p>\n<p><strong>Activate</strong> <span class=\"pf2-icon\">1</span></p>\n<p><strong>Frequency</strong> once per day;</p>\n<p><strong>Effect</strong> The Hero grants its wearer a +3 status bonus to attack rolls with bows for 1 minute.</p>\n<p>@Compendium[pf2e.equipment-effects.Effect: Taljjae's Mask (The Hero)]{Effect: Taljjae's Mask (The Hero)}</p>"
                },
                "equipped": {
                    "value": false
                },
                "equippedBulk": {
                    "value": ""
                },
                "hardness": {
                    "value": 0
                },
                "hp": {
                    "value": 0
                },
                "identification": {
                    "misidentified": {},
                    "status": "identified",
                    "unidentified": {
                        "data": {
                            "description": {
                                "value": ""
                            }
                        },
                        "img": "",
                        "name": ""
                    }
                },
                "invested": {
                    "value": null
                },
                "level": {
                    "value": 18
                },
                "maxHp": {
                    "value": 0
                },
                "negateBulk": {
                    "value": "0"
                },
                "preciousMaterial": {
                    "value": null
                },
                "preciousMaterialGrade": {
                    "value": null
                },
                "price": {
                    "value": "0 gp"
                },
                "quantity": {
                    "value": 1
                },
                "rules": [],
                "size": {
                    "value": "med"
                },
                "slug": "taljjaes-mask-the-hero",
                "source": {
                    "value": "Pathfinder Lost Omens: Monsters of Myth"
                },
                "stackGroup": {
                    "value": ""
                },
                "traits": {
                    "custom": "",
                    "rarity": "unique",
                    "value": [
                        "invested",
                        "magical"
                    ]
                },
                "usage": {
                    "value": "wornmask"
                },
                "weight": {
                    "value": "-"
                }
            },
            "effects": [],
            "flags": {
                "core": {
                    "sourceId": "Compendium.pf2e.equipment-srd.2LO9eMNpQiku5UDn"
                }
            },
            "img": "systems/pf2e/icons/equipment/worn-items/other-worn-items/demon-mask.webp",
            "name": "Taljjae's Mask (The Hero)",
            "sort": 500000,
            "type": "equipment"
        },
        {
            "_id": "6e9EU1nlCw7WIimm",
            "data": {
                "baseItem": null,
                "brokenThreshold": {
                    "value": 0
                },
                "bulkCapacity": {
                    "value": ""
                },
                "collapsed": {
                    "value": false
                },
                "containerId": {
                    "value": null
                },
                "description": {
                    "value": "<p>Those who gain one of Taljjae's masks, either by defeating Taljjae or some other means, are known as its understudies and gain a fraction of its power. Each of Taljjae's masks is an 18th-level unique item with the invested and magical traits; if broken, they're automatically repaired to full HP when invested during daily preparations. The effect of a mask on a PC is noted in the mask's Understudy entry. Wearing one of Taljjae's masks also imposes Taljjae's jelly sense and jelly gluttony on the creature as long as it wears the mask.</p>\n<p><strong>Activate</strong> <span class=\"pf2-icon\">2</span></p>\n<p><strong>Frequency</strong> once per 10 minutes</p>\n<p><strong>Effect</strong> You hold out a hand and attempt to take something that doesn't belong to you. You telekinetically attracts an unattended, unsecured object of up to 5 Bulk within 100 feet. If the object is in a creature's possession, you must critically succeed at an attempt to @Compendium[pf2e.actionspf2e.Disarm]{Disarm} that creature, but you can't critically fail.</p>"
                },
                "equipped": {
                    "value": false
                },
                "equippedBulk": {
                    "value": ""
                },
                "hardness": {
                    "value": 0
                },
                "hp": {
                    "value": 0
                },
                "identification": {
                    "misidentified": {},
                    "status": "identified",
                    "unidentified": {
                        "data": {
                            "description": {
                                "value": ""
                            }
                        },
                        "img": "",
                        "name": ""
                    }
                },
                "invested": {
                    "value": null
                },
                "level": {
                    "value": 18
                },
                "maxHp": {
                    "value": 0
                },
                "negateBulk": {
                    "value": "0"
                },
                "preciousMaterial": {
                    "value": null
                },
                "preciousMaterialGrade": {
                    "value": null
                },
                "price": {
                    "value": "0 gp"
                },
                "quantity": {
                    "value": 1
                },
                "rules": [],
                "size": {
                    "value": "med"
                },
                "slug": "taljjaes-mask-the-nobleman",
                "source": {
                    "value": "Pathfinder Lost Omens: Monsters of Myth"
                },
                "stackGroup": {
                    "value": ""
                },
                "traits": {
                    "custom": "",
                    "rarity": "unique",
                    "value": [
                        "invested",
                        "magical"
                    ]
                },
                "usage": {
                    "value": "wornmask"
                },
                "weight": {
                    "value": "-"
                }
            },
            "effects": [],
            "flags": {
                "core": {
                    "sourceId": "Compendium.pf2e.equipment-srd.4jzASWzF2riszO3U"
                }
            },
            "img": "systems/pf2e/icons/equipment/worn-items/other-worn-items/demon-mask.webp",
            "name": "Taljjae's Mask (The Nobleman)",
            "sort": 600000,
            "type": "equipment"
        },
        {
            "_id": "2IJpbF4xgyi5Aove",
            "data": {
                "baseItem": null,
                "brokenThreshold": {
                    "value": 0
                },
                "bulkCapacity": {
                    "value": ""
                },
                "collapsed": {
                    "value": false
                },
                "containerId": {
                    "value": null
                },
                "description": {
                    "value": "<p>Those who gain one of Taljjae's masks, either by defeating Taljjae or some other means, are known as its understudies and gain a fraction of its power. Each of Taljjae's masks is an 18th-level unique item with the invested and magical traits; if broken, they're automatically repaired to full HP when invested during daily preparations. The effect of a mask on a PC is noted in the mask's Understudy entry. Wearing one of Taljjae's masks also imposes Taljjae's jelly sense and jelly gluttony on the creature as long as it wears the mask.</p>\n<p>The <em>Wanderer</em> allows its wearer to cast 7th-level <em>@Compendium[pf2e.spells-srd.Air Walk]{Air Walk}</em> and 8th-level <em>@Compendium[pf2e.spells-srd.Freedom of Movement]{Freedom of Movement}</em>, each as a divine innate spell, once per day.</p>"
                },
                "equipped": {
                    "value": false
                },
                "equippedBulk": {
                    "value": ""
                },
                "hardness": {
                    "value": 0
                },
                "hp": {
                    "value": 0
                },
                "identification": {
                    "misidentified": {},
                    "status": "identified",
                    "unidentified": {
                        "data": {
                            "description": {
                                "value": ""
                            }
                        },
                        "img": "",
                        "name": ""
                    }
                },
                "invested": {
                    "value": null
                },
                "level": {
                    "value": 18
                },
                "maxHp": {
                    "value": 0
                },
                "negateBulk": {
                    "value": "0"
                },
                "preciousMaterial": {
                    "value": null
                },
                "preciousMaterialGrade": {
                    "value": null
                },
                "price": {
                    "value": "0 gp"
                },
                "quantity": {
                    "value": 1
                },
                "rules": [],
                "size": {
                    "value": "med"
                },
                "slug": "taljjaes-mask-the-wanderer",
                "source": {
                    "value": "Pathfinder Lost Omens: Monsters of Myth"
                },
                "stackGroup": {
                    "value": ""
                },
                "traits": {
                    "custom": "",
                    "rarity": "unique",
                    "value": [
                        "invested",
                        "magical"
                    ]
                },
                "usage": {
                    "value": "wornmask"
                },
                "weight": {
                    "value": "-"
                }
            },
            "effects": [],
            "flags": {
                "core": {
                    "sourceId": "Compendium.pf2e.equipment-srd.nbBtszla32wRC1bp"
                }
            },
            "img": "systems/pf2e/icons/equipment/worn-items/other-worn-items/demon-mask.webp",
            "name": "Taljjae's Mask (The Wanderer)",
            "sort": 700000,
            "type": "equipment"
        },
        {
            "_id": "zaydgkbvbo8l3joq",
            "data": {
                "attack": {
                    "value": ""
                },
                "attackEffects": {
                    "custom": "",
                    "value": []
                },
                "bonus": {
                    "value": 35
                },
                "damageRolls": {
                    "paYP2BtxbkXfGmYu": {
                        "damage": "4d6+18",
                        "damageType": "slashing"
                    }
                },
                "description": {
                    "value": ""
                },
                "rules": [],
                "slug": null,
                "source": {
                    "value": ""
                },
                "traits": {
                    "custom": "",
                    "rarity": "common",
                    "value": [
                        "agile",
                        "magical",
                        "reach-10",
                        "versatile-b"
                    ]
                },
                "weaponType": {
                    "value": "melee"
                }
            },
            "effects": [],
            "flags": {},
            "img": "systems/pf2e/icons/default-icons/melee.svg",
            "name": "Whirling Sash",
            "sort": 800000,
            "type": "melee"
        },
        {
            "_id": "GfZVEi3zdYwWDzjl",
            "data": {
                "attack": {
                    "value": ""
                },
                "attackEffects": {
                    "custom": "",
                    "value": [
                        "knockdown"
                    ]
                },
                "bonus": {
                    "value": 35
                },
                "damageRolls": {
                    "m2uyglrm32psgfgcnm2r": {
                        "damage": "4d10+18",
                        "damageType": "piercing"
                    }
                },
                "description": {
                    "value": ""
                },
                "rules": [],
                "slug": null,
                "source": {
                    "value": ""
                },
                "traits": {
                    "custom": "",
                    "rarity": "common",
                    "value": [
                        "deadly-3d12",
                        "magical",
                        "reach-10"
                    ]
                },
                "weaponType": {
                    "value": "melee"
                }
            },
            "effects": [],
            "flags": {},
            "img": "systems/pf2e/icons/default-icons/melee.svg",
            "name": "Jaws",
            "sort": 900000,
            "type": "melee"
        },
        {
            "_id": "gY53lEbsAAzkK0Uv",
            "data": {
                "attack": {
                    "value": ""
                },
                "attackEffects": {
                    "value": []
                },
                "bonus": {
                    "value": 35
                },
                "damageRolls": {
                    "wgk3oaoywylyu7687zan": {
                        "damage": "4d6+18",
                        "damageType": "slashing"
                    }
                },
                "description": {
                    "value": ""
                },
                "rules": [],
                "slug": null,
                "source": {
                    "value": ""
                },
                "traits": {
                    "custom": "",
                    "rarity": "common",
                    "value": [
                        "agile",
                        "magical",
                        "reach-10"
                    ]
                },
                "weaponType": {
                    "value": "melee"
                }
            },
            "effects": [],
            "flags": {},
            "img": "systems/pf2e/icons/default-icons/melee.svg",
            "name": "Claw",
            "sort": 1000000,
            "type": "melee"
        },
        {
            "_id": "6z71izdol3e13koh",
            "data": {
                "attack": {
                    "value": ""
                },
                "attackEffects": {
                    "custom": "",
                    "value": []
                },
                "bonus": {
                    "value": 35
                },
                "damageRolls": {
                    "bV59ZadzDAYkf29W": {
                        "damage": "4d6+18",
                        "damageType": "fire"
                    }
                },
                "description": {
                    "value": ""
                },
                "rules": [],
                "slug": null,
                "source": {
                    "value": ""
                },
                "traits": {
                    "custom": "",
                    "rarity": "common",
                    "value": [
                        "fire",
                        "range-increment-60"
                    ]
                },
                "weaponType": {
                    "value": "ranged"
                }
            },
            "effects": [],
            "flags": {},
            "img": "systems/pf2e/icons/default-icons/melee.svg",
            "name": "Goblinfire",
            "sort": 1100000,
            "type": "melee"
        },
        {
            "_id": "W6ypDZ4KL8XzCx7C",
            "data": {
                "actionCategory": {
                    "value": "interaction"
                },
                "actionType": {
                    "value": "passive"
                },
                "actions": {
                    "value": null
                },
                "description": {
                    "value": "<p>@Localize[PF2E.NPC.Abilities.Glossary.Darkvision]</p>"
                },
                "requirements": {
                    "value": ""
                },
                "rules": [],
                "slug": "darkvision",
                "source": {
                    "value": ""
                },
                "traits": {
                    "custom": "",
                    "rarity": "common",
                    "value": []
                },
                "trigger": {
                    "value": ""
                },
                "weapon": {
                    "value": ""
                }
            },
            "effects": [],
            "flags": {
                "core": {
                    "sourceId": "Compendium.pf2e.bestiary-ability-glossary-srd.qCCLZhnp2HhP3Ex6"
                }
            },
            "img": "systems/pf2e/icons/actions/Passive.webp",
            "name": "Darkvision",
            "sort": 1200000,
            "type": "action"
        },
        {
            "_id": "hvib7p262mdkyhpf",
            "data": {
                "actionCategory": {
                    "value": "defensive"
                },
                "actionType": {
                    "value": "reaction"
                },
                "actions": {
                    "value": null
                },
                "description": {
                    "value": "<p data-visibility=\"gm\"><strong>Trigger</strong> Taljjae is reduced to 0 Hit Points</p>\n<hr />\n<p><strong>Effect</strong> Taljjae retains 1 Hit Point and teleports to an empty space within 30 feet. One of its masks remains behind and is broken.</p>"
                },
                "requirements": {
                    "value": ""
                },
                "rules": [],
                "slug": null,
                "source": {
                    "value": ""
                },
                "traits": {
                    "custom": "",
                    "rarity": "common",
                    "value": [
                        "conjuration",
                        "primal",
                        "teleportation"
                    ]
                },
                "trigger": {
                    "value": ""
                }
            },
            "effects": [],
            "flags": {},
            "img": "systems/pf2e/icons/actions/Reaction.webp",
            "name": "Exit Stage",
            "sort": 1300000,
            "type": "action"
        },
        {
            "_id": "fkctckojzd3stukh",
            "data": {
                "actionCategory": {
                    "value": "defensive"
                },
                "actionType": {
                    "value": "passive"
                },
                "actions": {
                    "value": null
                },
                "description": {
                    "value": "<p>If Taljjae detects buckwheat jelly with its jelly sense, it becomes @Compendium[pf2e.conditionitems.Fascinated]{Fascinated} by the food and the creature possessing it (if applicable) and @Compendium[pf2e.conditionitems.Flat-Footed]{Flat-Footed} to all other creatures for [[/br 1d4 #Rounds]]{1d4 rounds}, or until it uses an appropriate number of Interact actions to consume the jelly (generally 2: 1 to take the jelly, and another to eat it). If there's more than one helping of jelly, the condition ends once Taljjae consumes the jelly once.</p>"
                },
                "requirements": {
                    "value": ""
                },
                "rules": [],
                "slug": null,
                "source": {
                    "value": ""
                },
                "traits": {
                    "custom": "",
                    "rarity": "common",
                    "value": []
                },
                "trigger": {
                    "value": ""
                }
            },
            "effects": [],
            "flags": {},
            "img": "systems/pf2e/icons/actions/Passive.webp",
            "name": "Jelly Gluttony",
            "sort": 1400000,
            "type": "action"
        },
        {
            "_id": "87u5s0iomu7fmxwg",
            "data": {
                "actionCategory": {
                    "value": "defensive"
                },
                "actionType": {
                    "value": "passive"
                },
                "actions": {
                    "value": ""
                },
                "description": {
                    "value": "<p>Taljjae has scent as a precise sense out to 120 feet, but only to detect buckwheat jelly, the only food Taljjae loves more than flesh.</p>"
                },
                "requirements": {
                    "value": ""
                },
                "rules": [],
                "slug": null,
                "source": {
                    "value": ""
                },
                "traits": {
                    "custom": "",
                    "rarity": "common",
                    "value": []
                },
                "trigger": {
                    "value": ""
                }
            },
            "effects": [],
            "flags": {},
            "img": "systems/pf2e/icons/actions/Passive.webp",
            "name": "Jelly Sense",
            "sort": 1500000,
            "type": "action"
        },
        {
            "_id": "3imov8thprdt3vz4",
            "data": {
                "actionCategory": {
                    "value": "offensive"
                },
                "actionType": {
                    "value": "action"
                },
                "actions": {
                    "value": 1
                },
                "description": {
                    "value": "<div data-visibility=\"gm\"><strong>Frequency</strong> once per round</div>\n<hr />\n<p><strong>Effect</strong> Taljjae removes its current mask and dons a new one. The change refreshes Taljjae, restoring 25 Hit Points. Once Taljjae has removed a mask, it can't Change Characters back to that mask until it has worn all of its unbroken masks at least once, after which the cycle starts again. Taljjae can't don a broken mask.</p>\n<p>When Taljjae Changes Characters, it gains access to the listed abilities. Any items (such as weapons) associated with its previous mask immediately disappear and are replaced by fresh ones for its new mask, but the effects of any mask abilities it has active persist. Removing a mask and later reapplying it doesn't restore any limited-use abilities.</p>"
                },
                "requirements": {
                    "value": ""
                },
                "rules": [],
                "slug": null,
                "source": {
                    "value": ""
                },
                "traits": {
                    "custom": "",
                    "rarity": "common",
                    "value": [
                        "stance"
                    ]
                },
                "trigger": {
                    "value": ""
                }
            },
            "effects": [],
            "flags": {},
            "img": "systems/pf2e/icons/actions/OneAction.webp",
            "name": "Change Characters",
            "sort": 1600000,
            "type": "action"
        },
        {
            "_id": "hlkjwm7c72rs0red",
            "data": {
                "actionCategory": {
                    "value": "offensive"
                },
                "actionType": {
                    "value": "passive"
                },
                "actions": {
                    "value": ""
                },
                "description": {
                    "value": "<p>Taljjae has access to the critical specialization effects of any weapons it wields from one of its masks.</p>"
                },
                "requirements": {
                    "value": ""
                },
                "rules": [],
                "slug": null,
                "source": {
                    "value": ""
                },
                "traits": {
                    "custom": "",
                    "rarity": "common",
                    "value": []
                },
                "trigger": {
                    "value": ""
                }
            },
            "effects": [],
            "flags": {},
            "img": "systems/pf2e/icons/actions/Passive.webp",
            "name": "Prop Master",
            "sort": 1700000,
            "type": "action"
        },
        {
            "_id": "QBCzdpVPaZNg9pxC",
            "data": {
                "actionCategory": {
                    "value": "offensive"
                },
                "actionType": {
                    "value": "action"
                },
                "actions": {
                    "value": 1
                },
                "description": {
                    "value": "<p>Claw</p>\n<p>@Localize[PF2E.NPC.Abilities.Glossary.Rend]</p>"
                },
                "requirements": {
                    "value": ""
                },
                "rules": [],
                "slug": "rend",
                "source": {
                    "value": ""
                },
                "traits": {
                    "custom": "",
                    "rarity": "common",
                    "value": []
                },
                "trigger": {
                    "value": ""
                },
                "weapon": {
                    "value": ""
                }
            },
            "effects": [],
            "flags": {
                "core": {
                    "sourceId": "Compendium.pf2e.bestiary-ability-glossary-srd.3JOi2cMcGhT3eze1"
                }
            },
            "img": "systems/pf2e/icons/actions/OneAction.webp",
            "name": "Rend",
            "sort": 1800000,
            "type": "action"
        },
        {
            "_id": "88km45ata0is6ltu",
            "data": {
                "actionCategory": {
                    "value": "offensive"
                },
                "actionType": {
                    "value": "free"
                },
                "actions": {
                    "value": ""
                },
                "description": {
                    "value": "<div data-visibility=\"gm\"><strong>Trigger</strong> Taljjae's turn begins</div> <div data-visibility=\"gm\"><strong>Requirements</strong> Taljjae has 200 or fewer Hit Points</div> <hr /><p><strong>Effect</strong> Taljjae's dance reaches a frantic climax, allowing it to change personas rapidly. Taljjae Changes Characters.</p>"
                },
                "requirements": {
                    "value": ""
                },
                "rules": [],
                "slug": null,
                "source": {
                    "value": ""
                },
                "traits": {
                    "custom": "",
                    "rarity": "common",
                    "value": []
                },
                "trigger": {
                    "value": ""
                }
            },
            "effects": [],
            "flags": {},
            "img": "systems/pf2e/icons/actions/FreeAction.webp",
            "name": "Second Act",
            "sort": 1900000,
            "type": "action"
        },
        {
            "_id": "NvQMQAvLV3KT3Chd",
            "data": {
                "actionCategory": {
                    "value": "offensive"
                },
                "actionType": {
                    "value": "action"
                },
                "actions": {
                    "value": 1
                },
                "description": {
                    "value": "<p>@Localize[PF2E.NPC.Abilities.Glossary.Knockdown]</p>"
                },
                "requirements": {
                    "value": ""
                },
                "rules": [],
                "slug": "knockdown",
                "source": {
                    "value": ""
                },
                "traits": {
                    "custom": "",
                    "rarity": "common",
                    "value": []
                },
                "trigger": {
                    "value": ""
                },
                "weapon": {
                    "value": ""
                }
            },
            "effects": [],
            "flags": {
                "core": {
                    "sourceId": "Compendium.pf2e.bestiary-ability-glossary-srd.BCLvAx4Pz4MLa2pu"
                }
            },
            "img": "systems/pf2e/icons/actions/OneAction.webp",
            "name": "Knockdown",
            "sort": 2000000,
            "type": "action"
        },
        {
            "_id": "4ddcwsb9dxw5fxh6",
            "data": {
                "description": {
                    "value": ""
                },
                "mod": {
                    "value": 35
                },
                "proficient": {
                    "value": 0
                },
                "rules": [],
                "slug": null,
                "source": {
                    "value": ""
                },
                "traits": {
                    "custom": "",
                    "rarity": "common",
                    "value": []
                }
            },
            "effects": [],
            "flags": {},
            "img": "systems/pf2e/icons/default-icons/lore.svg",
            "name": "Acrobatics",
            "sort": 2100000,
            "type": "lore"
        },
        {
            "_id": "e3zfkklp9ojb0szm",
            "data": {
                "description": {
                    "value": ""
                },
                "mod": {
                    "value": 31
                },
                "proficient": {
                    "value": 0
                },
                "rules": [],
                "slug": null,
                "source": {
                    "value": ""
                },
                "traits": {
                    "custom": "",
                    "rarity": "common",
                    "value": []
                }
            },
            "effects": [],
            "flags": {},
            "img": "systems/pf2e/icons/default-icons/lore.svg",
            "name": "Athletics",
            "sort": 2200000,
            "type": "lore"
        },
        {
            "_id": "3ou0r5mcvwvrvlvz",
            "data": {
                "description": {
                    "value": ""
                },
                "mod": {
                    "value": 38
                },
                "proficient": {
                    "value": 0
                },
                "rules": [],
                "slug": null,
                "source": {
                    "value": ""
                },
                "traits": {
                    "custom": "",
                    "rarity": "common",
                    "value": []
                }
            },
            "effects": [],
            "flags": {},
            "img": "systems/pf2e/icons/default-icons/lore.svg",
            "name": "Performance",
            "sort": 2300000,
            "type": "lore"
        },
        {
            "_id": "ljy12gi0tg3sb7oo",
            "data": {
                "description": {
                    "value": ""
                },
                "mod": {
                    "value": 31
                },
                "proficient": {
                    "value": 0
                },
                "rules": [],
                "slug": null,
                "source": {
                    "value": ""
                },
                "traits": {
                    "custom": "",
                    "rarity": "common",
                    "value": []
                }
            },
            "effects": [],
            "flags": {},
            "img": "systems/pf2e/icons/default-icons/lore.svg",
            "name": "Society",
            "sort": 2400000,
            "type": "lore"
        }
    ],
    "name": "Taljjae (The Beast)",
    "token": {
        "disposition": -1,
        "height": 1,
        "img": "systems/pf2e/icons/default-icons/npc.svg",
        "name": "Taljjae",
        "width": 1
    },
    "type": "npc"
}
