{
    "_id": "JX7k6wFmZLqNjK0k",
    "data": {
        "abilities": {
            "cha": {
                "mod": 2
            },
            "con": {
                "mod": 3
            },
            "dex": {
                "mod": 3
            },
            "int": {
                "mod": 1
            },
            "str": {
                "mod": 4
            },
            "wis": {
                "mod": -2
            }
        },
        "attributes": {
            "ac": {
                "details": "",
                "value": 18
            },
            "allSaves": {
                "value": ""
            },
            "hp": {
                "details": "",
                "max": 55,
                "temp": 0,
                "value": 55
            },
            "initiative": {
                "ability": "perception"
            },
            "perception": {
                "value": 12
            },
            "speed": {
                "details": "",
                "otherSpeeds": [
                    {
                        "type": "swim",
                        "value": "25"
                    }
                ],
                "special": "",
                "value": "20"
            }
        },
        "details": {
            "alignment": {
                "value": "CN"
            },
            "blurb": "",
            "creatureType": "",
            "level": {
                "value": 3
            },
            "privateNotes": "",
            "publicNotes": "",
            "source": {
                "value": "Pathfinder Lost Omens: Monsters of Myth"
            }
        },
        "resources": {},
        "saves": {
            "fortitude": {
                "saveDetail": "",
                "value": 12
            },
            "reflex": {
                "saveDetail": "",
                "value": 10
            },
            "will": {
                "saveDetail": "",
                "value": 5
            }
        },
        "traits": {
            "ci": [],
            "di": {
                "custom": "",
                "value": []
            },
            "dr": [
                {
                    "exceptions": "",
                    "type": "electricity",
                    "value": 5
                },
                {
                    "exceptions": "",
                    "type": "piercing",
                    "value": 5
                }
            ],
            "dv": [],
            "languages": {
                "custom": "can't speak",
                "selected": [],
                "value": [
                    "druidic"
                ]
            },
            "rarity": "rare",
            "senses": {
                "value": "darkvision"
            },
            "size": {
                "value": "lg"
            },
            "traits": {
                "custom": "",
                "value": [
                    "amphibious",
                    "beast"
                ]
            }
        }
    },
    "effects": [],
    "flags": {},
    "img": "systems/pf2e/icons/default-icons/npc.svg",
    "items": [
        {
            "_id": "xv0rgeoqcbbbg21x",
            "data": {
                "attack": {
                    "value": ""
                },
                "attackEffects": {
                    "custom": "",
                    "value": [
                        "Grab"
                    ]
                },
                "bonus": {
                    "value": 13
                },
                "damageRolls": {
                    "PVmEFpGqoyhlCXhD": {
                        "damage": "1d8+6",
                        "damageType": "piercing"
                    }
                },
                "description": {
                    "value": ""
                },
                "rules": [],
                "slug": null,
                "source": {
                    "value": ""
                },
                "traits": {
                    "custom": "",
                    "rarity": "common",
                    "value": [
                        "reach-10"
                    ]
                },
                "weaponType": {
                    "value": "melee"
                }
            },
            "effects": [],
            "flags": {},
            "img": "systems/pf2e/icons/default-icons/melee.svg",
            "name": "Jaws",
            "sort": 100000,
            "type": "melee"
        },
        {
            "_id": "qbxly30fpotc4sl2",
            "data": {
                "attack": {
                    "value": ""
                },
                "attackEffects": {
                    "custom": "",
                    "value": [
                        "Grab"
                    ]
                },
                "bonus": {
                    "value": 13
                },
                "damageRolls": {
                    "7BB9UcL8tdiYQg6L": {
                        "damage": "1d6+6",
                        "damageType": "bludgeoning"
                    }
                },
                "description": {
                    "value": ""
                },
                "rules": [],
                "slug": null,
                "source": {
                    "value": ""
                },
                "traits": {
                    "custom": "",
                    "rarity": "common",
                    "value": [
                        "agile",
                        "reach-10"
                    ]
                },
                "weaponType": {
                    "value": "melee"
                }
            },
            "effects": [],
            "flags": {},
            "img": "systems/pf2e/icons/default-icons/melee.svg",
            "name": "Tail",
            "sort": 200000,
            "type": "melee"
        },
        {
            "_id": "C8rcuoyKncxzG1XP",
            "data": {
                "actionCategory": {
                    "value": "interaction"
                },
                "actionType": {
                    "value": "passive"
                },
                "actions": {
                    "value": null
                },
                "description": {
                    "value": "<p>@Localize[PF2E.NPC.Abilities.Glossary.Darkvision]</p>"
                },
                "requirements": {
                    "value": ""
                },
                "rules": [],
                "slug": "darkvision",
                "source": {
                    "value": ""
                },
                "traits": {
                    "custom": "",
                    "rarity": "common",
                    "value": []
                },
                "trigger": {
                    "value": ""
                },
                "weapon": {
                    "value": ""
                }
            },
            "effects": [],
            "flags": {
                "core": {
                    "sourceId": "Compendium.pf2e.bestiary-ability-glossary-srd.qCCLZhnp2HhP3Ex6"
                }
            },
            "img": "systems/pf2e/icons/actions/Passive.webp",
            "name": "Darkvision",
            "sort": 300000,
            "type": "action"
        },
        {
            "_id": "iqcb6f9qbdsvvgku",
            "data": {
                "actionCategory": {
                    "value": "interaction"
                },
                "actionType": {
                    "value": "passive"
                },
                "actions": {
                    "value": null
                },
                "description": {
                    "value": "<p>An Ulgrem-Lurann can pretend to be a floating log while in water by attempting a Stealth check. It has a +2 circumstance bonus to its checks and DCs to do so. While using Stealth this way, creatures see the log but don't realize it's an Ulgrem-Lurann.</p>"
                },
                "requirements": {
                    "value": ""
                },
                "rules": [
                    {
                        "key": "ToggleProperty",
                        "label": "Ulgrem-Lurann is pretending to be a log in the water",
                        "property": "flags.pf2e.rollOptions.stealth.bump-in-the-river"
                    },
                    {
                        "key": "FlatModifier",
                        "label": "PF2E.SkillVariant.Water",
                        "predicate": {
                            "all": [
                                "terrain:water",
                                "bump-in-the-river"
                            ]
                        },
                        "selector": "stealth",
                        "type": "untyped",
                        "value": 2
                    }
                ],
                "slug": null,
                "source": {
                    "value": ""
                },
                "traits": {
                    "custom": "",
                    "rarity": "common",
                    "value": []
                },
                "trigger": {
                    "value": ""
                }
            },
            "effects": [],
            "flags": {},
            "img": "systems/pf2e/icons/actions/Passive.webp",
            "name": "Bump in the River",
            "sort": 400000,
            "type": "action"
        },
        {
            "_id": "aAgbtcFrEiIFWF2V",
            "data": {
                "actionCategory": {
                    "value": "defensive"
                },
                "actionType": {
                    "value": "reaction"
                },
                "actions": {
                    "value": null
                },
                "description": {
                    "value": "<p>@Localize[PF2E.NPC.Abilities.Glossary.AttackOfOpportunity]</p>"
                },
                "requirements": {
                    "value": ""
                },
                "rules": [],
                "slug": "attack-of-opportunity",
                "source": {
                    "value": ""
                },
                "traits": {
                    "custom": "",
                    "rarity": "common",
                    "value": []
                },
                "trigger": {
                    "value": ""
                },
                "weapon": {
                    "value": ""
                }
            },
            "effects": [],
            "flags": {
                "core": {
                    "sourceId": "Compendium.pf2e.bestiary-ability-glossary-srd.hFtNbo1LKYCoDy2O"
                }
            },
            "img": "systems/pf2e/icons/actions/Reaction.webp",
            "name": "Attack of Opportunity",
            "sort": 500000,
            "type": "action"
        },
        {
            "_id": "8at60u4lc66uah6z",
            "data": {
                "actionCategory": {
                    "value": "offensive"
                },
                "actionType": {
                    "value": "passive"
                },
                "actions": {
                    "value": null
                },
                "description": {
                    "value": "<p>An Ulgrem-Lurann gains a +1 circumstance bonus to attack and damage rolls against creatures with the undead trait.</p>"
                },
                "requirements": {
                    "value": ""
                },
                "rules": [
                    {
                        "key": "FlatModifier",
                        "predicate": {
                            "all": [
                                "target:undead"
                            ]
                        },
                        "selector": "attack",
                        "type": "circumstance",
                        "value": 1
                    },
                    {
                        "key": "FlatModifier",
                        "predicate": {
                            "all": [
                                "target:undead"
                            ]
                        },
                        "selector": "damage",
                        "type": "circumstance",
                        "value": 1
                    }
                ],
                "slug": null,
                "source": {
                    "value": ""
                },
                "traits": {
                    "custom": "",
                    "rarity": "common",
                    "value": []
                },
                "trigger": {
                    "value": ""
                }
            },
            "effects": [],
            "flags": {},
            "img": "systems/pf2e/icons/actions/Passive.webp",
            "name": "Nurtured Loathing",
            "sort": 600000,
            "type": "action"
        },
        {
            "_id": "bp0r71xc2sahlj0e",
            "data": {
                "actionCategory": {
                    "value": "offensive"
                },
                "actionType": {
                    "value": "action"
                },
                "actions": {
                    "value": "2"
                },
                "description": {
                    "value": "<div data-visibility=\"gm\"><strong>Requirements</strong> The Ulgrem-Lurann has a creature @Compendium[pf2e.conditionitems.Grabbed]{Grabbed} with its jaws</div> <hr /><p><strong>Effect</strong> Electricity courses through its body and mouth, dealing an additional [[/r {1d4 + 6}[electricity]]]{1d4 + 6 electricity damage} to the grabbed target with a <span data-pf2-check=\"fortitude\" data-pf2-traits=\"attack,electricity,damaging-effect\" data-pf2-label=\"Sparking Bite DC\" data-pf2-dc=\"20\" data-pf2-show-dc=\"gm\">basic Fortitude</span> save.</p>"
                },
                "requirements": {
                    "value": ""
                },
                "rules": [],
                "slug": null,
                "source": {
                    "value": ""
                },
                "traits": {
                    "custom": "",
                    "rarity": "common",
                    "value": [
                        "attack",
                        "electricity"
                    ]
                },
                "trigger": {
                    "value": ""
                }
            },
            "effects": [],
            "flags": {},
            "img": "systems/pf2e/icons/actions/TwoActions.webp",
            "name": "Sparking Bite",
            "sort": 700000,
            "type": "action"
        },
        {
            "_id": "8v81gms2q5chj3ux",
            "data": {
                "actionCategory": {
                    "value": "offensive"
                },
                "actionType": {
                    "value": "action"
                },
                "actions": {
                    "value": 1
                },
                "description": {
                    "value": "<p>Small, [[/r {1d6+6}[bludgeoning]]]{1d6 bludgeoning}, Rupture 9</p>\n<p>@Localize[PF2E.NPC.Abilities.Glossary.SwallowWhole]</p>"
                },
                "requirements": {
                    "value": ""
                },
                "rules": [],
                "slug": null,
                "source": {
                    "value": ""
                },
                "traits": {
                    "custom": "",
                    "rarity": "common",
                    "value": [
                        "attack"
                    ]
                },
                "trigger": {
                    "value": ""
                }
            },
            "effects": [],
            "flags": {},
            "img": "systems/pf2e/icons/actions/OneAction.webp",
            "name": "Swallow Whole",
            "sort": 800000,
            "type": "action"
        },
        {
            "_id": "pMQ28lQ60vVdkeIJ",
            "data": {
                "actionCategory": {
                    "value": "offensive"
                },
                "actionType": {
                    "value": "action"
                },
                "actions": {
                    "value": 1
                },
                "description": {
                    "value": "<div data-visibility=\"gm\"><strong>Requirements</strong> The Ulgrem-Lurann has a creature @Compendium[pf2e.conditionitems.Grabbed]{Grabbed} with its jaws</div>\n<hr />\n<p><strong>Effect</strong> Electricity courses through its body and mouth, dealing an additional [[/r {1d4 + 6}[electricity]]]{1d4 + 6 electricity damage} to the creature (<span data-pf2-check=\"fortitude\" data-pf2-traits=\"electricity,damaging-effect\" data-pf2-label=\"Sparking Bite DC\" data-pf2-dc=\"20\" data-pf2-show-dc=\"gm\">basic Fortitude</span> save).</p>"
                },
                "requirements": {
                    "value": ""
                },
                "rules": [],
                "slug": null,
                "source": {
                    "value": ""
                },
                "traits": {
                    "custom": "",
                    "rarity": "common",
                    "value": [
                        "electricity"
                    ]
                },
                "trigger": {
                    "value": ""
                }
            },
            "effects": [],
            "flags": {
                "core": {
                    "sourceId": "Item.igod6l5ljw2okucd"
                }
            },
            "img": "systems/pf2e/icons/actions/OneAction.webp",
            "name": "Voltaic Blow",
            "sort": 900000,
            "type": "action"
        },
        {
            "_id": "JcawEYIWCeSQQoRt",
            "data": {
                "actionCategory": {
                    "value": "offensive"
                },
                "actionType": {
                    "value": "action"
                },
                "actions": {
                    "value": 1
                },
                "description": {
                    "value": "<p>@Localize[PF2E.NPC.Abilities.Glossary.Grab]</p>"
                },
                "requirements": {
                    "value": ""
                },
                "rules": [],
                "slug": "grab",
                "source": {
                    "value": ""
                },
                "traits": {
                    "custom": "",
                    "rarity": "common",
                    "value": []
                },
                "trigger": {
                    "value": ""
                },
                "weapon": {
                    "value": ""
                }
            },
            "effects": [],
            "flags": {
                "core": {
                    "sourceId": "Compendium.pf2e.bestiary-ability-glossary-srd.Tkd8sH4pwFIPzqTr"
                }
            },
            "img": "systems/pf2e/icons/actions/OneAction.webp",
            "name": "Grab",
            "sort": 1000000,
            "type": "action"
        },
        {
            "_id": "etepxioiegt7yitv",
            "data": {
                "description": {
                    "value": ""
                },
                "mod": {
                    "value": 10
                },
                "proficient": {
                    "value": 0
                },
                "rules": [],
                "slug": null,
                "source": {
                    "value": ""
                },
                "traits": {
                    "custom": "",
                    "rarity": "common",
                    "value": []
                }
            },
            "effects": [],
            "flags": {},
            "img": "systems/pf2e/icons/default-icons/lore.svg",
            "name": "Athletics",
            "sort": 1100000,
            "type": "lore"
        },
        {
            "_id": "9nzp6cax6kr8zujj",
            "data": {
                "description": {
                    "value": ""
                },
                "mod": {
                    "value": 8
                },
                "proficient": {
                    "value": 0
                },
                "rules": [],
                "slug": null,
                "source": {
                    "value": ""
                },
                "traits": {
                    "custom": "",
                    "rarity": "common",
                    "value": []
                }
            },
            "effects": [],
            "flags": {},
            "img": "systems/pf2e/icons/default-icons/lore.svg",
            "name": "Deception",
            "sort": 1200000,
            "type": "lore"
        },
        {
            "_id": "ga18zcl5udbv57pk",
            "data": {
                "description": {
                    "value": ""
                },
                "mod": {
                    "value": 11
                },
                "proficient": {
                    "value": 0
                },
                "rules": [],
                "slug": null,
                "source": {
                    "value": ""
                },
                "traits": {
                    "custom": "",
                    "rarity": "common",
                    "value": []
                }
            },
            "effects": [],
            "flags": {},
            "img": "systems/pf2e/icons/default-icons/lore.svg",
            "name": "Intimidation",
            "sort": 1300000,
            "type": "lore"
        },
        {
            "_id": "naxq6pytwlnvb9k7",
            "data": {
                "description": {
                    "value": ""
                },
                "mod": {
                    "value": 10
                },
                "proficient": {
                    "value": 0
                },
                "rules": [],
                "slug": null,
                "source": {
                    "value": ""
                },
                "traits": {
                    "custom": "",
                    "rarity": "common",
                    "value": []
                }
            },
            "effects": [],
            "flags": {},
            "img": "systems/pf2e/icons/default-icons/lore.svg",
            "name": "Stealth",
            "sort": 1400000,
            "type": "lore"
        }
    ],
    "name": "Ulgrem-Lurann",
    "token": {
        "disposition": -1,
        "height": 1,
        "img": "systems/pf2e/icons/default-icons/npc.svg",
        "name": "Ulgrem-Lurann",
        "width": 1
    },
    "type": "npc"
}
