{
    "_id": "oduHa5yyTisFsIRD",
    "content": "<h1>God Calling [Any]</h1><p>The ancient art of god calling was once the predominant religious practice in Sarkoris, long before the Worldwound erupted and demons drove most of the native Sarkorians from their homelands. This art, one part magical theory and one part religion, allows certain Sarkorians to summon unusual and unique beings from the Great Beyond who protect their clans and guide their people. These creatures are typically referred to as gods by those who revere them, and they continue to return and guide their people generation after generation, so long as someone trained by a previous god caller or otherwise educated in the practice of communing with a particular god is alive to form a tether to the Material Plane so that the god can manifest. These god callers may have unique titles or names among the people of their clan, and such monikers differ from clan to clan, but most of the clans of Sarkoris are able to distinguish a god caller by their unique dress or glyph that ties the caller to their god.</p>\n<p><strong>Edicts</strong> The gods of Sarkoris have very few shared edicts, but several are often prominently shared amongst them: protect your clan and your people, educate the clan's children's in the traditions and histories of the clan's god, and carefully record the name and image of each new god when they first appear so that they are not forgotten and can continue to watch over the people.</p>\n<p><strong>Anathema</strong> There is only one anathema universally enforced by the gods of Sarkoris: make no deals or bargains with demons, as the advent of the Worldwound led to the destruction of many clans and the loss of many gods, some of whom may never be seen again.</p>\n<p><strong>Areas of Concern</strong> Each god has their own particular inclinations and interests, typically informed by the predominant attitudes and beliefs of their clan.</p>",
    "flags": {},
    "name": "God Calling",
    "permission": {
        "default": 0
    }
}
