{
    "_id": "tk7gRxXsqvBwQrUF",
    "content": "<h1>Grundinnar (The Peacemaker) [LG]</h1><p>Grundinnar is one of @Compendium[pf2e.deities.Torag]{Torag}'s many sons and is the dwarven god of friendship and loyalty. He is experienced at breaking up fights over his sister @Compendium[pf2e.deities.Bolka]{Bolka}, and has thus developed quite a strong sense of diplomacy. He uses this skill to end feuds, encourage neighborly conduct among his followers and works to ensure that dwarves remember friends they haven't seen in many years.</p>\n<p><strong>Edicts</strong> Attempt to bridge the gap between feuding sides, maintain just treaties, maintain relations with neighbors</p>\n<p><strong>Anathema</strong> Sow discord among friends and allies, attack during parley</p>\n<p><strong>Follower Alignments</strong> LG, NG</p><h2>Devotee Benefits</h2><div><div><strong>Divine Ability</strong> Constitution or Charisma</div><div><strong>Divine Font</strong> heal</div><div><strong>Divine Skill</strong> Diplomacy</div><div><strong>Favored Weapon</strong> light hammer</div><div><strong>Domains</strong> confidence, family, protection, truth</div><div><strong>Cleric Spells</strong> 1st: anticipate peril, 4th: resilient sphere, 6th: wall of force</div></div>",
    "flags": {},
    "name": "Grundinnar",
    "permission": {
        "default": 0
    }
}
