{
    "_id": "wjXNXFWBLbJaeZQR",
    "content": "<h1>Ketephys (The Hunter) [CG]</h1><p><strong>Ketephys</strong> is the tight-lipped elven god of the hunt, who instructs his followers to care for the forest and defend it from his arch-enemy @Compendium[pf2e.pathfinder-bestiary.Treerazer]{Treerazer}.</p>\n<p><strong>Edicts</strong> Hunt and kill demons and undead, maintain the health of the forest, provide for your community</p>\n<p><strong>Anathema</strong> Take more than needed from the wilderness, hunt an animal for sport, aid Treerazer or his minions</p>\n<p><strong>Areas of Concern</strong> hunting and the moon</p>\n<p><strong>Follower Alignments</strong> NG, CG</p><h2>Devotee Benefits</h2><div><div><strong>Divine Ability</strong> Dexterity or Wisdom</div><div><strong>Divine Font</strong> heal</div><div><strong>Divine Skill</strong> Survival</div><div><strong>Favored Weapon</strong> longbow</div><div><strong>Domains</strong> darkness, moon, nature, secrecy</div><div><strong>Cleric Spells</strong> 1st: pass without trace, 2nd: invisibility, 3rd: animal vision</div></div>",
    "flags": {},
    "name": "Ketephys",
    "permission": {
        "default": 0
    }
}
