{
    "_id": "SAuFz101iP6VVwvw",
    "content": "<h1>Nurgal (The Shining Scourge) [CE]</h1><p>Nurgal, the Shining Scourge, is the demon lord of deserts, senseless warfare, and the sun. He was formerly a fully fledged deity of ancient Azlant, but fell to demigodhood after being defeated in combat. Nurgal represents the sun's potential for devastation, and his followers venerate him out of cowed awe. The demon lord appears as a muscular, tanned man with the head and lower body of a golden lion and a dragon's tail. He is almost always depicted as wielding a mace in the form of a miniature sun, held in a taloned hand. Nurgal's worshippers are primarily found in the deserts of Garund, Ninshabur, and Qadira.</p>\n<p><strong>Edicts</strong> Wage war in the desert, deny water to your foes</p>\n<p><strong>Anathema</strong> Heal a sunburn, change your name</p>\n<p><strong>Areas of Concern</strong> deserts, senseless warfare, and the sun</p>\n<p><strong>Follower Alignments</strong> NE, CE</p><h2>Devotee Benefits</h2><div><div><strong>Divine Ability</strong> Constitution or Charisma</div><div><strong>Divine Font</strong> harm</div><div><strong>Divine Skill</strong> Survival</div><div><strong>Favored Weapon</strong> mace</div><div><strong>Domains</strong> destruction, dust, fire, sun</div><div><strong>Cleric Spells</strong> 1st: burning hands, 2nd: flaming sphere, 3rd: cup of dust</div></div>",
    "flags": {},
    "name": "Nurgal",
    "permission": {
        "default": 0
    }
}
