{
    "_id": "BLNXYqvzmLgjMq2p",
    "content": "<h1>Sun Wukong (The Monkey King) [CN]</h1><p><strong>Edicts</strong> Live life freely, drink, play pranks</p>\n<p><strong>Anathema</strong> Refuse a reasonable bet or duel, let social pressure change your behavior</p>\n<p><strong>Follower Alignments</strong> CG, CN, CE</p><h2>Devotee Benefits</h2><div><div><strong>Divine Ability</strong> Strength or Charisma</div><div><strong>Divine Font</strong> harm or heal</div><div><strong>Divine Skill</strong> Acrobatics</div><div><strong>Favored Weapon</strong> bo staff</div><div><strong>Domains</strong> indulgence, might, nature, trickery</div><div><strong>Cleric Spells</strong> 1st: jump, 3rd: abyssal plague (mad monkeys), 4th: creation</div></div>",
    "flags": {},
    "name": "Sun Wukong",
    "permission": {
        "default": 0
    }
}
