{
    "_id": "aievwuZalZ2abs2q",
    "content": "<h1>Thoth (Lord of Divine Words) [LN]</h1><p><strong>Edicts</strong> Maintain order in society and the multiverse, innovate scientific and magical knowledge, record events</p>\n<p><strong>Anathema</strong> Upset stable mechanisms or ecosystems, fail to correct false information</p>\n<p><strong>Follower Alignments</strong> LG, LN, N</p><h2>Devotee Benefits</h2><div><div><strong>Divine Ability</strong> Intelligence or Wisdom</div><div><strong>Divine Font</strong> harm or heal</div><div><strong>Divine Skill</strong> Arcana</div><div><strong>Favored Weapon</strong> sickle</div><div><strong>Domains</strong> glyph, knowledge, magic, moon</div><div><strong>Cleric Spells</strong> 1st: message rune, 2nd: comprehend language, 3rd: secret page</div></div>",
    "flags": {},
    "name": "Thoth",
    "permission": {
        "default": 0
    }
}
