{
    "_id": "giUsAWI9NbpdeUzl",
    "content": "<p><strong>Deities</strong> @Compendium[pf2e.deities.Abraxas]{Abraxas}, @Compendium[pf2e.deities.Andoletta]{Andoletta}, @Compendium[pf2e.deities.Barzahk]{Barzahk}, @Compendium[pf2e.deities.Brigh]{Brigh}, @Compendium[pf2e.deities.Casandalee]{Casandalee}, @Compendium[pf2e.deities.Charon]{Charon}, @Compendium[pf2e.deities.Dhalavei]{Dhalavei}, @Compendium[pf2e.deities.Dranngvit]{Dranngvit}, @Compendium[pf2e.deities.Eritrice]{Eritrice}, @Compendium[pf2e.deities.Followers of Fate]{Followers of Fate}, @Compendium[pf2e.deities.Gruhastha]{Gruhastha}, @Compendium[pf2e.deities.Irori]{Irori}, @Compendium[pf2e.deities.Kabriri]{Kabriri}, @Compendium[pf2e.deities.Kols]{Kols}, @Compendium[pf2e.deities.Lady Jingxi]{Lady Jingxi}, @Compendium[pf2e.deities.Likha]{Likha}, @Compendium[pf2e.deities.Ma'at]{Ma'at}, @Compendium[pf2e.deities.Magdh]{Magdh}, @Compendium[pf2e.deities.Mephistopheles]{Mephistopheles}, @Compendium[pf2e.deities.Monad]{Monad}, @Compendium[pf2e.deities.Narriseminek]{Narriseminek}, @Compendium[pf2e.deities.Nethys]{Nethys}, @Compendium[pf2e.deities.Ng]{Ng}, @Compendium[pf2e.deities.Nyarlathotep (Haunter in the Dark)]{Nyarlathotep (Haunter in the Dark)}, @Compendium[pf2e.deities.Nyarlathotep (The Crawling Chaos)]{Nyarlathotep (The Crawling Chaos)}, @Compendium[pf2e.deities.Otolmens]{Otolmens}, @Compendium[pf2e.deities.Pharasma]{Pharasma}, @Compendium[pf2e.deities.Pillars of Knowledge]{Pillars of Knowledge}, @Compendium[pf2e.deities.Qi Zhong]{Qi Zhong}, @Compendium[pf2e.deities.Raumya]{Raumya}, @Compendium[pf2e.deities.Saloc]{Saloc}, @Compendium[pf2e.deities.The Lost Prince]{The Lost Prince}, @Compendium[pf2e.deities.Valmallos]{Valmallos}, @Compendium[pf2e.deities.Wards of the Pharaoh]{Wards of the Pharaoh}, @Compendium[pf2e.deities.Winlas]{Winlas}, @Compendium[pf2e.deities.Ydajisk]{Ydajisk}, @Compendium[pf2e.deities.Yog-Sothoth]{Yog-Sothoth}, @Compendium[pf2e.deities.Yuelral]{Yuelral}, @Compendium[pf2e.deities.Zohls]{Zohls}</p>\n<p><strong>Domain Spell</strong> @Compendium[pf2e.spells-srd.Scholarly Recollection]{Scholarly Recollection}; <strong>Advanced Domain Spell</strong> @Compendium[pf2e.spells-srd.Know the Enemy]{Know the Enemy}</p>\n<p>You receive divine insights.</p>",
    "flags": {},
    "name": "Knowledge Domain",
    "permission": {
        "default": 0
    }
}
