{
    "_id": "a0fe0kFowMMwUFZa",
    "content": "<p><strong>Deities</strong> @Compendium[pf2e.deities.Azathoth]{Azathoth}, @Compendium[pf2e.deities.Chamidu]{Chamidu}, @Compendium[pf2e.deities.Groetus]{Groetus}, @Compendium[pf2e.deities.Gyronna]{Gyronna}, @Compendium[pf2e.deities.Jaidz]{Jaidz}, @Compendium[pf2e.deities.Kelizandri]{Kelizandri}, @Compendium[pf2e.deities.Lamashtu]{Lamashtu}, @Compendium[pf2e.deities.Nyarlathotep (Haunter in the Dark)]{Nyarlathotep (Haunter in the Dark)}, @Compendium[pf2e.deities.Nyarlathotep (The Crawling Chaos)]{Nyarlathotep (The Crawling Chaos)}, @Compendium[pf2e.deities.Sifkesh]{Sifkesh}, @Compendium[pf2e.deities.Treerazer]{Treerazer}, @Compendium[pf2e.deities.Trelmarixian]{Trelmarixian}, @Compendium[pf2e.deities.Zura]{Zura}</p>\n<p><strong>Domain Spell</strong> @Compendium[pf2e.spells-srd.Waking Nightmare]{Waking Nightmare}; <strong>Advanced Domain Spell</strong> @Compendium[pf2e.spells-srd.Shared Nightmare]{Shared Nightmare}</p>\n<p>You fill minds with horror and dread.</p>",
    "flags": {},
    "name": "Nightmares Domain",
    "permission": {
        "default": 0
    }
}
