{
    "_id": "aFygWxgSv82WyCsl",
    "data": {
        "actionCategory": {
            "value": ""
        },
        "actionType": {
            "value": "passive"
        },
        "actions": {
            "value": null
        },
        "description": {
            "value": "<p>You become an expert in Acrobatics. At 7th level, you become a master in Acrobatics, and at 15th level, you become legendary in Acrobatics.</p>\n<p>Whenever you critically succeed at an Acrobatics check to @Compendium[pf2e.actionspf2e.Tumble Through]{Tumble Through} an enemy's space, you don't treat the enemy's space as difficult terrain.</p>\n<p><strong>Special</strong> You can't select another dedication feat until you have gained two other feats from the acrobat archetype.</p>"
        },
        "featType": {
            "value": "archetype"
        },
        "level": {
            "value": 2
        },
        "location": "",
        "prerequisites": {
            "value": [
                {
                    "value": "trained in Acrobatics"
                }
            ]
        },
        "rules": [
            {
                "key": "ActiveEffectLike",
                "mode": "upgrade",
                "path": "data.skills.acr.rank",
                "value": {
                    "brackets": [
                        {
                            "end": 6,
                            "start": 1,
                            "value": 2
                        },
                        {
                            "end": 14,
                            "start": 7,
                            "value": 3
                        },
                        {
                            "start": 15,
                            "value": 4
                        }
                    ]
                }
            },
            {
                "key": "Note",
                "predicate": {
                    "all": [
                        "action:tumble-through"
                    ]
                },
                "selector": "acrobatics",
                "text": "<p class='compact-text'><strong>Critical Success</strong> As success, but you don't treat the enemy's space as difficult terrain.</p>"
            }
        ],
        "source": {
            "value": "Pathfinder Advanced Player's Guide"
        },
        "traits": {
            "custom": "",
            "rarity": "common",
            "value": [
                "archetype",
                "dedication"
            ]
        }
    },
    "effects": [],
    "flags": {},
    "img": "systems/pf2e/icons/features/feats/feats.webp",
    "name": "Acrobat Dedication",
    "type": "feat"
}
