{
    "_id": "ED58GzldWb82yc2q",
    "data": {
        "actionCategory": {
            "value": ""
        },
        "actionType": {
            "value": "passive"
        },
        "actions": {
            "value": null
        },
        "description": {
            "value": "<p>You build a rapport with an animal, which becomes magically bonded to you. You gain a familiar. The type of animal is up to you, but most gnomes choose animals with a burrow Speed.</p>"
        },
        "featType": {
            "value": "ancestry"
        },
        "level": {
            "value": 1
        },
        "location": "",
        "prerequisites": {
            "value": []
        },
        "rules": [
            {
                "key": "ActiveEffectLike",
                "mode": "upgrade",
                "path": "data.attributes.familiarAbilities.value",
                "priority": 9,
                "value": 2
            }
        ],
        "source": {
            "value": "Pathfinder Core Rulebook"
        },
        "traits": {
            "custom": "",
            "rarity": "common",
            "value": [
                "gnome"
            ]
        }
    },
    "effects": [],
    "flags": {},
    "img": "systems/pf2e/icons/features/feats/feats.webp",
    "name": "Animal Accomplice",
    "type": "feat"
}
