{
    "_id": "ZOOP2RzRJnpVqnCr",
    "data": {
        "actionCategory": {
            "value": ""
        },
        "actionType": {
            "value": "passive"
        },
        "actions": {
            "value": null
        },
        "description": {
            "value": "<p>You can ask questions of, receive answers from, and use the Diplomacy skill with animals with the amphibious or aquatic traits. You gain a +1 circumstance bonus to @Compendium[pf2e.actionspf2e.Make an Impression]{Make an Impression} on such animals.</p>"
        },
        "featType": {
            "value": "ancestry"
        },
        "level": {
            "value": 5
        },
        "location": "",
        "prerequisites": {
            "value": []
        },
        "rules": [
            {
                "key": "FlatModifier",
                "label": "Aquatic conversationalist (Make an Impression with amphibious or aquatic creatures)",
                "predicate": {
                    "all": [
                        "action:make-an-impression"
                    ],
                    "any": [
                        "target:amphibious",
                        "target:aquatic"
                    ]
                },
                "selector": "diplomacy",
                "type": "circumstance",
                "value": 1
            }
        ],
        "source": {
            "value": "Pathfinder Lost Omens: Ancestry Guide"
        },
        "traits": {
            "custom": "",
            "rarity": "common",
            "value": [
                "azarketi"
            ]
        }
    },
    "effects": [],
    "flags": {},
    "img": "systems/pf2e/icons/default-icons/feats.webp",
    "name": "Aquatic Conversationalist",
    "type": "feat"
}
