{
    "_id": "N8Ci3w5gQ68rj6a6",
    "data": {
        "actionCategory": {
            "value": "defensive"
        },
        "actionType": {
            "value": "passive"
        },
        "actions": {
            "value": null
        },
        "description": {
            "value": "<p>You have developed magical techniques to aid you with stalking your prey. You can cast <em>@Compendium[pf2e.spells-srd.Blur]{Blur}</em> and <em>@Compendium[pf2e.spells-srd.Invisibility]{Invisibility}</em> each once per day as 2nd-level arcane innate spells.</p>\n<p><strong>Enhancement</strong> Your camouflage is more potent. Your blur spell now lasts 10 minutes and when you cast invisibility, you can choose to gain the effects of the 4th-level version of the spell. In addition, you can now cast blur and invisibility each twice per day.</p>"
        },
        "featType": {
            "value": "ancestry"
        },
        "level": {
            "value": 9
        },
        "location": "",
        "prerequisites": {
            "value": [
                {
                    "value": "Hunter automaton"
                }
            ]
        },
        "rules": [],
        "source": {
            "value": ""
        },
        "traits": {
            "custom": "",
            "rarity": "common",
            "value": [
                "automaton"
            ]
        }
    },
    "effects": [],
    "flags": {},
    "img": "systems/pf2e/icons/default-icons/feats.webp",
    "name": "Arcane Camouflage",
    "type": "feat"
}
