{
    "_id": "L5nSP8CkHWSLp2vV",
    "data": {
        "actionCategory": {
            "value": ""
        },
        "actionType": {
            "value": "passive"
        },
        "actions": {
            "value": null
        },
        "description": {
            "value": "<p>Your physical training encompasses unarmed combat forms. The damage die for your fist changes to 1d6 instead of 1d4. You don't take the normal -2 circumstance penalty when making a lethal attack with your fist or any other unarmed attacks. Your unarmed attacks gain the arcane trait, making them magical. At 5th level, you also gain the critical specialization effects of unarmed attacks in the brawling group and weapons in the brawling group.</p>"
        },
        "featType": {
            "value": "class"
        },
        "level": {
            "value": 1
        },
        "location": "",
        "prerequisites": {
            "value": []
        },
        "rules": [],
        "source": {
            "value": ""
        },
        "traits": {
            "custom": "",
            "rarity": "common",
            "value": [
                "magus"
            ]
        }
    },
    "effects": [],
    "flags": {},
    "img": "systems/pf2e/icons/features/feats/feats.webp",
    "name": "Arcane Fists",
    "type": "feat"
}
