{
    "_id": "iKOcwFCbNX1a2OFT",
    "data": {
        "actionCategory": {
            "value": ""
        },
        "actionType": {
            "value": "passive"
        },
        "actions": {
            "value": null
        },
        "description": {
            "value": "<p><strong>Archetype</strong> Hellknight Armiger</p>\n<hr />\n<p>You have been trained to resist the manipulations of fiends, and your Hellknight discipline makes you difficult to influence. You gain a +1 circumstance bonus to saves against mental effects that specifically improve your attitude and to your Will DC against someone Coercing you, Demoralizing you, Making an Impression on you, or Making a Request of you.</p>\n<p>If a mental effect would compel you to act in a way that violates your Hellknight order's tenets (as determined by the GM), you can attempt to break free from the effect as a reaction triggered by receiving the violating order, and you gain a new Will save against the effect. You can attempt this new save only once for a given effect, even if you are compelled to violate your order's tenets multiple times.</p>"
        },
        "featType": {
            "value": "archetype"
        },
        "level": {
            "value": 4
        },
        "location": "",
        "prerequisites": {
            "value": [
                {
                    "value": "Hellknight Armiger Dedication"
                }
            ]
        },
        "rules": [
            {
                "key": "FlatModifier",
                "label": "vs. social interactions  (Ardent Armiger)",
                "predicate": {
                    "any": [
                        "improve-attitude",
                        "coerce",
                        "demoralize",
                        "make-an-impression",
                        "make-a-request"
                    ]
                },
                "selector": "will",
                "type": "circumstance",
                "value": 1
            }
        ],
        "source": {
            "value": "Pathfinder Lost Omens: World Guide"
        },
        "traits": {
            "custom": "",
            "rarity": "common",
            "value": [
                "archetype"
            ]
        }
    },
    "effects": [],
    "flags": {},
    "img": "systems/pf2e/icons/features/feats/feats.webp",
    "name": "Ardent Armiger",
    "type": "feat"
}
