{
    "_id": "Olx796SgBbHUFeHc",
    "data": {
        "actionCategory": {
            "value": ""
        },
        "actionType": {
            "value": "passive"
        },
        "actions": {
            "value": null
        },
        "description": {
            "value": "<p>You've learned how best to move in heavy armor. When wearing heavy armor, if you meet the Strength requirement, instead of reducing the movement penalty by 5 feet, you reduce the penalty by 10 feet (typically reducing the penalty to 0). If you are a dwarf with the @Compendium[pf2e.feats-srd.Unburdened Iron]{Unburdened Iron} feat, increase your Speed by 5 feet.</p>"
        },
        "featType": {
            "value": "archetype"
        },
        "level": {
            "value": 8
        },
        "prerequisites": {
            "value": [
                {
                    "value": "expert in heavy armor"
                },
                {
                    "value": "Hellknight Armiger Dedication"
                }
            ]
        },
        "rules": [],
        "source": {
            "value": "Pathfinder Lost Omens: World Guide"
        },
        "traits": {
            "custom": "",
            "rarity": "common",
            "value": [
                "archetype"
            ]
        }
    },
    "effects": [],
    "flags": {},
    "img": "systems/pf2e/icons/features/feats/feats.webp",
    "name": "Armiger's Mobility",
    "type": "feat"
}
