{
    "_id": "iJxbrXAdxhLqdT5E",
    "data": {
        "actionCategory": {
            "value": ""
        },
        "actionType": {
            "value": "action"
        },
        "actions": {
            "value": 2
        },
        "description": {
            "value": "<p><strong>Requirements</strong> You have designated a mark using @Compendium[pf2e.actionspf2e.Mark for Death]{Mark for Death} and are completely unnoticed by your mark.</p>\n<hr />\n<p>You Strike with one swift movement, trying to instantly slay your mark. Make a Strike against your mark. If you hit, your mark takes [[/r {6d6}[precision]]]{6d6 extra precision damage} with a basic Fortitude save against your class DC or spell DC, whichever is higher. If the mark critically fails, they die. This is an incapacitation effect. The creature then becomes temporarily immune to your Assassinate for 1 day.</p>"
        },
        "featType": {
            "value": "archetype"
        },
        "level": {
            "value": 12
        },
        "prerequisites": {
            "value": [
                {
                    "value": "Assassin Dedication"
                }
            ]
        },
        "rules": [],
        "source": {
            "value": "Pathfinder Advanced Player's Guide"
        },
        "traits": {
            "custom": "",
            "rarity": "common",
            "value": [
                "archetype"
            ]
        }
    },
    "effects": [],
    "flags": {},
    "img": "systems/pf2e/icons/features/feats/feats.webp",
    "name": "Assassinate",
    "type": "feat"
}
