{
    "_id": "W6Gl9ePmItfDHji0",
    "data": {
        "actionCategory": {
            "value": ""
        },
        "actionType": {
            "value": "passive"
        },
        "actions": {
            "value": null
        },
        "description": {
            "value": "<p>Even in the worst circumstances, you can perform basic tasks. Choose a skill you're trained in. You can forgo rolling a skill check for that skill to instead receive a result of 10 + your proficiency bonus (do not apply any other bonuses, penalties, or modifiers).</p>\n<hr />\n<p><strong>Special</strong> You can select this feat multiple times. Each time, choose a different skill and gain the benefits for that skill.</p>"
        },
        "featType": {
            "value": "skill"
        },
        "level": {
            "value": 1
        },
        "location": "",
        "prerequisites": {
            "value": [
                {
                    "value": "trained in at least one skill"
                }
            ]
        },
        "rules": [
            {
                "choices": [
                    {
                        "label": "PF2E.SkillAcr",
                        "value": "acrobatics"
                    },
                    {
                        "label": "PF2E.SkillArc",
                        "value": "arcana"
                    },
                    {
                        "label": "PF2E.SkillAth",
                        "value": "athletics"
                    },
                    {
                        "label": "PF2E.SkillCra",
                        "value": "crafting"
                    },
                    {
                        "label": "PF2E.SkillDec",
                        "value": "deception"
                    },
                    {
                        "label": "PF2E.SkillDip",
                        "value": "diplomacy"
                    },
                    {
                        "label": "PF2E.SkillItm",
                        "value": "intimidation"
                    },
                    {
                        "label": "PF2E.SkillMed",
                        "value": "medicine"
                    },
                    {
                        "label": "PF2E.SkillNat",
                        "value": "nature"
                    },
                    {
                        "label": "PF2E.SkillOcc",
                        "value": "occultism"
                    },
                    {
                        "label": "PF2E.SkillPrf",
                        "value": "performance"
                    },
                    {
                        "label": "PF2E.SkillRel",
                        "value": "religion"
                    },
                    {
                        "label": "PF2E.SkillSoc",
                        "value": "society"
                    },
                    {
                        "label": "PF2E.SkillSte",
                        "value": "stealth"
                    },
                    {
                        "label": "PF2E.SkillSur",
                        "value": "survival"
                    },
                    {
                        "label": "PF2E.SkillThi",
                        "value": "thievery"
                    },
                    {
                        "label": "PF2E.SkillLore",
                        "value": "lore"
                    }
                ],
                "key": "ChoiceSet",
                "prompt": "PF2E.SpecificRule.Prompt.Skill"
            }
        ],
        "source": {
            "value": "Pathfinder Core Rulebook"
        },
        "traits": {
            "custom": "",
            "rarity": "common",
            "value": [
                "fortune",
                "general",
                "skill"
            ]
        }
    },
    "effects": [],
    "flags": {},
    "img": "systems/pf2e/icons/features/feats/feats.webp",
    "name": "Assurance",
    "type": "feat"
}
