{
    "_id": "z7kwVNaCB4oJs3Fe",
    "data": {
        "actionCategory": {
            "value": ""
        },
        "actionType": {
            "value": "passive"
        },
        "actions": {
            "value": null
        },
        "description": {
            "value": "<p>Your aura protects against the twisting powers of aberrations. You and all allies within 15 feet gain a +1 status bonus to Fortitude and Will saves against effects from aberrations.</p>\n<p>You also gain a +1 status bonus to Fortitude saves against morph or polymorph effects and Will saves against mental effects; this bonus increases to +2 against aberrations' morph, polymorph, or mental effects.</p>\n<p>@Compendium[pf2e.feat-effects.Effect: Aura of Preservation]{Effect: Aura of Preservation}</p>"
        },
        "featType": {
            "value": "class"
        },
        "level": {
            "value": 14
        },
        "location": "",
        "prerequisites": {
            "value": [
                {
                    "value": "Esoteric Oath"
                }
            ]
        },
        "rules": [
            {
                "key": "FlatModifier",
                "label": "Vs. aberrations",
                "predicate": {
                    "all": [
                        "target:aberration"
                    ]
                },
                "selector": "fortitude",
                "type": "status",
                "value": 1
            },
            {
                "key": "FlatModifier",
                "label": "Vs. aberrations",
                "predicate": {
                    "all": [
                        "target:aberration"
                    ]
                },
                "selector": "will",
                "type": "status",
                "value": 1
            },
            {
                "key": "FlatModifier",
                "label": "Vs. morph & polymorph",
                "predicate": {
                    "any": [
                        "morph",
                        "polymorph"
                    ]
                },
                "selector": "fortitude",
                "type": "status",
                "value": 1
            },
            {
                "key": "FlatModifier",
                "label": "Vs. mental",
                "predicate": {
                    "all": [
                        "mental"
                    ]
                },
                "selector": "will",
                "type": "status",
                "value": 1
            },
            {
                "key": "FlatModifier",
                "label": "Vs. morph & polymorph from aberrations",
                "predicate": {
                    "all": [
                        "mental",
                        "target:aberration"
                    ]
                },
                "selector": "fortitude",
                "type": "status",
                "value": 2
            },
            {
                "key": "FlatModifier",
                "label": "Vs. mental from aberrations",
                "predicate": {
                    "all": [
                        "mental",
                        "target:aberration"
                    ]
                },
                "selector": "will",
                "type": "status",
                "value": 2
            }
        ],
        "source": {
            "value": "Pathfinder Advanced Player's Guide"
        },
        "traits": {
            "custom": "",
            "rarity": "common",
            "value": [
                "champion"
            ]
        }
    },
    "effects": [],
    "flags": {},
    "img": "systems/pf2e/icons/features/feats/feats.webp",
    "name": "Aura Of Preservation",
    "type": "feat"
}
