{
    "_id": "YY7wmYQ9ccAO8fut",
    "data": {
        "actionCategory": {
            "value": ""
        },
        "actionType": {
            "value": "passive"
        },
        "actions": {
            "value": null
        },
        "description": {
            "value": "<p>You gain the basic bounded spellcasting benefits. You gain the Cast a Spell activity. Your key spellcasting ability for summoner archetype spells is Charisma, and they are summoner spells of your eidolon's tradition. You become trained in spell attack rolls and spell DCs of that tradition. You gain a spell repertoire and two cantrips. Each time you gain a spell slot of a new level from the summoner archetype, add a spell of that level or lower to your repertoire. Each time you lose spell slots of a particular level, remove those spells from your repertoire.</p>"
        },
        "featType": {
            "value": "archetype"
        },
        "level": {
            "value": 6
        },
        "location": "",
        "prerequisites": {
            "value": [
                {
                    "value": "Summoner Dedication"
                }
            ]
        },
        "rules": [],
        "source": {
            "value": ""
        },
        "traits": {
            "custom": "",
            "rarity": "common",
            "value": [
                "archetype"
            ]
        }
    },
    "effects": [],
    "flags": {},
    "img": "systems/pf2e/icons/features/feats/feats.webp",
    "name": "Basic Summoner Spellcasting",
    "type": "feat"
}
