{
    "_id": "tWBK7Zbt80JlPryC",
    "data": {
        "actionCategory": {
            "value": ""
        },
        "actionType": {
            "value": "free"
        },
        "actions": {
            "value": null
        },
        "description": {
            "value": "<p><strong>Frequency</strong> once per turn</p>\n<p><strong>Requirements</strong> Your most recent action was to cast a non-cantrip spell.</p>\n<hr />\n<p>You siphon the residual energy from the last spell you cast into one weapon you're wielding. Until the end of your turn, the weapon deals an extra 1d6 damage of a type depending on the school of the spell you just cast.</p>\n<ul>\n<li><strong>Abjuration</strong> @Compendium[pf2e.feat-effects.Effect: Bespell Weapon (Force)]{force damage},</li>\n<li><strong>Conjuration or Transmutation</strong> @Compendium[pf2e.feat-effects.Effect: Bespell Weapon]{the same type as the weapon},</li>\n<li><strong>Divination, Enchantment, or Illusion</strong> @Compendium[pf2e.feat-effects.Effect: Bespell Weapon (Mental)]{mental damage},</li>\n<li><strong>Evocation</strong> a type the spell dealt, or @Compendium[pf2e.feat-effects.Effect: Bespell Weapon (Force)]{force damage} if the spell didn't deal damage,</li>\n<li><strong>Necromancy</strong> @Compendium[pf2e.feat-effects.Effect: Bespell Weapon (Negative)]{negative damage}</li>\n</ul>"
        },
        "featType": {
            "value": "class"
        },
        "level": {
            "value": 4
        },
        "location": "",
        "prerequisites": {
            "value": []
        },
        "rules": [],
        "source": {
            "value": "Pathfinder Advanced Player's Guide"
        },
        "traits": {
            "custom": "",
            "rarity": "common",
            "value": [
                "oracle",
                "sorcerer",
                "wizard"
            ]
        }
    },
    "effects": [],
    "flags": {},
    "img": "systems/pf2e/icons/features/feats/feats.webp",
    "name": "Bespell Weapon",
    "type": "feat"
}
