{
    "_id": "j1hhTLOq7o80XCyV",
    "data": {
        "actionCategory": {
            "value": ""
        },
        "actionType": {
            "value": "passive"
        },
        "actions": {
            "value": null
        },
        "description": {
            "value": "<p>You've learned how to synchronize traditional martial arts and guns. You gain the @Compendium[pf2e.actionspf2e.Bullet Dancer Stance]{Bullet Dancer Stance} action. Whenever your proficiency in any weapon increases to expert or beyond, you gain that new proficiency with bayonets, reinforced stocks, simple firearms and unarmed attacks.</p>\n<p><strong>Special</strong> You can't select another dedication feat until you've gained two other feats from the bullet dancer dedication archetype.</p>"
        },
        "featType": {
            "value": "archetype"
        },
        "level": {
            "value": 2
        },
        "location": "",
        "prerequisites": {
            "value": [
                {
                    "value": "expert in unarmored defense and trained in simple weapons"
                }
            ]
        },
        "rules": [
            {
                "key": "GrantItem",
                "uuid": "Compendium.pf2e.actionspf2e.Bullet Dancer Stance"
            }
        ],
        "source": {
            "value": ""
        },
        "traits": {
            "custom": "",
            "rarity": "uncommon",
            "value": [
                "archetype",
                "dedication"
            ]
        }
    },
    "effects": [],
    "flags": {},
    "img": "systems/pf2e/icons/default-icons/feats.webp",
    "name": "Bullet Dancer Dedication",
    "type": "feat"
}
