{
    "_id": "YOU5eCD5S4cS6Qeu",
    "data": {
        "actionCategory": {
            "value": ""
        },
        "actionType": {
            "value": "free"
        },
        "actions": {
            "value": null
        },
        "description": {
            "value": "<p><strong>Frequency</strong> once per day</p>\n<p><strong>Requirements</strong> You haven't yet acted on your turn.</p>\n<hr />\n<p>You call upon your Cascade Bearer training to help you adjust a spell for the current situation. Until the end of your turn, you gain a single metamagic feat from the druid class or the wizard class that has a level requirement of no more than half your level.</p>"
        },
        "featType": {
            "value": "class"
        },
        "level": {
            "value": 6
        },
        "prerequisites": {
            "value": [
                {
                    "value": "Magaambyan Attendant Dedication"
                },
                {
                    "value": "Cascade Bearers affiliation"
                }
            ]
        },
        "rules": [],
        "source": {
            "value": "Pathfinder Lost Omens: Character Guide"
        },
        "traits": {
            "custom": "",
            "rarity": "common",
            "value": [
                "archetype",
                "metamagic"
            ]
        }
    },
    "effects": [],
    "flags": {},
    "img": "systems/pf2e/icons/features/feats/feats.webp",
    "name": "Cascade Bearer's Flexibility",
    "type": "feat"
}
