{
    "_id": "hZUFP1NPwdGMzs1y",
    "data": {
        "actionCategory": {
            "value": "interaction"
        },
        "actionType": {
            "value": "passive"
        },
        "actions": {
            "value": null
        },
        "description": {
            "value": "<p>Your connection to the sun has become an unbreakable bond. You don't become temporarily immune to the effects of your @Compendium[pf2e.ancestryfeatures.Sunlight Healing]{Sunlight Healing}, and instead of rolling to recover Hit Points, you gain the maximum number of HP possible (for example, 64 HP instead of 8d8).</p>\n<p>[[/r (ceil(@actor.level/2))*8]]{Sunlight Healing}</p>\n<p>[[/r (@actor.level)*8]]{Ceremony of Sunlight Healing}</p>"
        },
        "featType": {
            "value": "ancestry"
        },
        "level": {
            "value": 17
        },
        "location": "",
        "prerequisites": {
            "value": []
        },
        "rules": [],
        "source": {
            "value": "Pathfinder Lost Omens: The Mwangi Expanse"
        },
        "traits": {
            "custom": "",
            "rarity": "common",
            "value": [
                "conrasu"
            ]
        }
    },
    "effects": [],
    "flags": {},
    "img": "systems/pf2e/icons/default-icons/feats.webp",
    "name": "Ceremony of Sun's Gift",
    "type": "feat"
}
