{
    "_id": "DYFOlJlMoDuHjrZx",
    "data": {
        "actionCategory": {
            "value": ""
        },
        "actionType": {
            "value": "action"
        },
        "actions": {
            "value": 2
        },
        "description": {
            "value": "<p><strong>Frequency</strong> once per day</p>\n<hr />\n<p>You tap into the Godmind's collective cognitive well, rapidly parsing near-infinite variables to read your surroundings. For 1 minute, you gain precise motion sense out to 60 feet, you can see invisible creatures and objects, and you gain the effects of a 9th-level <em>@Compendium[pf2e.spells-srd.True Seeing]{True Seeing}</em>.</p>"
        },
        "featType": {
            "value": "ancestry"
        },
        "level": {
            "value": 17
        },
        "location": "",
        "prerequisites": {
            "value": []
        },
        "rules": [],
        "source": {
            "value": "Pathfinder Lost Omens: Ancestry Guide"
        },
        "traits": {
            "custom": "",
            "rarity": "common",
            "value": [
                "aphorite"
            ]
        }
    },
    "effects": [],
    "flags": {},
    "img": "systems/pf2e/icons/features/feats/feats.webp",
    "name": "Channel The Godmind",
    "type": "feat"
}
