{
    "_id": "lQs2i9L09MQiZSPC",
    "data": {
        "actionCategory": {
            "value": ""
        },
        "actionType": {
            "value": "passive"
        },
        "actions": {
            "value": null
        },
        "description": {
            "value": "<p>You've learned to mimic the abilities of spellcasters by studying their flourishes and words. When you activate a magic item to generate a spell effect, attempt a Deception check. If you succeed against an onlooker's Perception DC, to that onlooker, you appear to cast that spell instead. Onlookers who successfully recognize the spell realize you used a magic item, though those who later successfully identify the magic still can't determine that the source of the effect was a magic item.</p>"
        },
        "featType": {
            "value": "skill"
        },
        "level": {
            "value": 1
        },
        "prerequisites": {
            "value": [
                {
                    "value": "trained in Deception"
                }
            ]
        },
        "rules": [],
        "source": {
            "value": "Pathfinder Lost Omens: Gods & Magic"
        },
        "traits": {
            "custom": "",
            "rarity": "common",
            "value": [
                "general",
                "skill"
            ]
        }
    },
    "effects": [],
    "flags": {},
    "img": "systems/pf2e/icons/features/feats/feats.webp",
    "name": "Charlatan",
    "type": "feat"
}
