{
    "_id": "sIeuPW0j39fTZm08",
    "data": {
        "actionCategory": {
            "value": ""
        },
        "actionType": {
            "value": "action"
        },
        "actions": {
            "value": 1
        },
        "description": {
            "value": "<p>You can hide your magical gestures and incantations within your speech and movement in an attempt to conceal the fact that you are @Compendium[pf2e.actionspf2e.Cast a Spell]{Casting a Spell}.</p>\n<p>If the next action you use is to Cast a Spell, attempt a Stealth check against one or more observers' Perception DCs; if the spell has verbal components, you must also attempt a Deception check against the observers' Perception DC. If you succeed at your check (or checks) against an observer's DC, that observer doesn't notice you're Casting a Spell, even though material, somatic, and verbal components are usually noticeable and spells normally have sensory manifestations that would make spellcasting obvious to those nearby.</p>\n<p>This ability hides only the spell's spellcasting actions and manifestations, not its effects, so an observer might still see a ray streak out from you or see you vanish into thin air.</p>"
        },
        "featType": {
            "value": "class"
        },
        "level": {
            "value": 2
        },
        "prerequisites": {
            "value": []
        },
        "rules": [],
        "source": {
            "value": "Pathfinder Advanced Player's Guide"
        },
        "traits": {
            "custom": "",
            "rarity": "common",
            "value": [
                "concentrate",
                "manipulate",
                "metamagic",
                "witch",
                "wizard"
            ]
        }
    },
    "effects": [],
    "flags": {},
    "img": "systems/pf2e/icons/features/feats/feats.webp",
    "name": "Conceal Spell",
    "type": "feat"
}
