{
    "_id": "WxL8NMW9JQ5igu0C",
    "data": {
        "actionCategory": {
            "value": ""
        },
        "actionType": {
            "value": "free"
        },
        "actions": {
            "value": null
        },
        "description": {
            "value": "<p><strong>Trigger</strong> Your turn begins and you can observe a devil.</p>\n<hr />\n<p>Your Hellknight training drilled details of Hell's denizens deep into your mind. Make an attempt to Recall Knowledge about a devil you're observing. If you roll a critical failure on this check, you get a failure instead.</p>"
        },
        "featType": {
            "value": "skill"
        },
        "level": {
            "value": 4
        },
        "prerequisites": {
            "value": [
                {
                    "value": "Hellknight Armiger Dedication"
                }
            ]
        },
        "rules": [],
        "source": {
            "value": "Pathfinder Lost Omens: World Guide"
        },
        "traits": {
            "custom": "",
            "rarity": "common",
            "value": [
                "skill",
                "archetype"
            ]
        }
    },
    "effects": [],
    "flags": {},
    "img": "systems/pf2e/icons/features/feats/feats.webp",
    "name": "Diabolic Certitude",
    "type": "feat"
}
