{
    "_id": "OEGhbRgW6wRbccns",
    "data": {
        "actionCategory": {
            "value": ""
        },
        "actionType": {
            "value": "action"
        },
        "actions": {
            "value": 1
        },
        "description": {
            "value": "<p>The slightest distraction can provoke your wrath, and you're prepared to foil enemies' actions.</p>\n<p>As long as you are in this stance, you can use @Compendium[pf2e.feats-srd.Attack of Opportunity (Fighter)]{Attack of Opportunity} when a creature within your reach uses a concentrate action, in addition to manipulate and move actions.</p>\n<p>Furthermore, you disrupt a triggering concentrate or manipulate action if your Strike hits (not only if it's a critical hit).</p>"
        },
        "featType": {
            "value": "class"
        },
        "level": {
            "value": 10
        },
        "prerequisites": {
            "value": []
        },
        "rules": [],
        "source": {
            "value": "Pathfinder Core Rulebook"
        },
        "traits": {
            "custom": "",
            "rarity": "common",
            "value": [
                "fighter",
                "stance"
            ]
        }
    },
    "effects": [],
    "flags": {},
    "img": "systems/pf2e/icons/features/feats/feats.webp",
    "name": "Disruptive Stance",
    "type": "feat"
}
