{
    "_id": "6vpgAMj87J6cWN0j",
    "data": {
        "actionCategory": {
            "value": ""
        },
        "actionType": {
            "value": "passive"
        },
        "actions": {
            "value": null
        },
        "description": {
            "value": "<p>When you cast obscuring mist, you can modify it to add the following heightened entry to its effects.</p>\n<hr />\n<p><strong>Heightened (3rd)</strong> Your mist is particularly laden with moisture. Non-magical fires within the area are automatically extinguished. Choose one magical fire or fire spell in the area and attempt to counteract it.</p>"
        },
        "featType": {
            "value": "archetype"
        },
        "level": {
            "value": 6
        },
        "location": "",
        "prerequisites": {
            "value": [
                {
                    "value": "Spell Trickster Dedication"
                },
                {
                    "value": "ability to cast obscuring mist"
                }
            ]
        },
        "rules": [],
        "source": {
            "value": ""
        },
        "traits": {
            "custom": "",
            "rarity": "common",
            "value": [
                "archetype"
            ]
        }
    },
    "effects": [],
    "flags": {},
    "img": "systems/pf2e/icons/default-icons/feats.webp",
    "name": "Drenching Mist",
    "type": "feat"
}
