{
    "_id": "NvEYf0jIETEu2LtP",
    "data": {
        "actionCategory": {
            "value": ""
        },
        "actionType": {
            "value": "action"
        },
        "actions": {
            "value": 1
        },
        "description": {
            "value": "<p>You time the components of your spell with exacting precision, setting up a resonance that duplicates the spell's effects.</p>\n<p>If your next action is to @Compendium[pf2e.actionspf2e.Cast a Spell]{Cast a Spell} of 4th level or lower that has no duration, the spell's energy reverberates and echoes. You can Cast the Spell a second time before the end of your next turn without expending a spell slot.</p>"
        },
        "featType": {
            "value": "class"
        },
        "level": {
            "value": 18
        },
        "prerequisites": {
            "value": []
        },
        "rules": [],
        "source": {
            "value": "Pathfinder Advanced Player's Guide"
        },
        "traits": {
            "custom": "",
            "rarity": "common",
            "value": [
                "concentrate",
                "metamagic",
                "sorcerer"
            ]
        }
    },
    "effects": [],
    "flags": {},
    "img": "systems/pf2e/icons/features/feats/feats.webp",
    "name": "Echoing Spell",
    "type": "feat"
}
