{
    "_id": "5lZBacKOZOgIx4Pi",
    "data": {
        "actionCategory": {
            "value": "interaction"
        },
        "actionType": {
            "value": "passive"
        },
        "actions": {
            "value": null
        },
        "description": {
            "value": "<p>You have an amazing memory for sound. You gain the @Compendium[pf2e.feats-srd.Assurance (Performance)]{Assurance (Performance)} feat. With a successful DC 8 flat check, you can accurately recall a sound or a snippet of conversation you heard within the last week. You are memorizing by rote rather than content, and can't use this to cram facts, so this doesn't grant you any extra ability to Recall Knowledge.</p>"
        },
        "featType": {
            "value": "ancestry"
        },
        "level": {
            "value": 1
        },
        "location": "",
        "prerequisites": {
            "value": []
        },
        "rules": [
            {
                "key": "GrantItem",
                "uuid": "Compendium.pf2e.feats-srd.Assurance (Performance)"
            }
        ],
        "source": {
            "value": "Pathfinder Lost Omens: The Mwangi Expanse"
        },
        "traits": {
            "custom": "",
            "rarity": "common",
            "value": [
                "shisk"
            ]
        }
    },
    "effects": [],
    "flags": {},
    "img": "systems/pf2e/icons/default-icons/feats.webp",
    "name": "Eidetic Ear",
    "type": "feat"
}
