{
    "_id": "tQ0FWNYJEXbmPCt7",
    "data": {
        "actionCategory": {
            "value": ""
        },
        "actionType": {
            "value": "passive"
        },
        "actions": {
            "value": null
        },
        "description": {
            "value": "<p>A peri's roaring spirit burns in your soul. Peris engage in constant struggle to right the wrongs of their fallen forebears, and that struggle has been passed on to you. You have a direct impulse to right wrongs and better the world.</p>\n<p>You gain a +1 circumstance bonus to saving throws against fire effects, and your perception is unaffected by non-magical flames, fog and smoke.</p>"
        },
        "featType": {
            "value": "ancestry"
        },
        "level": {
            "value": 1
        },
        "location": "",
        "prerequisites": {
            "value": []
        },
        "rules": [
            {
                "key": "FlatModifier",
                "label": "Emberkin (vs. fire effects)",
                "predicate": {
                    "all": [
                        "fire"
                    ]
                },
                "selector": "saving-throw",
                "type": "circumstance",
                "value": 1
            }
        ],
        "source": {
            "value": "Pathfinder Lost Omens: Ancestry Guide"
        },
        "traits": {
            "custom": "",
            "rarity": "common",
            "value": [
                "aasimar",
                "lineage"
            ]
        }
    },
    "effects": [],
    "flags": {},
    "img": "systems/pf2e/icons/features/feats/feats.webp",
    "name": "Emberkin",
    "type": "feat"
}
