{
    "_id": "cmhfYMEM4uzrNIiV",
    "data": {
        "actionCategory": {
            "value": ""
        },
        "actionType": {
            "value": "action"
        },
        "actions": {
            "value": 1
        },
        "description": {
            "value": "<p><strong>Frequency</strong> once per hour</p>\n<hr />\n<p>You stoke your magic to energize your wings, temporarily transforming them into glowing, majestic forms. For 1 minute, you gain a fly Speed of 30 feet.</p>"
        },
        "featType": {
            "value": "ancestry"
        },
        "level": {
            "value": 9
        },
        "location": "",
        "prerequisites": {
            "value": [
                {
                    "value": "Evanescent Wings"
                }
            ]
        },
        "rules": [],
        "source": {
            "value": "Pathfinder Lost Omens: Ancestry Guide"
        },
        "traits": {
            "custom": "",
            "rarity": "common",
            "value": [
                "concentrate",
                "morph",
                "primal",
                "sprite",
                "transmutation"
            ]
        }
    },
    "effects": [],
    "flags": {},
    "img": "systems/pf2e/icons/features/feats/feats.webp",
    "name": "Energize Wings",
    "type": "feat"
}
