{
    "_id": "OWL6ZNVWMU0AFqvZ",
    "data": {
        "actionCategory": {
            "value": ""
        },
        "actionType": {
            "value": "passive"
        },
        "actions": {
            "value": null
        },
        "description": {
            "value": "<p>Your wings are now a permanent part of your body. You gain the effects of @Compendium[pf2e.feats-srd.Celestial Wings]{Celestial Wings} at all times, rather than just once per day for 10 minutes.</p>"
        },
        "featType": {
            "value": "ancestry"
        },
        "level": {
            "value": 17
        },
        "location": "",
        "prerequisites": {
            "value": [
                {
                    "value": "Celestial Wings"
                }
            ]
        },
        "rules": [
            {
                "key": "BaseSpeed",
                "selector": "fly",
                "value": "@actor.attributes.speed.total"
            }
        ],
        "source": {
            "value": "Pathfinder Advanced Player's Guide"
        },
        "traits": {
            "custom": "",
            "rarity": "common",
            "value": [
                "aasimar"
            ]
        }
    },
    "effects": [],
    "flags": {},
    "img": "systems/pf2e/icons/features/feats/feats.webp",
    "name": "Eternal Wings (Aasimar)",
    "type": "feat"
}
