{
    "_id": "J3R0vx1lszU3CLp5",
    "data": {
        "actionCategory": {
            "value": ""
        },
        "actionType": {
            "value": "passive"
        },
        "actions": {
            "value": null
        },
        "description": {
            "value": "<p>You've sworn an oath to banish the corruption of fiends to the dark planes they call home. Add the following tenet to your champion's code after the other tenets: \"You must banish or slay fiends you come across as long as you have a reasonable chance of success; in the incredibly unlikely event you find a good fiend, you don't have to banish or kill it.\"</p>\n<p>Your @Compendium[pf2e.actionspf2e.Glimpse of Redemption]{Glimpse of Redemption's} resistance against damage from a fiend is 7 + your level.</p>\n<p>You don't consider fiends to be legitimate authorities, even in nations ruled by fiends.</p>"
        },
        "featType": {
            "value": "class"
        },
        "level": {
            "value": 2
        },
        "location": "",
        "prerequisites": {
            "value": [
                {
                    "value": "tenets of good"
                },
                {
                    "value": "redeemer cause"
                }
            ]
        },
        "rules": [],
        "source": {
            "value": "Pathfinder Core Rulebook"
        },
        "traits": {
            "custom": "",
            "rarity": "common",
            "value": [
                "champion",
                "oath"
            ]
        }
    },
    "effects": [],
    "flags": {},
    "img": "systems/pf2e/icons/features/feats/feats.webp",
    "name": "Fiendsbane Oath (Redeemer)",
    "type": "feat"
}
