{
    "_id": "I3qwDZ8sJkTw9y7D",
    "data": {
        "actionCategory": {
            "value": ""
        },
        "actionType": {
            "value": "passive"
        },
        "actions": {
            "value": null
        },
        "description": {
            "value": "<p>You gain your mystery's initial revelation spell (<em>@Compendium[pf2e.spells-srd.Life Link]{Life Link}</em>). Casting this spell progresses your @Compendium[pf2e.classfeatures.Oracular Curse]{Oracular Curse}. Use the minor curse from your mystery, but when you progress it again, instead of your mystery's moderate curse effect, you become @Compendium[pf2e.conditionitems.Flat-Footed]{Flat-Footed} in addition to the effects of the minor curse.</p>\n<p>If you don't have one, you gain a focus pool of 1 Focus Point. You can @Compendium[pf2e.actionspf2e.Refocus]{Refocus} by reconciling the conflicting nature of your mystery, which also reduces your curse to minor.</p>\n<h4>Minor Curse of Life</h4>\n<p>As your life force seeps outward, it becomes more difficult to keep your body functioning. Effects that restore Hit Points to you take a status penalty equal to half your level (minimum 1) to the number of HP you recover.</p>\n<p>@Compendium[pf2e.feature-effects.Effect: Minor Life Curse]{Effect: Minor Life Curse}</p>"
        },
        "featType": {
            "value": "archetype"
        },
        "level": {
            "value": 4
        },
        "location": "",
        "prerequisites": {
            "value": [
                {
                    "value": "Oracle Dedication"
                }
            ]
        },
        "rules": [
            {
                "key": "ActiveEffectLike",
                "mode": "add",
                "path": "data.resources.focus.max",
                "value": 1
            }
        ],
        "source": {
            "value": ""
        },
        "traits": {
            "custom": "",
            "rarity": "common",
            "value": [
                "archetype"
            ]
        }
    },
    "effects": [],
    "flags": {},
    "img": "systems/pf2e/icons/features/feats/feats.webp",
    "name": "First Revelation (Life Mystery)",
    "type": "feat"
}
