{
    "_id": "zodscjgydZRUSOLO",
    "data": {
        "actionCategory": {
            "value": ""
        },
        "actionType": {
            "value": "reaction"
        },
        "actions": {
            "value": null
        },
        "description": {
            "value": "<p><strong>Trigger</strong> An adjacent ally fails, but doesn't critically fail, a saving throw against an effect with the incapacitation trait.</p>\n<hr />\n<p>You're so focused on your allies that you can help them to recenter when something would take them out of the fight. Your ally rerolls the failed saving throw. That ally must take the second result.</p>"
        },
        "featType": {
            "value": "archetype"
        },
        "level": {
            "value": 16
        },
        "prerequisites": {
            "value": [
                {
                    "value": "Swordmaster Dedication"
                }
            ]
        },
        "rules": [],
        "source": {
            "value": "Pathfinder Lost Omens: Pathfinder Society Guide"
        },
        "traits": {
            "custom": "",
            "rarity": "common",
            "value": [
                "archetype",
                "fortune"
            ]
        }
    },
    "effects": [],
    "flags": {},
    "img": "systems/pf2e/icons/features/feats/feats.webp",
    "name": "Focus Ally",
    "type": "feat"
}
