{
    "_id": "MprbkBZUouqvbKGo",
    "data": {
        "actionCategory": {
            "value": ""
        },
        "actionType": {
            "value": "passive"
        },
        "actions": {
            "value": null
        },
        "description": {
            "value": "<p>You can pull bits of wisdom from any tale. You become trained in Folktales Lore, a special Lore skill that can be used only to Recall Knowledge, but on any topic. If you fail a check to Recall Knowledge with Folktales Lore, you get the effects of the @Compendium[pf2e.feats-srd.Dubious Knowledge]{Dubious Knowledge} skill feat.</p>\n<p>If you are legendary in the Performance skill, you gain expert proficiency in Folktales Lore, but you can't increase your proficiency rank in Folktales Lore by any other means.</p>"
        },
        "featType": {
            "value": "archetype"
        },
        "level": {
            "value": 4
        },
        "location": "",
        "prerequisites": {
            "value": [
                {
                    "value": "Folklorist Dedication"
                }
            ]
        },
        "rules": [],
        "source": {
            "value": "Pathfinder #170: Spoken on the Song Wind"
        },
        "traits": {
            "custom": "",
            "rarity": "common",
            "value": [
                "archetype"
            ]
        }
    },
    "effects": [],
    "flags": {},
    "img": "systems/pf2e/icons/features/feats/feats.webp",
    "name": "Folktales Lore",
    "type": "feat"
}
