{
    "_id": "MzdoJWpqyMmMDI1F",
    "data": {
        "actionCategory": {
            "value": "interaction"
        },
        "actionType": {
            "value": "free"
        },
        "actions": {
            "value": null
        },
        "description": {
            "value": "<p><strong>Frequency</strong> once per round</p>\n<hr />\n<p>You constantly remember details about the world. You attempt a check to Recall Knowledge. If you succeed, you gain additional information or context. If you critically succeed, at the GM's discretion you might gain even more additional information or context than normal.</p>"
        },
        "featType": {
            "value": "ancestry"
        },
        "level": {
            "value": 17
        },
        "location": "",
        "prerequisites": {
            "value": []
        },
        "rules": [],
        "source": {
            "value": "Pathfinder Lost Omens: The Mwangi Expanse"
        },
        "traits": {
            "custom": "",
            "rarity": "common",
            "value": [
                "shisk"
            ]
        }
    },
    "effects": [],
    "flags": {},
    "img": "systems/pf2e/icons/default-icons/feats.webp",
    "name": "Fountain of Secrets",
    "type": "feat"
}
