{
    "_id": "D3SuA5MaKucO1flE",
    "data": {
        "actionCategory": {
            "value": ""
        },
        "actionType": {
            "value": "passive"
        },
        "actions": {
            "value": null
        },
        "description": {
            "value": "<p>Your adaptability manifests in your mastery of a range of useful abilities. You gain a 1st-level general feat. You must meet the feat's prerequisites, but if you select this feat during character creation, you can select the feat later in the process in order to determine which prerequisites you meet.</p>\n<p><strong>Special</strong> You can select this feat multiple times, choosing a different feat each time.</p>"
        },
        "featType": {
            "value": "ancestry"
        },
        "level": {
            "value": 1
        },
        "location": "",
        "prerequisites": {
            "value": []
        },
        "rules": [
            {
                "adjustName": false,
                "allowedDrops": {
                    "all": [
                        "item:type:feat",
                        "item:level:1",
                        "item:trait:general"
                    ],
                    "label": "PF2E.SpecificRule.GeneralTraining.AllowedDrops"
                },
                "choices": {
                    "query": "{\"data.level.value\":1,\"data.traits.value\":{\"$elemMatch\":\"general\"}}"
                },
                "key": "ChoiceSet",
                "prompt": "PF2E.SpecificRule.GeneralTraining.Prompt"
            },
            {
                "key": "GrantItem",
                "uuid": "{item|flags.pf2e.rulesSelections.generalTraining}"
            }
        ],
        "source": {
            "value": "Pathfinder Core Rulebook"
        },
        "traits": {
            "custom": "",
            "rarity": "common",
            "value": [
                "human"
            ]
        }
    },
    "effects": [],
    "flags": {},
    "img": "systems/pf2e/icons/features/feats/feats.webp",
    "name": "General Training",
    "type": "feat"
}
