{
    "_id": "Dm0YMEvSY0qg0jA0",
    "data": {
        "actionCategory": {
            "value": ""
        },
        "actionType": {
            "value": "passive"
        },
        "actions": {
            "value": null
        },
        "description": {
            "value": "<p>You know how to turn combat into a form of entertainment. You become trained in Gladiatorial Lore; if already trained in Gladiatorial Lore, you instead become trained in another Lore skill of your choice.</p>\n<p>At the start of a combat encounter, if you have spectators, you gain a number of temporary HP equal to your character level for 1 minute and you can roll Performance for your initiative.</p>\n<p><strong>Special</strong> You can't select another dedication feat until you have gained two other feats from the gladiator archetype.</p>"
        },
        "featType": {
            "value": "archetype"
        },
        "level": {
            "value": 2
        },
        "prerequisites": {
            "value": [
                {
                    "value": "Impressive Performance"
                }
            ]
        },
        "rules": [],
        "source": {
            "value": "Pathfinder Advanced Player's Guide"
        },
        "traits": {
            "custom": "",
            "rarity": "common",
            "value": [
                "archetype",
                "dedication"
            ]
        }
    },
    "effects": [],
    "flags": {},
    "img": "systems/pf2e/icons/features/feats/feats.webp",
    "name": "Gladiator Dedication",
    "type": "feat"
}
