{
    "_id": "2IO2W09IvwGHvatH",
    "data": {
        "actionCategory": {
            "value": ""
        },
        "actionType": {
            "value": "passive"
        },
        "actions": {
            "value": null
        },
        "description": {
            "value": "<p>You can demonstrate how to quickly twist out of the way of dangerous effects.</p>\n<p>You can use the @Compendium[pf2e.actionspf2e.Aid]{Aid} reaction to grant a bonus to an ally's Reflex save. As usual for Aid, you need to prepare by using an action on your turn to encourage the ally.</p>"
        },
        "featType": {
            "value": "ancestry"
        },
        "level": {
            "value": 5
        },
        "location": "",
        "prerequisites": {
            "value": []
        },
        "rules": [],
        "source": {
            "value": "Pathfinder Lost Omens: Ancestry Guide"
        },
        "traits": {
            "custom": "",
            "rarity": "common",
            "value": [
                "catfolk"
            ]
        }
    },
    "effects": [],
    "flags": {},
    "img": "systems/pf2e/icons/features/feats/feats.webp",
    "name": "Graceful Guidance",
    "type": "feat"
}
