{
    "_id": "7cM7uKRKQDWz5eeu",
    "data": {
        "actionCategory": {
            "value": ""
        },
        "actionType": {
            "value": "passive"
        },
        "actions": {
            "value": null
        },
        "description": {
            "value": "<p>The songs of ancient heroes echo through your mind and quicken your pulse, especially in dire straits. You gain <em>@Compendium[pf2e.spells-srd.Heroism]{Heroism}</em>as a 3rd-level innate occult spell that you can cast once per day. If you Cast the Spell when you have half or fewer Hit Points, you also gain temporary Hit Points equal to twice your level.</p>"
        },
        "featType": {
            "value": "ancestry"
        },
        "level": {
            "value": 9
        },
        "prerequisites": {
            "value": []
        },
        "rules": [],
        "source": {
            "value": "Pathfinder Lost Omens: Character Guide"
        },
        "traits": {
            "custom": "",
            "rarity": "common",
            "value": [
                "dwarf"
            ]
        }
    },
    "effects": [],
    "flags": {},
    "img": "systems/pf2e/icons/features/feats/feats.webp",
    "name": "Heroes' Call",
    "type": "feat"
}
