{
    "_id": "5H3Sk1yhalQQzUys",
    "data": {
        "actionCategory": {
            "value": ""
        },
        "actionType": {
            "value": "passive"
        },
        "actions": {
            "value": null
        },
        "description": {
            "value": "<p>You embody the link to your patron so completely that you can cast your hexes in rapid succession.</p>\n<p>You are no longer limited to casting only a single hex each turn. In addition, when you cast <em>@Compendium[pf2e.spells-srd.Cackle]{Cackle}</em> to sustain a hex, you gain the effects of @Compendium[pf2e.actionspf2e.Sustain a Spell]{Sustain a Spell} for all your active hexes that have a duration of sustained.</p>"
        },
        "featType": {
            "value": "class"
        },
        "level": {
            "value": 20
        },
        "prerequisites": {
            "value": []
        },
        "rules": [],
        "source": {
            "value": "Pathfinder Advanced Player's Guide"
        },
        "traits": {
            "custom": "",
            "rarity": "common",
            "value": [
                "witch"
            ]
        }
    },
    "effects": [],
    "flags": {},
    "img": "systems/pf2e/icons/features/feats/feats.webp",
    "name": "Hex Master",
    "type": "feat"
}
