{
    "_id": "OhyN9pBHdMpC126F",
    "data": {
        "actionCategory": {
            "value": ""
        },
        "actionType": {
            "value": "passive"
        },
        "actions": {
            "value": null
        },
        "description": {
            "value": "<p>When you Change Shape, you retain elements of your kitsune form, allowing you to speak in a fox form, use kitsune unarmed attacks in a tailless form, or gain a tail in your tailless form to use abilities that require one. You can Change Shape to alter the details of your hybrid form without fully changing into your true form or your alternate form. While in hybrid form, your foxlike features make it obvious that you aren't a normal humanoid.</p>"
        },
        "featType": {
            "value": "ancestry"
        },
        "level": {
            "value": 5
        },
        "location": "",
        "prerequisites": {
            "value": []
        },
        "rules": [],
        "source": {
            "value": "Pathfinder Lost Omens: Ancestry Guide"
        },
        "traits": {
            "custom": "",
            "rarity": "common",
            "value": [
                "kitsune"
            ]
        }
    },
    "effects": [],
    "flags": {},
    "img": "systems/pf2e/icons/features/feats/feats.webp",
    "name": "Hybrid Form",
    "type": "feat"
}
