{
    "_id": "OqHfUQQorVBkx34j",
    "data": {
        "actionCategory": {
            "value": ""
        },
        "actionType": {
            "value": "action"
        },
        "actions": {
            "value": 3
        },
        "description": {
            "value": "<p><strong>Requirements</strong> You are wielding two melee weapons, each in a different hand.</p>\n<hr />\n<p>You forgo precision to attack at an impossible speed. Make three melee Strikes with each of the required weapons. All of these Strikes take the maximum multiple attack penalty, as if you had already made two or more attacks this turn.</p>"
        },
        "featType": {
            "value": "class"
        },
        "level": {
            "value": 18
        },
        "prerequisites": {
            "value": []
        },
        "rules": [],
        "source": {
            "value": "Pathfinder Core Rulebook"
        },
        "traits": {
            "custom": "",
            "rarity": "common",
            "value": [
                "ranger",
                "flourish",
                "open"
            ]
        }
    },
    "effects": [],
    "flags": {},
    "img": "systems/pf2e/icons/features/feats/feats.webp",
    "name": "Impossible Flurry",
    "type": "feat"
}
