{
    "_id": "aWHOcGLA7AhX4xpm",
    "data": {
        "actionCategory": {
            "value": "offensive"
        },
        "actionType": {
            "value": "reaction"
        },
        "actions": {
            "value": null
        },
        "description": {
            "value": "<p><strong>Trigger</strong> A creature you can see Casts a Spell.</p>\n<p><strong>Requirements</strong> You have an unexpended spell slot and can see the triggering spell's manifestations.</p>\n<hr />\n<p>You overcharge the triggering spell with magic. You expend a spell slot and attempt to counteract the triggering spell using the energy of the expended slot. If the triggering spell is in your repertoire and the spell slot you expended was a high enough level to cast it, you take no penalty. Otherwise, you take a -2 penalty to the counteract check if the triggering spell was cast using the same magical tradition you cast, or a -5 penalty if it was cast using a different tradition.</p>\n<p>If the triggering spell is successfully counteracted, it creates a wellspring surge from its caster in addition to the normal effects of being counteracted. If it isn't counteracted, your expended spell slot creates a wellspring surge from you.</p>\n<p><strong>Special</strong> This feat has the trait corresponding to the tradition of spells you cast (arcane, divine, primal, or occult).</p>"
        },
        "featType": {
            "value": "archetype"
        },
        "level": {
            "value": 12
        },
        "location": "",
        "prerequisites": {
            "value": [
                {
                    "value": "Wellspring Mage Dedication"
                }
            ]
        },
        "rules": [],
        "source": {
            "value": ""
        },
        "traits": {
            "custom": "",
            "rarity": "common",
            "value": [
                "abjuration",
                "archetype"
            ]
        }
    },
    "effects": [],
    "flags": {},
    "img": "systems/pf2e/icons/features/feats/feats.webp",
    "name": "Interfering Surge",
    "type": "feat"
}
