{
    "_id": "YidYY7k2gvny9eSY",
    "data": {
        "actionCategory": {
            "value": ""
        },
        "actionType": {
            "value": "passive"
        },
        "actions": {
            "value": null
        },
        "description": {
            "value": "<p>You can use the oaths bound in your ka stone to compel the truth from the living and the dead. You can activate your ka stone to target a single living creature, causing that creature to experience the effects of being in a zone of truth. You can also activate it with a 10-minute activation (envision) to cast talking corpse.</p>"
        },
        "featType": {
            "value": "archetype"
        },
        "level": {
            "value": 12
        },
        "prerequisites": {
            "value": [
                {
                    "value": "Ka Stone Ritual"
                }
            ]
        },
        "rules": [],
        "source": {
            "value": "Pathfinder Lost Omens: World Guide"
        },
        "traits": {
            "custom": "",
            "rarity": "common",
            "value": [
                "archetype"
            ]
        }
    },
    "effects": [],
    "flags": {},
    "img": "systems/pf2e/icons/features/feats/feats.webp",
    "name": "Judgement of the Monolith",
    "type": "feat"
}
