{
    "_id": "MM9NcRyXWX2LFiuF",
    "data": {
        "actionCategory": {
            "value": ""
        },
        "actionType": {
            "value": "passive"
        },
        "actions": {
            "value": null
        },
        "description": {
            "value": "<p>You've bridged a connection between the runes on your body and the magic of runestones, allowing you to place an armor rune on your living flesh. Your body can hold a single property rune; you can't etch a property rune on your body if it has requirements on the type or category of armor or if the property would affect the armor instead of its wearer. If you wear armor, you gain the property rune's effects in addition to any effects of that armor.</p>"
        },
        "featType": {
            "value": "archetype"
        },
        "level": {
            "value": 6
        },
        "prerequisites": {
            "value": [
                {
                    "value": "Runescarred Dedication"
                }
            ]
        },
        "rules": [],
        "source": {
            "value": "Pathfinder Lost Omens: World Guide"
        },
        "traits": {
            "custom": "",
            "rarity": "common",
            "value": [
                "archetype"
            ]
        }
    },
    "effects": [],
    "flags": {},
    "img": "systems/pf2e/icons/features/feats/feats.webp",
    "name": "Living Rune",
    "type": "feat"
}
