{
    "_id": "JfLIWyqgEVggWaBL",
    "data": {
        "actionCategory": {
            "value": ""
        },
        "actionType": {
            "value": "passive"
        },
        "actions": {
            "value": null
        },
        "description": {
            "value": "<p>You have a literal sixth sense for ambient magic in your vicinity.</p>\n<p>You can sense the presence of magic auras as though you were always using a 1st-level <em>@Compendium[pf2e.spells-srd.Detect Magic]{Detect Magic}</em> spell. This detects magic in your field of vision only.</p>\n<p>When you @Compendium[pf2e.actionspf2e.Seek]{Seek}, you gain the benefits of a 3rd-level <em>detect magic</em> spell on things you see (in addition to the normal benefits of Seeking). You can turn this sense off and on with a free action at the start or the end of your turn.</p>"
        },
        "featType": {
            "value": "class"
        },
        "level": {
            "value": 12
        },
        "location": "",
        "prerequisites": {
            "value": []
        },
        "rules": [],
        "source": {
            "value": ""
        },
        "traits": {
            "custom": "",
            "rarity": "common",
            "value": [
                "arcane",
                "detection",
                "divination",
                "magus"
            ]
        }
    },
    "effects": [],
    "flags": {},
    "img": "systems/pf2e/icons/features/feats/feats.webp",
    "name": "Magic Sense (Magus)",
    "type": "feat"
}
