{
    "_id": "TmaxLWraJrvSQOkY",
    "data": {
        "actionCategory": {
            "value": ""
        },
        "actionType": {
            "value": "passive"
        },
        "actions": {
            "value": null
        },
        "description": {
            "value": "<p>You conjure uncanny orbs of spiritual flame that float above or below the water's surface. You can cast the <em>@Compendium[pf2e.spells-srd.Produce Flame]{Produce Flame}</em> cantrip as a primal innate spell at will, heightened to a spell level equal to half your level rounded up. You can cast this cantrip underwater.</p>"
        },
        "featType": {
            "value": "ancestry"
        },
        "level": {
            "value": 1
        },
        "location": "",
        "prerequisites": {
            "value": []
        },
        "rules": [],
        "source": {
            "value": "Pathfinder Lost Omens: Ancestry Guide"
        },
        "traits": {
            "custom": "",
            "rarity": "common",
            "value": [
                "tengu"
            ]
        }
    },
    "effects": [],
    "flags": {},
    "img": "systems/pf2e/icons/features/feats/feats.webp",
    "name": "Mariner's Fire",
    "type": "feat"
}
