{
    "_id": "5TPKikTyN7lrCvzY",
    "data": {
        "actionCategory": {
            "value": ""
        },
        "actionType": {
            "value": "passive"
        },
        "actions": {
            "value": null
        },
        "description": {
            "value": "<p>Thanks to your incredible connection to your armor, you can use it to shrug off an incredible array of dangers. Your bonus from the bulwark armor trait increases from +3 to +4, and it applies on all Reflex saves, not just damaging Reflex saves.</p>"
        },
        "featType": {
            "value": "archetype"
        },
        "level": {
            "value": 10
        },
        "prerequisites": {
            "value": [
                {
                    "value": "Sentinel Dedication"
                }
            ]
        },
        "rules": [
            {
                "key": "FlatModifier",
                "predicate": {
                    "all": [
                        "self:armor:trait:bulwark"
                    ]
                },
                "selector": "reflex",
                "type": "untyped",
                "value": 4
            },
            {
                "domain": "reflex",
                "key": "RollOption",
                "option": "self:armor:bulwark-all"
            }
        ],
        "source": {
            "value": "Pathfinder Advanced Player's Guide"
        },
        "traits": {
            "custom": "",
            "rarity": "common",
            "value": [
                "archetype"
            ]
        }
    },
    "effects": [],
    "flags": {},
    "img": "systems/pf2e/icons/features/feats/feats.webp",
    "name": "Mighty Bulwark",
    "type": "feat"
}
