{
    "_id": "a898miJnjgD93ZsX",
    "data": {
        "actionCategory": {
            "value": ""
        },
        "actionType": {
            "value": "passive"
        },
        "actions": {
            "value": null
        },
        "description": {
            "value": "<p>Your muse doesn't fall into a single label. Choose a type of muse other than that of your own. You gain a 1st-level feat that requires that muse, and your muse is now also a muse of that type, allowing you to take feats with the other muse as a prerequisite. You don't gain any of the other effects of the muse you chose.</p>\n<p><strong>Special</strong> You can take this feat multiple times. Each time you do, you must choose a different type of muse other than that of your own.</p>"
        },
        "featType": {
            "value": "class"
        },
        "level": {
            "value": 2
        },
        "prerequisites": {
            "value": []
        },
        "rules": [
            {
                "allowedDrops": {
                    "all": [
                        "item:level:1",
                        "item:trait:bard",
                        "item:type:feature"
                    ],
                    "label": "1st-level Bard class feature"
                },
                "choices": [
                    {
                        "img": "systems/pf2e/icons/features/classes/enigma.webp",
                        "label": "Enigma",
                        "predicate": {
                            "not": [
                                "self:feature:enigma"
                            ]
                        },
                        "value": "enigma"
                    },
                    {
                        "img": "systems/pf2e/icons/features/classes/maestro.webp",
                        "label": "Maestro",
                        "predicate": {
                            "not": [
                                "self:feature:maestro"
                            ]
                        },
                        "value": "maestro"
                    },
                    {
                        "img": "systems/pf2e/icons/features/classes/polymath.webp",
                        "label": "Polymath",
                        "predicate": {
                            "not": [
                                "self:feature:polymath"
                            ]
                        },
                        "value": "polymath"
                    },
                    {
                        "img": "systems/pf2e/icons/features/classes/warrior.webp",
                        "label": "Warrior",
                        "predicate": {
                            "not": [
                                "self:feature:warrior"
                            ]
                        },
                        "value": "warrior"
                    }
                ],
                "flag": "muse",
                "key": "ChoiceSet",
                "prompt": "Select a muse."
            },
            {
                "adjustName": false,
                "choices": {
                    "query": "{\"data.featType.value\":\"class\",\"data.level.value\":1,\"data.traits.value\":{\"$elemMatch\":\"bard\"},\"data.prerequisites.value\":{\"$elemMatch\":{\"value\":\"{item|flags.pf2e.rulesSelections.muse} muse\"}}}"
                },
                "flag": "feat",
                "key": "ChoiceSet",
                "prompt": "Select a Feat."
            },
            {
                "key": "GrantItem",
                "uuid": "{item|flags.pf2e.rulesSelections.feat}"
            },
            {
                "domain": "all",
                "key": "RollOption",
                "option": "self:feature:{item|flags.pf2e.rulesSelections.muse}"
            }
        ],
        "source": {
            "value": "Pathfinder Core Rulebook"
        },
        "traits": {
            "custom": "",
            "rarity": "common",
            "value": [
                "bard"
            ]
        }
    },
    "effects": [],
    "flags": {},
    "img": "systems/pf2e/icons/features/feats/feats.webp",
    "name": "Multifarious Muse",
    "type": "feat"
}
