{
    "_id": "eIW5p8qqvsx2MFkY",
    "data": {
        "actionCategory": {
            "value": ""
        },
        "actionType": {
            "value": "passive"
        },
        "actions": {
            "value": null
        },
        "description": {
            "value": "<p>The power of your mystery enables you to cast more than just revelation spells.</p>\n<p>When you cast a spell of 5th level or lower that has no duration, instead of spending a spell slot, you can advance the effects of your oracular curse in the same manner as when you cast a revelation spell. A spell cast in this way gains the cursebound trait.</p>"
        },
        "featType": {
            "value": "class"
        },
        "level": {
            "value": 20
        },
        "prerequisites": {
            "value": []
        },
        "rules": [],
        "source": {
            "value": "Pathfinder Advanced Player's Guide"
        },
        "traits": {
            "custom": "",
            "rarity": "common",
            "value": [
                "oracle"
            ]
        }
    },
    "effects": [],
    "flags": {},
    "img": "systems/pf2e/icons/features/feats/feats.webp",
    "name": "Mystery Conduit",
    "type": "feat"
}
