{
    "_id": "57K9il2Jxs8PmsYL",
    "data": {
        "actionCategory": {
            "value": ""
        },
        "actionType": {
            "value": "passive"
        },
        "actions": {
            "value": null
        },
        "description": {
            "value": "<p>You've studied the basics of harmony and resonance in magic, exemplified by the ringing of chimes. You gain a single arcane or occult cantrip of your choice, heightened to a spell level equal to half your level, rounded up. If you weren't already, you become trained in that tradition's spell DCs and spell attack rolls, with Intelligence as your spellcasting ability if you choose arcane or Charisma as your spellcasting ability if you choose occult. Regardless of your choice, you also either become trained in Arcana or Occultism, or an expert in one of these skills if you are already trained in both.</p>\n<hr />\n<p><strong>Special</strong> You can't select another dedication feat until you have gained two other feats from the Nantambu Chime-Ringer archetype.</p>"
        },
        "featType": {
            "value": "archetype"
        },
        "level": {
            "value": 2
        },
        "location": "",
        "prerequisites": {
            "value": [
                {
                    "value": "trained in Performance"
                },
                {
                    "value": "trained in Society"
                }
            ]
        },
        "rules": [],
        "source": {
            "value": "Pathfinder #170: Spoken on the Song Wind"
        },
        "traits": {
            "custom": "",
            "rarity": "uncommon",
            "value": [
                "archetype",
                "dedication"
            ]
        }
    },
    "effects": [],
    "flags": {},
    "img": "systems/pf2e/icons/features/feats/feats.webp",
    "name": "Nantambu Chime-Ringer Dedication",
    "type": "feat"
}
