{
    "_id": "MnqDDUekqd40HTZc",
    "data": {
        "actionCategory": {
            "value": ""
        },
        "actionType": {
            "value": "passive"
        },
        "actions": {
            "value": null
        },
        "description": {
            "value": "<p>As part of your training, you've inured yourself against necromancy through repeated exposure. You gain a +1 circumstance bonus to saves against necromancy effects and gain resistance to negative damage equal to half your level.</p>"
        },
        "featType": {
            "value": "archetype"
        },
        "level": {
            "value": 4
        },
        "location": "",
        "prerequisites": {
            "value": [
                {
                    "value": "Lastwall Sentry Dedication"
                }
            ]
        },
        "rules": [
            {
                "key": "FlatModifier",
                "label": "vs necromancy (Necromantic Resistance)",
                "predicate": {
                    "all": [
                        "necromancy"
                    ]
                },
                "selector": "saving-throw",
                "type": "circumstance",
                "value": 1
            }
        ],
        "source": {
            "value": "Pathfinder Lost Omens: World Guide"
        },
        "traits": {
            "custom": "",
            "rarity": "common",
            "value": [
                "archetype"
            ]
        }
    },
    "effects": [],
    "flags": {},
    "img": "systems/pf2e/icons/features/feats/feats.webp",
    "name": "Necromantic Resistance",
    "type": "feat"
}
