{
    "_id": "Ffi8L4EDO5OH5tpA",
    "data": {
        "actionCategory": {
            "value": ""
        },
        "actionType": {
            "value": "passive"
        },
        "actions": {
            "value": null
        },
        "description": {
            "value": "<p>Your legs end in hooves rather than feet, with joints and tendons that allow you to move with great haste. Your Speed increases by 5 feet.</p>\n<p><strong>Special</strong> The Speed increase from this feat isn't cumulative with any Speed increase from your ancestry feats (such as Nimble Elf).</p>\n<p>Automatically applied effects:</p>\n<ul>\n<li>+5 untyped bonus to land speed</li>\n</ul>"
        },
        "featType": {
            "value": "ancestry"
        },
        "level": {
            "value": 1
        },
        "location": "",
        "prerequisites": {
            "value": []
        },
        "rules": [
            {
                "key": "FlatModifier",
                "selector": "land-speed",
                "value": 5
            }
        ],
        "source": {
            "value": "Pathfinder Advanced Player's Guide"
        },
        "traits": {
            "custom": "",
            "rarity": "common",
            "value": [
                "tiefling"
            ]
        }
    },
    "effects": [],
    "flags": {},
    "img": "systems/pf2e/icons/features/feats/feats.webp",
    "name": "Nimble Hooves",
    "type": "feat"
}
