{
    "_id": "KuD4Yplwcdolhjsu",
    "data": {
        "actionCategory": {
            "value": ""
        },
        "actionType": {
            "value": "passive"
        },
        "actions": {
            "value": null
        },
        "description": {
            "value": "<p>Many consider half-orcs little more than dumb brutes. This is offensive to you, but it can occasionally be useful. You are trained in Deception (or another skill of your choice if you were already trained in Deception), and you gain a +2 circumstance bonus to Deception checks to Lie when specifically claiming ignorance and to Deception DCs against @Compendium[pf2e.actionspf2e.Sense Motive]{Sense Motive} checks to uncover such lies.</p>"
        },
        "featType": {
            "value": "ancestry"
        },
        "level": {
            "value": 1
        },
        "prerequisites": {
            "value": []
        },
        "rules": [],
        "source": {
            "value": "Pathfinder Lost Omens: Character Guide"
        },
        "traits": {
            "custom": "",
            "rarity": "common",
            "value": [
                "half-orc"
            ]
        }
    },
    "effects": [],
    "flags": {},
    "img": "systems/pf2e/icons/features/feats/feats.webp",
    "name": "Overlooked Mastermind",
    "type": "feat"
}
