{
    "_id": "LAArv2uv6TOkTzQO",
    "data": {
        "actionCategory": {
            "value": ""
        },
        "actionType": {
            "value": "free"
        },
        "actions": {
            "value": null
        },
        "description": {
            "value": "<p><strong>Frequency</strong> once per round</p>\n<hr />\n<p>You are adept at quickly moving items into your cheek pouches. You @Compendium[pf2e.actionspf2e.Interact]{Interact} to store one held item in your cheek pouches (provided it fits).</p>"
        },
        "featType": {
            "value": "ancestry"
        },
        "level": {
            "value": 5
        },
        "prerequisites": {
            "value": [
                {
                    "value": "Cheek Pouches"
                }
            ]
        },
        "rules": [],
        "source": {
            "value": "Pathfinder Advanced Player's Guide"
        },
        "traits": {
            "custom": "",
            "rarity": "common",
            "value": [
                "ratfolk"
            ]
        }
    },
    "effects": [],
    "flags": {},
    "img": "systems/pf2e/icons/features/feats/feats.webp",
    "name": "Quick Stow (Ratfolk)",
    "type": "feat"
}
