{
    "_id": "hrITlxkBqHvaiiRS",
    "data": {
        "actionCategory": {
            "value": "interaction"
        },
        "actionType": {
            "value": "passive"
        },
        "actions": {
            "value": null
        },
        "description": {
            "value": "<p>It's said that the flesh of the right side of a hyena can heal diseases, but that of the left side is poisonous. You can take [[/r {1}]]{1 damage} to feed someone blood from your right side and Administer First Aid or take [[/r {2d8}]]{2d8 damage} to Treat Disease or Treat Wounds; in either case, you don't need healer's tools, and gain a +1 item bonus. Blood from your left side causes the check to critically fail automatically.</p>"
        },
        "featType": {
            "value": "ancestry"
        },
        "level": {
            "value": 5
        },
        "location": "",
        "prerequisites": {
            "value": []
        },
        "rules": [
            {
                "key": "FlatModifier",
                "label": "Right-Hand Blood ",
                "predicate": {
                    "all": [
                        "right-hand-blood"
                    ],
                    "any": [
                        "action:treat-wounds",
                        "action:treat-disease",
                        "action:administer-first-aid"
                    ]
                },
                "selector": "medicine",
                "type": "item",
                "value": 1
            }
        ],
        "source": {
            "value": "Pathfinder Lost Omens: The Mwangi Expanse"
        },
        "traits": {
            "custom": "",
            "rarity": "common",
            "value": [
                "gnoll"
            ]
        }
    },
    "effects": [],
    "flags": {},
    "img": "systems/pf2e/icons/default-icons/feats.webp",
    "name": "Right-Hand Blood",
    "type": "feat"
}
