{
    "_id": "9MiK0Lyro5dQgHij",
    "data": {
        "actionCategory": {
            "value": "defensive"
        },
        "actionType": {
            "value": "reaction"
        },
        "actions": {
            "value": null
        },
        "description": {
            "value": "<p><strong>Trigger</strong> You are hit by a physical melee attack by an attacker you can see that's in reach.</p>\n<p><strong>Requirements</strong> You're in Reflective Ripple Stance.</p>\n<hr />\n<p>After the triggering attack is done, Step. You must end this Step within the attacker's reach. Then, you can attempt an Athletics check to @Compendium[pf2e.actionspf2e.Disarm]{Disarm} or @Compendium[pf2e.actionspf2e.Trip]{Trip} the attacker.</p>"
        },
        "featType": {
            "value": "class"
        },
        "level": {
            "value": 8
        },
        "location": "",
        "prerequisites": {
            "value": [
                {
                    "value": "Reflective Ripple Stance"
                }
            ]
        },
        "rules": [],
        "source": {
            "value": ""
        },
        "traits": {
            "custom": "",
            "rarity": "common",
            "value": [
                "monk"
            ]
        }
    },
    "effects": [],
    "flags": {},
    "img": "systems/pf2e/icons/features/feats/feats.webp",
    "name": "Rippling Spin",
    "type": "feat"
}
