{
    "_id": "ATiQDz27aiBTAt17",
    "data": {
        "actionCategory": {
            "value": ""
        },
        "actionType": {
            "value": "reaction"
        },
        "actions": {
            "value": null
        },
        "description": {
            "value": "<p><strong>Trigger</strong> A foe hits you with a melee weapon or unarmed attack.</p>\n<hr />\n<p>When you take a big hit, your foe bounces you around like a rubber ball, but you escape the worst of the blow. Your foe can move you any distance of its choice up to 30 feet in a direction of its choice (this is not forced movement, and it triggers reactions as normal). You fall @Compendium[pf2e.conditionitems.Prone]{Prone} and are @Compendium[pf2e.conditionitems.Stunned]{Stunned 1}. Attempt a DC 6 flat check. On a success, you take minimum damage from the attack, and on a critical success, if the attack was a critical hit, you don't take double damage from the critical hit.</p>"
        },
        "featType": {
            "value": "ancestry"
        },
        "level": {
            "value": 9
        },
        "prerequisites": {
            "value": [
                {
                    "value": "unbreakable goblin heritage"
                },
                {
                    "value": "Bouncy Goblin"
                }
            ]
        },
        "rules": [],
        "source": {
            "value": "Pathfinder Lost Omens: Character Guide"
        },
        "traits": {
            "custom": "",
            "rarity": "common",
            "value": [
                "goblin"
            ]
        }
    },
    "effects": [],
    "flags": {},
    "img": "systems/pf2e/icons/features/feats/feats.webp",
    "name": "Roll with It",
    "type": "feat"
}
