{
    "_id": "mz2x4HFrWT8usbEL",
    "data": {
        "actionCategory": {
            "value": ""
        },
        "actionType": {
            "value": "passive"
        },
        "actions": {
            "value": null
        },
        "description": {
            "value": "<p>Your rune magic increases, and you practice with your school's associated weapon. You gain an additional cantrip of your chosen arcane school, and each time you gain a level (including this level), you add an additional spell from your chosen arcane school to your spellbook, with the same restrictions as the two spells you normally add.</p>\n<hr />\n<p><strong>Special</strong> You can't select another dedication feat until you have gained two other feats from the runelord archetype.</p>"
        },
        "featType": {
            "value": "archetype"
        },
        "level": {
            "value": 2
        },
        "location": "",
        "prerequisites": {
            "value": [
                {
                    "value": "runelord specialization"
                }
            ]
        },
        "rules": [],
        "source": {
            "value": ""
        },
        "traits": {
            "custom": "",
            "rarity": "rare",
            "value": [
                "archetype",
                "dedication"
            ]
        }
    },
    "effects": [],
    "flags": {},
    "img": "systems/pf2e/icons/features/feats/feats.webp",
    "name": "Runelord Dedication",
    "type": "feat"
}
