{
    "_id": "DM9rjXZrmx2MFX7k",
    "data": {
        "actionCategory": {
            "value": ""
        },
        "actionType": {
            "value": "reaction"
        },
        "actions": {
            "value": null
        },
        "description": {
            "value": "<p><strong>Trigger</strong> You fail a check to @Compendium[pf2e.actionspf2e.Seek]{Seek}</p>\n<hr />\n<p>When you look for foes, you notice the slightest of cues. Even though you failed at the triggering check, you automatically sense any @Compendium[pf2e.conditionitems.Undetected]{Undetected} creatures in the area where you're Seeking, making them merely @Compendium[pf2e.conditionitems.Hidden]{Hidden} to you.</p>"
        },
        "featType": {
            "value": "class"
        },
        "level": {
            "value": 14
        },
        "prerequisites": {
            "value": []
        },
        "rules": [],
        "source": {
            "value": "Pathfinder Advanced Player's Guide"
        },
        "traits": {
            "custom": "",
            "rarity": "common",
            "value": [
                "investigator",
                "ranger",
                "rogue"
            ]
        }
    },
    "effects": [],
    "flags": {},
    "img": "systems/pf2e/icons/features/feats/feats.webp",
    "name": "Sense The Unseen",
    "type": "feat"
}
