{
    "_id": "Eoy0zhpf8tYrTHN4",
    "data": {
        "actionCategory": {
            "value": ""
        },
        "actionType": {
            "value": "passive"
        },
        "actions": {
            "value": null
        },
        "description": {
            "value": "<p>Your ancestors hailed from the flying cities of the Shory, and a few simple tricks have come down through the ages to you. You can cast 4th-level <em>@Compendium[pf2e.spells-srd.Fly]{Fly}</em> on yourself as an innate arcane spell once per day.</p>"
        },
        "featType": {
            "value": "ancestry"
        },
        "level": {
            "value": 9
        },
        "prerequisites": {
            "value": [
                {
                    "value": "Garundi, Mauxi, or Tian-Uae ethnicity"
                }
            ]
        },
        "rules": [],
        "source": {
            "value": "Pathfinder Lost Omens: Character Guide"
        },
        "traits": {
            "custom": "",
            "rarity": "common",
            "value": [
                "human"
            ]
        }
    },
    "effects": [],
    "flags": {},
    "img": "systems/pf2e/icons/features/feats/feats.webp",
    "name": "Shory Aeromancer",
    "type": "feat"
}
