{
    "_id": "DYc108IqRBP9N9W6",
    "data": {
        "actionCategory": {
            "value": ""
        },
        "actionType": {
            "value": "passive"
        },
        "actions": {
            "value": null
        },
        "description": {
            "value": "<p>Your muse has opened your senses to the world beyond. You gain spiritsense as an imprecise sense with a range of 60 feet.</p>\n<p>Spiritsense enables you to sense the spirits of creatures, including living creatures, most non-mindless undead, and haunts within the listed range. As with your hearing and other imprecise senses, you still need to @Compendium[pf2e.actionspf2e.Seek]{Seek} to locate an undetected creature.</p>\n<p>As spiritsense detects spiritual essence, not physical bodies, it can detect spirits projected by spells such as <em>@Compendium[pf2e.spells-srd.Project Image]{Project Image}</em> or possessing otherwise soulless objects. It can't detect soulless bodies, constructs, or objects, and like most senses, it doesn't penetrate through solid objects.</p>"
        },
        "featType": {
            "value": "class"
        },
        "level": {
            "value": 8
        },
        "location": "",
        "prerequisites": {
            "value": []
        },
        "rules": [
            {
                "acuity": "imprecise",
                "key": "Sense",
                "label": "spiritsense",
                "range": 60,
                "selector": "spiritsense"
            }
        ],
        "source": {
            "value": ""
        },
        "traits": {
            "custom": "",
            "rarity": "common",
            "value": [
                "bard"
            ]
        }
    },
    "effects": [],
    "flags": {},
    "img": "systems/pf2e/icons/features/feats/feats.webp",
    "name": "Soulsight (Bard)",
    "type": "feat"
}
