{
    "_id": "2AeGnjk4EAqFDvK8",
    "data": {
        "actionCategory": {
            "value": ""
        },
        "actionType": {
            "value": "passive"
        },
        "actions": {
            "value": null
        },
        "description": {
            "value": "<p>You've magically constructed an extradimensional sheath for your weapon that you access through your clothing, typically through a pocket, sleeve, or seam. This sheath is hard to notice, granting a +2 circumstance bonus to your Stealth checks to @Compendium[pf2e.actionspf2e.Conceal an Object]{Conceal} an Item within it. A spirit sheath can hold only one weapon at a time, and the weapon must be 1 Bulk or less.</p>\n<p>During a Spellstrike, you can Interact to draw the weapon before you Cast the Spell. You can draw or return a weapon in a spirit sheath as an Interact action, as can anyone else holding or wearing the clothing that contains the sheath. A <em>@Compendium[pf2e.spells-srd.Dispel Magic]{Dispel Magic}</em> spell or similar effect can be used against the spirit sheath to expel the weapon. The counteract check is made against your spell DC and uses the sheath's counteract level of 1. The weapon is also expelled if you become @Compendium[pf2e.conditionitems.Unconscious]{Unconscious}.</p>"
        },
        "featType": {
            "value": "class"
        },
        "level": {
            "value": 2
        },
        "location": "",
        "prerequisites": {
            "value": []
        },
        "rules": [],
        "source": {
            "value": ""
        },
        "traits": {
            "custom": "",
            "rarity": "common",
            "value": [
                "arcane",
                "conjuration",
                "extradimensional",
                "magus"
            ]
        }
    },
    "effects": [],
    "flags": {},
    "img": "systems/pf2e/icons/features/feats/feats.webp",
    "name": "Spirit Sheath",
    "type": "feat"
}
