{
    "_id": "ab7xlmUzPUOFnAl2",
    "data": {
        "actionCategory": {
            "value": ""
        },
        "actionType": {
            "value": "passive"
        },
        "actions": {
            "value": null
        },
        "description": {
            "value": "<p>You carry the ocean with you wherever you go. You can cast <em>@Compendium[pf2e.spells-srd.Create Water]{Create Water}</em> as a primal innate spell once per day. Each time you cast <em>create water</em>, you choose if you create fresh water or salt water.</p>"
        },
        "featType": {
            "value": "ancestry"
        },
        "level": {
            "value": 5
        },
        "location": "",
        "prerequisites": {
            "value": []
        },
        "rules": [],
        "source": {
            "value": "Pathfinder Lost Omens: Ancestry Guide"
        },
        "traits": {
            "custom": "",
            "rarity": "common",
            "value": [
                "azarketi"
            ]
        }
    },
    "effects": [],
    "flags": {},
    "img": "systems/pf2e/icons/default-icons/feats.webp",
    "name": "Water Conjuration",
    "type": "feat"
}
