{
    "_id": "K0gyvvX0S2FdJZ5T",
    "data": {
        "actionCategory": {
            "value": ""
        },
        "actionType": {
            "value": "passive"
        },
        "actions": {
            "value": null
        },
        "description": {
            "value": "<p>Your eidolon knocks enemies down. Choose one of the eidolon's unarmed attacks with the trip trait. It gains the @Compendium[pf2e.bestiary-ability-glossary-srd.Knockdown]{Knockdown} action for that attack.</p>"
        },
        "featType": {
            "value": "class"
        },
        "level": {
            "value": 10
        },
        "location": "",
        "prerequisites": {
            "value": []
        },
        "rules": [],
        "source": {
            "value": ""
        },
        "traits": {
            "custom": "",
            "rarity": "common",
            "value": [
                "evolution",
                "summoner"
            ]
        }
    },
    "effects": [],
    "flags": {},
    "img": "systems/pf2e/icons/features/feats/feats.webp",
    "name": "Weighty Impact",
    "type": "feat"
}
