{
    "_id": "Zyb3RMGyhsKfTjEG",
    "data": {
        "actionCategory": {
            "value": ""
        },
        "actionType": {
            "value": "passive"
        },
        "actions": {
            "value": null
        },
        "description": {
            "value": "<p>There's no longer a limit on how many temporary spell slots you can gain per day from wellspring magic.</p>\n<p><strong>Special</strong> You can't select another dedication feat until you gain two other feats from the wellspring mage archetype.</p>"
        },
        "featType": {
            "value": "archetype"
        },
        "level": {
            "value": 2
        },
        "location": "",
        "prerequisites": {
            "value": []
        },
        "rules": [],
        "source": {
            "value": ""
        },
        "traits": {
            "custom": "",
            "rarity": "rare",
            "value": [
                "archetype",
                "dedication"
            ]
        }
    },
    "effects": [],
    "flags": {},
    "img": "systems/pf2e/icons/features/feats/feats.webp",
    "name": "Wellspring Mage Dedication",
    "type": "feat"
}
