{
    "_id": "QUaSGUmRnlMbzw1P",
    "data": {
        "actionCategory": {
            "value": ""
        },
        "actionType": {
            "value": "passive"
        },
        "actions": {
            "value": null
        },
        "description": {
            "value": "<p>Your fan can stir up even more powerful winds. You can Activate your tengu feather fan one additional time per day. Add the 3rd-level <em>@Compendium[pf2e.spells-srd.Wall of Wind]{Wall of Wind}</em> spell to the spells contained within your fan.</p>"
        },
        "featType": {
            "value": "ancestry"
        },
        "level": {
            "value": 9
        },
        "location": "",
        "prerequisites": {
            "value": [
                {
                    "value": "Tengu Feather Fan"
                }
            ]
        },
        "rules": [],
        "source": {
            "value": "Pathfinder Lost Omens: Ancestry Guide"
        },
        "traits": {
            "custom": "",
            "rarity": "common",
            "value": [
                "tengu"
            ]
        }
    },
    "effects": [],
    "flags": {},
    "img": "systems/pf2e/icons/features/feats/feats.webp",
    "name": "Wind God's Fan",
    "type": "feat"
}
