{
    "_id": "HrV31rAkNjV4KfCU",
    "data": {
        "actionCategory": {
            "value": ""
        },
        "actionType": {
            "value": "passive"
        },
        "actions": {
            "value": null
        },
        "description": {
            "value": "<p><strong>Minor Boon</strong> Gorum grants you a weapon whenever you need one. You can use an Interact action to draw a 0-level non-magical iron weapon, even if you have no weapons on your person. Such a weapon lasts only as long as you continue using it to attack, and it can't be sold, given away, melted for scrap iron, or the like.</p>"
        },
        "featType": {
            "value": "deityboon"
        },
        "level": {
            "value": 0
        },
        "prerequisites": {
            "value": []
        },
        "rules": [],
        "source": {
            "value": ""
        },
        "traits": {
            "custom": "",
            "rarity": "common",
            "value": []
        }
    },
    "effects": [],
    "flags": {},
    "img": "systems/pf2e/icons/deity/Gorum.webp",
    "name": "Gorum - Minor Boon",
    "type": "feat"
}
