{
    "_id": "AvjRCVzLmxapFOLV",
    "data": {
        "actionCategory": {
            "value": ""
        },
        "actionType": {
            "value": "passive"
        },
        "actions": {
            "value": null
        },
        "description": {
            "value": "<p><strong>Moderate Boon</strong> You gain the touch of the sea. You can breathe underwater and gain a @Compendium[pf2e.actionspf2e.Swim]{Swim} Speed equal to your land Speed.</p>"
        },
        "featType": {
            "value": "deityboon"
        },
        "level": {
            "value": 0
        },
        "prerequisites": {
            "value": []
        },
        "rules": [],
        "source": {
            "value": ""
        },
        "traits": {
            "custom": "",
            "rarity": "common",
            "value": []
        }
    },
    "effects": [],
    "flags": {},
    "img": "systems/pf2e/icons/deity/Gozreh.webp",
    "name": "Gozreh - Moderate Boon",
    "type": "feat"
}
