{
    "_id": "dHcGihuimtCf1NOs",
    "data": {
        "actionCategory": {
            "value": ""
        },
        "actionType": {
            "value": "passive"
        },
        "actions": {
            "value": null
        },
        "description": {
            "value": "<p><strong>Major Boon</strong> Iomedae imbues your blade with great power.</p>\n<p>Longswords you wield gain the @Compendium[pf2e.equipment-srd.Axiomatic]{Axiomatic},<em> @Compendium[pf2e.equipment-srd.Holy]{</em>Holy<em>}</em>, and @Compendium[pf2e.equipment-srd.Striking (Major)]{Major Striking} runes while you hold them. These property runes count toward the number of runes you can have on your weapon, and if this would cause your weapon to exceed its limit, choose which ones to keep each day when you prepare.</p>\n<p>You gain a +2 status bonus to attack rolls with longswords.</p>"
        },
        "featType": {
            "value": "deityboon"
        },
        "level": {
            "value": 0
        },
        "prerequisites": {
            "value": []
        },
        "rules": [],
        "source": {
            "value": ""
        },
        "traits": {
            "custom": "",
            "rarity": "common",
            "value": []
        }
    },
    "effects": [],
    "flags": {},
    "img": "systems/pf2e/icons/deity/Iomedae.webp",
    "name": "Iomedae - Major Boon",
    "type": "feat"
}
