{
    "_id": "DSfHCm8PDL5hLzZ0",
    "data": {
        "actionCategory": {
            "value": ""
        },
        "actionType": {
            "value": "passive"
        },
        "actions": {
            "value": null
        },
        "description": {
            "value": "<p>Irori challenges you to seek another path, rather than treat every problem as a nail just because you have a hammer. If you select a check for which you have a higher bonus when another method would have been more appropriate for the situation, such as using Deception to @Compendium[pf2e.actionspf2e.Lie]{Lie} through life because it's your highest modifier, even if it would be better to reach a compromise through Diplomacy, you must roll twice and take the lower result.</p>"
        },
        "featType": {
            "value": "deityboon"
        },
        "level": {
            "value": 0
        },
        "prerequisites": {
            "value": []
        },
        "rules": [],
        "source": {
            "value": ""
        },
        "traits": {
            "custom": "",
            "rarity": "common",
            "value": []
        }
    },
    "effects": [],
    "flags": {},
    "img": "systems/pf2e/icons/deity/Irori.webp",
    "name": "Irori - Minor Curse",
    "type": "feat"
}
