{
    "_id": "xrSgGobm5QtTcABQ",
    "data": {
        "actionCategory": {
            "value": ""
        },
        "actionType": {
            "value": "passive"
        },
        "actions": {
            "value": null
        },
        "description": {
            "value": "<p><strong>Moderate Boon</strong> You gain a greater mastery over the energies of life and death.</p>\n<p>Your Strikes deal 1 positive damage to undead.</p>\n<p>Your spells that deal positive damage to undead gain a +1 status bonus to damage per spell level, and your spells that heal the living gain a +1 status bonus to the Hit Points restored per spell level.</p>"
        },
        "featType": {
            "value": "deityboon"
        },
        "level": {
            "value": 0
        },
        "prerequisites": {
            "value": []
        },
        "rules": [],
        "source": {
            "value": ""
        },
        "traits": {
            "custom": "",
            "rarity": "common",
            "value": []
        }
    },
    "effects": [],
    "flags": {},
    "img": "systems/pf2e/icons/deity/Pharasma.webp",
    "name": "Pharasma - Moderate Boon",
    "type": "feat"
}
