{
    "_id": "kYsBAJ103T44agJF",
    "data": {
        "additionalLanguages": {
            "count": 0,
            "custom": "",
            "value": [
                "abyssal",
                "aquan",
                "auran",
                "celestial",
                "dwarven",
                "elven",
                "ignan",
                "infernal",
                "jistkan",
                "terran"
            ]
        },
        "boosts": {
            "0": {
                "value": [
                    "str"
                ]
            },
            "1": {
                "value": []
            },
            "2": {
                "value": [
                    "str",
                    "dex",
                    "con",
                    "int",
                    "wis",
                    "cha"
                ]
            }
        },
        "description": {
            "value": "<p><em>These intelligent constructs house actual souls and represent what remains of a dying empire's last attempt at greatness. Automatons combine technological ingenuity with magical power, creating a blended being wholly unique to Golarion.</em></p>\n<hr />\n<p>The Jistka Imperium was the first major human civilization to emerge after Earthfall, arising around the area that would later become Rahadoum and enduring for seven centuries thanks to great advancements in civics and the sciences. However, Jistka's leaders often favored aggressive uses of technology, and early advances paved the way for arrogance, petty infighting, and corruption. The Jistka Imperium's expansionist tendencies and lack of diplomacy earned the Imperium many enemies over the course of its existence. The most notable of these foes was the empire of Ancient Osirion. Osirion's enmity ultimately sealed the Imperium's fate, as they employed clever and depraved magic that proved more than a match for Jistka's legendary golem army, even when the Jistkans began to cut corners and bind fiends into their golems. In a desperate attempt to fight back against internal corruption and external pressures, a cabal of concerned Jistkans formed the Artificer Conclave to develop new technologies to stave off the Imperium's collapse and return Jistka to its former glory. The most successful of these developments were automatons, which the Conclave believed to be the pinnacle of Jistkan constructs-or at least, the last hope for Jistka's salvation. Conclave creators transplanted the mind, life force, and soul of Jistkan individuals into these constructs, creating magical and technological marvels powered by the life energy of the greatest warriors and scholars the organization could recruit. Unfortunately, despite the Conclave's best efforts, the automatons' arrival happened too late to save the already doomed Imperium. The empire collapsed, leaving automatons to fend for themselves.</p>\n<p>The exceptional and forward-thinking construction of automatons means that a fair number remain today, millennia later, scattered to the winds. However, the passage of time has revealed one of automatons' greatest weaknesses: their mortal psyches. Only the strongest willed have managed to retain their memories, sense of self, and lucidity after all this time. As each automaton remains as unique as any living person on Golarion; a given automaton has their own personality, shaped by countless experiences. Most automatons behave reclusively, preferring to avoid others due to fear of attachment or misunderstanding. Even automatons who are more willing to live in the open understand that their unique nature makes them a prime target for hunters, scholars, or worse. Rare is the automaton that lives without the regular occurrence of distrust or worry.</p>\n<h2>You Might...</h2>\n<ul>\n<li>Have lived for several centuries and through many significant events.</li>\n<li>Be hesitant to trust others until they've earned it.</li>\n<li>Remember little of your life before becoming an automaton.</li>\n</ul>\n<h2>Others Probably...</h2>\n<ul>\n<li>Mistake you for a mindless construct when they first see you.</li>\n<li>Assume you have secret knowledge about magic and technology.</li>\n<li>Look upon you with awe.</li>\n</ul>\n<h2>Physical Description</h2>\n<p>Automatons share a common construction-a blend of magically treated metals and stone. This design allows automatons to withstand the rigors of direct combat and makes them particularly hardy. Their heavy bodies can move just as quickly as other combatants, making automatons intimidating foes. The design of an automaton varies depending on the needs of its role. Most automatons have a basic humanoid shape, though some instead have shapes that closely resemble animals. The majority of automatons have a single eye that glows with a dim, magical light. Each also contains a powerful artifact that both houses its individual soul and uses a combination of life and planar energy for power. These automaton cores are marvels of magical engineering whose method of creation has been lost to time.</p>\n<p>As constructs, automatons typically don't need to breathe, eat, or sleep; however, the body of an automaton needs to vent an imperceivable magical exhaust at a constant rate. This venting process requires breathable air to prevent a buildup of exhaust that can clog the automaton's systems, sometimes to fatal effect. Thus, automatons can still suffocate much like living creatures. Though they don't sleep, automatons require a period of magical recalibration and restoration which stabilizes the energies within their core. Without this process, an automaton core is incapable of fully powering the automaton and they enter an inefficient state (similar to a humanoid who doesn't get 8 hours of sleep).</p>\n<p>Automatons don't age and the design of their cores grants them a seemingly endless power source. Many automatons that exist today are thousands of years old, their bodies as efficient as the day of their creation, even if their minds might have deteriorated with the strain of the ages. Automatons lost over time typically met violent ends. An automaton's body is just as vulnerable to destruction as any other construct, though destroying an automaton core is more difficult. As such, an automaton's soul might remain trapped within its core for years after the destruction of its body. This was the intent of the original creators, who hoped to provide functional immortality. However, in reality, the destruction of the body more often leads to a malfunction, requiring magical intervention such as resurrection magic to restore the automaton completely. In the case of the core's destruction, or if it malfunctions catastrophically enough that it can no longer hold the soul, the core releases the spirit to the River of Souls.</p>\n<p>In some cases, an automaton can learn how to consciously or subconsciously influence its core. These automatons eventually learn how to release their souls from their cores, allowing their souls to move on when they feel they have achieved a satisfying life. This act leaves the automaton as a mindless construct, typically still active but no longer capable of anything but aimless wandering and occasional acts of self-defense.</p>\n<h2>Society</h2>\n<p>Due to the disparate fates of automatons, many of them lead solitary lives. There are a few cases of automatons originally designed to work together, such as groups of warriors, who remain as a team and dwell together in hideouts or travel together as wanderers. These groups are few and far between, however, and automaton settlements are even rarer. The only pockets of automatons that begin to resemble settlements typically hide among the ruins of Jistka. These groups can hold dozens of automatons, but any attempts to contact or visit them tend to be fruitless. Such gatherings are especially secretive, and the resident automatons will protect their homes at any cost.</p>\n<p>Automatons are far more likely to encounter other ancestries. Depending on the automaton's personality, this encounter could go a number of ways, ranging from extreme secrecy to open visitation. An automaton's unique appearance makes them stand out regardless of where they're found, but most others look upon them with awe or curiosity rather than fear. Magical constructs aren't an alien concept across Golarion, but many of them are mindless. After making it past the initial shock of a thinking construct, it's often not difficult for most grasp how to engage with an automaton. However, automatons are more likely to find the semblance of an everyday life in large cities like Absalom, Azir, or Quantium. Regardless of where they go, an automaton must remain on the lookout for those who would attempt to take their body for study or to access their core.</p>\n<h2>Alignment and Religion</h2>\n<p>The people of the Jistka Imperium saw the aeons of Axis as ideal beings whose behavior was worthy of emulation, so many Jistkans were lawful neutral. Since many automatons contain Jistkan souls, most automatons are lawful neutral, or at least lawful in some capacity. Over the centuries, however, a fair number of automatons have drifted toward neutral alignments as their outlooks change without a primary society or set of ideals upon which to cling. Automatons tend to worship gods of technology or magic like Brigh and Nethys, or various monitor demigods. Worship of Irori and Pharasma are somewhat common among automatons as well. Pharasmin automatons likely learn how to release their souls from their cores, and often choose to do so. Though they are ancient beings from long before the time of Casandalee, a small number of automatons have recognized the new artificial goddess as a kindred spirit.</p>\n<h2>Names</h2>\n<p>An automaton typically keeps the name they had before their transformation into a construct, if they can remember it. Even when other memories fade, memory of their name often remains. As such, many automatons have names with Jistkan origins. Second most common are automatons who had to give themselves a new name, as they lost their memories of the old one at some point. Those automatons that particularly believed in the cause of the Artificer Conclave might instead take the name of one of the conclave's members in honor of the cause that they gave their body to support. Some automatons prefer to change their names over their lifetimes, either selecting a new name from a culture they encountered or adding a title to represent a significant moment in their lives. In some cases an automaton will use a particularly cherished title in place of any other name.</p>\n<h3>Sample Names</h3>\n<p>Alnhaman, Busmin, The Doleful, Enoh, Himar, Kantral, The Kindred, Numinar, Scholar, Tehkis, Wayfarer, Yulmian</p>"
        },
        "flaws": {
            "0": {
                "value": []
            }
        },
        "hp": 8,
        "items": {
            "l0mdk": {
                "id": "E28a45fUC2OkXZXY",
                "img": "systems/pf2e/icons/default-icons/feat.svg",
                "level": 1,
                "name": "Constructed Body",
                "pack": "pf2e.ancestryfeatures"
            },
            "l6cpr": {
                "id": "RYrY7o0i6s7KW9io",
                "img": "systems/pf2e/icons/default-icons/feat.svg",
                "level": 1,
                "name": "Automaton Core",
                "pack": "pf2e.ancestryfeatures"
            }
        },
        "languages": {
            "custom": "",
            "value": [
                "common",
                "utopian"
            ]
        },
        "reach": 5,
        "rules": [],
        "size": "med",
        "source": {
            "value": "Pathfinder Guns & Gears"
        },
        "speed": 25,
        "traits": {
            "custom": "",
            "rarity": "rare",
            "value": [
                "automaton",
                "construct"
            ]
        },
        "vision": "lowLightVision"
    },
    "effects": [],
    "flags": {},
    "img": "systems/pf2e/icons/default-icons/alternatives/ancestries/automaton.svg",
    "name": "Automaton",
    "type": "ancestry"
}
