{
    "_id": "IiG7DgeLWYrSNXuX",
    "data": {
        "additionalLanguages": {
            "count": 1,
            "custom": "",
            "value": []
        },
        "boosts": {
            "0": {
                "value": [
                    "cha",
                    "con",
                    "dex",
                    "int",
                    "str",
                    "wis"
                ]
            },
            "1": {
                "value": []
            },
            "2": {
                "value": [
                    "str",
                    "dex",
                    "con",
                    "int",
                    "wis",
                    "cha"
                ]
            }
        },
        "description": {
            "value": "<p><em>As unpredictable and varied as any of Golarion's peoples, humans have exceptional drive and the capacity to endure and expand. Though many civilizations thrived before humanity rose to prominence, humans have built some of the greatest and the most terrible societies throughout the course of history, and today they are the most populous people in the realms around the Inner Sea.</em></p>\n<hr />\n<p>Humans' ambition, versatility, and exceptional potential have led to their status as the world's predominant ancestry. Their empires and nations are vast, sprawling things, and their citizens carve names for themselves with the strength of their sword arms and the power of their spells. Humanity is diverse and tumultuous, running the gamut from nomadic to imperial, sinister to saintly. Many of them venture forth to explore, to map the expanse of the multiverse, to search for long-lost treasure, or to lead mighty armies to conquer their neighbors—for no better reason than because they can.</p>\n<p>If you want a character who can be just about anything, you should play a human.</p>\n<h2>You Might...</h2>\n<ul>\n<li>Strive to achieve greatness, either in your own right or on behalf of a cause.</li>\n<li>Seek to understand your purpose in the world.</li>\n<li>Cherish your relationships with family and friends.</li>\n</ul>\n<h2>Others Probably...</h2>\n<ul>\n<li>Respect your flexibility, your adaptability, and—in most cases— your open‑mindedness.</li>\n<li>Distrust your intentions, fearing you seek only power or wealth.</li>\n<li>Aren't sure what to expect from you and are hesitant to assume your intentions.</li>\n</ul>\n<h2>Physical Description</h2>\n<p>Humans' physical characteristics are as varied as the world's climes. Humans have a wide variety of skin and hair colors, body types, and facial features. Generally speaking, their skin has a darker hue the closer to the equator they or their ancestors lived.</p>\n<p>Humans reach physical adulthood around the age of 15, though mental maturity occurs a few years later. A typical human can live to be around 90 years old. Humans often intermarry with people of other ancestries, giving rise to children who bear the traits of both parents. The most notable half-humans are half-elves and half-orcs.</p>\n<h2>Society</h2>\n<p>Human variety also manifests in terms of their governments, attitudes, and social norms. Though the oldest of human cultures can trace their shared histories thousands of years into the past, when compared to the societies of the elves or dwarves, human civilizations seem in a state of constant flux as empires fragment and new kingdoms subsume the old.</p>\n<h2>Alignment and Religion</h2>\n<p>Humanity is perhaps the most heterogeneous of all the ancestries, with a capacity for great evil and boundless good. Some humans assemble into vast raging hordes, while others build sprawling cities. Considered as a whole, most humans are neutral, yet they tend to congregate into nations or communities of a shared alignment, or at least a shared tendency toward an alignment. Humans also worship a wide range of gods and practice many different religions, tending to seek favor from any divine being they encounter.</p>\n<h2>Names</h2>\n<p>Unlike many ancestral cultures, which generally cleave to specific traditions and shared histories, humanity's diversity has resulted in a near-infinite set of names. The humans of northern tribes have different names than those dwelling in southern nation-states. Humans throughout much of the world speak Common (though some continents on Golarion have their own regional common languages), yet their names are as varied as their beliefs and appearances.</p>\n<h3><span style=\"text-decoration: underline;\">Sample Names</span></h3>\n<p>A variety of human ethnic groups—many of which have origins on distant lands— populates the continents bordering Golarion's Inner Sea. Human characters can be any of these ethnicities, regardless of what lands they call home.</p>\n<hr />\n<p>Characters of human ethnicities in the Inner Sea region speak Common (also known as Taldane), and some ethnicities grant access to an uncommon language.</p>"
        },
        "flaws": {
            "0": {
                "value": []
            }
        },
        "hp": 8,
        "items": {},
        "languages": {
            "custom": "",
            "value": [
                "common"
            ]
        },
        "reach": 5,
        "rules": [],
        "size": "med",
        "source": {
            "value": "Pathfinder Core Rulebook"
        },
        "speed": 25,
        "traits": {
            "custom": "",
            "rarity": "common",
            "value": [
                "human",
                "humanoid"
            ]
        },
        "vision": "normal"
    },
    "effects": [],
    "flags": {},
    "img": "systems/pf2e/icons/default-icons/alternatives/ancestries/human.svg",
    "name": "Human",
    "type": "ancestry"
}
