{
    "_id": "NQZ88IoKeMBsfjp7",
    "data": {
        "badge": null,
        "description": {
            "value": "<p>Granted by @Compendium[pf2e.spells-srd.Life Boost]{Life Boost}.</p>"
        },
        "duration": {
            "expiry": "turn-start",
            "sustained": false,
            "unit": "rounds",
            "value": 4
        },
        "level": {
            "value": 1
        },
        "rules": [
            {
                "key": "FastHealing",
                "value": "@item.level * 2"
            }
        ],
        "source": {
            "value": ""
        },
        "start": {
            "initiative": null,
            "value": 0
        },
        "target": null,
        "tokenIcon": {
            "show": true
        },
        "traits": {
            "custom": "",
            "rarity": "common",
            "value": []
        }
    },
    "effects": [],
    "flags": {},
    "img": "systems/pf2e/icons/spells/life-boost.webp",
    "name": "Spell Effect: Life Boost",
    "type": "effect"
}
