{
    "_id": "xKJVqN1ETnNH3tFg",
    "data": {
        "description": {
            "value": "<p>Granted by <em>@Compendium[pf2e.spells-srd.Corrosive Body]{Corrosive Body}</em></p>\n<p>You exhale corrosive gas, and acidic secretions coat your skin as you transform into a being of living acid. You gain acid immunity. Any creature that touches you or damages you with an unarmed melee attack or non-reach melee weapon takes [[/r {4d6}[acid]]]{4d6 acid damage}, and your unarmed attacks deal 2d4 additional acid damage. The first time each round that you deal acid damage to a creature in this way, you gain [[/r 5d6 #temporary HP]]{5d6 temporary HP} as your body digests the eroded material and transforms it into a protective acid. When the spell ends, any remaining temporary HP expires as well. Your acid spells deal one additional die of acid damage (of the same damage die the spell uses). You can cast acid splash as an innate spell; the splash damage affects all creatures within 15 feet instead of the normal 5 feet.</p>"
        },
        "duration": {
            "expiry": "turn-start",
            "sustained": false,
            "unit": "minutes",
            "value": 1
        },
        "level": {
            "value": 9
        },
        "rules": [
            {
                "damageType": "acid",
                "diceNumber": 2,
                "key": "DamageDice",
                "label": "Corrosive Body",
                "predicate": {
                    "all": [
                        "unarmed"
                    ]
                },
                "selector": "damage"
            },
            {
                "key": "Note",
                "predicate": {
                    "all": [
                        "unarmed"
                    ]
                },
                "selector": "damage",
                "text": "<p class='compact-text'><strong>Corrosive Body</strong> The first time each round that you deal acid damage to a creature in this way, you gain [[/r 5d6 #temporary HP]]{5d6 temporary HP} "
            },
            {
                "key": "Immunity",
                "type": "acid"
            }
        ],
        "source": {
            "value": "Pathfinder Secrets of Magic"
        },
        "start": {
            "initiative": null,
            "value": 0
        },
        "target": null,
        "tokenIcon": {
            "show": true
        },
        "traits": {
            "custom": "",
            "rarity": "common",
            "value": []
        }
    },
    "effects": [],
    "flags": {},
    "img": "systems/pf2e/icons/spells/corrosive-body.webp",
    "name": "Spell Effect: Corrosive Body (Heightened 9th)",
    "type": "effect"
}
