{
    "_id": "hdOb5Iu6Zd3pHoGI",
    "data": {
        "description": {
            "value": "<p>Granted by <em>@Compendium[pf2e.spells-srd.Discern Secrets]{Discern Secrets}</em>, if you pick Recall Knowledge.</p>"
        },
        "duration": {
            "expiry": "turn-start",
            "sustained": true,
            "unit": "minutes",
            "value": 1
        },
        "level": {
            "value": 1
        },
        "rules": [
            {
                "key": "FlatModifier",
                "label": "Recall Knowledge (Discern Secrets)",
                "predicate": {
                    "all": [
                        "action:recall-knowledge"
                    ]
                },
                "selector": "skill-check",
                "type": "status",
                "value": 1
            }
        ],
        "source": {
            "value": ""
        },
        "start": {
            "initiative": null,
            "value": 0
        },
        "target": null,
        "tokenIcon": {
            "show": true
        },
        "traits": {
            "custom": "",
            "rarity": "common",
            "value": []
        }
    },
    "effects": [],
    "flags": {},
    "img": "systems/pf2e/icons/spells/discern-secrets.webp",
    "name": "Spell Effect: Discern Secrets (Recall Knowledge)",
    "type": "effect"
}
