{
    "_id": "HoOujAdQWCN4E6sQ",
    "data": {
        "description": {
            "value": "<p>Granted by <em>@Compendium[pf2e.spells-srd.Barkskin]{Barkskin}</em></p>"
        },
        "duration": {
            "expiry": "turn-start",
            "sustained": false,
            "unit": "minutes",
            "value": 10
        },
        "level": {
            "value": 2
        },
        "rules": [
            {
                "key": "Resistance",
                "type": "bludgeoning",
                "value": "2+ 2*floor((@item.level -2)/2)"
            },
            {
                "key": "Resistance",
                "type": "piercing",
                "value": "2+ 2*floor((@item.level -2)/2)"
            },
            {
                "key": "Weakness",
                "type": "fire",
                "value": "2*floor(@item.level/2)"
            },
            {
                "key": "Resistance",
                "type": "piercing",
                "value": "2*floor(@item.level/2)"
            },
            {
                "key": "Weakness",
                "type": "fire",
                "value": "3*floor(@item.level/2)"
            }
        ],
        "source": {
            "value": "Pathfinder Core Rulebook"
        },
        "start": {
            "initiative": null,
            "value": 0
        },
        "target": null,
        "tokenIcon": {
            "show": true
        },
        "traits": {
            "custom": "",
            "rarity": "common",
            "value": []
        }
    },
    "effects": [],
    "flags": {},
    "img": "systems/pf2e/icons/spells/barkskin.webp",
    "name": "Spell Effect: Barkskin",
    "type": "effect"
}
