{
    "_id": "6qvLnIkWAoGvTIWy",
    "data": {
        "description": {
            "value": "<p>The public work refuses to repair itself, and the memories of the community members are soured in response to the botched ritual. For the next week, while a caster is within 60 feet of the site of the ritual, they cannot receive any benefit from beneficial emotion effects, and they take a -10-foot status penalty to their Speeds as their movement slows to a morose crawl.</p>"
        },
        "duration": {
            "expiry": "turn-start",
            "sustained": false,
            "unit": "days",
            "value": 7
        },
        "level": {
            "value": 1
        },
        "rules": [
            {
                "key": "ToggleProperty",
                "label": "Within 60 feet of a critically failed Community Repair Ritual",
                "property": "flags.pf2e.rollOptions.all.community-repair-crit-fail"
            },
            {
                "key": "FlatModifier",
                "label": "You're a bad artist",
                "predicate": {
                    "all": [
                        "community-repair-crit-fail"
                    ]
                },
                "selector": "speed",
                "type": "status",
                "value": -10
            },
            {
                "key": "Note",
                "predicate": {
                    "all": [
                        "community-repair-crit-fail"
                    ]
                },
                "selector": "attack",
                "text": "<p class='compact-text'><strong>Community Repair</strong> You cannot benefit from emotion effects.</p>"
            },
            {
                "key": "Note",
                "predicate": {
                    "all": [
                        "community-repair-crit-fail"
                    ]
                },
                "selector": "saving-throw",
                "text": "<p class='compact-text'><strong>Community Repair</strong> You cannot benefit from emotion effects.</p>"
            }
        ],
        "source": {
            "value": "Pathfinder #170: Spoken on the Song Wind"
        },
        "start": {
            "initiative": null,
            "value": 0
        },
        "target": null,
        "tokenIcon": {
            "show": true
        },
        "traits": {
            "custom": "",
            "rarity": "common",
            "value": []
        }
    },
    "effects": [],
    "flags": {},
    "img": "systems/pf2e/icons/default-icons/effect.svg",
    "name": "Spell Effect: Community Repair (Critical Failure)",
    "type": "effect"
}
