{
    "_id": "6SG8wVmppv4oXZtx",
    "data": {
        "description": {
            "value": "<p>You surround yourself in a mantle of blazing fire magic, and your skin and anything you're wearing morphs into burning hot lava. The air around you swelters with heat, and tiny sparks of flame dance behind you as you pass. As a single action, which has the concentrate trait, you can change one of your chosen abilities to a different option from the list.</p>\n<ul>\n<li><strong>Fiery Grasp</strong> Your hands swell and grow with lava. You gain a lava fist unarmed attack in the brawling weapon group. Your lava fists deal 1d8 bludgeoning damage as their base damage, plus an additional 2d6 fire damage and 1d6 persistent fire damage.</li>\n</ul>"
        },
        "duration": {
            "expiry": "turn-start",
            "sustained": false,
            "unit": "minutes",
            "value": 1
        },
        "level": {
            "value": 5
        },
        "rules": [
            {
                "category": "unarmed",
                "damage": {
                    "base": {
                        "damageType": "bludgeoning",
                        "dice": 1,
                        "die": "d8"
                    }
                },
                "group": "brawling",
                "key": "Strike",
                "label": "Lava Fists",
                "range": null,
                "traits": [
                    "melee",
                    "unarmed"
                ]
            },
            {
                "damageType": "fire",
                "diceNumber": 2,
                "dieSize": "d6",
                "key": "DamageDice",
                "label": "Mantle of the Magma Heart (Fiery Grasp)",
                "selector": "{item|_id}-damage"
            },
            {
                "key": "Note",
                "selector": "{item|_id}-damage",
                "text": "<p class='compact-text'><strong>Fiery Grasp</strong> Your Lava Fist Strikes also deal [[/r {1d6}[persistent,fire]]] @Compendium[pf2e.conditionitems.Persistent Damage]{Persistent Fire Damage} on a hit.</p>"
            }
        ],
        "source": {
            "value": ""
        },
        "start": {
            "initiative": null,
            "value": 0
        },
        "target": null,
        "tokenIcon": {
            "show": true
        },
        "traits": {
            "custom": "",
            "rarity": "common",
            "value": []
        }
    },
    "effects": [],
    "flags": {},
    "img": "systems/pf2e/icons/spells/mantle-of-the-magma-heart.webp",
    "name": "Spell Effect: Mantle of the Magma Heart (Fiery Grasp)",
    "type": "effect"
}
