{
    "_id": "hzThZ50RRdfTYTKc",
    "data": {
        "attributes": {
            "ac": {
                "value": 32
            },
            "hardness": 5,
            "hasHealth": true,
            "hp": {
                "details": "to ruin the nozzle (making it impossible to disable, in which case the only way to disarm the bomb is to destroy both its tanks); <strong>Tank Hardness</strong> 15; <strong>Tank HP</strong> 80 (BT 40) to destroy one of the tanks (both tanks must be destroyed to disarm the bomb",
                "max": 20,
                "temp": 0,
                "tempmax": 0,
                "value": 20
            },
            "stealth": {
                "details": "<p>The bomb uses Oggvurm's initiative roll as its Stealth roll</p>",
                "value": 0
            }
        },
        "creatureType": "",
        "customModifiers": {},
        "details": {
            "description": "<p>A clockwork bomb releases gouts of poisonous smoke. The smoke issues forth from a single nozzle attached to two tanks of pressurized poison</p>",
            "disable": "<p>Three DC 31 Thievery (expert) checks to @Compendium[pf2e.actionspf2e.Disable Device]{Disable a Device} to disable the latches that lock the nozzle in place, then one DC 35 Thievery (master) check to Disable a Device to turn off the nozzle; DCs decrease by 2 if Oggvurm is immobilized, paralyzed, unconscious, or dead</p>",
            "isComplex": true,
            "level": {
                "value": 11
            },
            "reset": "The trap issues smoke for 3 minutes before its tanks run dry. The tanks must be replaced before the bomb can be reactivated.",
            "routine": "<p>(1 action) On its turn, the bomb spews forth a smoky gout of airborne @Compendium[pf2e.equipment-srd.Blackfinger Blight]{Blackfinger Blight} poison. The cloud fills a 20-foot radius, or a 10-foot radius if only one tank remains intact. If the bomb is already in the center of a blackfinger blight cloud, the radius of that cloud increases by 20 feet (or 10 feet, if only one tank remains intact) instead.</p>"
        },
        "saves": {
            "fortitude": {
                "saveDetail": "",
                "value": 24
            },
            "reflex": {
                "saveDetail": "",
                "value": 26
            },
            "will": {
                "saveDetail": "",
                "value": 0
            }
        },
        "source": {
            "value": "Pathfinder #159: All or Nothing"
        },
        "statusEffects": [],
        "traits": {
            "ci": [],
            "di": {
                "custom": "",
                "selected": {},
                "value": [
                    "precision",
                    "critical-hits",
                    "object-immunities"
                ]
            },
            "dr": [],
            "dv": [],
            "rarity": "common",
            "size": {
                "value": "med"
            },
            "traits": {
                "custom": "",
                "value": [
                    "alchemical",
                    "mechanical",
                    "trap"
                ]
            }
        }
    },
    "effects": [],
    "flags": {},
    "img": "systems/pf2e/icons/default-icons/hazard.svg",
    "items": [
        {
            "_id": "FH3nsGdSWs8rbUYr",
            "data": {
                "actionCategory": {
                    "value": "offensive"
                },
                "actionType": {
                    "value": "reaction"
                },
                "actions": {
                    "value": null
                },
                "description": {
                    "value": "<p data-visibility=\"gm\"><strong>Trigger</strong> The bomb is Activated, which requires 3 actions</p>\n<p><strong>Effect</strong> The bomb releases a smoky cloud of @Compendium[pf2e.equipment-srd.Blackfinger Blight]{Blackfinger Blight} in a 20-foot radius. Creatures within the smoke are @Compendium[pf2e.conditionitems.Concealed]{Concealed} from other creatures.</p>\n<p>Any creature that starts its turn in the smoke must roll a <span data-pf2-check=\"fortitude\" data-pf2-traits=\"alchemical,contact,poison,virulent\" data-pf2-label=\"Blackfinger Blight DC\" data-pf2-dc=\"32\" data-pf2-show-dc=\"gm\">Fortitude</span> saving throw to avoid being afflicted by blackfinger blight poison.</p>\n<p data-visibility=\"gm\">The cloud remains for 1 minute or until dispersed by strong winds.</p>"
                },
                "requirements": {
                    "value": ""
                },
                "rules": [],
                "slug": null,
                "source": {
                    "value": ""
                },
                "traits": {
                    "custom": "",
                    "rarity": "common",
                    "value": [
                        "alchemical",
                        "poison"
                    ]
                },
                "trigger": {
                    "value": ""
                },
                "weapon": {
                    "value": ""
                }
            },
            "effects": [],
            "flags": {},
            "img": "systems/pf2e/icons/actions/Reaction.webp",
            "name": "Poisonous Cloud",
            "sort": 100000,
            "type": "action"
        }
    ],
    "name": "Clockwork Poison Bomb",
    "token": {
        "disposition": 0,
        "height": 1,
        "img": "systems/pf2e/icons/default-icons/hazard.svg",
        "name": "Clockwork Poison Bomb",
        "width": 1
    },
    "type": "hazard"
}
