{
    "_id": "7Q35HATCilOb1xXX",
    "data": {
        "attributes": {
            "ac": {
                "value": 10
            },
            "hardness": 0,
            "hasHealth": true,
            "hp": {
                "details": "",
                "max": 10,
                "temp": 0,
                "value": 10
            },
            "stealth": {
                "details": "<p>(Master)</p>",
                "value": 31
            }
        },
        "creatureType": "",
        "details": {
            "description": "<p>A mass of brushes use magical paint to convert creatures into art.</p>",
            "disable": "<p><span data-pf2-check=\"crafting\" data-pf2-label=\"Crafting Disable DC\" data-pf2-dc=\"41\" data-pf2-show-dc=\"gm\">Crafting</span> (master) to mix the paints into bland, useless colors, <span data-pf2-check=\"thievery\" data-pf2-label=\"Thievery Disable DC\" data-pf2-dc=\"41\" data-pf2-show-dc=\"gm\">Thievery</span> (legendary) to dismantle the animated brushes, or <em>@Compendium[pf2e.spells-srd.Dispel Magic]{Dispel Magic}</em> (8th level; counteract DC 41) to counteract the magic within the paint.</p>",
            "isComplex": false,
            "level": {
                "value": 19
            },
            "reset": "",
            "routine": ""
        },
        "saves": {
            "fortitude": {
                "saveDetail": "",
                "value": 0
            },
            "reflex": {
                "saveDetail": "",
                "value": 0
            },
            "will": {
                "saveDetail": "",
                "value": 0
            }
        },
        "source": {
            "value": "Pathfinder #162: Ruins of the Radiant Siege"
        },
        "statusEffects": [],
        "traits": {
            "ci": [],
            "di": {
                "custom": "",
                "selected": {},
                "value": []
            },
            "dr": [],
            "dv": [],
            "rarity": "common",
            "size": {
                "value": "med"
            },
            "traits": {
                "custom": "",
                "value": []
            }
        }
    },
    "effects": [],
    "flags": {},
    "img": "systems/pf2e/icons/default-icons/hazard.svg",
    "items": [
        {
            "_id": "Z5GiE6QWjQtsaPbJ",
            "data": {
                "actionCategory": {
                    "value": "offensive"
                },
                "actionType": {
                    "value": "reaction"
                },
                "actions": {
                    "value": null
                },
                "description": {
                    "value": "<p data-visibility=\"gm\"><strong>Trigger</strong> A creature steps into the same space as the paints</p>\n<p><strong>Effect</strong> The brushes animate and attempt to paint all creatures within 30 feet. The creatures must succeed at a <span data-pf2-check=\"reflex\" data-pf2-traits=\"arcane,transmutation\" data-pf2-label=\"Capture Subject DC\" data-pf2-dc=\"41\" data-pf2-show-dc=\"gm\">Reflex</span> save to avoid the brushes and splashes from paint cans or be converted into living artwork for 1 hour.</p>\n<p>A creature that becomes living artwork is immediately bound to the nearest flat surface of its size or larger within 30 feet. The creature can move only along flat surfaces such as floors and walls. This allows it to end its movement wrapped around corners when on a continuous surface.</p>\n<p>While bound to a surface, the creature can attack from its space as normal, including against other creatures bound to the same surface.</p>\n<p>If the surface it's on is destroyed (such as a portrait hit by a <em>@Compendium[pf2e.spells-srd.Fireball]{Fireball}</em> spell or a wall being demolished), the creature takes [[/r {10d6}]]{10d6 damage} and is shunted to the nearest flat surface. If there is no flat surface within 5 feet, the creature is destroyed.</p>"
                },
                "requirements": {
                    "value": ""
                },
                "rules": [],
                "slug": null,
                "source": {
                    "value": ""
                },
                "traits": {
                    "custom": "",
                    "rarity": "common",
                    "value": [
                        "arcane",
                        "transmutation"
                    ]
                },
                "trigger": {
                    "value": ""
                },
                "weapon": {
                    "value": ""
                }
            },
            "effects": [],
            "flags": {},
            "img": "systems/pf2e/icons/actions/Reaction.webp",
            "name": "Capture Subject",
            "sort": 0,
            "type": "action"
        }
    ],
    "name": "Living Paints",
    "token": {
        "disposition": 0,
        "height": 1,
        "img": "systems/pf2e/icons/default-icons/hazard.svg",
        "name": "Living Paints",
        "width": 1
    },
    "type": "hazard"
}
