{
    "_id": "3e1PlMXmlSwKoc6d",
    "data": {
        "actionCategory": {
            "value": ""
        },
        "actionType": {
            "value": "passive"
        },
        "actions": {
            "value": null
        },
        "description": {
            "value": "<p>Constant practice has increased the effectiveness of your concoctions. Your proficiency rank for your alchemist class DC increases to expert.</p>"
        },
        "featType": {
            "value": "classfeature"
        },
        "level": {
            "value": 9
        },
        "location": "",
        "prerequisites": {
            "value": []
        },
        "rules": [
            {
                "key": "ActiveEffectLike",
                "mode": "upgrade",
                "path": "data.attributes.classDC.rank",
                "value": 2
            }
        ],
        "source": {
            "value": ""
        },
        "traits": {
            "custom": "",
            "rarity": "common",
            "value": [
                "alchemist"
            ]
        }
    },
    "effects": [],
    "flags": {},
    "img": "systems/pf2e/icons/features/classes/alchemical-expertise.webp",
    "name": "Alchemical Expertise",
    "type": "feat"
}
