{
    "_id": "VVMMJdIWL7fAsQf3",
    "data": {
        "actionCategory": {
            "value": ""
        },
        "actionType": {
            "value": "passive"
        },
        "actions": {
            "value": null
        },
        "description": {
            "value": "<p>Baba Yaga teaches you how to transfer spirits into objects and freeze your foes.</p>\n<p><strong>Spell List</strong> occult</p>\n<p><strong>Patron Skill</strong> Occultism</p>\n<p><strong>Hex Cantrip</strong> <em>@Compendium[pf2e.spells-srd.Spirit Object]{Spirit Object}</em></p>\n<p><strong>Granted Spell</strong> <em>@Compendium[pf2e.spells-srd.Chilling Spray]{Chilling Spray}</em></p>"
        },
        "featType": {
            "value": "classfeature"
        },
        "level": {
            "value": 1
        },
        "location": "",
        "prerequisites": {
            "value": []
        },
        "rules": [
            {
                "key": "ActiveEffectLike",
                "mode": "upgrade",
                "path": "data.skills.occ.rank",
                "value": 1
            },
            {
                "key": "ActiveEffectLike",
                "mode": "override",
                "path": "data.proficiencies.aliases.witch",
                "priority": 39,
                "value": "occult"
            }
        ],
        "source": {
            "value": "Pathfinder Lost Omens: Legends"
        },
        "traits": {
            "custom": "",
            "rarity": "rare",
            "selected": {
                "witch": "Witch"
            },
            "value": [
                "witch"
            ]
        }
    },
    "effects": [],
    "flags": {},
    "img": "systems/pf2e/icons/features/classes/baba-yaga-patron.webp",
    "name": "Baba Yaga Patron",
    "type": "feat"
}
