{
    "_id": "w5koctOVrEcpxTIq",
    "data": {
        "actionCategory": {
            "value": ""
        },
        "actionType": {
            "value": "passive"
        },
        "actions": {
            "value": null
        },
        "description": {
            "value": "<p>Demons debase all they touch. One of your ancestors fell victim to their corruption, and you are burdened by that sin.</p>\n<p><strong>Spell List</strong> divine</p>\n<p><strong>Bloodline Skills</strong> Intimidation, Religion</p>\n<p><strong>Granted Spells</strong> cantrip <em>@Compendium[pf2e.spells-srd.Acid Splash]{Acid Splash}</em>, 1st: <em>@Compendium[pf2e.spells-srd.Fear]{Fear}</em>, 2nd: <em>@Compendium[pf2e.spells-srd.Enlarge]{Enlarge}</em>, 3rd: <em>@Compendium[pf2e.spells-srd.Slow]{Slow}</em>, 4th: <em>@Compendium[pf2e.spells-srd.Divine Wrath]{Divine Wrath}</em>, 5th: <em>@Compendium[pf2e.spells-srd.Abyssal Plague]{Abyssal Plague}</em>, 6th: <em>@Compendium[pf2e.spells-srd.Disintegrate]{Disintegrate}</em>, 7th: <em>@Compendium[pf2e.spells-srd.Divine Decree]{Divine Decree}</em>, 8th: <em>@Compendium[pf2e.spells-srd.Divine Aura]{Divine Aura}</em>, 9th: <em>@Compendium[pf2e.spells-srd.Implosion]{Implosion}</em></p>\n<p><strong>Bloodline Spells</strong> initial: <em>@Compendium[pf2e.spells-srd.Glutton's Jaw]{Glutton's Jaw}</em>, advanced: <em>@Compendium[pf2e.spells-srd.Swamp of Sloth]{Swamp of Sloth}</em>, greater: <em>@Compendium[pf2e.spells-srd.Abyssal Wrath]{Abyssal Wrath}</em></p>\n<p><strong>Blood Magic</strong> The corruption of sin weakens a target's defenses or makes you more imposing. Either a target takes a -1 status penalty to AC for 1 round, or you gain a +1 status bonus to Intimidation checks for 1 round.</p>\n<p>@Compendium[pf2e.feature-effects.Effect: Demonic Blood Magic (Self)]{Effect: Demonic Blood Magic (Self)}, @Compendium[pf2e.feature-effects.Effect: Demonic Blood Magic (Target)]{Effect: Demonic Blood Magic (Target)}</p>"
        },
        "featType": {
            "value": "classfeature"
        },
        "level": {
            "value": 1
        },
        "location": "",
        "prerequisites": {
            "value": []
        },
        "rules": [
            {
                "key": "ActiveEffectLike",
                "mode": "upgrade",
                "path": "data.resources.focus.max",
                "priority": 10,
                "value": 1
            },
            {
                "key": "ActiveEffectLike",
                "mode": "upgrade",
                "path": "data.skills.itm.rank",
                "value": 1
            },
            {
                "key": "ActiveEffectLike",
                "mode": "upgrade",
                "path": "data.skills.rel.rank",
                "value": 1
            },
            {
                "key": "ActiveEffectLike",
                "mode": "override",
                "path": "data.proficiencies.aliases.sorcerer",
                "priority": 39,
                "value": "divine"
            }
        ],
        "source": {
            "value": ""
        },
        "traits": {
            "custom": "",
            "rarity": "common",
            "value": [
                "sorcerer"
            ]
        }
    },
    "effects": [],
    "flags": {},
    "img": "systems/pf2e/icons/features/classes/demonic.webp",
    "name": "Bloodline: Demonic",
    "type": "feat"
}
