{
    "_id": "ZZzLMOUAtBVgV1DF",
    "data": {
        "actionCategory": {
            "value": ""
        },
        "actionType": {
            "value": "passive"
        },
        "actions": {
            "value": null
        },
        "description": {
            "value": "<p>You are a cleric of the cloth, focusing on divine magic and your connection to your deity's domains.</p>\n<p><strong>@Compendium[pf2e.classfeatures.First Doctrine (Cloistered Cleric)]{First Doctrine (1st)}</strong> You gain the @Compendium[pf2e.feats-srd.Domain Initiate]{Domain Initiate} cleric feat.</p>\n<p><strong>@Compendium[pf2e.classfeatures.Second Doctrine (Cloistered Cleric)]{Second Doctrine (3rd)}</strong> Your proficiency rank for Fortitude saves increases to expert.</p>\n<p><strong>@Compendium[pf2e.classfeatures.Third Doctrine (Cloistered Cleric)]{Third Doctrine (7th)}</strong> Your proficiency ranks for divine spell attack rolls and spell DCs increase to expert.</p>\n<p><strong>@Compendium[pf2e.classfeatures.Fourth Doctrine (Cloistered Cleric)]{Fourth Doctrine (11th)}</strong> You gain expert proficiency with your deity's favored weapon. When you critically succeed at an attack roll using that weapon, you apply the weapon's critical specialization effect; use your divine spell DC if necessary.</p>\n<p><strong>@Compendium[pf2e.classfeatures.Fifth Doctrine (Cloistered Cleric)]{Fifth Doctrine (15th)}</strong> Your proficiency ranks for divine spell attack rolls and spell DCs increase to master.</p>\n<p><strong>@Compendium[pf2e.classfeatures.Final Doctrine (Cloistered Cleric)]{Final Doctrine (19th)}</strong> Your proficiency ranks for divine spell attack rolls and spell DCs increase to legendary.</p>"
        },
        "featType": {
            "value": "classfeature"
        },
        "level": {
            "value": 1
        },
        "location": "",
        "prerequisites": {
            "value": []
        },
        "rules": [],
        "source": {
            "value": ""
        },
        "traits": {
            "custom": "",
            "rarity": "common",
            "value": [
                "cleric"
            ]
        }
    },
    "effects": [],
    "flags": {},
    "img": "systems/pf2e/icons/features/classes/cloistered-cleric.webp",
    "name": "Cloistered Cleric",
    "type": "feat"
}
