{
    "_id": "tyrBwBTzo5t9Zho7",
    "data": {
        "actionCategory": {
            "value": ""
        },
        "actionType": {
            "value": "passive"
        },
        "actions": {
            "value": null
        },
        "description": {
            "value": "<p>Even among followers of the same deity, there are numerous doctrines and beliefs, which sometimes vary wildly between clerics. At 1st level, you select a doctrine and gain the benefits of its first doctrine. Each doctrine grants you initial benefits at 1st level. At 3rd, 7th, 11th, 15th, and 19th levels, you gain the benefits granted by your doctrine's second, third, fourth, fifth, and final doctrines respectively.</p>\n<ul>\n<li>@Compendium[pf2e.classfeatures.Cloistered Cleric]{Cloistered Cleric}</li>\n<li>@Compendium[pf2e.classfeatures.Warpriest]{Warpriest}</li>\n</ul>"
        },
        "featType": {
            "value": "classfeature"
        },
        "level": {
            "value": 1
        },
        "location": "",
        "prerequisites": {
            "value": []
        },
        "rules": [
            {
                "adjustName": false,
                "allowedDrops": {
                    "all": [
                        "item:level:1",
                        "item:trait:cleric",
                        "item:type:feature"
                    ],
                    "label": "1st-level Cleric class feature"
                },
                "choices": [
                    {
                        "value": "Compendium.pf2e.classfeatures.Cloistered Cleric"
                    },
                    {
                        "value": "Compendium.pf2e.classfeatures.Warpriest"
                    }
                ],
                "key": "ChoiceSet",
                "prompt": "Select a doctrine."
            },
            {
                "key": "GrantItem",
                "uuid": "{item|flags.pf2e.rulesSelections.doctrine}"
            }
        ],
        "source": {
            "value": ""
        },
        "traits": {
            "custom": "",
            "rarity": "common",
            "value": [
                "cleric"
            ]
        }
    },
    "effects": [],
    "flags": {},
    "img": "systems/pf2e/icons/features/classes/choice-feature.webp",
    "name": "Doctrine",
    "type": "feat"
}
