{
    "_id": "XFTWJO6txmLNRLae",
    "data": {
        "actionCategory": {
            "value": ""
        },
        "actionType": {
            "value": "passive"
        },
        "actions": {
            "value": null
        },
        "description": {
            "value": "<p>Your patron speaks from the shadows, granting you power over darkness and dreams.</p>\n<p><strong>Spell List</strong> occult</p>\n<p><strong>Patron Skill</strong> Occultism</p>\n<p><strong>Hex Cantrip</strong> <em>@Compendium[pf2e.spells-srd.Shroud of Night]{Shroud of Night}</em></p>\n<p><strong>Granted Spell</strong> <em>@Compendium[pf2e.spells-srd.Sleep]{Sleep}</em></p>"
        },
        "featType": {
            "value": "classfeature"
        },
        "level": {
            "value": 1
        },
        "location": "",
        "prerequisites": {
            "value": []
        },
        "rules": [
            {
                "key": "ActiveEffectLike",
                "mode": "upgrade",
                "path": "data.skills.occ.rank",
                "value": 1
            },
            {
                "key": "ActiveEffectLike",
                "mode": "override",
                "path": "data.proficiencies.aliases.witch",
                "priority": 39,
                "value": "occult"
            }
        ],
        "source": {
            "value": "Pathfinder Advanced Player's Guide"
        },
        "traits": {
            "custom": "",
            "rarity": "common",
            "value": [
                "witch"
            ]
        }
    },
    "effects": [],
    "flags": {},
    "img": "systems/pf2e/icons/features/classes/night-patreon.webp",
    "name": "Night Patron",
    "type": "feat"
}
