{
    "_id": "cU2ofQLj7pg6wTSi",
    "data": {
        "actionCategory": {
            "value": ""
        },
        "actionType": {
            "value": "passive"
        },
        "actions": {
            "value": null
        },
        "description": {
            "value": "<p>Your inquiries into the alchemical nature of the universe have led you to focus on a particular field of research. You might have a degree from a scientific institute, correspond with other researchers in your field, or work as a genius loner. Choose a field of research.</p>\n<p>Your research field adds a number of formulas to your formula book; these are your signature items. When using a batch of infused reagents to create your signature items using advanced alchemy, you create three items instead of two. Each time you gain a level, you can swap one of your signature items with another formula in your formula book. This new signature item must be on your research field's list of possible signature items.</p>"
        },
        "featType": {
            "value": "classfeature"
        },
        "level": {
            "value": 1
        },
        "location": "",
        "prerequisites": {
            "value": []
        },
        "rules": [
            {
                "adjustName": false,
                "allowedDrops": {
                    "all": [
                        "feature:trait:alchemist",
                        "feature:level:1"
                    ],
                    "label": "level 1 Alchemist class feature"
                },
                "choices": [
                    {
                        "value": "Compendium.pf2e.classfeatures.Bomber"
                    },
                    {
                        "value": "Compendium.pf2e.classfeatures.Chirurgeon"
                    },
                    {
                        "value": "Compendium.pf2e.classfeatures.Mutagenist"
                    },
                    {
                        "value": "Compendium.pf2e.classfeatures.Toxicologist"
                    }
                ],
                "key": "ChoiceSet",
                "prompt": "Select a Research Field."
            },
            {
                "key": "GrantItem",
                "uuid": "{item|flags.pf2e.rulesSelections.researchField}"
            }
        ],
        "source": {
            "value": "Pathfinder Core Rulebook"
        },
        "traits": {
            "custom": "",
            "rarity": "common",
            "value": [
                "alchemist"
            ]
        }
    },
    "effects": [],
    "flags": {},
    "img": "systems/pf2e/icons/features/classes/choice-feature.webp",
    "name": "Research Field",
    "type": "feat"
}
