{
    "_id": "uGuCGQvUmioFV2Bd",
    "data": {
        "actionCategory": {
            "value": ""
        },
        "actionType": {
            "value": "passive"
        },
        "actions": {
            "value": null
        },
        "description": {
            "value": "<p>As you started on the path of the rogue, you began to develop your own style to pursue your illicit activities. Your racket shapes your rogue techniques and the way you approach a job, while building your reputation in the criminal underworld for a certain type of work. A client with deep pockets might even hire a team of rogues for a particular heist, each specializing in a different racket, in order to cover all the bases. Choose a rogue's racket.</p>"
        },
        "featType": {
            "value": "classfeature"
        },
        "level": {
            "value": 1
        },
        "location": "",
        "prerequisites": {
            "value": []
        },
        "rules": [
            {
                "adjustName": false,
                "allowedDrops": {
                    "all": [
                        "item:trait:rogue",
                        "item:level:1"
                    ],
                    "label": "level 1 Rogue feature"
                },
                "choices": [
                    {
                        "value": "Compendium.pf2e.classfeatures.Eldritch Trickster"
                    },
                    {
                        "value": "Compendium.pf2e.classfeatures.Mastermind"
                    },
                    {
                        "value": "Compendium.pf2e.classfeatures.Ruffian"
                    },
                    {
                        "value": "Compendium.pf2e.classfeatures.Scoundrel"
                    },
                    {
                        "value": "Compendium.pf2e.classfeatures.Thief"
                    }
                ],
                "key": "ChoiceSet",
                "prompt": "Select a Racket."
            },
            {
                "key": "GrantItem",
                "uuid": "{item|flags.pf2e.rulesSelections.roguesRacket}"
            }
        ],
        "source": {
            "value": "Pathfinder Core Rulebook"
        },
        "traits": {
            "custom": "",
            "rarity": "common",
            "value": [
                "rogue"
            ]
        }
    },
    "effects": [],
    "flags": {},
    "img": "systems/pf2e/icons/features/classes/choice-feature.webp",
    "name": "Rogue's Racket",
    "type": "feat"
}
