{
    "_id": "0H4WuqjCxpXX67eK",
    "data": {
        "description": {
            "value": "<p>One of your ancestors becomes predominant in their meddling. The first time you gain this effect each day, roll [[/r 1d4]] on the list below to determine which type of ancestor becomes predominant.</p>\n<p>This predominant ancestor guides you to use their preferred type of action, and you get the major curse benefit listed for your predominant ancestor in the list below. When you try to use one of the types of actions listed for the other ancestors, you must succeed at a DC 8 flat check. On a failure, you spend the action but gain no effect (though you don't lose the spell if you were Casting a Spell). If your action would take 1 minute or longer, it's long enough that you can overcome the meddling, and you don't need to attempt a flat check.</p>\n<p>During combat or another tense, round-by-round encounter, other ancestors wrestle for control of your actions. When you roll initiative, and then at the end of each of your turns during the encounter, roll [[/r 1d4]] and change your predominant ancestor appropriately. Once the encounter ends, you return to the influence of the ancestor you first rolled for the day.</p>\n<h4>Ancestral Influence</h4>\n<ol>\n<li>Martial Ancestor\n<ul>\n<li><strong>Preferred action</strong> Strikes</li>\n</ul>\n</li>\n<li>Skillful Ancestor\n<ul>\n<li><strong>Preferred action</strong> Perception and Skill actions</li>\n<li><strong>Major curse benefit</strong> You gain a +2 status bonus to skill checks and Perception checks.</li>\n</ul>\n</li>\n<li>Spellcasting Ancestor\n<ul>\n<li><strong>Preferred action</strong> Cast a Spell</li>\n</ul>\n</li>\n<li>You choose which ancestor guides your actions</li>\n</ol>\n<hr />\n<p><em>Note: You need to apply the flat check when using another ancestor's preferred action manually. The remaining effects are applied automatically.</em></p>"
        },
        "duration": {
            "expiry": "turn-start",
            "sustained": false,
            "unit": "unlimited",
            "value": -1
        },
        "level": {
            "value": 1
        },
        "rules": [
            {
                "key": "FlatModifier",
                "selector": "skill-check",
                "type": "status",
                "value": 2
            },
            {
                "key": "FlatModifier",
                "selector": "perception",
                "type": "status",
                "value": 2
            }
        ],
        "source": {
            "value": ""
        },
        "start": {
            "initiative": null,
            "value": 0
        },
        "target": null,
        "tokenIcon": {
            "show": true
        },
        "traits": {
            "custom": "",
            "rarity": "common",
            "value": []
        }
    },
    "effects": [],
    "flags": {},
    "img": "systems/pf2e/icons/features/classes/ancestors-mystery.webp",
    "name": "Effect: Major Skillful Ancestor Curse",
    "type": "effect"
}
