{
    "_id": "crF4g9jRN1y84MSD",
    "data": {
        "ability": {
            "value": ""
        },
        "area": {
            "areaType": "cone",
            "value": "60"
        },
        "areasize": {
            "value": "60-foot cone"
        },
        "autoHeightenLevel": {
            "value": null
        },
        "category": {
            "value": "focus"
        },
        "components": {
            "focus": false,
            "material": false,
            "somatic": true,
            "verbal": true
        },
        "cost": {
            "value": ""
        },
        "damage": {
            "value": {
                "0": {
                    "applyMod": false,
                    "type": {
                        "categories": [],
                        "subtype": "",
                        "value": "untyped"
                    },
                    "value": "4d6"
                }
            }
        },
        "description": {
            "value": "<p>You evoke the energy of an Abyssal realm. The damage types of the spell (one energy and one physical) are based on the result of rolling on the table below.</p>\n<h2>Abyssal Wrath</h2>\n<table class=\"pf2-table\">\n<thead>\n<tr>\n<th>[[/r 1D4]]</th>\n<th>Realm</th>\n<th>Manifestation</th>\n<th>Damage and type</th>\n</tr>\n</thead>\n<tbody>\n<tr>\n<td>1</td>\n<td>Skies</td>\n<td>Bolts and lightning and flying debris</td>\n<td>Bludgeoning and electricity</td>\n</tr>\n<tr>\n<td>2</td>\n<td>Depths</td>\n<td>Acid and demonic shells</td>\n<td>Acid and slashing</td>\n</tr>\n<tr>\n<td>3</td>\n<td>Frozen</td>\n<td>Frigid air and ice</td>\n<td>Bludgeoning and cold</td>\n</tr>\n<tr>\n<td>4</td>\n<td>Volcanic</td>\n<td>Jagged volcanic rocks and magma</td>\n<td>Fire and piercing</td>\n</tr>\n</tbody>\n</table>\n<p>You deal 4d6 damage of each of the corresponding damage types to each creature in the cone (8d6 total damage).</p>\n<hr />\n<p><strong>Heightened (+1)</strong> The damage for each type increases by 1d6.</p>"
        },
        "duration": {
            "value": ""
        },
        "hasCounteractCheck": {
            "value": false
        },
        "level": {
            "value": 5
        },
        "location": {
            "value": ""
        },
        "materials": {
            "value": ""
        },
        "prepared": {
            "value": ""
        },
        "primarycheck": {
            "value": ""
        },
        "range": {
            "value": ""
        },
        "rules": [],
        "save": {
            "basic": "basic",
            "value": "reflex"
        },
        "scaling": {
            "damage": {
                "0": "1d6"
            },
            "interval": 1
        },
        "school": {
            "value": "evocation"
        },
        "secondarycasters": {
            "value": ""
        },
        "secondarycheck": {
            "value": ""
        },
        "source": {
            "value": "Pathfinder Core Rulebook"
        },
        "spellType": {
            "value": "save"
        },
        "sustained": {
            "value": false
        },
        "target": {
            "value": ""
        },
        "time": {
            "value": "2"
        },
        "traditions": {
            "value": []
        },
        "traits": {
            "custom": "",
            "rarity": "uncommon",
            "value": [
                "sorcerer"
            ]
        }
    },
    "effects": [],
    "flags": {},
    "img": "systems/pf2e/icons/spells/abyssal-wrath.webp",
    "name": "Abyssal Wrath",
    "type": "spell"
}
