{
    "_id": "X0t0gr7S7CeCt2Q5",
    "data": {
        "ability": {
            "value": ""
        },
        "area": {
            "value": ""
        },
        "areasize": {
            "value": ""
        },
        "category": {
            "value": "ritual"
        },
        "components": {
            "material": false,
            "somatic": false,
            "verbal": false
        },
        "cost": {
            "value": ""
        },
        "damage": {
            "value": {}
        },
        "description": {
            "value": "<p>When casting the modified version of the Anima Invocation, it instead draws upon the latent spiritual energies of sapient creatures within range of the spell without requiring their deaths, then uses this energy to bolster the connection between body and soul among all of the ritual's casters. This shift from an offensive effect to a defensive one results in a much less dangerous spell that helps to protect against Dahak.</p>\n<hr />\n<p><strong>Critical Success</strong> You gain full access to your own potential for 1 day. You gain resistance 10 to all damage and a +4 status bonus to saves against effects created by evil creatures. Your Strikes gain the effects of the @Compendium[pf2e.equipment-srd.Ghost Touch]{Ghost Touch} rune and deal an additional [[/r {1d10}[good]]]{1d10 good damage}. You are immune to the soul-draining effect within Alseta's Landing.</p>\n<p><strong>Success</strong> You tap into your own potential for 1 day. You gain resistance 5 to all damage and a +2 status bonus to saves against effects created by evil creatures. Your Strikes gain the effects of the ghost touch rune and deal an additional [[/r {1}[good]]]{1 good damage}. You are immune to the soul-draining effect within Alseta's Landing.</p>\n<p><strong>Failure</strong> You are unable to tap into your own spiritual essence, but you still gain immunity to the soul-draining effect within Alseta's Landing.</p>\n<p><strong>Critical Failure</strong> You botch the ritual, damaging your own spiritual essence. You gain @Compendium[pf2e.conditionitems.Doomed]{Doomed 1} or increase your doomed condition by 1 if you're already doomed. This doomed value decreases by 1 every week. This is a curse effect.</p>"
        },
        "duration": {
            "value": "1 day"
        },
        "hasCounteractCheck": {
            "value": false
        },
        "level": {
            "value": 10
        },
        "location": {
            "value": "Vz29XsR9yz4BEMgr"
        },
        "materials": {
            "value": ""
        },
        "prepared": {
            "value": ""
        },
        "primarycheck": {
            "value": "Occultism (Legendary)"
        },
        "range": {
            "value": "10 miles"
        },
        "rules": [],
        "save": {
            "basic": "",
            "value": ""
        },
        "school": {
            "value": "abjuration"
        },
        "secondarycasters": {
            "value": "4"
        },
        "secondarycheck": {
            "value": "Arcana, Religion"
        },
        "source": {
            "value": "Pathfinder Secrets of Magic"
        },
        "spellType": {
            "value": "utility"
        },
        "sustained": {
            "value": false
        },
        "target": {
            "value": "Primary and Secondary Casters"
        },
        "time": {
            "value": "1 hour"
        },
        "traditions": {
            "custom": "",
            "value": []
        },
        "traits": {
            "custom": "",
            "rarity": "rare",
            "value": [
                "ritual"
            ]
        }
    },
    "effects": [],
    "flags": {},
    "img": "systems/pf2e/icons/spells/anima-invocation.webp",
    "name": "Anima Invocation (Modified)",
    "type": "spell"
}
