{
    "_id": "My7FvAoLYgGDDBzy",
    "data": {
        "ability": {
            "value": ""
        },
        "area": {
            "areaType": "emanation",
            "value": 10
        },
        "areasize": {
            "value": "10-foot emanation which affects you."
        },
        "category": {
            "value": "spell"
        },
        "components": {
            "material": true,
            "somatic": true,
            "verbal": true
        },
        "cost": {
            "value": ""
        },
        "damage": {
            "value": {}
        },
        "description": {
            "value": "<p>You repel all magic from the target area, preventing spells and other magic from functioning. Spells can't penetrate the area, magic items cease to function within it, and no one inside can cast spells or use magic abilities, including yourself. Likewise, spells - such as <em>@Compendium[pf2e.spells-srd.Dispel Magic]{Dispel Magic}</em> - can't affect the field itself unless they are of a higher level. Magic effects resume the moment they pass outside the field. For example, a ray fired from one side of the field could target a creature on the other side (as long as caster and target are both outside the field). A summoned creature winks out of existence but reappears if the field moves or ends. Invested magic items cease to function, but they remain invested and resume functioning when they exit the field; the ability boost from an apex item isn't suppressed within the field. Spells of a higher level than the <em>antimagic field</em> overcome its effects, and can even be cast by a creature within the field.</p>\n<p>The field disrupts only magic, so a <em>+3 longsword</em> still functions as a longsword. Magically created creatures (such as golems) function normally within an <em>antimagic field</em>.</p>"
        },
        "duration": {
            "value": "sustained up to 1 minute"
        },
        "hasCounteractCheck": {
            "value": false
        },
        "level": {
            "value": 8
        },
        "location": {
            "value": ""
        },
        "materials": {
            "value": ""
        },
        "prepared": {
            "value": ""
        },
        "primarycheck": {
            "value": ""
        },
        "range": {
            "value": ""
        },
        "rules": [],
        "save": {
            "basic": "",
            "value": ""
        },
        "school": {
            "value": "abjuration"
        },
        "secondarycasters": {
            "value": ""
        },
        "secondarycheck": {
            "value": ""
        },
        "source": {
            "value": "Pathfinder Core Rulebook"
        },
        "spellType": {
            "value": "utility"
        },
        "sustained": {
            "value": false
        },
        "target": {
            "value": ""
        },
        "time": {
            "value": "3"
        },
        "traditions": {
            "value": [
                "arcane",
                "divine",
                "occult"
            ]
        },
        "traits": {
            "custom": "",
            "rarity": "rare",
            "value": []
        }
    },
    "effects": [],
    "flags": {},
    "img": "systems/pf2e/icons/spells/antimagic-field.webp",
    "name": "Antimagic Field",
    "type": "spell"
}
