{
    "_id": "LX4pCagYLpc9hEji",
    "data": {
        "ability": {
            "value": ""
        },
        "area": {
            "value": ""
        },
        "areasize": {
            "value": ""
        },
        "category": {
            "value": "spell"
        },
        "components": {
            "material": false,
            "somatic": true,
            "verbal": true
        },
        "cost": {
            "value": ""
        },
        "damage": {
            "value": {}
        },
        "description": {
            "value": "<p>You override a target's olfactory senses, luring them to a specific location through tantalizing false scents. Select a single square within range that is not hazardous or occupied by a creature. The target is drawn to the selected location, becoming euphoric upon arrival. The target must attempt a Will save.</p>\n<hr />\n<p><strong>Critical Success</strong> The target is unaffected.</p>\n<p><strong>Success</strong> The target is distracted by the tantalizing scents, becoming @Compendium[pf2e.conditionitems.Stupefied]{Stupefied 1} for 1 round.</p>\n<p><strong>Failure</strong> The target is @Compendium[pf2e.conditionitems.Stupefied]{Stupefied 2} and moves toward the selected location via the most direct route possible for 1 round, bypassing any obvious hazards and enemies in the way.</p>\n<p><strong>Critical Failure</strong> The target is @Compendium[pf2e.conditionitems.Stupefied]{Stupefied 4} and moves to the selected location via the most direct route possible for 1 round, bypassing any obvious hazards and enemies in the way. If the creature reaches the destination, it must remain in that location for [[/r 1d4 #rounds]]{1d4 rounds} but can otherwise act normally.</p>\n<hr />\n<p><strong>Heightened (+2)</strong> You target 1 additional creature, selecting a different square within range as their destination.</p>"
        },
        "duration": {
            "value": "Varies"
        },
        "hasCounteractCheck": {
            "value": false
        },
        "level": {
            "value": 4
        },
        "location": {
            "value": "5anotCcAECWaOlcZ"
        },
        "materials": {
            "value": ""
        },
        "prepared": {
            "value": ""
        },
        "primarycheck": {
            "value": ""
        },
        "range": {
            "value": "60 feet"
        },
        "rules": [],
        "save": {
            "basic": "",
            "value": "will"
        },
        "school": {
            "value": "enchantment"
        },
        "secondarycasters": {
            "value": ""
        },
        "secondarycheck": {
            "value": ""
        },
        "source": {
            "value": "Pathfinder Lost Omens: Legends"
        },
        "spellType": {
            "value": "attack"
        },
        "sustained": {
            "value": false
        },
        "target": {
            "value": "1 creature"
        },
        "time": {
            "value": "2"
        },
        "traditions": {
            "custom": "",
            "value": [
                "arcane",
                "occult"
            ]
        },
        "traits": {
            "custom": "",
            "rarity": "rare",
            "selected": {
                "emotion": "Emotion",
                "enchantment": "Enchantment",
                "incapacitation": "Incapacitation",
                "mental": "Mental"
            },
            "value": [
                "emotion",
                "incapacitation",
                "mental"
            ]
        }
    },
    "effects": [],
    "flags": {},
    "img": "systems/pf2e/icons/spells/aromatic-lure.webp",
    "name": "Aromatic Lure",
    "type": "spell"
}
