{
    "_id": "1b55SgYTV65JvmQd",
    "data": {
        "ability": {
            "value": ""
        },
        "area": {
            "areaType": "",
            "value": ""
        },
        "autoHeightenLevel": {
            "value": null
        },
        "category": {
            "value": "spell"
        },
        "components": {
            "focus": false,
            "material": false,
            "somatic": false,
            "verbal": false
        },
        "cost": {
            "value": ""
        },
        "damage": {
            "value": {}
        },
        "description": {
            "value": "<p>Channeling forth the power to persevere in the face of adversity, you grant the target the means to deny danger and avoid dire harm. Choose one saving throw: Fortitude, Reflex, or Will. The target gets a +4 status bonus to that saving throw for 1 round. The potency and number of targets of this blessing depend on how many actions you spend when Casting the Spell.</p>\n<p>@Compendium[pf2e.spell-effects.Spell Effect: Blessing of Defiance (Fortitude)]{Spell Effect: Blessing of Defiance (Fortitude)}</p>\n<p>@Compendium[pf2e.spell-effects.Spell Effect: Blessing of Defiance (Reflex)]{Spell Effect: Blessing of Defiance (Reflex)}</p>\n<p>@Compendium[pf2e.spell-effects.Spell Effect: Blessing of Defiance (Will)]{Spell Effect: Blessing of Defiance (Will)}</p>\n<hr />\n<p><span class=\"pf2-icon\">1</span> <strong>(somatic)</strong> The spell targets you or one willing ally within range.</p>\n<p><span class=\"pf2-icon\">2</span> <strong>(verbal)</strong> The spell targets you or one willing ally within range. If you choose Fortitude, the target gains resistance 15 to poison. If you choose Reflex, the target gains a +15-foot status bonus to its Speeds. If you choose Will, the target gains resistance 15 to mental damage.</p>\n<p>@Compendium[pf2e.spell-effects.Spell Effect: Blessing of Defiance (2 Action Fortitude)]{Spell Effect: Blessing of Defiance (2 Action Fortitude)}</p>\n<p>@Compendium[pf2e.spell-effects.Spell Effect: Blessing of Defiance (2 Action Reflex)]{Spell Effect: Blessing of Defiance (2 Action Reflex)}</p>\n<p>@Compendium[pf2e.spell-effects.Spell Effect: Blessing of Defiance (2 Action Will)]{Spell Effect: Blessing of Defiance (2 Action Will)}</p>\n<p><span class=\"pf2-icon\">3</span> <strong>(verbal)</strong> The spell targets you and all willing allies within 30 feet.</p>"
        },
        "duration": {
            "value": "1 round"
        },
        "hasCounteractCheck": {
            "value": false
        },
        "level": {
            "value": 5
        },
        "location": {
            "value": ""
        },
        "materials": {
            "value": ""
        },
        "prepared": {
            "value": ""
        },
        "range": {
            "value": "30 feet"
        },
        "rules": [],
        "save": {
            "basic": "",
            "value": ""
        },
        "school": {
            "value": "abjuration"
        },
        "source": {
            "value": "Pathfinder Secrets of Magic"
        },
        "spellType": {
            "value": "utility"
        },
        "sustained": {
            "value": false
        },
        "target": {
            "value": "varies"
        },
        "time": {
            "value": "1 to 3"
        },
        "traditions": {
            "custom": "",
            "value": [
                "divine",
                "primal"
            ]
        },
        "traits": {
            "custom": "",
            "rarity": "common",
            "value": []
        }
    },
    "effects": [],
    "flags": {},
    "img": "systems/pf2e/icons/spells/blessing-of-defiance.webp",
    "name": "Blessing of Defiance",
    "type": "spell"
}
