{
    "_id": "NhGXgmI3AjkkwnPk",
    "data": {
        "ability": {
            "value": ""
        },
        "area": {
            "value": ""
        },
        "areasize": {
            "value": ""
        },
        "category": {
            "value": "spell"
        },
        "components": {
            "material": false,
            "somatic": false,
            "verbal": true
        },
        "cost": {
            "value": ""
        },
        "damage": {
            "value": {}
        },
        "description": {
            "value": "<p><strong>Trigger</strong> A creature damages you.</p>\n<hr />\n<p>You curse the target with your outrage at being attacked. The effect is determined by the target's Will save.</p>\n<hr />\n<p><strong>C</strong><strong>ritical Success</strong> The target is unaffected.</p>\n<p><strong>Success</strong> The target can't @Compendium[pf2e.conditionitems.Observed]{Observe} you until the end of its turn, and if you're currently Observed by it, you become @Compendium[pf2e.conditionitems.Hidden]{Hidden} to it.</p>\n<p><strong>Failure</strong> As success, and for 1 minute, every time the target damages you, it can't Observe you until the end of its turn.</p>\n<p><strong>Critical Failure</strong> As success, and for an unlimited duration, the first time each round the target damages a creature, it can't Observe that creature until the end of its turn. If it damages several creatures at once, the creature it can't perceive is chosen randomly among those creatures.</p>"
        },
        "duration": {
            "value": "varies"
        },
        "hasCounteractCheck": {
            "value": false
        },
        "level": {
            "value": 6
        },
        "location": {
            "value": ""
        },
        "materials": {
            "value": "A creature damages you"
        },
        "prepared": {
            "value": false
        },
        "primarycheck": {
            "value": ""
        },
        "range": {
            "value": "60 feet"
        },
        "rules": [],
        "save": {
            "basic": "",
            "value": "will"
        },
        "school": {
            "value": "enchantment"
        },
        "secondarycasters": {
            "value": ""
        },
        "secondarycheck": {
            "value": ""
        },
        "source": {
            "value": "Pathfinder Advanced Player's Guide"
        },
        "spellType": {
            "value": "save"
        },
        "sustained": {
            "value": false
        },
        "target": {
            "value": "The triggering creature"
        },
        "time": {
            "value": "reaction"
        },
        "traditions": {
            "value": [
                "divine",
                "occult",
                "primal"
            ]
        },
        "traits": {
            "custom": "",
            "rarity": "common",
            "value": [
                "curse",
                "emotion",
                "incapacitation",
                "mental"
            ]
        }
    },
    "effects": [],
    "flags": {},
    "img": "systems/pf2e/icons/spells/blinding-fury.webp",
    "name": "Blinding Fury",
    "type": "spell"
}
