{
    "_id": "FyOgUkq71LNC143w",
    "data": {
        "ability": {
            "value": ""
        },
        "area": {
            "areaType": "",
            "value": ""
        },
        "autoHeightenLevel": {
            "value": null
        },
        "category": {
            "value": "spell"
        },
        "components": {
            "focus": false,
            "material": false,
            "somatic": true,
            "verbal": false
        },
        "cost": {
            "value": ""
        },
        "damage": {
            "value": {}
        },
        "description": {
            "value": "<p><strong>Trigger</strong> A creature on your plane speaks your private or true name</p>\n<p><strong>Requirements</strong> You know your own true name.</p>\n<hr />\n<p>You learn a private name (but not the true name) of the creature who spoke your name, as well as their precise location, unless they succeed at a Will save to negate the effect. You are aware any time the trigger conditions are met as long as you have the spell prepared or in your repertoire. There is no way to distinguish one trigger of this spell from another without actually casting the spell. This can become a nuisance if you are so famous that your name is regularly on others' lips.</p>"
        },
        "duration": {
            "value": ""
        },
        "hasCounteractCheck": {
            "value": false
        },
        "level": {
            "value": 6
        },
        "location": {
            "value": ""
        },
        "materials": {
            "value": ""
        },
        "range": {
            "value": ""
        },
        "rules": [],
        "save": {
            "basic": "",
            "value": "will"
        },
        "school": {
            "value": "evocation"
        },
        "source": {
            "value": "Pathfinder Secrets of Magic"
        },
        "spellType": {
            "value": "save"
        },
        "sustained": {
            "value": false
        },
        "target": {
            "value": ""
        },
        "time": {
            "value": "Reaction"
        },
        "traditions": {
            "custom": "",
            "value": [
                "arcane",
                "divine",
                "occult",
                "primal"
            ]
        },
        "traits": {
            "custom": "",
            "rarity": "rare",
            "value": []
        }
    },
    "effects": [],
    "flags": {},
    "img": "systems/pf2e/icons/default-icons/spell.svg",
    "name": "Catch Your Name",
    "type": "spell"
}
