{
    "_id": "HMTloW1hvRFJ5Z2D",
    "data": {
        "ability": {
            "value": ""
        },
        "area": {
            "areaType": "emanation",
            "value": "10"
        },
        "areasize": {
            "value": "10-foot emanation"
        },
        "category": {
            "value": "focus"
        },
        "components": {
            "material": false,
            "somatic": true,
            "verbal": true
        },
        "cost": {
            "value": ""
        },
        "damage": {
            "value": {
                "0": {
                    "type": {
                        "categories": [],
                        "value": "negative"
                    },
                    "value": "2d6"
                }
            }
        },
        "description": {
            "value": "<p>Your shadow wriggles before spreading out from you, forming a gateway of clinging, consuming shadow through which the horrors of another plane can barely be seen. The first time each turn you @Compendium[pf2e.actionspf2e.Sustain a Spell]{Sustain the Spell}, the radius increases by 5 feet. Each enemy that enters the area or begins its turn in the area takes [[/r {2d6}[negative]]]{2d6 negative damage} and must attempt a Reflex save.</p>\n<hr />\n<p><strong>Critical Success</strong> The creature is unaffected.</p>\n<p><strong>Success</strong> The creature sinks partially into the shadow, taking half damage and a -5-foot circumstance penalty to its Speeds for as long it remains in the area.</p>\n<p><strong>Failure</strong> As success, but the creature takes full damage and a 10-foot circumstance penalty.</p>\n<p><strong>Critical Failure</strong> The creature is absorbed into the shadows, where it can be seen below the surface; it takes double damage and is @Compendium[pf2e.conditionitems.Immobilized]{Immobilized} for 1 round or until it @Compendium[pf2e.actionspf2e.Escape]{Escapes}.</p>\n<hr />\n<p><strong>Heightened (+1)</strong> The damage increases by [[/r {1d6}[negative]]].</p>"
        },
        "duration": {
            "value": "sustained up to 1 minute"
        },
        "hasCounteractCheck": {
            "value": false
        },
        "level": {
            "value": 5
        },
        "location": {
            "value": ""
        },
        "materials": {
            "value": ""
        },
        "prepared": {
            "value": ""
        },
        "primarycheck": {
            "value": ""
        },
        "range": {
            "value": ""
        },
        "rules": [],
        "save": {
            "basic": "",
            "value": "reflex"
        },
        "scaling": {
            "damage": {
                "0": "1d6"
            },
            "interval": 1
        },
        "school": {
            "value": "evocation"
        },
        "secondarycasters": {
            "value": ""
        },
        "secondarycheck": {
            "value": ""
        },
        "source": {
            "value": "Pathfinder Advanced Player's Guide"
        },
        "spellType": {
            "value": "save"
        },
        "sustained": {
            "value": false
        },
        "target": {
            "value": "enemies in the area"
        },
        "time": {
            "value": "2"
        },
        "traditions": {
            "value": []
        },
        "traits": {
            "custom": "",
            "rarity": "uncommon",
            "value": [
                "shadow",
                "sorcerer"
            ]
        }
    },
    "effects": [],
    "flags": {},
    "img": "systems/pf2e/icons/spells/consuming-darkness.webp",
    "name": "Consuming Darkness",
    "type": "spell"
}
