{
    "_id": "8fEfjvC01gNclDKJ",
    "data": {
        "ability": {
            "value": ""
        },
        "area": {
            "value": ""
        },
        "areasize": {
            "value": "40-foot burst"
        },
        "category": {
            "value": "spell"
        },
        "components": {
            "material": false,
            "somatic": true,
            "verbal": true
        },
        "cost": {
            "value": ""
        },
        "damage": {
            "value": {}
        },
        "description": {
            "value": "<p>You unleash a catastrophic downpour in the area that vanishes an instant later. All flying creatures in the area descend 50 feet or until blocked by the ground or firm surface. Each creature whose descent was blocked by the ground or firm surface takes bludgeoning damage equal to the number of feet it fell (the creature does not also take falling damage) and is knocked @Compendium[pf2e.conditionitems.Prone]{Prone}. Creatures on the ground, including flying creatures forced to the ground by the spell, must succeed at a Reflex save or be pushed 50 feet away from the center of the area.</p>\n<p>Flimsy structures in the area collapse. The GM can determine other large-scale effects that result from the deluge.</p>\n<hr />\n<p><strong>Heightened (+1)</strong> The area increases by 10 feet, and flying creatures fall an additional 10 feet.</p>"
        },
        "duration": {
            "value": ""
        },
        "hasCounteractCheck": {
            "value": false
        },
        "level": {
            "value": 8
        },
        "location": {
            "value": "Vz29XsR9yz4BEMgr"
        },
        "materials": {
            "value": ""
        },
        "prepared": {
            "value": ""
        },
        "primarycheck": {
            "value": ""
        },
        "range": {
            "value": "500 feet"
        },
        "rules": [],
        "save": {
            "basic": "",
            "value": "reflex"
        },
        "school": {
            "value": "evocation"
        },
        "secondarycasters": {
            "value": ""
        },
        "secondarycheck": {
            "value": ""
        },
        "source": {
            "value": "Pathfinder #156: The Apocalypse Prophet"
        },
        "spellType": {
            "value": "save"
        },
        "sustained": {
            "value": false
        },
        "target": {
            "value": ""
        },
        "time": {
            "value": "2"
        },
        "traditions": {
            "custom": "",
            "value": [
                "arcane",
                "primal"
            ]
        },
        "traits": {
            "custom": "",
            "rarity": "uncommon",
            "value": [
                "water"
            ]
        }
    },
    "effects": [],
    "flags": {},
    "img": "systems/pf2e/icons/spells/deluge.webp",
    "name": "Deluge",
    "type": "spell"
}
