{
    "_id": "D8cWhrzcsd43OlIX",
    "data": {
        "ability": {
            "value": ""
        },
        "area": {
            "areaType": "",
            "value": null
        },
        "areasize": {
            "value": ""
        },
        "category": {
            "value": "ritual"
        },
        "components": {
            "material": false,
            "somatic": false,
            "verbal": false
        },
        "cost": {
            "value": ""
        },
        "damage": {
            "value": {}
        },
        "description": {
            "value": "<p>You call upon the powers of Abaddon to grant you the assistance of a div. You call upon a div whose level can be no more than double <em>div pact's </em>spell level, two divs whose levels are each at least 2 less than double the spell level, or three divs whose levels are each at least 3 less than double the spell level.</p>\n<hr />\n<p><strong>Critical Success</strong> You conjure the div or divs, and they require nothing in return for their service.</p>\n<p><strong>Success</strong> You conjure the div or divs. They are not eager to pursue the task, so they require a favor in return.</p>\n<p><strong>Failure</strong> you don't conjure any divs.</p>\n<p><strong>Critical Failure</strong> You don't conjure any divs, and they send a spiritual backlash that denies your use of any of your innate divine spells for 24 hours. If you are under the effect of any of your innate divine spells, the durations end.</p>"
        },
        "duration": {
            "value": ""
        },
        "hasCounteractCheck": {
            "value": false
        },
        "level": {
            "value": 1
        },
        "location": {
            "value": ""
        },
        "materials": {
            "value": ""
        },
        "prepared": {
            "value": ""
        },
        "primarycheck": {
            "value": "Religion (expert; you must be a div)"
        },
        "range": {
            "value": ""
        },
        "rules": [],
        "save": {
            "basic": "",
            "value": ""
        },
        "school": {
            "value": "conjuration"
        },
        "secondarycasters": {
            "value": ""
        },
        "secondarycheck": {
            "value": ""
        },
        "source": {
            "value": "Pathfinder Bestiary 3"
        },
        "spellType": {
            "value": "utility"
        },
        "sustained": {
            "value": false
        },
        "target": {
            "value": ""
        },
        "time": {
            "value": "1 day"
        },
        "traditions": {
            "custom": "",
            "value": []
        },
        "traits": {
            "custom": "",
            "rarity": "uncommon",
            "value": []
        }
    },
    "effects": [],
    "flags": {},
    "img": "systems/pf2e/icons/spells/abyssal-pact.webp",
    "name": "Div Pact",
    "type": "spell"
}
