{
    "_id": "ilGsyGLGjjIPHbyP",
    "data": {
        "ability": {
            "value": ""
        },
        "area": {
            "areaType": "",
            "value": ""
        },
        "areasize": {
            "value": ""
        },
        "autoHeightenLevel": {
            "value": null
        },
        "category": {
            "value": "focus"
        },
        "components": {
            "focus": false,
            "material": false,
            "somatic": false,
            "verbal": true
        },
        "cost": {
            "value": ""
        },
        "damage": {
            "value": {}
        },
        "description": {
            "value": "<p>Devil horns grow from your skull, and your skin takes on features of the devil responsible for your diabolic bloodline. You gain resistance 5 to evil, fire, and poison, and resistance 1 to physical damage (except silver). You can take good damage, even if you aren't evil, and you gain weakness 5 to good damage.</p>\n<p>@Compendium[pf2e.spell-effects.Spell Effect: Embrace the Pit]{Spell Effect: Embrace the Pit}</p>\n<hr />\n<p><strong>Heightened (+2)</strong> The resistance to evil, fire, and poison increases by 5, the resistance to physical damage (except silver) by 2, and the weakness to good damage by 5.</p>"
        },
        "duration": {
            "value": "1 minute"
        },
        "hasCounteractCheck": {
            "value": false
        },
        "level": {
            "value": 3
        },
        "location": {
            "value": ""
        },
        "materials": {
            "value": ""
        },
        "prepared": {
            "value": ""
        },
        "primarycheck": {
            "value": ""
        },
        "range": {
            "value": ""
        },
        "rules": [],
        "save": {
            "basic": "",
            "value": ""
        },
        "school": {
            "value": "transmutation"
        },
        "secondarycasters": {
            "value": ""
        },
        "secondarycheck": {
            "value": ""
        },
        "source": {
            "value": "Pathfinder Core Rulebook"
        },
        "spellType": {
            "value": "utility"
        },
        "sustained": {
            "value": false
        },
        "target": {
            "value": ""
        },
        "time": {
            "value": "1"
        },
        "traditions": {
            "value": []
        },
        "traits": {
            "custom": "",
            "rarity": "uncommon",
            "value": [
                "morph",
                "evil",
                "sorcerer"
            ]
        }
    },
    "effects": [],
    "flags": {},
    "img": "systems/pf2e/icons/spells/embrace-the-pit.webp",
    "name": "Embrace the Pit",
    "type": "spell"
}
