{
    "_id": "2ZPqcM9wNoVnpwkK",
    "data": {
        "ability": {
            "value": ""
        },
        "area": {
            "value": ""
        },
        "areasize": {
            "value": ""
        },
        "category": {
            "value": "spell"
        },
        "components": {
            "material": false,
            "somatic": true,
            "verbal": true
        },
        "cost": {
            "value": ""
        },
        "damage": {
            "value": {}
        },
        "description": {
            "value": "<p>Ghostly manacles launch from your outstretched hand and clasp around the target's limbs, impeding its movements. The target must attempt a Reflex save.</p>\n<hr />\n<p><strong>Critical Success</strong> The target is unaffected.</p>\n<p><strong>Success</strong> The target is @Compendium[pf2e.conditionitems.Clumsy]{Clumsy 1} and takes a -10-foot status penalty to its Speed for 1 round.</p>\n<p><strong>Failure</strong> The target is clumsy 3 and takes a -10-foot status penalty to its Speed for 1 minute.</p>\n<p><strong>Critical Failure</strong> As failure, but the target is also @Compendium[pf2e.conditionitems.Slowed]{Slowed 1} for the duration.</p>"
        },
        "duration": {
            "value": ""
        },
        "hasCounteractCheck": {
            "value": false
        },
        "level": {
            "value": 3
        },
        "location": {
            "value": "Aq01kMb7yAj1VxPX"
        },
        "materials": {
            "value": ""
        },
        "prepared": {
            "value": ""
        },
        "primarycheck": {
            "value": ""
        },
        "range": {
            "value": "60 feet"
        },
        "rules": [],
        "save": {
            "basic": "",
            "value": "reflex"
        },
        "school": {
            "value": "conjuration"
        },
        "secondarycasters": {
            "value": ""
        },
        "secondarycheck": {
            "value": ""
        },
        "source": {
            "value": "Pathfinder #158: Sixty Feet Under"
        },
        "spellType": {
            "value": "save"
        },
        "sustained": {
            "value": false
        },
        "target": {
            "value": "1 creature"
        },
        "time": {
            "value": "2"
        },
        "traditions": {
            "custom": "",
            "value": [
                "arcane",
                "occult"
            ]
        },
        "traits": {
            "custom": "",
            "rarity": "uncommon",
            "selected": {
                "conjuration": "Conjuration",
                "incapacitation": "Incapacitation"
            },
            "value": [
                "incapacitation"
            ]
        }
    },
    "effects": [],
    "flags": {},
    "img": "systems/pf2e/icons/spells/magical-fetters.webp",
    "name": "Magical Fetters",
    "type": "spell"
}
