{
    "_id": "fkDeKktdmbeplYRY",
    "data": {
        "ability": {
            "value": ""
        },
        "area": {
            "areaType": "burst",
            "value": "40"
        },
        "areasize": {
            "value": "40-foot burst"
        },
        "category": {
            "value": "spell"
        },
        "components": {
            "material": false,
            "somatic": true,
            "verbal": true
        },
        "cost": {
            "value": ""
        },
        "damage": {
            "value": {}
        },
        "description": {
            "value": "<p>You surround yourself with supernatural splendor, appearing to be a god or similarly majestic being. You choose the aspects of your new majestic appearance. This causes the targets to pay tribute to you by bowing or using some other action in keeping with your appearance. The number of times a target must do this depends on the result of their Will save. Paying tribute is a manipulate action or move action, as chosen by the creature paying tribute. A creature under this effect must pay tribute to you at least once on each of its turns if possible. While affected by this spell, a creature is @Compendium[pf2e.conditionitems.Fascinated]{Fascinated} by you and can't use hostile actions against you. The target is then temporarily immune for 1 minute.</p>\n<hr /><strong>Critical Success</strong> The target is unaffected.\n<p><strong>Success</strong> The target must pay tribute twice.</p>\n<p><strong>Failure</strong> The target must pay tribute six times.</p>\n<p><strong>Critical Failure</strong> As failure, and the target must spend all its actions paying tribute if possible.</p>"
        },
        "duration": {
            "value": "until full tribute is paid"
        },
        "hasCounteractCheck": {
            "value": false
        },
        "level": {
            "value": 9
        },
        "location": {
            "value": ""
        },
        "materials": {
            "value": ""
        },
        "prepared": {
            "value": ""
        },
        "primarycheck": {
            "value": ""
        },
        "range": {
            "value": ""
        },
        "rules": [],
        "save": {
            "basic": "",
            "value": "will"
        },
        "school": {
            "value": "enchantment"
        },
        "secondarycasters": {
            "value": ""
        },
        "secondarycheck": {
            "value": ""
        },
        "source": {
            "value": "Pathfinder Core Rulebook"
        },
        "spellType": {
            "value": "save"
        },
        "sustained": {
            "value": false
        },
        "target": {
            "value": "any number of creatures"
        },
        "time": {
            "value": "2"
        },
        "traditions": {
            "value": [
                "divine",
                "occult"
            ]
        },
        "traits": {
            "custom": "",
            "rarity": "common",
            "value": [
                "auditory",
                "incapacitation",
                "mental",
                "visual"
            ]
        }
    },
    "effects": [],
    "flags": {},
    "img": "systems/pf2e/icons/spells/overwhelming-presence.webp",
    "name": "Overwhelming Presence",
    "type": "spell"
}
