{
    "_id": "Ovvflf5aFbmBxqq8",
    "data": {
        "ability": {
            "value": ""
        },
        "area": {
            "areaType": "",
            "value": null
        },
        "areasize": {
            "value": ""
        },
        "category": {
            "value": "focus"
        },
        "components": {
            "material": false,
            "somatic": true,
            "verbal": true
        },
        "cost": {
            "value": ""
        },
        "damage": {
            "value": {
                "0": {
                    "type": {
                        "categories": [],
                        "value": "untyped"
                    },
                    "value": "40"
                }
            }
        },
        "description": {
            "value": "<p>Make a melee unarmed Strike. If you hit and the target is alive, anytime during the duration, you can spend a single action, which has the auditory and concentrate traits, to speak a word of death that could instantly slay it. The target must attempt a Fortitude save.</p>\n<p>If you cast quivering palm again, the effects of any quivering palm you had previously cast end.</p>\n<hr />\n<p><strong>Critical Success</strong> The target survives, the spell ends, and the target is then temporarily immune for 24 hours.</p>\n<p><strong>Success</strong> The target is @Compendium[pf2e.conditionitems.Stunned]{Stunned 1} and takes 40 damage, the spell ends, and the target is then temporarily immune for 24 hours.</p>\n<p><strong>Failure</strong> The target is @Compendium[pf2e.conditionitems.Stunned]{Stunned 3} and takes 80 damage. The spell's duration continues, but the target is then temporarily immune for 24 hours against being killed by quivering palm.</p>\n<p><strong>Critical Failure</strong> The target dies.</p>\n<hr />\n<p><strong>Heightened (+1)</strong> The damage increases by 10 on a failure, or 5 on a success.</p>"
        },
        "duration": {
            "value": "1 month"
        },
        "hasCounteractCheck": {
            "value": false
        },
        "level": {
            "value": 8
        },
        "location": {
            "value": ""
        },
        "materials": {
            "value": ""
        },
        "prepared": {
            "value": ""
        },
        "primarycheck": {
            "value": ""
        },
        "range": {
            "value": ""
        },
        "rules": [],
        "save": {
            "basic": "",
            "value": "fortitude"
        },
        "scaling": {
            "damage": {
                "0": "5"
            },
            "interval": 1
        },
        "school": {
            "value": "necromancy"
        },
        "secondarycasters": {
            "value": ""
        },
        "secondarycheck": {
            "value": ""
        },
        "source": {
            "value": "Pathfinder Core Rulebook"
        },
        "spellType": {
            "value": "save"
        },
        "sustained": {
            "value": false
        },
        "target": {
            "value": ""
        },
        "time": {
            "value": "2"
        },
        "traditions": {
            "value": []
        },
        "traits": {
            "custom": "",
            "rarity": "uncommon",
            "value": [
                "incapacitation",
                "monk"
            ]
        }
    },
    "effects": [],
    "flags": {},
    "img": "systems/pf2e/icons/spells/quivering-palm.webp",
    "name": "Quivering Palm",
    "type": "spell"
}
