{
    "_id": "v3vFzGazNSFEDdRB",
    "data": {
        "ability": {
            "value": ""
        },
        "area": {
            "areaType": "burst",
            "value": "20"
        },
        "autoHeightenLevel": {
            "value": null
        },
        "category": {
            "value": "spell"
        },
        "components": {
            "focus": false,
            "material": true,
            "somatic": true,
            "verbal": true
        },
        "cost": {
            "value": ""
        },
        "damage": {
            "value": {}
        },
        "description": {
            "value": "<p>You create an area of bright light. Creatures with @Compendium[pf2e.bestiary-ability-glossary-srd.Light Blindness]{Light Blindness} that are @Compendium[pf2e.conditionitems.Blinded]{Blinded} by <em>radiant field</em> and remain in the area must attempt a Fortitude save at the start of their turns. On a failure, a creature remains blinded for 1 round; this is an incapacitation effect.</p>\n<p>This spell also suppresses magical darkness of your radiant field spell's level or lower.</p>\n<hr />\n<p><strong>Heightened (4th)</strong> Creatures seen through the area are @Compendium[pf2e.conditionitems.Concealed]{Concealed} to creatures with light blindness, even those that are outside the area.</p>"
        },
        "duration": {
            "value": "1 minute"
        },
        "hasCounteractCheck": {
            "value": false
        },
        "level": {
            "value": 2
        },
        "location": {
            "value": ""
        },
        "materials": {
            "value": ""
        },
        "range": {
            "value": "120 feet"
        },
        "rules": [],
        "save": {
            "basic": "",
            "value": "fortitude"
        },
        "school": {
            "value": "evocation"
        },
        "source": {
            "value": "Pathfinder #172: Secrets of the Temple-City"
        },
        "spellType": {
            "value": "save"
        },
        "sustained": {
            "value": false
        },
        "target": {
            "value": ""
        },
        "time": {
            "value": "2"
        },
        "traditions": {
            "custom": "",
            "value": [
                "arcane",
                "divine",
                "occult",
                "primal"
            ]
        },
        "traits": {
            "custom": "",
            "rarity": "uncommon",
            "value": [
                "light"
            ]
        }
    },
    "effects": [],
    "flags": {},
    "img": "systems/pf2e/icons/default-icons/spell.svg",
    "name": "Radiant Field",
    "type": "spell"
}
