{
    "_id": "FSu6ZKxr3xdS75wq",
    "data": {
        "ability": {
            "value": ""
        },
        "area": {
            "areaType": "emanation",
            "value": 30
        },
        "areasize": {
            "value": "30-foot emanation"
        },
        "category": {
            "value": "focus"
        },
        "components": {
            "material": false,
            "somatic": true,
            "verbal": true
        },
        "cost": {
            "value": ""
        },
        "damage": {
            "value": {}
        },
        "description": {
            "value": "<p>You channel the might of dragons into your voice, letting out a roar that engenders respect in dragonkind but that instills fear in most other creatures.</p>\n<p>The impressive roar grants you a @Compendium[pf2e.spell-effects.Spell Effect: Roar of the Wyrm]{+2 circumstance bonus to Diplomacy checks} for 10 minutes against dragons that were in the area at the time of casting. All enemies within the area other than dragons must attempt a Will save; to these enemies, <em>roar of the wyrm</em> is a fear effect.</p>\n<p><em>Roar of the wyrm</em> affects non-dragon creatures with deep ties to dragonkind (such as a barbarian with the draconic instinct, a sorcerer with the draconic bloodline, or a member of a culture that reveres dragons) as if they had the dragon trait. The GM decides if a creature is aligned enough with dragonkind to be affected in this way.</p>\n<hr />\n<p><strong>Critical Success</strong> The creature is unaffected.</p>\n<p><strong>Success</strong> The creature is @Compendium[pf2e.conditionitems.Frightened]{Frightened 1}.</p>\n<p><strong>Failure</strong> The creature is @Compendium[pf2e.conditionitems.Frightened]{Frightened 2}.</p>\n<p><strong>Critical Failure</strong> The creature is @Compendium[pf2e.conditionitems.Frightened]{Frightened 3} and @Compendium[pf2e.conditionitems.Fleeing]{Fleeing} for 1 round.</p>"
        },
        "duration": {
            "value": "varies"
        },
        "hasCounteractCheck": {
            "value": false
        },
        "level": {
            "value": 4
        },
        "location": {
            "value": ""
        },
        "materials": {
            "value": ""
        },
        "prepared": {
            "value": ""
        },
        "primarycheck": {
            "value": ""
        },
        "range": {
            "value": ""
        },
        "rules": [],
        "save": {
            "basic": "",
            "value": "will"
        },
        "school": {
            "value": "enchantment"
        },
        "secondarycasters": {
            "value": ""
        },
        "secondarycheck": {
            "value": ""
        },
        "source": {
            "value": "Pathfinder Lost Omens: Gods & Magic"
        },
        "spellType": {
            "value": "save"
        },
        "sustained": {
            "value": false
        },
        "target": {
            "value": ""
        },
        "time": {
            "value": "2"
        },
        "traditions": {
            "custom": "",
            "value": []
        },
        "traits": {
            "custom": "",
            "rarity": "uncommon",
            "value": [
                "cleric",
                "emotion",
                "fear",
                "mental"
            ]
        }
    },
    "effects": [],
    "flags": {},
    "img": "systems/pf2e/icons/spells/roar-of-the-wyrm.webp",
    "name": "Roar of the Wyrm",
    "type": "spell"
}
