{
    "_id": "5ttAVJbWg2GVKmrN",
    "data": {
        "ability": {
            "value": ""
        },
        "area": {
            "value": ""
        },
        "areasize": {
            "value": ""
        },
        "category": {
            "value": "focus"
        },
        "components": {
            "material": false,
            "somatic": true,
            "verbal": true
        },
        "cost": {
            "value": ""
        },
        "damage": {
            "value": {}
        },
        "description": {
            "value": "<p>You instantly transport yourself from one shadow to another. <em>@Compendium[pf2e.spells-srd.Teleport]{Teleport}</em> yourself and any items you're wearing and holding from your current space to a clear space you can see that's in dim light or darkness and within range. You can transport your familiar with this spell, but if shadow jump would bring any other creature with you-even if you're carrying the creature in an extradimensional container-the spell is disrupted.</p>\n<hr />\n<p><strong>Heightened (8th)</strong> When you arrive at your destination, you can become @Compendium[pf2e.conditionitems.Invisible]{Invisible} until the end of your next turn or until you are no longer in an area of dim light or darkness, whichever comes first. The invisibility is an illusion effect.</p>"
        },
        "duration": {
            "value": ""
        },
        "hasCounteractCheck": {
            "value": false
        },
        "level": {
            "value": 5
        },
        "location": {
            "value": "gj8uSdGt5Fbk1fGz"
        },
        "materials": {
            "value": "You are in dim light or darkness"
        },
        "prepared": {
            "value": ""
        },
        "primarycheck": {
            "value": ""
        },
        "range": {
            "value": "120 feet"
        },
        "rules": [],
        "save": {
            "basic": "",
            "value": ""
        },
        "school": {
            "value": "conjuration"
        },
        "secondarycasters": {
            "value": ""
        },
        "secondarycheck": {
            "value": ""
        },
        "source": {
            "value": "Pathfinder Advanced Player's Guide"
        },
        "spellType": {
            "value": "attack"
        },
        "sustained": {
            "value": false
        },
        "target": {
            "value": ""
        },
        "time": {
            "value": "2"
        },
        "traditions": {
            "value": []
        },
        "traits": {
            "custom": "",
            "rarity": "common",
            "selected": {
                "conjuration": "Conjuration",
                "shadow": "Shadow",
                "teleportation": "Teleportation"
            },
            "value": [
                "shadow",
                "teleportation"
            ]
        }
    },
    "effects": [],
    "flags": {},
    "img": "systems/pf2e/icons/spells/shadow-jump.webp",
    "name": "Shadow Jump",
    "type": "spell"
}
