{
    "_id": "nVfP43Xbs6I1PO8v",
    "data": {
        "ability": {
            "value": ""
        },
        "area": {
            "areaType": "",
            "value": ""
        },
        "autoHeightenLevel": {
            "value": null
        },
        "category": {
            "value": "focus"
        },
        "components": {
            "focus": false,
            "material": false,
            "somatic": false,
            "verbal": true
        },
        "cost": {
            "value": ""
        },
        "damage": {
            "value": {}
        },
        "description": {
            "value": "<p>You let loose a projectile that flies true and leaves the blazing trail of a meteor behind it. Make a ranged Strike, ignoring the target's concealment and reducing the target's cover by one degree for this Strike only (greater to standard, standard to lesser, and lesser to none). If the Strike hits, the meteor trail hangs in the air. This gives the benefits of concealment negation and cover reduction to any attacks made against the creature (by anyone) until the start of your next turn.</p>\n<p data-visibility=\"owner\"><em>Note: Conflux spells refresh Spellstrike.</em></p>"
        },
        "duration": {
            "value": ""
        },
        "hasCounteractCheck": {
            "value": false
        },
        "level": {
            "value": 1
        },
        "location": {
            "value": ""
        },
        "materials": {
            "value": "You're wielding a ranged weapon or a thrown weapon."
        },
        "range": {
            "value": ""
        },
        "rules": [],
        "save": {
            "basic": "",
            "value": ""
        },
        "school": {
            "value": "divination"
        },
        "source": {
            "value": "Pathfinder Secrets of Magic"
        },
        "spellType": {
            "value": "utility"
        },
        "sustained": {
            "value": false
        },
        "target": {
            "value": ""
        },
        "time": {
            "value": "1"
        },
        "traditions": {
            "value": []
        },
        "traits": {
            "custom": "",
            "rarity": "uncommon",
            "value": [
                "magus"
            ]
        }
    },
    "effects": [],
    "flags": {},
    "img": "systems/pf2e/icons/spells/shooting-star.webp",
    "name": "Shooting Star",
    "type": "spell"
}
