{
    "_id": "2EIUqc8TCTQimggQ",
    "data": {
        "ability": {
            "value": ""
        },
        "area": {
            "areaType": "",
            "value": ""
        },
        "autoHeightenLevel": {
            "value": null
        },
        "category": {
            "value": "spell"
        },
        "components": {
            "focus": false,
            "material": true,
            "somatic": true,
            "verbal": true
        },
        "cost": {
            "value": ""
        },
        "damage": {
            "applyMod": false,
            "value": {
                "0": {
                    "applyMod": false,
                    "type": {
                        "categories": [],
                        "subtype": "",
                        "value": "cold"
                    },
                    "value": "10d8"
                }
            }
        },
        "description": {
            "value": "<p>You momentarily summon an army of powerful dragons that unleash annihilating blasts as they descend upon your location. These dragons act as one and collectively occupy the space of a Gargantuan creature. They have a fly Speed of 100 feet. When you Cast this Spell, choose whether it summons chromatic or metallic dragons.</p>\n<p><strong>Arrive</strong> (evocation) <em>Energy Annihilation</em> The draconic legion breathes out two blasts of energy: a @Template[type:line|distance:120] and a @Template[type:cone|distance:60] that can't overlap. Each creature in either of the areas takes 10d8 damage (basic Reflex save). The dragons choose the damage type of each breath weapon, depending on the category of dragons summoned. Chromatic dragons can choose cold, fire, or poison for the cone and acid or electricity for the line; metallic dragons can choose cold or fire for the cone and acid, electricity, or fire for the line.</p>\n<p><strong>Depart</strong> <em>Draconic Whirlwind</em> The draconic legion strikes with fury, dealing [[/r {9d8}[slashing]]]{9d8 slashing damage} (basic Reflex save) to all enemy creatures in its location or within 20 feet.</p>"
        },
        "duration": {
            "value": "until the end of your next turn"
        },
        "hasCounteractCheck": {
            "value": false
        },
        "level": {
            "value": 9
        },
        "location": {
            "value": ""
        },
        "materials": {
            "value": ""
        },
        "range": {
            "value": "100 feet"
        },
        "rules": [],
        "save": {
            "basic": "basic",
            "value": "reflex"
        },
        "school": {
            "value": "conjuration"
        },
        "source": {
            "value": "Pathfinder Secrets of Magic"
        },
        "spellType": {
            "value": "save"
        },
        "sustained": {
            "value": false
        },
        "target": {
            "value": ""
        },
        "time": {
            "value": "3"
        },
        "traditions": {
            "custom": "",
            "value": [
                "arcane"
            ]
        },
        "traits": {
            "custom": "",
            "rarity": "common",
            "value": [
                "incarnate"
            ]
        }
    },
    "effects": [],
    "flags": {},
    "img": "systems/pf2e/icons/spells/summon-draconic-legion.webp",
    "name": "Summon Draconic Legion",
    "type": "spell"
}
