{
    "_id": "zhqnMOVPzVvWSUbC",
    "data": {
        "ability": {
            "value": ""
        },
        "area": {
            "areaType": "",
            "value": ""
        },
        "areasize": {
            "value": ""
        },
        "autoHeightenLevel": {
            "value": null
        },
        "category": {
            "value": "focus"
        },
        "components": {
            "focus": false,
            "material": false,
            "somatic": true,
            "verbal": true
        },
        "cost": {
            "value": ""
        },
        "damage": {
            "value": {}
        },
        "description": {
            "value": "<p>Your body becomes fluid to better suit your surroundings.</p>\n<p>When you cast this spell, choose whether to become air, water, or mist. The spell gains the air trait if you choose air or mist, and the water trait if you choose water or mist.</p>\n<p>You become amorphous, as does your armor. You lose any item bonus to AC and use your proficiency bonus for unarmored defense to determine your AC. You also gain resistance 10 to physical damage and become immune to precision damage. You can slip through tiny cracks and don't need to breathe. You can't cast spells, activate items, or use actions that have the attack or manipulate trait. You also gain the following effects based on your form.</p>\n<ul>\n<li><strong>@Compendium[pf2e.spell-effects.Spell Effect: Tempest Form (Air)]{Air}</strong>\n<ul>\n<li>You gain a Fly Speed of 20 feet and become @Compendium[pf2e.conditionitems.Invisible]{Invisible} while you are in the air.</li>\n<li>You can create the effects of a <em>@Compendium[pf2e.spells-srd.Gust of Wind]{Gust of Wind}</em> from your space as a 2-action activity, which has the manipulate trait.</li>\n</ul>\n</li>\n<li><strong>@Compendium[pf2e.spell-effects.Spell Effect: Tempest Form (Mist)]{Mist}</strong>\n<ul>\n<li>You gain a Fly Speed of 20 feet, and it becomes hard to see through you.</li>\n<li>Any creature on one side of your space who is targeted by a creature on the opposite side is @Compendium[pf2e.conditionitems.Concealed]{Concealed} to the targeting creature.</li>\n</ul>\n</li>\n<li><strong>@Compendium[pf2e.spell-effects.Spell Effect: Tempest Form (Water)]{Water}</strong>\n<ul>\n<li>You gain a Swim Speed of 20 feet and become Invisible while you are in the water.</li>\n<li>You can electrically charge yourself by taking a single action, which has the manipulate trait. If you do, you are no longer Invisible in the water due to electricity indicating your location, but any creature that makes a melee attack against you takes [[/r {1d6}[electricity]]]{1d6 electricity damage}; if it touches you, this is cumulative with the damage from your major curse.</li>\n</ul>\n</li>\n</ul>\n<hr />\n<p><strong>Heightened (+2)</strong> Increase the resistance by 5 and the electricity damage from the charged water form by 1.</p>"
        },
        "duration": {
            "value": "sustained up to 1 minute"
        },
        "hasCounteractCheck": {
            "value": false
        },
        "level": {
            "value": 6
        },
        "location": {
            "value": ""
        },
        "materials": {
            "value": ""
        },
        "prepared": {
            "value": ""
        },
        "primarycheck": {
            "value": ""
        },
        "range": {
            "value": ""
        },
        "rules": [],
        "save": {
            "basic": "",
            "value": ""
        },
        "school": {
            "value": "transmutation"
        },
        "secondarycasters": {
            "value": ""
        },
        "secondarycheck": {
            "value": ""
        },
        "source": {
            "value": "Pathfinder Advanced Player's Guide"
        },
        "spellType": {
            "value": "utility"
        },
        "sustained": {
            "value": false
        },
        "target": {
            "value": ""
        },
        "time": {
            "value": "2"
        },
        "traditions": {
            "custom": "",
            "value": []
        },
        "traits": {
            "custom": "",
            "rarity": "uncommon",
            "value": [
                "cursebound",
                "oracle",
                "polymorph"
            ]
        }
    },
    "effects": [],
    "flags": {},
    "img": "systems/pf2e/icons/spells/tempest-form.webp",
    "name": "Tempest Form",
    "type": "spell"
}
