{
    "_id": "lmHmKGs1N3yNAvln",
    "data": {
        "ability": {
            "value": ""
        },
        "area": {
            "areaType": "",
            "value": ""
        },
        "autoHeightenLevel": {
            "value": null
        },
        "category": {
            "value": "spell"
        },
        "components": {
            "focus": false,
            "material": false,
            "somatic": true,
            "verbal": true
        },
        "cost": {
            "value": ""
        },
        "damage": {
            "value": {}
        },
        "description": {
            "value": "<p>Some practitioners argue this spell literally washes your fortunes of all influences, malign or benign, while others claim it simply cleanses your mind of obsessions about luck and destiny. You adjust your garments, change the posture of your chair, fidget with a religious symbol, or make some other innocuous and personally significant action to wash away bad luck.</p>\n<p>Once during the spell's duration, before rolling a check, you can cancel out a misfortune effect on that roll, as normal when a fortune and misfortune effect apply to the same roll. After canceling out the misfortune effect, the spell ends, and you are then temporarily immune to wash your luck for 10 minutes.</p>"
        },
        "duration": {
            "value": "1 minute"
        },
        "hasCounteractCheck": {
            "value": false
        },
        "level": {
            "value": 1
        },
        "location": {
            "value": ""
        },
        "materials": {
            "value": ""
        },
        "range": {
            "value": ""
        },
        "rules": [],
        "save": {
            "basic": "",
            "value": ""
        },
        "school": {
            "value": "abjuration"
        },
        "source": {
            "value": "Pathfinder Secrets of Magic"
        },
        "spellType": {
            "value": "utility"
        },
        "sustained": {
            "value": false
        },
        "target": {
            "value": ""
        },
        "time": {
            "value": "2"
        },
        "traditions": {
            "custom": "",
            "value": [
                "divine",
                "occult"
            ]
        },
        "traits": {
            "custom": "",
            "rarity": "common",
            "value": [
                "cantrip",
                "fortune"
            ]
        }
    },
    "effects": [],
    "flags": {},
    "img": "systems/pf2e/icons/spells/wash-your-luck.webp",
    "name": "Wash Your Luck",
    "type": "spell"
}
