{
    "_id": "XoamInggkxLh6Zo0",
    "data": {
        "actionCategory": {
            "value": ""
        },
        "actionType": {
            "value": "passive"
        },
        "actions": {
            "value": null
        },
        "description": {
            "value": "<p><strong>[Slotless]</strong></p>\n<p><strong>Prerequisites</strong><strong></strong> Tier 1 with the Grand Archive</p>\n<p><strong>Cost</strong> 0 Fame</p>\n<p><strong>Effect</strong> Prestigious institutions across Golarion periodically host conferences where eminent scholars can present their discoveries, and you enhance your own profile when attending these events. When you play or GM an adventure at a Paizo Organized Play event designated as Premium or Premium Plus, you earn 2 additional Fame and Reputation with the Grand Archive faction.</p>\n<p><strong>Special</strong> You can benefit from this boon only a number of times equal to your current Reputation Tier with the Grand Archive faction. Each time you fulfill the requirements of this boon, mark it on your Chronicle sheet along with the associated Reputation Tier. Have the GM sign beside this notation.</p>"
        },
        "featType": {
            "value": "pfsboon"
        },
        "level": {
            "value": 0
        },
        "prerequisites": {
            "value": []
        },
        "rules": [],
        "source": {
            "value": ""
        },
        "traits": {
            "custom": "",
            "rarity": "common",
            "value": []
        }
    },
    "effects": [],
    "flags": {},
    "img": "systems/pf2e/icons/default-icons/mystery-man.webp",
    "name": "Academic Conference",
    "type": "feat"
}
