{
    "_id": "gdkQ04RgMJZ0QxbZ",
    "data": {
        "actionCategory": {
            "value": ""
        },
        "actionType": {
            "value": "passive"
        },
        "actions": {
            "value": null
        },
        "description": {
            "value": "<p><strong>[Downtime]</strong></p>\n<p><strong>Prerequisites</strong><strong></strong> Tier 2 with the Envoy's Alliance</p>\n<p><strong>Cost</strong> 4 Fame</p>\n<p><strong>Effect</strong> When you Craft during Downtime, you do not need to spend 4 days at work before attempting a Crafting check. However, your fellow faction members expect your assistance in return. After slotting this boon to reduce the time needed to Craft an item, you must keep it slotted until you have finished crafting that item.</p>"
        },
        "featType": {
            "value": "pfsboon"
        },
        "level": {
            "value": 0
        },
        "prerequisites": {
            "value": []
        },
        "rules": [],
        "source": {
            "value": ""
        },
        "traits": {
            "custom": "",
            "rarity": "common",
            "value": []
        }
    },
    "effects": [],
    "flags": {},
    "img": "systems/pf2e/icons/default-icons/mystery-man.webp",
    "name": "Crafter's Workshop",
    "type": "feat"
}
