{
    "_id": "cjjRFoOE1GtjEA3F",
    "data": {
        "actionCategory": {
            "value": ""
        },
        "actionType": {
            "value": "passive"
        },
        "actions": {
            "value": null
        },
        "description": {
            "value": "<p><strong>[Promotional]</strong></p>\n<p><strong>Prerequisites</strong> Have a campaign coin. Volunteers who make exceptional contributions to Organized Play can earn campaign coins as a recognition of their hard work.</p>\n<p><strong>Cost</strong> 0 Fame</p>\n<p><strong>Effect</strong> If you have a campaign coin, you gain a bonus Hero Point at the beginning of every adventure. In addition to the normal powers of a Hero Point, you can spend this special Hero Point to allow another player to reroll a check.</p>\n<p><strong>Special</strong> A PC can only slot one promotional boon at a time.</p>"
        },
        "featType": {
            "value": "pfsboon"
        },
        "level": {
            "value": 0
        },
        "prerequisites": {
            "value": []
        },
        "rules": [],
        "source": {
            "value": ""
        },
        "traits": {
            "custom": "",
            "rarity": "common",
            "value": []
        }
    },
    "effects": [],
    "flags": {},
    "img": "systems/pf2e/icons/default-icons/mystery-man.webp",
    "name": "Promotional Service Award",
    "type": "feat"
}
