{
    "_id": "0izXWwYqRGQq74mG",
    "data": {
        "actionCategory": {
            "value": ""
        },
        "actionType": {
            "value": "passive"
        },
        "actions": {
            "value": null
        },
        "description": {
            "value": "<p><strong>[Generic]</strong></p>\n<p><strong>Effect</strong> You chose to deliver the undead Marcon Tinol to Venture‑Captain Drandle Dreng, trusting in the experienced Pathfinder's ability to deal with the undead safely. This boon will have unique benefits and consequences when slotted in a future scenario.</p>"
        },
        "featType": {
            "value": "pfsboon"
        },
        "level": {
            "value": 0
        },
        "prerequisites": {
            "value": []
        },
        "rules": [],
        "source": {
            "value": ""
        },
        "traits": {
            "custom": "",
            "rarity": "common",
            "value": []
        }
    },
    "effects": [],
    "flags": {},
    "img": "systems/pf2e/icons/default-icons/mystery-man.webp",
    "name": "S1-07 - Blast from the Past",
    "type": "feat"
}
