{
    "_id": "fTndDUqUDSVXM0Qm",
    "data": {
        "actionCategory": {
            "value": ""
        },
        "actionType": {
            "value": "passive"
        },
        "actions": {
            "value": null
        },
        "description": {
            "value": "<p><strong>[Generic]</strong></p>\n<p><strong>Effect</strong> You refused to release the ghost of Diggen Thrune and instead turned the captive spirit over to Zarta Dralneen at the Grand Lodge. This boon will have a special effect in a future scenario.</p>"
        },
        "featType": {
            "value": "pfsboon"
        },
        "level": {
            "value": 0
        },
        "prerequisites": {
            "value": []
        },
        "rules": [],
        "source": {
            "value": ""
        },
        "traits": {
            "custom": "",
            "rarity": "common",
            "value": []
        }
    },
    "effects": [],
    "flags": {},
    "img": "systems/pf2e/icons/default-icons/mystery-man.webp",
    "name": "S1-11 - Diggen the Liar",
    "type": "feat"
}
