{
    "_id": "M1flDLvjKBH9QPcx",
    "data": {
        "actionCategory": {
            "value": ""
        },
        "actionType": {
            "value": "passive"
        },
        "actions": {
            "value": null
        },
        "description": {
            "value": "<p><strong>[Social]</strong></p>\n<p><strong>Prerequisites</strong> Tier 2 with the Horizon Hunters</p>\n<p><strong>Cost</strong> 4 Fame</p>\n<p><strong>Effect</strong> Word of your skill and expertise is spreading, and you find that increasingly prestigious clients are prepared to pay for your services. When using Downtime to Earn Income, you can choose to attempt a task of your level.</p>\n<p><strong>Normal</strong> When Earning Income, a PC can attempt a task of their level - 2 or lower.</p>"
        },
        "featType": {
            "value": "pfsboon"
        },
        "level": {
            "value": 0
        },
        "prerequisites": {
            "value": []
        },
        "rules": [],
        "source": {
            "value": ""
        },
        "traits": {
            "custom": "",
            "rarity": "common",
            "value": []
        }
    },
    "effects": [],
    "flags": {},
    "img": "systems/pf2e/icons/default-icons/mystery-man.webp",
    "name": "Storied Talent",
    "type": "feat"
}
