{
    "_id": "SxUBWlQj6BT5g4Rw",
    "data": {
        "actionCategory": {
            "value": ""
        },
        "actionType": {
            "value": "passive"
        },
        "actions": {
            "value": null
        },
        "description": {
            "value": "<p><strong>[Slotless]</strong></p>\n<p><strong>Prerequisites</strong> Tier 0 with any faction</p>\n<p><strong>Cost</strong> 2 Fame</p>\n<p><strong>Effect</strong> To guide your path, your faction has secured a wayfi nder for you to carry on your journeys and serve as a badge of office in the Pathfinder Society. This wayfinder has an effective sale price of 0 gp.</p>"
        },
        "featType": {
            "value": "pfsboon"
        },
        "level": {
            "value": 0
        },
        "prerequisites": {
            "value": []
        },
        "rules": [],
        "source": {
            "value": ""
        },
        "traits": {
            "custom": "",
            "rarity": "common",
            "value": []
        }
    },
    "effects": [],
    "flags": {},
    "img": "systems/pf2e/icons/default-icons/mystery-man.webp",
    "name": "Wayfinder",
    "type": "feat"
}
