{
    "_id": "YDRiP7uVvr9WRhOI",
    "data": {
        "abilityBoostLevels": {
            "value": [
                5,
                10,
                15,
                20
            ]
        },
        "ancestryFeatLevels": {
            "value": [
                1,
                5,
                9,
                13,
                17
            ]
        },
        "attacks": {
            "advanced": 0,
            "martial": 1,
            "other": {
                "name": "",
                "rank": 0
            },
            "simple": 1,
            "unarmed": 1
        },
        "classDC": 1,
        "classFeatLevels": {
            "value": [
                1,
                2,
                4,
                6,
                8,
                10,
                12,
                14,
                16,
                18,
                20
            ]
        },
        "defenses": {
            "heavy": 0,
            "light": 1,
            "medium": 1,
            "unarmored": 1
        },
        "description": {
            "value": "<p><em>Rage consumes you in battle. You delight in wreaking havoc and using powerful weapons to carve through your enemies, relying on astonishing durability without needing complicated techniques or rigid training. Your rages draw upon a vicious instinct, which you might associate with an animal, a spirit, or some part of yourself. To many barbarians, brute force is a hammer and every problem looks like a nail, whereas others try to hold back the storm of emotions inside them and release their rage only when it matters most.</em></p>\n<p><strong>Key Ability: STRENGTH</strong></p>\n<p>At 1st level, your class gives you an ability boost to Strength.</p>\n<p><strong>Hit Points: 12 plus your Constitution modifier</strong></p>\n<p>You increase your maximum number of HP by this number at 1st level and every level thereafter.</p>\n<h1>Roleplaying the Barbarian</h1>\n<h2>During Combat Encounters...</h2>\n<p>You summon your rage and rush to the front lines to smash your way through. Offense is your best defense-you'll need to drop foes before they can exploit your relatively low defenses.</p>\n<h2>During Social Encounters...</h2>\n<p>You use intimidation to get what you need, especially when gentler persuasion can't get the job done.</p>\n<h2>While Exploring...</h2>\n<p>You look out for danger, ready to rush headfirst into battle in an instant. You climb the challenging rock wall and drop a rope for others to follow, and you wade into the risky currents to reach the hidden switch beneath the water's surface. If something needs breaking, you're up to the task!</p>\n<h2>In Downtime...</h2>\n<p>You might head to a tavern to carouse, build up the fearsome legend of your mighty deeds, or recruit followers to become a warlord in your own right.</p>\n<h2>You Might...</h2>\n<ul>\n<li>Have a deep-seated well of anger, hatred, or frustration.</li>\n<li>Prefer a straightforward approach to one requiring patience and tedium.</li>\n<li>Engage in a regimen of intense physical fitness-and punch anyone who says this conflicts with your distaste for patience and tedium.</li>\n</ul>\n<h2>Others Probably...</h2>\n<ul>\n<li>Rely on your courage and your strength, and trust that you can hold your own in a fight.</li>\n<li>See you as uncivilized or a boorish lout unfit for high society.</li>\n<li>Believe that you are loyal to your friends and allies and will never relent until the fight is done.</li>\n</ul>\n<h1>Initial Proficiencies</h1>\n<p>At 1st level, you gain the listed proficiency ranks in the following statistics. You are untrained in anything not listed unless you gain a better proficiency rank in some other way.</p>\n<h2>Perception</h2>\n<p>Expert in Perception</p>\n<h2>Saving Throws</h2>\n<p>Expert in Fortitude</p>\n<p>Trained in Reflex</p>\n<p>Expert in Will</p>\n<h2>Skills</h2>\n<p>Trained in Athletics</p>\n<p>Trained in a number of additional skills equal to 3 plus your Intelligence modifier</p>\n<h2>Attacks</h2>\n<p>Trained in simple weapons</p>\n<p>Trained in martial weapons</p>\n<p>Trained in unarmed attacks</p>\n<h2>Defenses</h2>\n<p>Trained in light armor</p>\n<p>Trained in medium armor</p>\n<p>Trained in unarmored defense</p>\n<h2>Class DC</h2>\n<p>Trained in barbarian class DC</p>\n<h1>Class Features</h1>\n<p>You gain these features as a Barbarian. Abilities gained at higher levels list the levels at which you gain them next to the features' names.</p>\n<table class=\"pf2-table\">\n<thead>\n<tr>\n<th>Your Level</th>\n<th>Class Features</th>\n</tr>\n</thead>\n<tbody>\n<tr>\n<td>1</td>\n<td>Ancestry and background, initial proficiencies, rage, instinct, barbarian feat</td>\n</tr>\n<tr>\n<td>2</td>\n<td>Barbarian feat, skill feat</td>\n</tr>\n<tr>\n<td>3</td>\n<td>Deny advantage, general feat, skill increase</td>\n</tr>\n<tr>\n<td>4</td>\n<td>Barbarian feat, skill feat</td>\n</tr>\n<tr>\n<td>5</td>\n<td>Ability boosts, ancestry feat, brutality, skill increase</td>\n</tr>\n<tr>\n<td>6</td>\n<td>Barbarian feat, skill feat</td>\n</tr>\n<tr>\n<td>7</td>\n<td>General feat, juggernaut, skill increase, weapon specialization</td>\n</tr>\n<tr>\n<td>8</td>\n<td>Barbarian feat, skill feat</td>\n</tr>\n<tr>\n<td>9</td>\n<td>Ancestry feat, lightning reflexes, raging resistance, skill increase</td>\n</tr>\n<tr>\n<td>10</td>\n<td>Ability boosts, barbarian feat, skill feat</td>\n</tr>\n<tr>\n<td>11</td>\n<td>General feat, mighty rage, skill increase</td>\n</tr>\n<tr>\n<td>12</td>\n<td>Barbarian feat, skill feat</td>\n</tr>\n<tr>\n<td>13</td>\n<td>Ancestry feat, greater juggernaut, medium armor expertise, skill increase, weapon fury</td>\n</tr>\n<tr>\n<td>14</td>\n<td>Barbarian feat, skill feat</td>\n</tr>\n<tr>\n<td>15</td>\n<td>Ability boosts, general feat, greater weapon specialization, indomitable will, skill increase</td>\n</tr>\n<tr>\n<td>16</td>\n<td>Barbarian feat, skill feat</td>\n</tr>\n<tr>\n<td>17</td>\n<td>Ancestry feat, heightened senses, skill increase, quick rage</td>\n</tr>\n<tr>\n<td>18</td>\n<td>Barbarian feat, skill feat</td>\n</tr>\n<tr>\n<td>19</td>\n<td>Armor of fury, devastator, general feat, skill increase</td>\n</tr>\n<tr>\n<td>20</td>\n<td>Ability boosts, barbarian feat, skill feat</td>\n</tr>\n</tbody>\n</table>\n<h2>Ancestry and Background</h2>\n<p>In addition to the abilities provided by your class at 1st level, you have the benefits of your selected ancestry and background.</p>\n<h2>Barbarian Feats</h2>\n<p>At 1st level and every even-numbered level thereafter, you gain a barbarian class feat.</p>\n<h2>Initial Proficiencies</h2>\n<p>At 1st level you gain a number of proficiencies that represent your basic training. These proficiencies are noted in at the start of this class.</p>\n<h2>Instinct</h2>\n<p>Your rage wells up from a dominant instinct-one you learned from a tradition or that comes naturally to you. Your instinct gives you an ability, requires you to avoid certain behaviors, grants you increased damage and resistances at higher levels, and allows you to select feats tied to your instinct.</p>\n<p>Instincts can be found here: @Compendium[pf2e.classfeatures.Animal Instinct]{Animal Instinct}, @Compendium[pf2e.classfeatures.Dragon Instinct]{Dragon Instinct}, @Compendium[pf2e.classfeatures.Fury Instinct]{Fury Instinct}, @Compendium[pf2e.classfeatures.Giant Instinct]{Giant Instinct}, @Compendium[pf2e.classfeatures.Spirit Instinct]{Spirit Instinct}, and @Compendium[pf2e.classfeatures.Superstition Instinct]{Superstition Instinct}.</p>\n<h2>Rage</h2>\n<p>You gain the Rage action, which lets you fly into a frenzy.</p>\n<h3>@Compendium[pf2e.actionspf2e.Rage]{Rage} <span class=\"pf2-icon\">A</span></h3>\n<p><strong>Requirements</strong> You aren't fatigued or raging.</p>\n<hr />\n<p>You tap into your inner fury and begin raging. You gain a number of temporary Hit Points equal to your level plus your Constitution modifier. This frenzy lasts for 1 minute, until there are no enemies you can perceive, or until you fall unconscious, whichever comes first. You can't voluntarily stop raging. While you are raging:</p>\n<ul>\n<li>You deal 2 additional damage with melee weapons and unarmed attacks. This additional damage is halved if your weapon or unarmed attack is agile.</li>\n<li>You take a -1 penalty to AC.</li>\n<li>You can't use actions with the concentrate trait unless they also have the rage trait. You can Seek while raging.</li>\n</ul>\n<p>After you stop raging, you lose any remaining temporary Hit Points from Rage, and you can't Rage again for 1 minute.</p>\n<h2>Skill Feats<span style=\"float: right;\">Level 2</span></h2>\n<p>At 2nd level and every 2 levels thereafter, you gain a skill feat. You must be trained or better in the corresponding skill to select a skill feat.</p>\n<h2>Deny Advantage<span style=\"float: right;\">Level 3</span></h2>\n<p>Your foes struggle to pass your defenses. You aren't flat-footed to hidden, undetected, or flanking creatures of your level or lower, or creatures of your level or lower using surprise attack. However, they can still help their allies flank.</p>\n<h2>General Feats<span style=\"float: right;\">Level 3</span></h2>\n<p>At 3rd level and every 4 levels thereafter, you gain a general feat.</p>\n<h2>Skill Increases<span style=\"float: right;\">Level 3</span></h2>\n<p>At 3rd level and every 2 levels thereafter, you gain a skill increase. You can use this increase either to increase your proficiency rank to trained in one skill you're untrained in, or to increase your proficiency rank in one skill in which you're already trained to expert.</p>\n<p>At 7th level, you can use skill increases to increase your proficiency rank to master in a skill in which you're already an expert, and at 15th level, you can use them to increase your proficiency rank to legendary in a skill in which you're already a master.</p>\n<h2>Ability Boosts<span style=\"float: right;\">Level 5</span></h2>\n<p>At 5th level and every 5 levels thereafter, you boost four different ability scores. You can use these ability boosts to increase your ability scores above 18. Boosting an ability score increases it by 1 if it's already 18 or above, or by 2 if it starts below 18.</p>\n<h2>Ancestry Feats<span style=\"float: right;\">Level 5</span></h2>\n<p>In addition to the ancestry feat you started with, you gain an ancestry feat at 5th level and every 4 levels thereafter.</p>\n<h2>Brutality<span style=\"float: right;\">Level 5</span></h2>\n<p>Your fury makes your weapons lethal. Your proficiency ranks for simple weapons, martial weapons, and unarmed attacks increase to expert. While raging, you gain access to the critical specialization effects for melee weapons and unarmed attacks.</p>\n<h2>Juggernaut<span style=\"float: right;\">Level 7</span></h2>\n<p>Your body is accustomed to physical hardship and resistant to ailments. Your proficiency rank for Fortitude saves increases to master. When you roll a success on a Fortitude save, you get a critical success instead.</p>\n<h2>Weapon Specialization<span style=\"float: right;\">Level 7</span></h2>\n<p>Your rage helps you hit harder. You deal an additional 2 damage with weapons and unarmed attacks in which you have expert proficiency. This damage increases to 3 if you're a master, and 4 if you're legendary. You gain your instinct's specialization ability.</p>\n<p>See specific instincts for more information.</p>\n<h2>Lightning Reflexes<span style=\"float: right;\">Level 9</span></h2>\n<p>Your reflexes are lightning fast. Your proficiency rank for Reflex saves increases to expert.</p>\n<h2>Raging Resistance<span style=\"float: right;\">Level 9</span></h2>\n<p>Repeated exposure and toughened skin allow you to fend off harm. While raging, you gain resistance equal to 3 + your Constitution modifier to damage types based on your instinct.</p>\n<p>See specific instincts for more information.</p>\n<h2>Mighty Rage<span style=\"float: right;\">Level 11</span></h2>\n<p>Your rage intensifies and lets you burst into action. Your proficiency rank for your barbarian class DC increases to expert. You gain the Mighty Rage free action.</p>\n<h3>@Compendium[pf2e.actionspf2e.Mighty Rage]{Mighty Rage} <span class=\"pf2-icon\">F</span></h3>\n<p><strong>Trigger</strong> You use the Rage action on your turn.</p>\n<hr />\n<p>Use an action that has the rage trait. Alternatively, you can increase the actions of the triggering Rage to 2 to instead use a 2-action activity with the rage trait.</p>\n<h2>Greater Juggernaut<span style=\"float: right;\">Level 13</span></h2>\n<p>You have a stalwart physiology. Your proficiency rank for Fortitude saves increases to legendary. When you roll a critical failure on a Fortitude save, you get a failure instead. When you roll a failure on a Fortitude save against an effect that deals damage, you halve the damage you take.</p>\n<h2>Medium Armor Expertise<span style=\"float: right;\">Level 13</span></h2>\n<p>You've learned to defend yourself better against attacks. Your proficiency ranks for light armor, medium armor, and unarmored defense increase to expert.</p>\n<h2>Weapon Fury<span style=\"float: right;\">Level 13</span></h2>\n<p>Your rage makes you even more effective with the weapons you wield. Your proficiency ranks for simple weapons, martial weapons, and unarmed attacks increase to master.</p>\n<h2>Greater Weapon Specialization<span style=\"float: right;\">Level 15</span></h2>\n<p>The weapons you've mastered become truly fearsome in your hands. Your damage from weapon specialization increases to 4 with weapons and unarmed attacks in which you're an expert, 6 if you're a master, and 8 if you're legendary. You gain a greater benefit from your instinct's specialization ability.</p>\n<p>See specific instincts for more information.</p>\n<h2>Indomitable Will<span style=\"float: right;\">Level 15</span></h2>\n<p>Your rage makes it difficult to control you. Your proficiency rank for Will saves increases to master. When you roll a success on a Will save, you get a critical success instead.</p>\n<h2>Heightened Senses<span style=\"float: right;\">Level 17</span></h2>\n<p>Your instinct heightens each of your senses further. Your proficiency rank for Perception increases to master.</p>\n<h2>Quick Rage<span style=\"float: right;\">Level 17</span></h2>\n<p>You recover from your Rage quickly, and are soon ready to begin anew. After you spend a full turn without raging, you can Rage again without needing to wait 1 minute.</p>\n<h2>Armor of Fury<span style=\"float: right;\">Level 19</span></h2>\n<p>Your training and rage deepen your connection to your armor. Your proficiency ranks for light armor, medium armor, and unarmored defense increase to master.</p>\n<h2>Devastator<span style=\"float: right;\">Level 19</span></h2>\n<p>Your Strikes are so devastating that you hardly care about resistance, and your barbarian abilities are unparalleled. Your proficiency rank for your barbarian class DC increases to master. Your melee Strikes ignore 10 points of a creature's resistance to their physical damage.</p>"
        },
        "generalFeatLevels": {
            "value": [
                3,
                7,
                11,
                15,
                19
            ]
        },
        "hp": 12,
        "items": {
            "23vme": {
                "id": "TuL0UfqH14MtqYVh",
                "img": "systems/pf2e/icons/features/classes/greater-juggernaut.webp",
                "level": 13,
                "name": "Greater Juggernaut",
                "pack": "pf2e.classfeatures"
            },
            "3gwvw": {
                "id": "EEUTd0jAyfwTLzjk",
                "img": "systems/pf2e/icons/features/classes/brutality.webp",
                "level": 5,
                "name": "Brutality",
                "pack": "pf2e.classfeatures"
            },
            "7jt77": {
                "id": "FCEp9jjxxgRJDJV3",
                "img": "systems/pf2e/icons/features/classes/medium-armor-expertise.webp",
                "level": 13,
                "name": "Medium Armor Expertise",
                "pack": "pf2e.classfeatures"
            },
            "8ibv2": {
                "id": "TUOeATt52P43r5W0",
                "img": "systems/pf2e/icons/features/classes/lightning-reflexes.webp",
                "level": 9,
                "name": "Lightning Reflexes",
                "pack": "pf2e.classfeatures"
            },
            "blnv0": {
                "id": "7MhzrbOyue5GQsck",
                "img": "systems/pf2e/icons/features/classes/heightened-senses.webp",
                "level": 17,
                "name": "Heightened Senses",
                "pack": "pf2e.classfeatures"
            },
            "e0sur": {
                "id": "BZnqKnqKVImjSIFE",
                "img": "systems/pf2e/icons/features/classes/indomitable-will.webp",
                "level": 15,
                "name": "Indomitable Will",
                "pack": "pf2e.classfeatures"
            },
            "g3k30": {
                "id": "qMtyQGUllPdgpzUo",
                "img": "systems/pf2e/icons/features/classes/quick-rage.webp",
                "level": 17,
                "name": "Quick Rage",
                "pack": "pf2e.classfeatures"
            },
            "gfxqm": {
                "id": "OMZs5y16jZRW9KQK",
                "img": "systems/pf2e/icons/features/classes/juggerenaut.webp",
                "level": 7,
                "name": "Juggernaut",
                "pack": "pf2e.classfeatures"
            },
            "ihbgk": {
                "id": "VLiT503OLOM3vaDx",
                "img": "systems/pf2e/icons/features/classes/devastator.webp",
                "level": 19,
                "name": "Devastator",
                "pack": "pf2e.classfeatures"
            },
            "njgcl": {
                "id": "7JjhxMFo8DMwpGx0",
                "img": "systems/pf2e/icons/features/classes/greater-weapon-specialization.webp",
                "level": 15,
                "name": "Greater Weapon Specialization (Barbarian)",
                "pack": "pf2e.classfeatures"
            },
            "o4ypa": {
                "id": "ejP4jVQkS48uKRFz",
                "img": "systems/pf2e/icons/features/classes/weapon-fury.webp",
                "level": 13,
                "name": "Weapon Fury",
                "pack": "pf2e.classfeatures"
            },
            "p941e": {
                "id": "PNpmVmD21zViDtGC",
                "img": "systems/pf2e/icons/features/classes/deny-advantage.webp",
                "level": 3,
                "name": "Deny Advantage",
                "pack": "pf2e.classfeatures"
            },
            "qh9xw": {
                "id": "88Q33X2a0iYPkbzd",
                "img": "systems/pf2e/icons/features/classes/mighty-rage.webp",
                "level": 11,
                "name": "Mighty Rage",
                "pack": "pf2e.classfeatures"
            },
            "s5lxl": {
                "id": "QTCIahokREpnAYDi",
                "img": "systems/pf2e/icons/features/classes/armor-of-fury.webp",
                "level": 19,
                "name": "Armor of Fury",
                "pack": "pf2e.classfeatures"
            },
            "spb04": {
                "id": "9EqIasqfI8YIM3Pt",
                "img": "systems/pf2e/icons/features/classes/weapon-specialization.webp",
                "level": 7,
                "name": "Weapon Specialization",
                "pack": "pf2e.classfeatures"
            },
            "tp5pg": {
                "id": "ie6xDX9GMEcA2Iuq",
                "img": "systems/pf2e/icons/features/classes/raging-resistance.webp",
                "level": 9,
                "name": "Raging Resistance",
                "pack": "pf2e.classfeatures"
            },
            "uhbeo": {
                "id": "dU7xRpg4kFd01hwZ",
                "img": "systems/pf2e/icons/features/classes/choice-feature.webp",
                "level": 1,
                "name": "Instinct",
                "pack": "pf2e.classfeatures"
            },
            "xvavy": {
                "id": "WZUCvxqbigXos1L9",
                "img": "systems/pf2e/icons/features/classes/rage.webp",
                "level": 1,
                "name": "Rage",
                "pack": "pf2e.classfeatures"
            }
        },
        "keyAbility": {
            "value": [
                "str"
            ]
        },
        "perception": 2,
        "rules": [
            {
                "key": "ActiveEffectLike",
                "mode": "upgrade",
                "path": "data.skills.ath.rank",
                "value": 1
            }
        ],
        "savingThrows": {
            "fortitude": 2,
            "reflex": 1,
            "will": 2
        },
        "skillFeatLevels": {
            "value": [
                2,
                4,
                6,
                8,
                10,
                12,
                14,
                16,
                18,
                20
            ]
        },
        "skillIncreaseLevels": {
            "value": [
                3,
                5,
                7,
                9,
                11,
                13,
                15,
                17,
                19
            ]
        },
        "source": {
            "value": "Pathfinder Core Rulebook"
        },
        "trainedSkills": {
            "additional": 3,
            "value": [
                "ath"
            ]
        },
        "traits": {
            "custom": "",
            "rarity": "common",
            "value": []
        }
    },
    "effects": [],
    "flags": {},
    "img": "systems/pf2e/icons/classes/barbarian.webp",
    "name": "Barbarian",
    "type": "class"
}
