{
    "_id": "RcxDIOa68SUGyMun",
    "data": {
        "description": {
            "value": ""
        },
        "duration": {
            "expiry": "turn-start",
            "sustained": false,
            "unit": "unlimited",
            "value": -1
        },
        "level": {
            "value": 1
        },
        "rules": [
            {
                "key": "CreatureSize",
                "resizeEquipment": true,
                "value": "huge"
            },
            {
                "key": "FlatModifier",
                "label": "Giant's Stature",
                "selector": "dex-based",
                "type": "status",
                "value": -1
            }
        ],
        "source": {
            "value": ""
        },
        "start": {
            "initiative": null,
            "value": 0
        },
        "target": null,
        "tokenIcon": {
            "show": true
        },
        "traits": {
            "custom": "",
            "rarity": "common",
            "value": []
        }
    },
    "effects": [],
    "flags": {},
    "img": "systems/pf2e/icons/spells/summon-giant.webp",
    "name": "Effect: Titan's Stature",
    "type": "effect"
}
