{
    "_id": "5v0ndPPMfZwhiVZF",
    "data": {
        "description": {
            "value": "<p>Granted if you succeed with @Compendium[pf2e.feats-srd.Predictable!]{Predictable!}</p>"
        },
        "duration": {
            "expiry": "turn-start",
            "sustained": false,
            "unit": "rounds",
            "value": 1
        },
        "level": {
            "value": 1
        },
        "rules": [
            {
                "key": "FlatModifier",
                "predicate": {
                    "all": [
                        "predicatable"
                    ]
                },
                "selector": "ac",
                "type": "circumstance",
                "value": 1
            },
            {
                "key": "FlatModifier",
                "predicate": {
                    "all": [
                        "predicatable"
                    ]
                },
                "selector": "reflex",
                "type": "circumstance",
                "value": 1
            },
            {
                "key": "ToggleProperty",
                "label": "Defending against target of Predictable!",
                "property": "flags.pf2e.rollOptions.all.predicable"
            }
        ],
        "source": {
            "value": ""
        },
        "start": {
            "initiative": null,
            "value": 0
        },
        "target": null,
        "tokenIcon": {
            "show": true
        },
        "traits": {
            "custom": "",
            "rarity": "common",
            "value": []
        }
    },
    "effects": [],
    "flags": {},
    "img": "systems/pf2e/icons/equipment/shields/precious-material-shields/orichalcum-buckler.webp",
    "name": "Effect: Predictable!",
    "type": "effect"
}
