{
    "_id": "cH8JD3ub4eEKuIAD",
    "data": {
        "description": {
            "value": "<p>Granted by @Compendium[pf2e.feats-srd.Radiant Infusion]{Radiant Infusion}.</p>\n<p>If the next action you use is to cast <em>@Compendium[pf2e.spells-srd.Heal]{Heal}</em> to restore Hit Points to a single living creature, the target deals an additional 1d6 positive damage with its melee weapons and unarmed attacks until the end of its next turn. If the <em>heal</em> spell is at least 5th level, this damage increases to 2d6, or 3d6 if the spell is at least 8th level.</p>"
        },
        "duration": {
            "expiry": "turn-start",
            "sustained": false,
            "unit": "rounds",
            "value": 1
        },
        "level": {
            "value": 4
        },
        "rules": [
            {
                "damageType": "positive",
                "dieSize": "d6",
                "key": "DamageDice",
                "selector": "damage",
                "value": {
                    "brackets": [
                        {
                            "end": 4,
                            "value": {
                                "diceNumber": 1
                            }
                        },
                        {
                            "end": 7,
                            "start": 5,
                            "value": {
                                "diceNumber": 2
                            }
                        },
                        {
                            "start": 8,
                            "value": {
                                "diceNumber": 3
                            }
                        }
                    ],
                    "field": "item|data.level.value"
                }
            }
        ],
        "source": {
            "value": ""
        },
        "start": {
            "initiative": null,
            "value": 0
        },
        "target": null,
        "tokenIcon": {
            "show": true
        },
        "traits": {
            "custom": "",
            "rarity": "common",
            "value": []
        }
    },
    "effects": [],
    "flags": {},
    "img": "systems/pf2e/icons/spells/heal.webp",
    "name": "Effect: Radiant Infusion",
    "type": "effect"
}
