{
    "_id": "IpRfT9lL3YR6MH6w",
    "data": {
        "description": {
            "value": "<p>Granted by @Compendium[pf2e.feats-srd.Favored Terrain]{Favored Terrain (Forest, Moutain or Underground)} if you have the @Compendium[pf2e.classfeatures.Wild Stride]{Wild Stride} class feature, and are in forested, mountainous or underground terrain and already have a climb Speed.</p>\n<p>You gain a +10-foot status bonus to your climb Speed.</p>"
        },
        "duration": {
            "expiry": "turn-start",
            "sustained": false,
            "unit": "unlimited",
            "value": -1
        },
        "level": {
            "value": 11
        },
        "rules": [
            {
                "key": "FlatModifier",
                "selector": "climb-speed",
                "type": "status",
                "value": 10
            }
        ],
        "source": {
            "value": ""
        },
        "start": {
            "initiative": null,
            "value": 0
        },
        "target": null,
        "tokenIcon": {
            "show": true
        },
        "traits": {
            "custom": "",
            "rarity": "common",
            "value": []
        }
    },
    "effects": [],
    "flags": {},
    "img": "systems/pf2e/icons/default-icons/feats.webp",
    "name": "Favored Terrain (Increase Climb Speed)",
    "type": "effect"
}
