{
    "_id": "K9Hw43co8fhwmKkM",
    "data": {
        "abilities": {
            "cha": {
                "mod": -3
            },
            "con": {
                "mod": 4
            },
            "dex": {
                "mod": -2
            },
            "int": {
                "mod": -5
            },
            "str": {
                "mod": 4
            },
            "wis": {
                "mod": 0
            }
        },
        "attributes": {
            "ac": {
                "details": "",
                "value": 19
            },
            "allSaves": {
                "value": ""
            },
            "hp": {
                "details": "",
                "max": 50,
                "temp": 0,
                "value": 50
            },
            "initiative": {
                "ability": "perception"
            },
            "perception": {
                "value": 5
            },
            "speed": {
                "details": "",
                "otherSpeeds": [],
                "value": "20"
            }
        },
        "details": {
            "alignment": {
                "value": "N"
            },
            "blurb": "",
            "creatureType": "Aberration",
            "level": {
                "value": 3
            },
            "privateNotes": "",
            "publicNotes": "<p>Sluglike abominations, grothluts are fleshwarps that were once humans. While their head and torsos are vaguely human, their arms are rubbery and move awkwardly at their sides. Wretched creatures, they moan piteously when other creatures are near, perhaps as the last remnants of their shattered human consciousness pleads to be free from their horrid warped form.</p>\n<p>Many fleshwarpers consider the grothlut to be a failure of a creation, as the transformation all but stamps out the human consciousness. Others disagree, arguing that warping the creature's mind makes it all the more useful, since its stupidity makes it pliable and easy to herd. Drow typically use grothluts as guardians that slowly patrol the edges of their enclaves. Once in position, grothluts can be used as crude shock troops, unleashed to soften enemy forces before more-valuable warriors wade in and cut down the enemies who have been nauseated by the grothluts' exploded organs and flesh.</p>\n<hr />\n<p>Some creatures, notably drow, are not happy with merely killing their enemies. They revel in the total degradation of their foes through the horrifying transformative technique known as fleshwarping. Though the fleshwarping process was not created by the drow, many believe they perfected it. The drow torture their enemies in vats of churning magical reagents, reshaping their flesh and psyche alike into horrid and monstrous things. The reconstitution of flesh results in countless variations of fleshwarps, and the following are just a couple of examples of these horrors.</p>",
            "source": {
                "value": "Pathfinder Bestiary"
            }
        },
        "resources": {},
        "saves": {
            "fortitude": {
                "saveDetail": "",
                "value": 11
            },
            "reflex": {
                "saveDetail": "",
                "value": 5
            },
            "will": {
                "saveDetail": "",
                "value": 7
            }
        },
        "traits": {
            "ci": [],
            "di": {
                "custom": "",
                "value": [
                    "acid",
                    "mental"
                ]
            },
            "dr": [],
            "dv": [],
            "languages": {
                "custom": "",
                "selected": [],
                "value": []
            },
            "rarity": "common",
            "senses": {
                "value": "darkvision"
            },
            "size": {
                "value": "med"
            },
            "traits": {
                "custom": "",
                "value": [
                    "aberration",
                    "mindless"
                ]
            }
        }
    },
    "effects": [],
    "flags": {},
    "img": "systems/pf2e/icons/default-icons/npc.svg",
    "items": [
        {
            "_id": "y0ncwssgPJfLWMgt",
            "data": {
                "attack": {
                    "value": ""
                },
                "attackEffects": {
                    "custom": "",
                    "value": []
                },
                "bonus": {
                    "value": 11
                },
                "damageRolls": {
                    "oxjzun88lnb281qln5xu": {
                        "damage": "1d10+8",
                        "damageType": "slashing"
                    }
                },
                "description": {
                    "value": ""
                },
                "rules": [],
                "slug": null,
                "source": {
                    "value": ""
                },
                "traits": {
                    "custom": "",
                    "rarity": "common",
                    "value": [
                        "agile"
                    ]
                },
                "weaponType": {
                    "value": "melee"
                }
            },
            "effects": [],
            "flags": {},
            "img": "systems/pf2e/icons/default-icons/melee.svg",
            "name": "Claw",
            "sort": 100000,
            "type": "melee"
        },
        {
            "_id": "kvPHtl3puURCTaGk",
            "data": {
                "attack": {
                    "value": ""
                },
                "attackEffects": {
                    "custom": "",
                    "value": []
                },
                "bonus": {
                    "value": 7
                },
                "damageRolls": {
                    "fenua2ukorlvilsfqmn4": {
                        "damage": "2d6",
                        "damageType": "acid"
                    }
                },
                "description": {
                    "value": "<p>[[/r {1d6}[splash,acid]]]{1d6 acid splash damage}</p>"
                },
                "rules": [],
                "slug": null,
                "source": {
                    "value": ""
                },
                "traits": {
                    "custom": "",
                    "rarity": "common",
                    "value": [
                        "acid",
                        "range-increment-15",
                        "splash"
                    ]
                },
                "weaponType": {
                    "value": "ranged"
                }
            },
            "effects": [],
            "flags": {},
            "img": "systems/pf2e/icons/default-icons/melee.svg",
            "name": "Digestive Spew",
            "sort": 200000,
            "type": "melee"
        },
        {
            "_id": "MNeTs8gNujcsFNkv",
            "data": {
                "actionCategory": {
                    "value": "interaction"
                },
                "actionType": {
                    "value": "passive"
                },
                "actions": {
                    "value": null
                },
                "description": {
                    "value": "<p>@Localize[PF2E.NPC.Abilities.Glossary.Darkvision]</p>"
                },
                "requirements": {
                    "value": ""
                },
                "rules": [],
                "slug": "darkvision",
                "source": {
                    "value": ""
                },
                "traits": {
                    "custom": "",
                    "rarity": "common",
                    "value": []
                },
                "trigger": {
                    "value": ""
                },
                "weapon": {
                    "value": ""
                }
            },
            "effects": [],
            "flags": {
                "core": {
                    "sourceId": "Compendium.pf2e.bestiary-ability-glossary-srd.qCCLZhnp2HhP3Ex6"
                }
            },
            "img": "systems/pf2e/icons/actions/Passive.webp",
            "name": "Darkvision",
            "sort": 300000,
            "type": "action"
        },
        {
            "_id": "NKOHZ7Ua7fqQNsAy",
            "data": {
                "actionCategory": {
                    "value": "defensive"
                },
                "actionType": {
                    "value": "passive"
                },
                "actions": {
                    "value": null
                },
                "description": {
                    "value": "<p>When the grothlut is reduced to 0 Hit Points, its digestive organs rupture, unleashing alchemical acid and poison upon all creatures in a @Template[type:emanation|distance:30]. Each creature in the area must succeed at a <span data-pf2-check=\"fortitude\" data-pf2-dc=\"19\" data-pf2-traits=\"acid,poison,damaging-effect\" data-pf2-label=\"Disgusting Demise DC\" data-pf2-show-dc=\"gm\">Fortitude</span> save or take [[/r {2d6}[acid]]]{2d6 acid damage} and become @Compendium[pf2e.conditionitems.Sickened]{Sickened 1} (double damage and @Compendium[pf2e.conditionitems.Sickened]{Sickened 2} on a critical failure).</p>"
                },
                "requirements": {
                    "value": ""
                },
                "rules": [],
                "slug": null,
                "source": {
                    "value": ""
                },
                "traits": {
                    "custom": "",
                    "rarity": "common",
                    "value": [
                        "acid",
                        "poison"
                    ]
                },
                "trigger": {
                    "value": ""
                },
                "weapon": {
                    "value": ""
                }
            },
            "effects": [],
            "flags": {},
            "img": "systems/pf2e/icons/actions/Passive.webp",
            "name": "Disgusting Demise",
            "sort": 400000,
            "type": "action"
        },
        {
            "_id": "3XJEBmHGHfUj7TbN",
            "data": {
                "actionCategory": {
                    "value": "defensive"
                },
                "actionType": {
                    "value": "passive"
                },
                "actions": {
                    "value": null
                },
                "description": {
                    "value": "<p>@Template[type:emanation|distance:60]{60 feet} @Compendium[pf2e.bestiary-ability-glossary-srd.Aura]{Aura}</p>\n<p>Each non-grothlut creature that enters or starts its turn within the area must succeed at a <span data-pf2-check=\"will\" data-pf2-dc=\"17\" data-pf2-traits=\"aura,auditory,emotion,mental,occult\" data-pf2-label=\"Piteous Moan DC\" data-pf2-show-dc=\"gm\">Will</span> saving throw or become @Compendium[pf2e.conditionitems.Sickened]{Sickened 1} (@Compendium[pf2e.conditionitems.Sickened]{Sickened 2} on a critical failure). The creature then becomes temporarily immune for 1 minute.</p>\n<p>The grothlut can activate or deactivate the aura by using a single free action that has the concentrate trait. A grothlut usually does not begin moaning until it senses the presence of a non-grothlut creature, and it usually stops once it doesn't sense any more such creatures.</p>"
                },
                "requirements": {
                    "value": ""
                },
                "rules": [],
                "slug": null,
                "source": {
                    "value": ""
                },
                "traits": {
                    "custom": "",
                    "rarity": "common",
                    "value": [
                        "auditory",
                        "aura",
                        "emotion",
                        "mental",
                        "occult"
                    ]
                },
                "trigger": {
                    "value": ""
                },
                "weapon": {
                    "value": ""
                }
            },
            "effects": [],
            "flags": {},
            "img": "systems/pf2e/icons/actions/Passive.webp",
            "name": "Piteous Moan",
            "sort": 500000,
            "type": "action"
        },
        {
            "_id": "KYhYZjVKrrtKMNON",
            "data": {
                "description": {
                    "value": ""
                },
                "item": {
                    "value": 0
                },
                "mod": {
                    "value": 11
                },
                "proficient": {
                    "value": 0
                },
                "rules": [],
                "slug": null,
                "source": {
                    "value": ""
                },
                "traits": {
                    "custom": "",
                    "rarity": "common",
                    "value": []
                }
            },
            "effects": [],
            "flags": {},
            "img": "systems/pf2e/icons/default-icons/lore.svg",
            "name": "Athletics",
            "sort": 600000,
            "type": "lore"
        }
    ],
    "name": "Grothlut",
    "token": {
        "disposition": -1,
        "height": 1,
        "img": "systems/pf2e/icons/default-icons/npc.svg",
        "name": "Grothlut",
        "width": 1
    },
    "type": "npc"
}
