{
    "_id": "zJro50sLFmOcDLdO",
    "data": {
        "abilities": {
            "cha": {
                "mod": -3
            },
            "con": {
                "mod": 3
            },
            "dex": {
                "mod": 0
            },
            "int": {
                "mod": -5
            },
            "str": {
                "mod": 2
            },
            "wis": {
                "mod": 0
            }
        },
        "attributes": {
            "ac": {
                "details": "",
                "value": 13
            },
            "allSaves": {
                "value": ""
            },
            "hp": {
                "details": "",
                "max": 20,
                "temp": 0,
                "value": 20
            },
            "initiative": {
                "ability": "perception"
            },
            "perception": {
                "value": 0
            },
            "speed": {
                "details": "",
                "otherSpeeds": [],
                "value": "20"
            }
        },
        "details": {
            "alignment": {
                "value": "LE"
            },
            "blurb": "",
            "creatureType": "Fiend",
            "level": {
                "value": 0
            },
            "privateNotes": "",
            "publicNotes": "<p>These shapeless masses of quivering flesh are the least of devilkind. Pathetic creatures from Hell's first layer, lemures roam alongside damned and suffering souls. Pit fiends can combine the essence of a mob of lemures to concentrate their collective wickedness with a single form, granting it an infernal sentience and transforming it into a more powerful devil (see the pit fiend's Devil Shaping ability).</p>\n<hr />\n<p>Masters of corruption and architects of conquest, devils seek both to tempt mortal life to join in their pursuit of all things profane and to spread tyranny throughout all worlds. The temptations they offer mortals range from great powers granted by the signing of an infernal contract to twisted favors following a whispered pledge to a diabolic patron, or any number of even subtler exchanges. Those who succumb to these temptations find themselves consigned to an afterlife of endless torment in the pits of Hell, wherein the only hope of escape lies in the chance of being promoted to become a devil in the infernal ranks. Every devil has a specific role to play in the upkeep of the remorseless bureaucratic machine that is Hell, from soldiers and scholars to inquisitors, lawyers, judges, and executioners. Lowly lemures and imps perform subservient labor to more powerful and specialized devils, such as contract devils and erinyes, while the greatest pit fiends command entire infernal armies.</p>",
            "source": {
                "value": "Pathfinder Bestiary"
            }
        },
        "resources": {},
        "saves": {
            "fortitude": {
                "saveDetail": "",
                "value": 10
            },
            "reflex": {
                "saveDetail": "",
                "value": 5
            },
            "will": {
                "saveDetail": "",
                "value": 3
            }
        },
        "traits": {
            "ci": [],
            "di": {
                "custom": "",
                "value": [
                    "fire",
                    "mental"
                ]
            },
            "dr": [
                {
                    "exceptions": "except silver",
                    "type": "physical",
                    "value": 3
                },
                {
                    "exceptions": "",
                    "type": "poison",
                    "value": 5
                }
            ],
            "dv": [
                {
                    "type": "good",
                    "value": 3
                }
            ],
            "languages": {
                "custom": "",
                "selected": [],
                "value": []
            },
            "rarity": "common",
            "senses": {
                "value": "greater darkvision"
            },
            "size": {
                "value": "med"
            },
            "traits": {
                "custom": "",
                "value": [
                    "devil",
                    "fiend",
                    "mindless"
                ]
            }
        }
    },
    "effects": [],
    "flags": {},
    "img": "systems/pf2e/icons/default-icons/npc.svg",
    "items": [
        {
            "_id": "mkbavR53jwVXw293",
            "data": {
                "attack": {
                    "value": ""
                },
                "attackEffects": {
                    "custom": "",
                    "value": []
                },
                "bonus": {
                    "value": 7
                },
                "damageRolls": {
                    "aq55qimqbyn7pi318bdz": {
                        "damage": "1d4+2",
                        "damageType": "slashing"
                    },
                    "6c7pjgf04hsafr7dzqwl": {
                        "damage": "1",
                        "damageType": "evil"
                    }
                },
                "description": {
                    "value": ""
                },
                "rules": [],
                "slug": null,
                "source": {
                    "value": ""
                },
                "traits": {
                    "custom": "",
                    "rarity": "common",
                    "value": [
                        "evil",
                        "magical"
                    ]
                },
                "weaponType": {
                    "value": "melee"
                }
            },
            "effects": [],
            "flags": {},
            "img": "systems/pf2e/icons/default-icons/melee.svg",
            "name": "Claw",
            "sort": 100000,
            "type": "melee"
        },
        {
            "_id": "XAY63LFVYjJCN65F",
            "data": {
                "actionCategory": {
                    "value": "interaction"
                },
                "actionType": {
                    "value": "passive"
                },
                "actions": {
                    "value": null
                },
                "description": {
                    "value": "<p>@Localize[PF2E.NPC.Abilities.Glossary.GreaterDarkvision]</p>"
                },
                "requirements": {
                    "value": ""
                },
                "rules": [],
                "slug": "greater-darkvision",
                "source": {
                    "value": ""
                },
                "traits": {
                    "custom": "",
                    "rarity": "common",
                    "value": []
                },
                "trigger": {
                    "value": ""
                },
                "weapon": {
                    "value": ""
                }
            },
            "effects": [],
            "flags": {
                "core": {
                    "sourceId": "Compendium.pf2e.bestiary-ability-glossary-srd.4Ho2xMPEC05aSxzr"
                }
            },
            "img": "systems/pf2e/icons/actions/Passive.webp",
            "name": "Greater Darkvision",
            "sort": 200000,
            "type": "action"
        },
        {
            "_id": "Wsl0Qe07OtlNGmr0",
            "data": {
                "actionCategory": {
                    "value": "offensive"
                },
                "actionType": {
                    "value": "passive"
                },
                "actions": {
                    "value": null
                },
                "description": {
                    "value": "<p>Lemures have little drive of their own, but other devils can take command of them. A non-lemure devil can issue a command to all lemures within 60 feet of it with a single action, which has the auditory and concentrate traits. The devil picks one of the following orders lemures can understand, and the lemures follow that order. The command and its effects end once the commander is out of the lemure's sight, a new command is issued by the same or another devil, or the lemure dies.</p>\n<ul>\n<li><strong>Kill</strong> The lemure attacks one target the commander singles out and gains a +1 circumstance bonus to attack rolls against the target.</li>\n<li><strong>Defend</strong> The lemure circles the commander and attacks any creature that comes near. It gains a +1 circumstance bonus to AC and saves.</li>\n<li><strong>Fetch</strong> The lemure gains a +10-foot circumstance bonus to its Speed and attempts to get an object or person the commander singles out. It attacks anyone and anything that gets in the way.</li>\n<li><strong>Work</strong> The lemure performs drudge work dictated by the commander.</li>\n</ul>"
                },
                "requirements": {
                    "value": ""
                },
                "rules": [
                    {
                        "key": "ToggleProperty",
                        "label": "Subservience - Defend",
                        "property": "flags.pf2e.rollOptions.all.subservience-defend"
                    },
                    {
                        "key": "ToggleProperty",
                        "label": "Subservience - Fetch",
                        "property": "flags.pf2e.rollOptions.all.subservience-fetch"
                    },
                    {
                        "key": "ToggleProperty",
                        "label": "Subservience - Kill",
                        "property": "flags.pf2e.rollOptions.attack-roll.subservience-kill"
                    },
                    {
                        "key": "FlatModifier",
                        "predicate": {
                            "all": [
                                "subservience-kill"
                            ]
                        },
                        "selector": "attack",
                        "type": "circumstance",
                        "value": 1
                    },
                    {
                        "key": "FlatModifier",
                        "predicate": {
                            "all": [
                                "subservience-defend"
                            ]
                        },
                        "selector": "saving-throw",
                        "type": "circumstance",
                        "value": 1
                    },
                    {
                        "key": "FlatModifier",
                        "predicate": {
                            "all": [
                                "subservience-defend"
                            ]
                        },
                        "selector": "ac",
                        "type": "circumstance",
                        "value": 1
                    },
                    {
                        "key": "FlatModifier",
                        "predicate": {
                            "all": [
                                "subservience-fetch"
                            ]
                        },
                        "selector": "speed",
                        "type": "circumstance",
                        "value": 10
                    }
                ],
                "slug": null,
                "source": {
                    "value": ""
                },
                "traits": {
                    "custom": "",
                    "rarity": "common",
                    "value": []
                },
                "trigger": {
                    "value": ""
                },
                "weapon": {
                    "value": ""
                }
            },
            "effects": [],
            "flags": {},
            "img": "systems/pf2e/icons/actions/Passive.webp",
            "name": "Subservience",
            "sort": 300000,
            "type": "action"
        },
        {
            "_id": "NLcLx6Mxy0NrFye8",
            "data": {
                "description": {
                    "value": ""
                },
                "item": {
                    "value": 0
                },
                "mod": {
                    "value": 5
                },
                "proficient": {
                    "value": 0
                },
                "rules": [],
                "slug": null,
                "source": {
                    "value": ""
                },
                "traits": {
                    "custom": "",
                    "rarity": "common",
                    "value": []
                }
            },
            "effects": [],
            "flags": {},
            "img": "systems/pf2e/icons/default-icons/lore.svg",
            "name": "Athletics",
            "sort": 400000,
            "type": "lore"
        }
    ],
    "name": "Lemure",
    "token": {
        "disposition": -1,
        "height": 1,
        "img": "systems/pf2e/icons/default-icons/npc.svg",
        "name": "Lemure",
        "width": 1
    },
    "type": "npc"
}
