{
    "_id": "x6wfK4UCJ6wYok9t",
    "data": {
        "abilities": {
            "cha": {
                "mod": 9
            },
            "con": {
                "mod": 9
            },
            "dex": {
                "mod": 8
            },
            "int": {
                "mod": -1
            },
            "str": {
                "mod": 11
            },
            "wis": {
                "mod": 8
            }
        },
        "attributes": {
            "ac": {
                "details": "",
                "value": 47
            },
            "allSaves": {
                "value": "+1 status to all saves vs. magic"
            },
            "hp": {
                "details": ")",
                "max": 440,
                "temp": 0,
                "value": 440
            },
            "initiative": {
                "ability": "perception"
            },
            "perception": {
                "value": 37
            },
            "speed": {
                "otherSpeeds": [
                    {
                        "type": "climb",
                        "value": "35"
                    },
                    {
                        "type": "fly",
                        "value": "100"
                    },
                    {
                        "type": "swim",
                        "value": "60"
                    }
                ],
                "value": "35"
            }
        },
        "details": {
            "alignment": {
                "value": "CE"
            },
            "blurb": "",
            "creatureType": "Dragon",
            "level": {
                "value": 21
            },
            "privateNotes": "",
            "publicNotes": "<p>Tor linnorms dwell in the tallest volcanic mountains, either within natural formed caverns or within molten craters. A tor linnorm's temper can be as hot and destructive as the magma the creature resembles.</p>",
            "source": {
                "value": "Pathfinder Bestiary"
            }
        },
        "resources": {
            "focus": {
                "max": 1,
                "value": 1
            }
        },
        "saves": {
            "fortitude": {
                "saveDetail": "",
                "value": 38
            },
            "reflex": {
                "saveDetail": "",
                "value": 35
            },
            "will": {
                "saveDetail": "",
                "value": 33
            }
        },
        "traits": {
            "ci": [],
            "di": {
                "custom": "",
                "value": [
                    "curse",
                    "fire",
                    "paralyzed",
                    "sleep"
                ]
            },
            "dr": [],
            "dv": [
                {
                    "label": "Cold Iron",
                    "type": "coldiron",
                    "value": "15"
                }
            ],
            "languages": {
                "custom": "",
                "selected": [],
                "value": [
                    "aklo",
                    "draconic",
                    "sylvan"
                ]
            },
            "rarity": "uncommon",
            "senses": {
                "value": "darkvision, scent (imprecise) 60 feet, true seeing"
            },
            "size": {
                "value": "grg"
            },
            "traits": {
                "custom": "",
                "value": [
                    "dragon",
                    "fire"
                ]
            }
        }
    },
    "effects": [],
    "flags": {},
    "img": "systems/pf2e/icons/default-icons/npc.svg",
    "items": [
        {
            "_id": "GO1RrSYb9pwcTAMe",
            "data": {
                "autoHeightenLevel": {
                    "value": null
                },
                "description": {
                    "value": ""
                },
                "displayLevels": {},
                "prepared": {
                    "flexible": false,
                    "value": "innate"
                },
                "proficiency": {
                    "value": 0
                },
                "rules": [],
                "showSlotlessLevels": {
                    "value": true
                },
                "showUnpreparedSpells": {
                    "value": false
                },
                "signatureSpells": {
                    "value": []
                },
                "slots": {
                    "slot0": {
                        "max": 0,
                        "prepared": [],
                        "value": 0
                    },
                    "slot1": {
                        "max": 0,
                        "prepared": [],
                        "value": 0
                    },
                    "slot10": {
                        "max": 0,
                        "prepared": [],
                        "value": 0
                    },
                    "slot11": {
                        "max": 0,
                        "prepared": [],
                        "value": 0
                    },
                    "slot2": {
                        "max": 0,
                        "prepared": [],
                        "value": 0
                    },
                    "slot3": {
                        "max": 0,
                        "prepared": [],
                        "value": 0
                    },
                    "slot4": {
                        "max": 0,
                        "prepared": [],
                        "value": 0
                    },
                    "slot5": {
                        "max": 0,
                        "prepared": [],
                        "value": 0
                    },
                    "slot6": {
                        "max": 0,
                        "prepared": [],
                        "value": 0
                    },
                    "slot7": {
                        "max": 0,
                        "prepared": [],
                        "value": 0
                    },
                    "slot8": {
                        "max": 0,
                        "prepared": [],
                        "value": 0
                    },
                    "slot9": {
                        "max": 0,
                        "prepared": [],
                        "value": 0
                    }
                },
                "slug": null,
                "source": {
                    "value": ""
                },
                "spelldc": {
                    "dc": 44,
                    "mod": 0,
                    "value": 34
                },
                "tradition": {
                    "value": "primal"
                },
                "traits": {
                    "custom": "",
                    "rarity": "common",
                    "value": []
                }
            },
            "effects": [],
            "flags": {},
            "img": "systems/pf2e/icons/default-icons/spellcastingEntry.svg",
            "name": "Primal Innate Spells",
            "sort": 100000,
            "type": "spellcastingEntry"
        },
        {
            "_id": "FHVqV0BIl8VBdZKG",
            "data": {
                "ability": {
                    "value": ""
                },
                "area": {
                    "areaType": "",
                    "value": null
                },
                "autoHeightenLevel": {
                    "value": null
                },
                "category": {
                    "value": "spell"
                },
                "components": {
                    "focus": false,
                    "material": false,
                    "somatic": true,
                    "verbal": true
                },
                "cost": {
                    "value": ""
                },
                "damage": {
                    "value": {}
                },
                "description": {
                    "value": "<p>You repel effects that would hinder a creature or slow its movement. While under this spell's effect, the target ignores effects that would give them a circumstance penalty to Speed. When they attempt to Escape an effect that has them @Compendium[pf2e.conditionitems.Immobilized]{Immobilized}, @Compendium[pf2e.conditionitems.Grabbed]{Grabbed}, or @Compendium[pf2e.conditionitems.Restrained]{Restrained}, they automatically succeed unless the effect is magical and of a higher level than the freedom of movement spell.</p>"
                },
                "duration": {
                    "value": "10 minutes"
                },
                "hasCounteractCheck": {
                    "value": false
                },
                "level": {
                    "value": 9
                },
                "location": {
                    "value": "GO1RrSYb9pwcTAMe"
                },
                "materials": {
                    "value": ""
                },
                "prepared": {
                    "value": ""
                },
                "range": {
                    "value": "touch"
                },
                "rules": [],
                "save": {
                    "basic": "",
                    "value": ""
                },
                "school": {
                    "value": "abjuration"
                },
                "slug": null,
                "source": {
                    "value": "https://2e.aonprd.com/Spells.aspx?ID=128"
                },
                "spellType": {
                    "value": "utility"
                },
                "sustained": {
                    "value": false
                },
                "target": {
                    "value": "1 creature touched"
                },
                "time": {
                    "value": "2"
                },
                "traditions": {
                    "value": [
                        "arcane",
                        "divine",
                        "primal"
                    ]
                },
                "traits": {
                    "custom": "",
                    "rarity": "common",
                    "value": []
                }
            },
            "effects": [],
            "flags": {},
            "img": "systems/pf2e/icons/spells/freedom-of-movement.webp",
            "name": "Freedom of Movement",
            "sort": 200000,
            "type": "spell"
        },
        {
            "_id": "yg1szb1uze24H7k4",
            "data": {
                "ability": {
                    "value": ""
                },
                "area": {
                    "areaType": "",
                    "value": null
                },
                "autoHeightenLevel": {
                    "value": null
                },
                "category": {
                    "value": "spell"
                },
                "components": {
                    "focus": false,
                    "material": false,
                    "somatic": true,
                    "verbal": true
                },
                "cost": {
                    "value": ""
                },
                "damage": {
                    "value": {}
                },
                "description": {
                    "value": "<p>You see things within 60 feet as they actually are. The GM rolls a secret counteract check against any illusion or transmutation in the area, but only for the purpose of determining whether you see through it (for instance, if the check succeeds against a polymorph spell, you can see the creature's true form, but you don't end the polymorph spell).</p>"
                },
                "duration": {
                    "value": "10 minutes"
                },
                "hasCounteractCheck": {
                    "value": false
                },
                "level": {
                    "value": 8
                },
                "location": {
                    "value": "GO1RrSYb9pwcTAMe"
                },
                "materials": {
                    "value": ""
                },
                "prepared": {
                    "value": ""
                },
                "range": {
                    "value": ""
                },
                "rules": [],
                "save": {
                    "basic": "",
                    "value": ""
                },
                "school": {
                    "value": "divination"
                },
                "slug": null,
                "source": {
                    "value": "https://2e.aonprd.com/Spells.aspx?ID=344"
                },
                "spellType": {
                    "value": "utility"
                },
                "sustained": {
                    "value": false
                },
                "target": {
                    "value": ""
                },
                "time": {
                    "value": "2"
                },
                "traditions": {
                    "value": [
                        "arcane",
                        "divine",
                        "occult",
                        "primal"
                    ]
                },
                "traits": {
                    "custom": "",
                    "rarity": "common",
                    "value": [
                        "revelation"
                    ]
                }
            },
            "effects": [],
            "flags": {},
            "img": "systems/pf2e/icons/spells/true-seeing.webp",
            "name": "True Seeing",
            "sort": 300000,
            "type": "spell"
        },
        {
            "_id": "3TZWlkMSDjauBP7y",
            "data": {
                "attack": {
                    "value": ""
                },
                "attackEffects": {
                    "value": [
                        "tor-linnorm-venom"
                    ]
                },
                "bonus": {
                    "value": 40
                },
                "damageRolls": {
                    "m5rp98s7m0gafkwsvisf": {
                        "damage": "4d12+19",
                        "damageType": "piercing"
                    }
                },
                "description": {
                    "value": ""
                },
                "rules": [],
                "slug": null,
                "source": {
                    "value": ""
                },
                "traits": {
                    "custom": "",
                    "rarity": "common",
                    "value": [
                        "reach-30",
                        "magical"
                    ]
                },
                "weaponType": {
                    "value": "melee"
                }
            },
            "effects": [],
            "flags": {},
            "img": "systems/pf2e/icons/default-icons/melee.svg",
            "name": "Jaws",
            "sort": 400000,
            "type": "melee"
        },
        {
            "_id": "jb3f12sfPd9nzwVN",
            "data": {
                "attack": {
                    "value": ""
                },
                "attackEffects": {
                    "value": []
                },
                "bonus": {
                    "value": 40
                },
                "damageRolls": {
                    "tppi0yvmxzoa1plp3aud": {
                        "damage": "4d8+19",
                        "damageType": "slashing"
                    }
                },
                "description": {
                    "value": ""
                },
                "rules": [],
                "slug": null,
                "source": {
                    "value": ""
                },
                "traits": {
                    "custom": "",
                    "rarity": "common",
                    "value": [
                        "reach-30",
                        "agile",
                        "magical"
                    ]
                },
                "weaponType": {
                    "value": "melee"
                }
            },
            "effects": [],
            "flags": {},
            "img": "systems/pf2e/icons/default-icons/melee.svg",
            "name": "Claw",
            "sort": 500000,
            "type": "melee"
        },
        {
            "_id": "xkve6W8Rg8tqIPX0",
            "data": {
                "attack": {
                    "value": ""
                },
                "attackEffects": {
                    "value": [
                        "improved-grab"
                    ]
                },
                "bonus": {
                    "value": 40
                },
                "damageRolls": {
                    "dwyvvg0t35o66wp1awu9": {
                        "damage": "4d6+19",
                        "damageType": "bludgeoning"
                    }
                },
                "description": {
                    "value": ""
                },
                "rules": [],
                "slug": null,
                "source": {
                    "value": ""
                },
                "traits": {
                    "custom": "",
                    "rarity": "common",
                    "value": [
                        "reach-30",
                        "agile",
                        "magical"
                    ]
                },
                "weaponType": {
                    "value": "melee"
                }
            },
            "effects": [],
            "flags": {},
            "img": "systems/pf2e/icons/default-icons/melee.svg",
            "name": "Tail",
            "sort": 600000,
            "type": "melee"
        },
        {
            "_id": "guLQUsUyqFO1S88g",
            "data": {
                "actionCategory": {
                    "value": "defensive"
                },
                "actionType": {
                    "value": "reaction"
                },
                "actions": {
                    "value": null
                },
                "description": {
                    "value": "<p>Tail only.</p>\n<p data-visibility=\"gm\"><strong>Trigger</strong> A creature within the monster's reach uses a manipulate action or a move action, makes a ranged attack, or leaves a square during a move action it's using.</p>\n<p><strong>Effect</strong> The monster attempts a melee Strike against the triggering creature. If the attack is a critical hit and the trigger was a manipulate action, the monster disrupts that action. This Strike doesn't count toward the monster's multiple attack penalty, and its multiple attack penalty doesn't apply to this Strike.</p>"
                },
                "requirements": {
                    "value": ""
                },
                "rules": [],
                "slug": null,
                "source": {
                    "value": ""
                },
                "traits": {
                    "custom": "",
                    "rarity": "common",
                    "value": []
                },
                "trigger": {
                    "value": ""
                },
                "weapon": {
                    "value": ""
                }
            },
            "effects": [],
            "flags": {},
            "img": "systems/pf2e/icons/actions/Reaction.webp",
            "name": "Attack of Opportunity",
            "sort": 700000,
            "type": "action"
        },
        {
            "_id": "zLUOcpj85OOnwvRh",
            "data": {
                "actionCategory": {
                    "value": "defensive"
                },
                "actionType": {
                    "value": "passive"
                },
                "actions": {
                    "value": null
                },
                "description": {
                    "value": "<p>When a creature slays a tor linnorm, it must succeed at a <span data-pf2-check=\"will\" data-pf2-dc=\"48\" data-pf2-traits=\"curse,fire,primal\" data-pf2-label=\"Curse of Boiling Blood DC\" data-pf2-show-dc=\"gm\">Will</span> save or permanently gain weakness to fire 20 and slowed 1 from the agonizing pain it now endures at all times. As long as a character continues to suffer this curse, its slowed condition can never be reduced below slowed 1.</p>"
                },
                "requirements": {
                    "value": ""
                },
                "rules": [],
                "slug": null,
                "source": {
                    "value": ""
                },
                "traits": {
                    "custom": "",
                    "rarity": "common",
                    "value": [
                        "curse",
                        "fire",
                        "primal"
                    ]
                },
                "trigger": {
                    "value": ""
                },
                "weapon": {
                    "value": ""
                }
            },
            "effects": [],
            "flags": {},
            "img": "systems/pf2e/icons/actions/Passive.webp",
            "name": "Curse of Boiling Blood",
            "sort": 800000,
            "type": "action"
        },
        {
            "_id": "mgb2nO0WkJsnZogZ",
            "data": {
                "actionCategory": {
                    "value": "defensive"
                },
                "actionType": {
                    "value": "passive"
                },
                "actions": {
                    "value": null
                },
                "description": {
                    "value": "<p>A tor linnorm can breathe and swim freely while submerged in lava and magma.</p>"
                },
                "requirements": {
                    "value": ""
                },
                "rules": [],
                "slug": null,
                "source": {
                    "value": ""
                },
                "traits": {
                    "custom": "",
                    "rarity": "common",
                    "value": []
                },
                "trigger": {
                    "value": ""
                },
                "weapon": {
                    "value": ""
                }
            },
            "effects": [],
            "flags": {},
            "img": "systems/pf2e/icons/actions/Passive.webp",
            "name": "Lava Affinity",
            "sort": 900000,
            "type": "action"
        },
        {
            "_id": "JvFUFSxHH2EThNAC",
            "data": {
                "actionCategory": {
                    "value": "offensive"
                },
                "actionType": {
                    "value": "action"
                },
                "actions": {
                    "value": 2
                },
                "description": {
                    "value": "<p>The tor linnorm expels a @Template[type:cone|distance:60] of flame and ash dealing [[/r {20d6}[fire]]]{20d6 fire damage} to creatures within the area (<span data-pf2-check=\"reflex\" data-pf2-dc=\"46\" data-pf2-traits=\"evocation,fire,primal,damaging-effect\" data-pf2-label=\"Breath Weapon DC\" data-pf2-show-dc=\"gm\">basic Reflex</span> save).</p>\n<p>At the start of the tor linnorm's next turn, the area affected by the breath weapon is covered in thick, scorching smoke that burns both the lungs and eyes, dealing an additional [[/r {10d6}[fire]]]{10d6 fire damage} to all creatures in the area (<span data-pf2-check=\"reflex\" data-pf2-dc=\"46\" data-pf2-traits=\"evocation,fire,primal,damaging-effect\" data-pf2-label=\"Scorching Smoke DC\" data-pf2-show-dc=\"gm\">basic Reflex</span> save). A creature that spends an entire round in the smoke with open eyes must succeed at a <span data-pf2-check=\"fortitude\" data-pf2-dc=\"44\" data-pf2-label=\"Scorching Smoke DC\" data-pf2-show-dc=\"gm\">Fortitude</span> save or is @Compendium[pf2e.conditionitems.Blinded]{Blinded} for 1 minute.</p>\n<p>The smoke dissipates after 1 minute; in strong winds, the smoke dissipates in 5 rounds, and in more powerful winds, it may clear even more quickly.</p>\n<p>The tor linnorm can't use Breath Weapon again for [[/br 1d4 #rounds]]{1d4 rounds}.</p>"
                },
                "requirements": {
                    "value": ""
                },
                "rules": [],
                "slug": null,
                "source": {
                    "value": ""
                },
                "traits": {
                    "custom": "",
                    "rarity": "common",
                    "value": [
                        "evocation",
                        "fire",
                        "primal"
                    ]
                },
                "trigger": {
                    "value": ""
                },
                "weapon": {
                    "value": ""
                }
            },
            "effects": [],
            "flags": {},
            "img": "systems/pf2e/icons/actions/TwoActions.webp",
            "name": "Breath Weapon",
            "sort": 1000000,
            "type": "action"
        },
        {
            "_id": "cwyMVLdKTctRG46p",
            "data": {
                "actionCategory": {
                    "value": "offensive"
                },
                "actionType": {
                    "value": "action"
                },
                "actions": {
                    "value": 1
                },
                "description": {
                    "value": "<p>3d6+21 bludgeoning, <span data-pf2-check=\"fortitude\" data-pf2-traits=\"damaging-effect\" data-pf2-label=\"Constrict DC\" data-pf2-dc=\"46\" data-pf2-show-dc=\"gm\">basic Fortitude</span></p>\n<hr />\n<p>@Localize[PF2E.NPC.Abilities.Glossary.Constrict]</p>"
                },
                "requirements": {
                    "value": ""
                },
                "rules": [],
                "slug": "constrict",
                "source": {
                    "value": ""
                },
                "traits": {
                    "custom": "",
                    "rarity": "common",
                    "value": []
                },
                "trigger": {
                    "value": ""
                },
                "weapon": {
                    "value": ""
                }
            },
            "effects": [],
            "flags": {
                "core": {
                    "sourceId": "Compendium.pf2e.bestiary-ability-glossary-srd.g26YiEIfSHCpLocV"
                }
            },
            "img": "systems/pf2e/icons/actions/OneAction.webp",
            "name": "Constrict",
            "sort": 1100000,
            "type": "action"
        },
        {
            "_id": "CMfpQM5btdzVWxB5",
            "data": {
                "actionCategory": {
                    "value": "offensive"
                },
                "actionType": {
                    "value": "action"
                },
                "actions": {
                    "value": 1
                },
                "description": {
                    "value": "<p>A tor linnorm makes four Strikes with its claws, each against a different target. These attacks count toward the tor linnorm's multiple attack penalty, but the multiple attack penalty doesn't increase until after the tor linnorm makes all its attacks.</p>"
                },
                "requirements": {
                    "value": ""
                },
                "rules": [],
                "slug": null,
                "source": {
                    "value": ""
                },
                "traits": {
                    "custom": "",
                    "rarity": "common",
                    "value": []
                },
                "trigger": {
                    "value": ""
                },
                "weapon": {
                    "value": ""
                }
            },
            "effects": [],
            "flags": {},
            "img": "systems/pf2e/icons/actions/OneAction.webp",
            "name": "Slashing Claws",
            "sort": 1200000,
            "type": "action"
        },
        {
            "_id": "oeOZCitfRoZXCLfy",
            "data": {
                "actionCategory": {
                    "value": "offensive"
                },
                "actionType": {
                    "value": "passive"
                },
                "actions": {
                    "value": null
                },
                "description": {
                    "value": "<p><strong>Saving Throw</strong> <span data-pf2-check=\"fortitude\" data-pf2-dc=\"44\" data-pf2-traits=\"fire,injury,poison\" data-pf2-label=\"Tor Linnorm Venom DC\" data-pf2-show-dc=\"gm\">Fortitude</span></p>\n<p><strong>Maximum Duration</strong> 10 rounds</p>\n<p><strong>Stage 1</strong> [[/r {8d6}[fire]]]{8d6 fire damage} and @Compendium[pf2e.conditionitems.Drained]{Drained 1}</p>\n<p><strong>Stage 2</strong> [[/r {12d6}[fire]]]{12d6 fire damage} and @Compendium[pf2e.conditionitems.Drained]{Drained 2}.</p>"
                },
                "requirements": {
                    "value": ""
                },
                "rules": [],
                "slug": null,
                "source": {
                    "value": ""
                },
                "traits": {
                    "custom": "",
                    "rarity": "common",
                    "value": [
                        "fire",
                        "injury",
                        "poison"
                    ]
                },
                "trigger": {
                    "value": ""
                },
                "weapon": {
                    "value": ""
                }
            },
            "effects": [],
            "flags": {},
            "img": "systems/pf2e/icons/actions/Passive.webp",
            "name": "Tor Linnorm Venom",
            "sort": 1300000,
            "type": "action"
        },
        {
            "_id": "tCDS8iiaeaMouvll",
            "data": {
                "actionCategory": {
                    "value": "offensive"
                },
                "actionType": {
                    "value": "free"
                },
                "actions": {
                    "value": null
                },
                "description": {
                    "value": "<p><strong>Requirements</strong> The monster's last action was a success with a Strike that lists Improved Grab in its damage entry, or it has a creature grabbed using this action.</p>\n<p><strong>Effect</strong> The monster automatically Grabs the target until the end of the monster's next turn. The creature is grabbed by whichever body part the monster attacked with, and that body part can't be used to Strike creatures until the grab is ended. Using Improved Grab extends the duration of the monster's Improved Grab until the end of its next turn for all creatures grabbed by it, but this costs an action. A grabbed creature can use the Escape action to get out of the grab, and the Grab ends for a grabbed creatures if the monster moves away from it.</p>"
                },
                "requirements": {
                    "value": ""
                },
                "rules": [],
                "slug": null,
                "source": {
                    "value": ""
                },
                "traits": {
                    "custom": "",
                    "rarity": "common",
                    "value": []
                },
                "trigger": {
                    "value": ""
                },
                "weapon": {
                    "value": ""
                }
            },
            "effects": [],
            "flags": {},
            "img": "systems/pf2e/icons/actions/FreeAction.webp",
            "name": "Improved Grab",
            "sort": 1400000,
            "type": "action"
        },
        {
            "_id": "ut8IOj3lwVvu81Fo",
            "data": {
                "description": {
                    "value": ""
                },
                "item": {
                    "value": 0
                },
                "mod": {
                    "value": 35
                },
                "proficient": {
                    "value": 0
                },
                "rules": [],
                "slug": null,
                "source": {
                    "value": ""
                },
                "traits": {
                    "custom": "",
                    "rarity": "common",
                    "value": []
                }
            },
            "effects": [],
            "flags": {},
            "img": "systems/pf2e/icons/default-icons/lore.svg",
            "name": "Acrobatics",
            "sort": 1500000,
            "type": "lore"
        },
        {
            "_id": "tVeGY0FfSVI2IlJH",
            "data": {
                "description": {
                    "value": ""
                },
                "item": {
                    "value": 0
                },
                "mod": {
                    "value": 40
                },
                "proficient": {
                    "value": 0
                },
                "rules": [],
                "slug": null,
                "source": {
                    "value": ""
                },
                "traits": {
                    "custom": "",
                    "rarity": "common",
                    "value": []
                }
            },
            "effects": [],
            "flags": {},
            "img": "systems/pf2e/icons/default-icons/lore.svg",
            "name": "Athletics",
            "sort": 1600000,
            "type": "lore"
        },
        {
            "_id": "n7Ub0euw2CxI5nyR",
            "data": {
                "description": {
                    "value": ""
                },
                "item": {
                    "value": 0
                },
                "mod": {
                    "value": 37
                },
                "proficient": {
                    "value": 0
                },
                "rules": [],
                "slug": null,
                "source": {
                    "value": ""
                },
                "traits": {
                    "custom": "",
                    "rarity": "common",
                    "value": []
                }
            },
            "effects": [],
            "flags": {},
            "img": "systems/pf2e/icons/default-icons/lore.svg",
            "name": "Stealth",
            "sort": 1700000,
            "type": "lore"
        }
    ],
    "name": "Tor Linnorm",
    "token": {
        "disposition": -1,
        "height": 4,
        "img": "systems/pf2e/icons/default-icons/npc.svg",
        "name": "Tor Linnorm",
        "width": 4
    },
    "type": "npc"
}
