{
    "_id": "vJAHjBoEuFKGQoGs",
    "data": {
        "description": {
            "value": "<p>The longspear gains the deadly trait with 3d8, and a creature hit with the longspear is @Compendium[pf2e.conditionitems.Drained]{Drained 1} unless it succeeds at a <span data-pf2-check=\"fortitude\" data-pf2-dc=\"35\" data-pf2-traits=\"arcane\" data-pf2-label=\"Rune of Destruction DC\" data-pf2-show-dc=\"gm\">Fortitude</span> save.</p>"
        },
        "duration": {
            "expiry": "turn-start",
            "sustained": false,
            "unit": "minutes",
            "value": 1
        },
        "level": {
            "value": 16
        },
        "rules": [
            {
                "key": "Note",
                "selector": "longspear-attack",
                "text": "<div data-visibility='gm'><p><strong>Rune of Destruction</strong></p><p class='compact-text'>A creature hit with the weapon is @Compendium[pf2e.conditionitems.Drained]{Drained 1} unless it succeeds at a <span data-pf2-check='fortitude' data-pf2-dc='35' data-pf2-traits='arcane' data-pf2-label='Rune of Destruction DC' data-pf2-show-dc='gm'>Fortitude</span> save.</p></div>"
            },
            {
                "critical": true,
                "diceNumber": 3,
                "dieSize": "d8",
                "key": "DamageDice",
                "label": "Rune of Destruction",
                "selector": "longspear-damage"
            }
        ],
        "source": {
            "value": "Pathfinder Bestiary"
        },
        "start": {
            "initiative": null,
            "value": 0
        },
        "target": null,
        "tokenIcon": {
            "show": true
        },
        "traits": {
            "custom": "",
            "rarity": "common",
            "value": []
        }
    },
    "effects": [],
    "flags": {},
    "img": "systems/pf2e/icons/equipment/runes/armor-property-runes/armor-property-runes.webp",
    "name": "Effect: Rune of Destruction (Longspear)",
    "type": "effect"
}
