{
    "_id": "KdV8UtN8Af5oCerj",
    "data": {
        "badge": null,
        "description": {
            "value": "<p>The creature gains a -2 circumstance penalty on the next Diplomacy check in a legal argument.</p>"
        },
        "duration": {
            "expiry": "turn-start",
            "sustained": false,
            "unit": "unlimited",
            "value": -1
        },
        "level": {
            "value": -1
        },
        "rules": [
            {
                "key": "FlatModifier",
                "selector": "diplomacy",
                "type": "circumstance",
                "value": -2
            }
        ],
        "source": {
            "value": "Pathfinder Gamemastery Guide"
        },
        "start": {
            "initiative": null,
            "value": 0
        },
        "target": null,
        "tokenIcon": {
            "show": true
        },
        "traits": {
            "custom": "",
            "rarity": "common",
            "value": []
        }
    },
    "effects": [],
    "flags": {},
    "img": "systems/pf2e/icons/spells/abyssal-pact.webp",
    "name": "Effect: Cite Precedent",
    "type": "effect"
}
