{
    "_id": "TbmkcfpKIs558skY",
    "data": {
        "badge": null,
        "description": {
            "value": "<p>The creature takes a -5-foot status penalty to its Speed.</p>"
        },
        "duration": {
            "expiry": "turn-start",
            "sustained": false,
            "unit": "unlimited",
            "value": -1
        },
        "level": {
            "value": 3
        },
        "rules": [
            {
                "key": "FlatModifier",
                "selector": "land-speed",
                "value": -5
            }
        ],
        "source": {
            "value": "Pathfinder Bestiary"
        },
        "start": {
            "initiative": null,
            "value": 0
        },
        "target": null,
        "tokenIcon": {
            "show": true
        },
        "traits": {
            "custom": "",
            "rarity": "common",
            "value": []
        }
    },
    "effects": [],
    "flags": {},
    "img": "systems/pf2e/icons/spells/acidic-burst.webp",
    "name": "Effect: Caustic Mucus",
    "type": "effect"
}
