{
    "_id": "Qomp2EujVCbzJb4X",
    "data": {
        "badge": null,
        "description": {
            "value": "<p>The creature takes a -10-foot penalty to its Speeds.</p>"
        },
        "duration": {
            "expiry": "turn-start",
            "sustained": false,
            "unit": "minutes",
            "value": 1
        },
        "level": {
            "value": 1
        },
        "rules": [
            {
                "key": "FlatModifier",
                "selector": "speed",
                "value": -10
            }
        ],
        "source": {
            "value": ""
        },
        "start": {
            "initiative": null,
            "value": 0
        },
        "target": null,
        "tokenIcon": {
            "show": true
        },
        "traits": {
            "custom": "",
            "rarity": "common",
            "value": []
        }
    },
    "effects": [],
    "flags": {},
    "img": "systems/pf2e/icons/equipment/alchemical-items/alchemical-poisons/spider-root.webp",
    "name": "Effect: Filth Wave",
    "type": "effect"
}
