{
    "_id": "hdsl0XexqEL2emE3",
    "data": {
        "description": {
            "value": "<p>The creature gains a +3 status bonus to damage rolls and to saving throws against <em>@Compendium[pf2e.spells-srd.Crushing Despair]{Crushing Despair}</em>.</p>"
        },
        "duration": {
            "expiry": "turn-start",
            "sustained": false,
            "unit": "unlimited",
            "value": -1
        },
        "level": {
            "value": 1
        },
        "rules": [
            {
                "key": "FlatModifier",
                "selector": "damage",
                "type": "status",
                "value": 3
            },
            {
                "key": "FlatModifier",
                "label": "Lantern of Hope (vs Crushing Despair)",
                "predicate": {
                    "all": [
                        "crushing-despair"
                    ]
                },
                "selector": "saving-throw",
                "type": "status",
                "value": 3
            }
        ],
        "source": {
            "value": "Pathfinder Bestiary"
        },
        "start": {
            "initiative": null,
            "value": 0
        },
        "target": null,
        "tokenIcon": {
            "show": true
        },
        "traits": {
            "custom": "",
            "rarity": "common",
            "value": []
        }
    },
    "effects": [],
    "flags": {},
    "img": "systems/pf2e/icons/spells/moonlight-bridge.webp",
    "name": "Effect: Lantern of Hope (Gestalt)",
    "type": "effect"
}
