{
    "_id": "yrenENpzVgBKsnNi",
    "data": {
        "badge": null,
        "description": {
            "value": "<p>Choose acid, cold, electricity, or fire damage. The drudge imbues its fist attacks with this damage.</p>\n<p>Each hit deals 1d6 points of damage of the same type as that of the bomb loaded into it. Each bomb has enough fluid in it for 10 successful strikes.</p>"
        },
        "duration": {
            "expiry": "turn-start",
            "sustained": false,
            "unit": "unlimited",
            "value": -1
        },
        "level": {
            "value": 2
        },
        "rules": [
            {
                "choices": [
                    {
                        "label": "PF2E.TraitAcid",
                        "value": "acid"
                    },
                    {
                        "label": "PF2E.TraitCold",
                        "value": "cold"
                    },
                    {
                        "label": "PF2E.TraitElectricity",
                        "value": "electricity"
                    },
                    {
                        "label": "PF2E.TraitFire",
                        "value": "fire"
                    }
                ],
                "flag": "damageChoice",
                "key": "ChoiceSet",
                "prompt": "PF2E.UI.RuleElements.ChoiceSet.Prompt"
            },
            {
                "damageType": "{item|flags.pf2e.rulesSelections.damageType}",
                "diceNumber": 1,
                "dieSize": "d6",
                "key": "DamageDice",
                "selector": "damage"
            }
        ],
        "source": {
            "value": "Pathfinder Adventure: The Fall of Plaguestone"
        },
        "start": {
            "initiative": null,
            "value": 0
        },
        "target": null,
        "tokenIcon": {
            "show": false
        },
        "traits": {
            "custom": "",
            "rarity": "common",
            "value": []
        }
    },
    "effects": [],
    "flags": {},
    "img": "systems/pf2e/icons/equipment/alchemical-items/alchemical-bombs/redpitch-bomb.webp",
    "name": "Effect: Alchemical Strike",
    "type": "effect"
}
