{
    "_id": "vUFIbQ74jz22rOXw",
    "data": {
        "badge": null,
        "description": {
            "value": "<p>The imperfect automaton draws upon the target's emotions to recall a semblance of mortal feeling, gaining a +5-foot status bonus to its Speed for 1 minute.</p>"
        },
        "duration": {
            "expiry": "turn-start",
            "sustained": false,
            "unit": "minutes",
            "value": 1
        },
        "level": {
            "value": 1
        },
        "rules": [
            {
                "key": "FlatModifier",
                "selector": "land-speed",
                "type": "status",
                "value": 5
            }
        ],
        "source": {
            "value": ""
        },
        "start": {
            "initiative": null,
            "value": 0
        },
        "target": null,
        "tokenIcon": {
            "show": true
        },
        "traits": {
            "custom": "",
            "rarity": "common",
            "value": []
        }
    },
    "effects": [],
    "flags": {},
    "img": "systems/pf2e/icons/default-icons/effect.svg",
    "name": "Effect: Mortal Reflection",
    "type": "effect"
}
