{
    "_id": "5NSWRxAsJuvwyl0E",
    "data": {
        "badge": null,
        "description": {
            "value": "<p>The creature gains a +1 circumstance bonus to attack rolls, damage rolls, AC, saves, and skill checks.</p>"
        },
        "duration": {
            "expiry": "turn-start",
            "sustained": false,
            "unit": "unlimited",
            "value": -1
        },
        "level": {
            "value": 1
        },
        "rules": [
            {
                "key": "FlatModifier",
                "selector": "attack",
                "type": "circumstance",
                "value": 1
            },
            {
                "key": "FlatModifier",
                "selector": "damage",
                "type": "circumstance",
                "value": 1
            },
            {
                "key": "FlatModifier",
                "selector": "ac",
                "type": "circumstance",
                "value": 1
            },
            {
                "key": "FlatModifier",
                "selector": "saving-throw",
                "type": "circumstance",
                "value": 1
            },
            {
                "key": "FlatModifier",
                "selector": "skill-check",
                "type": "circumstance",
                "value": 1
            }
        ],
        "source": {
            "value": ""
        },
        "start": {
            "initiative": null,
            "value": 0
        },
        "target": null,
        "tokenIcon": {
            "show": true
        },
        "traits": {
            "custom": "",
            "rarity": "common",
            "value": []
        }
    },
    "effects": [],
    "flags": {},
    "img": "systems/pf2e/icons/spells/anima-invocation.webp",
    "name": "Effect: Commander's Aura",
    "type": "effect"
}
