{
    "_id": "hc7kR6quUE9ryRyj",
    "data": {
        "description": {
            "value": "<p>Granted by the Splintered Ground ability of the @Compendium[pf2e.pathfinder-bestiary.Skulltaker]{Skulltaker}</p>\n<p>The affected creature takes a -15-foot circumstance penalty to all Speeds for 10 minutes.</p>"
        },
        "duration": {
            "expiry": "turn-start",
            "sustained": false,
            "unit": "minutes",
            "value": 10
        },
        "level": {
            "value": 1
        },
        "rules": [
            {
                "key": "FlatModifier",
                "selector": "speed",
                "type": "circumstance",
                "value": -15
            }
        ],
        "source": {
            "value": ""
        },
        "start": {
            "initiative": null,
            "value": 0
        },
        "target": null,
        "tokenIcon": {
            "show": true
        },
        "traits": {
            "custom": "",
            "rarity": "common",
            "value": []
        }
    },
    "effects": [],
    "flags": {},
    "img": "systems/pf2e/icons/spells/earthbind.webp",
    "name": "Effect: Splintered Ground (Critical Failure)",
    "type": "effect"
}
