{
    "_id": "tJx9B2e3AET6PbJD",
    "data": {
        "badge": null,
        "description": {
            "value": "<p>The creature gains a +2 status bonus to attack and damage rolls.</p>"
        },
        "duration": {
            "expiry": "turn-end",
            "sustained": false,
            "unit": "rounds",
            "value": 1
        },
        "level": {
            "value": 8
        },
        "rules": [
            {
                "key": "FlatModifier",
                "selector": "attack",
                "type": "status",
                "value": 2
            },
            {
                "key": "FlatModifier",
                "selector": "damage",
                "type": "status",
                "value": 2
            }
        ],
        "source": {
            "value": "Pathfinder Bestiary"
        },
        "start": {
            "initiative": null,
            "value": 0
        },
        "target": null,
        "tokenIcon": {
            "show": true
        },
        "traits": {
            "custom": "",
            "rarity": "common",
            "value": []
        }
    },
    "effects": [],
    "flags": {},
    "img": "systems/pf2e/icons/spells/blinding-fury.webp",
    "name": "Effect: Pain Frenzy",
    "type": "effect"
}
