{
    "_id": "AThOnEYzPO9ssYTB",
    "data": {
        "badge": null,
        "description": {
            "value": "<p>The visions last [[/br 1d4 #rounds]]{1d4 rounds}, and while they do, all evil creatures in the area gain a +1 status bonus to all checks.</p>"
        },
        "duration": {
            "expiry": "turn-start",
            "sustained": false,
            "unit": "unlimited",
            "value": -1
        },
        "level": {
            "value": 1
        },
        "rules": [
            {
                "key": "FlatModifier",
                "selector": "attack",
                "type": "status",
                "value": 1
            },
            {
                "key": "FlatModifier",
                "selector": "skill-check",
                "type": "status",
                "value": 1
            },
            {
                "key": "FlatModifier",
                "selector": "saving-throw",
                "type": "status",
                "value": 1
            }
        ],
        "source": {
            "value": ""
        },
        "start": {
            "initiative": null,
            "value": 0
        },
        "target": null,
        "tokenIcon": {
            "show": true
        },
        "traits": {
            "custom": "",
            "rarity": "common",
            "value": []
        }
    },
    "effects": [],
    "flags": {},
    "img": "systems/pf2e/icons/spells/see-invisibility.webp",
    "name": "Effect: Disturbing Vision",
    "type": "effect"
}
