{
    "_id": "tvybMInVm415jA3p",
    "data": {
        "badge": null,
        "description": {
            "value": "<p>The creature gains a +1 status bonus to Deception checks.</p>"
        },
        "duration": {
            "expiry": "turn-start",
            "sustained": false,
            "unit": "rounds",
            "value": 1
        },
        "level": {
            "value": 5
        },
        "rules": [
            {
                "key": "FlatModifier",
                "selector": "deception",
                "type": "status",
                "value": 1
            }
        ],
        "source": {
            "value": "Pathfinder Gamemastery Guide"
        },
        "start": {
            "initiative": null,
            "value": 0
        },
        "target": null,
        "tokenIcon": {
            "show": true
        },
        "traits": {
            "custom": "",
            "rarity": "common",
            "value": []
        }
    },
    "effects": [],
    "flags": {},
    "img": "systems/pf2e/icons/spells/boil-blood.webp",
    "name": "Effect: Bloodline Magic",
    "type": "effect"
}
