{
    "_id": "PqRUEduLDwObHntx",
    "content": "<p>Play after making two successful consecutive melee Strikes against the same target with two different weapons.</p>\n<hr />\n<p>The target takes [[/r {1d6}[persistent,bleed]]] @Compendium[pf2e.conditionitems.Persistent Damage]{Persistent Bleed Damage} and is @Compendium[pf2e.conditionitems.Sickened]{Sickened 1} until the bleeding stops. If you are 7th level or higher, increase the bleed to [[/r {2d6}[persistent,bleed]]]. If you are 12th level or higher, increase the bleed to [[/r {3d6}[persistent,bleed]]].</p>",
    "flags": {},
    "name": "Rending Swipe",
    "permission": {
        "default": 0
    }
}
