{
    "_id": "bMgQftCEiSqa1pTk",
    "data": {
        "attributes": {
            "ac": {
                "check": 0,
                "details": "",
                "value": 39
            },
            "collisionDC": {
                "value": 36
            },
            "collisionDamage": {
                "value": "11d10"
            },
            "hardness": 20,
            "hp": {
                "brokenThreshold": 5,
                "details": "",
                "max": 310,
                "temp": 0,
                "value": 310
            }
        },
        "details": {
            "AC": 0,
            "crew": "1 pilot",
            "description": "<p>Crafted by the wizard Vonthos as part of his bid to attempt the Test of the Starstone in Absalom, this strange vehicle is considered to be a magical and technological marvel. Vonthos's Golden Bridge is a flying sphere made out of a throne surrounded by several clockwork rings covered in gold and gems infused with powerful adaptive abjurations that grant it unique abilities.</p>",
            "level": {
                "value": 17
            },
            "passengers": "",
            "pilotingCheck": "Driving Lore (DC 36) or Arcana (DC 38)",
            "price": 50000,
            "space": {
                "high": 9,
                "long": 9,
                "wide": 9
            },
            "speed": "fly 40 feet (clockwork, magical)"
        },
        "saves": {
            "fortitude": {
                "item": 0,
                "rank": 0,
                "saveDetail": "",
                "value": 29
            }
        },
        "source": {
            "value": "Pathfinder Guns & Gears"
        },
        "traits": {
            "ci": [],
            "di": {
                "custom": "",
                "value": [
                    "critical-hits",
                    "object-immunities",
                    "precision"
                ]
            },
            "dr": [],
            "dv": [],
            "rarity": "unique",
            "size": {
                "value": "lg"
            },
            "traits": {
                "custom": "",
                "value": []
            }
        }
    },
    "effects": [],
    "flags": {},
    "img": "systems/pf2e/icons/default-icons/vehicle.svg",
    "items": [
        {
            "_id": "kt9xSEJnhJNdCBEy",
            "data": {
                "actionCategory": {
                    "value": ""
                },
                "actionType": {
                    "value": "passive"
                },
                "actions": {
                    "value": null
                },
                "description": {
                    "value": "<p>@Template[type:emanation|distance:40]{40 feet} @Compendium[pf2e.bestiary-ability-glossary-srd.Aura]{Aura}</p>\n<p>The gold, gems, and other embellishments that adorn this flying sphere emit a sparkling resplendence capable of enthralling creatures. Each creature that begins its turn within the aura must attempt a <span data-pf2-check=\"will\" data-pf2-traits=\"aura,enchantment,magic,mental,visual\" data-pf2-label=\"Captivating Wealth DC\" data-pf2-dc=\"36\" data-pf2-show-dc=\"gm\">Will</span>; on a failure, the creature is @Compendium[pf2e.conditionitems.Fascinated]{Fascinated} and @Compendium[pf2e.conditionitems.Stupefied]{Stupefied 2} for as long as it remains within the aura. A creature that succeeds is temporarily immune for 1 hour. Each time Prismatic Defense is activated, the area of Captivating Wealth is reduced by 10 feet for 1 hour, to a minimum of 0 feet.</p>"
                },
                "requirements": {
                    "value": ""
                },
                "rules": [],
                "slug": null,
                "source": {
                    "value": ""
                },
                "traits": {
                    "custom": "",
                    "rarity": "common",
                    "value": [
                        "aura",
                        "enchantment",
                        "magical",
                        "mental",
                        "visual"
                    ]
                },
                "trigger": {
                    "value": ""
                }
            },
            "effects": [],
            "flags": {},
            "img": "systems/pf2e/icons/actions/Passive.webp",
            "name": "Captivating Wealth",
            "sort": 0,
            "type": "action"
        },
        {
            "_id": "UQr6y2RUCvhlcvZ3",
            "data": {
                "actionCategory": {
                    "value": ""
                },
                "actionType": {
                    "value": "passive"
                },
                "actions": {
                    "value": null
                },
                "description": {
                    "value": "<p>While the swirling rings of the vehicle don't fully cover the pilot, they offer incredible protection, magically maintaining the temperature within and ablating physical attacks. The pilot is protected from severe cold, severe heat, extreme cold, and extreme heat. The pilot also gains resistance 10 to all physical damage (except adamantine).</p>"
                },
                "requirements": {
                    "value": ""
                },
                "rules": [],
                "slug": null,
                "source": {
                    "value": ""
                },
                "traits": {
                    "custom": "",
                    "rarity": "common",
                    "value": []
                },
                "trigger": {
                    "value": ""
                }
            },
            "effects": [],
            "flags": {},
            "img": "systems/pf2e/icons/actions/Passive.webp",
            "name": "Protective Barrier",
            "sort": 0,
            "type": "action"
        },
        {
            "_id": "izZwMB8zgdsWje9o",
            "data": {
                "actionCategory": {
                    "value": "defensive"
                },
                "actionType": {
                    "value": "action"
                },
                "actions": {
                    "value": 1
                },
                "description": {
                    "value": "<p>The pilot harnesses power from the magical gemstones hidden among this vehicle's extravagant embellishments to grant the vehicle additional defenses. This vehicle gains resistance 20 to one of the following energy damage types: acid, cold, electricity, fire, force, or sonic. This immunity lasts until Prismatic Defense is next activated.</p>"
                },
                "requirements": {
                    "value": ""
                },
                "rules": [],
                "slug": null,
                "source": {
                    "value": ""
                },
                "traits": {
                    "custom": "",
                    "rarity": "common",
                    "value": [
                        "abjuration",
                        "magical"
                    ]
                },
                "trigger": {
                    "value": ""
                }
            },
            "effects": [],
            "flags": {},
            "img": "systems/pf2e/icons/actions/OneAction.webp",
            "name": "Prismatic Defense",
            "sort": 0,
            "type": "action"
        },
        {
            "_id": "zni42kvDwzT6lzuW",
            "data": {
                "actionCategory": {
                    "value": ""
                },
                "actionType": {
                    "value": "passive"
                },
                "actions": {
                    "value": null
                },
                "description": {
                    "value": "<p>10 minutes of wind-up, 1 hour of operational time, DC 37, standby</p>"
                },
                "requirements": {
                    "value": ""
                },
                "rules": [],
                "slug": null,
                "source": {
                    "value": ""
                },
                "traits": {
                    "custom": "",
                    "rarity": "common",
                    "value": []
                },
                "trigger": {
                    "value": ""
                }
            },
            "effects": [],
            "flags": {},
            "img": "systems/pf2e/icons/actions/Passive.webp",
            "name": "Wind-Up",
            "sort": 0,
            "type": "action"
        }
    ],
    "name": "Vonthos's Golden Bridge",
    "token": {
        "disposition": 0,
        "height": 2,
        "img": "systems/pf2e/icons/default-icons/vehicle.svg",
        "name": "Vonthos's Golden Bridge",
        "width": 2
    },
    "type": "vehicle"
}
