{
    "_id": "Aidv4CvhXsSXKtON",
    "data": {
        "attributes": {
            "ac": {
                "value": 21
            },
            "hardness": 12,
            "hasHealth": true,
            "hp": {
                "details": "",
                "max": 48,
                "temp": 0,
                "value": 48
            },
            "stealth": {
                "details": "<p>(trained)</p>",
                "value": 15
            }
        },
        "creatureType": "",
        "details": {
            "description": "<p>Ceiling sprinklers spray in response to any fire in the room.</p>",
            "disable": "<p><span data-pf2-check=\"thievery\" data-pf2-traits=\"mechanical,trap\" data-pf2-label=\"Neutralize Automatic Fire Suppression DC\" data-pf2-dc=\"22\" data-pf2-show-dc=\"gm\">Thievery</span> (trained) to jam the sprinkler system or <span data-pf2-check=\"engineering-lore\" data-pf2-traits=\"mechanical,trap\" data-pf2-label=\"Disable Control Panel DC\" data-pf2-dc=\"18\" data-pf2-show-dc=\"gm\">Engineering Lore</span> (trained) on the control panel on the north wall to turn the system off.</p>",
            "isComplex": false,
            "level": {
                "value": 4
            },
            "reset": "",
            "routine": ""
        },
        "saves": {
            "fortitude": {
                "saveDetail": "",
                "value": 14
            },
            "reflex": {
                "saveDetail": "",
                "value": 8
            },
            "will": {
                "saveDetail": "",
                "value": 0
            }
        },
        "source": {
            "value": "Pathfinder Society Quest #9: Wayfinder Origins"
        },
        "statusEffects": [],
        "traits": {
            "ci": [],
            "di": {
                "custom": "",
                "selected": {},
                "value": [
                    "precision",
                    "critical-hits",
                    "object-immunities"
                ]
            },
            "dr": [],
            "dv": [],
            "rarity": "common",
            "size": {
                "value": "med"
            },
            "traits": {
                "custom": "",
                "value": [
                    "mechanical",
                    "trap"
                ]
            }
        }
    },
    "effects": [],
    "flags": {},
    "img": "systems/pf2e/icons/default-icons/hazard.svg",
    "items": [
        {
            "_id": "srjVPJTKVNNvl598",
            "data": {
                "actionCategory": {
                    "value": ""
                },
                "actionType": {
                    "value": "reaction"
                },
                "actions": {
                    "value": null
                },
                "description": {
                    "value": "<p data-visibility=\"gm\"><strong>Trigger</strong> Fire damage is dealt in area A1</p>\n<p><strong>Effect</strong> Frozen fire retardant rains down on all creatures in area A1, dealing [[/r {4d8+10}[cold]]]{4d8+10 cold damage} (<span data-pf2-check=\"reflex\" data-pf2-traits=\"cold,damaging-effect\" data-pf2-label=\"Overloaded Extinguisher DC\" data-pf2-dc=\"23\" data-pf2-show-dc=\"gm\">basic Reflex</span>).<span data-visibility=\"gm\"> Any persistent fire damage in area A1 ends.</span></p>"
                },
                "requirements": {
                    "value": ""
                },
                "rules": [],
                "slug": null,
                "source": {
                    "value": ""
                },
                "traits": {
                    "custom": "",
                    "rarity": "common",
                    "value": [
                        "cold"
                    ]
                },
                "trigger": {
                    "value": ""
                },
                "weapon": {
                    "value": ""
                }
            },
            "effects": [],
            "flags": {},
            "img": "systems/pf2e/icons/actions/Reaction.webp",
            "name": "Overloaded Extinguisher",
            "sort": 0,
            "type": "action"
        }
    ],
    "name": "Automatic Fire Suppression (5-6)",
    "token": {
        "disposition": 0,
        "height": 1,
        "img": "systems/pf2e/icons/default-icons/hazard.svg",
        "name": "Automatic Fire Suppression",
        "width": 1
    },
    "type": "hazard"
}
