{
    "_id": "1JVuJXe27PLyUVwf",
    "data": {
        "abilities": {
            "cha": {
                "mod": 1
            },
            "con": {
                "mod": 3
            },
            "dex": {
                "mod": 3
            },
            "int": {
                "mod": -3
            },
            "str": {
                "mod": 3
            },
            "wis": {
                "mod": 2
            }
        },
        "attributes": {
            "ac": {
                "details": "",
                "value": 16
            },
            "allSaves": {
                "value": ""
            },
            "hp": {
                "details": "",
                "max": 32,
                "temp": 0,
                "value": 32
            },
            "initiative": {
                "ability": "perception"
            },
            "perception": {
                "value": 10
            },
            "speed": {
                "otherSpeeds": [
                    {
                        "type": "Woodwalk",
                        "value": ""
                    }
                ],
                "value": "25"
            }
        },
        "details": {
            "alignment": {
                "value": "CE"
            },
            "blurb": "",
            "creatureType": "",
            "level": {
                "value": 1
            },
            "privateNotes": "",
            "publicNotes": "",
            "source": {
                "value": "Pathfinder Society: Season 1"
            }
        },
        "resources": {},
        "saves": {
            "fortitude": {
                "saveDetail": "",
                "value": 10
            },
            "reflex": {
                "saveDetail": "",
                "value": 7
            },
            "will": {
                "saveDetail": "",
                "value": 4
            }
        },
        "traits": {
            "ci": [],
            "di": {
                "custom": "",
                "value": [
                    "bleed",
                    "death-effects",
                    "diseased",
                    "doomed",
                    "drained",
                    "fatigued",
                    "healing",
                    "necromancy",
                    "nonlethal-attacks",
                    "paralyzed",
                    "poison",
                    "sickened",
                    "unconscious"
                ]
            },
            "dr": [],
            "dv": [],
            "languages": {
                "custom": "",
                "selected": [],
                "value": []
            },
            "rarity": "common",
            "senses": {
                "value": "darkvision Language Abyssal"
            },
            "size": {
                "value": "lg"
            },
            "traits": {
                "custom": "",
                "value": [
                    "construct"
                ]
            }
        }
    },
    "effects": [],
    "flags": {},
    "img": "systems/pf2e/icons/default-icons/npc.svg",
    "items": [
        {
            "_id": "GgkMIy44ED9iJW28",
            "data": {
                "attack": {
                    "value": ""
                },
                "attackEffects": {
                    "value": []
                },
                "bonus": {
                    "value": 9
                },
                "damageRolls": {
                    "dbyssv6tg8rp083v9qaj": {
                        "damage": "1d6+3",
                        "damageType": "slashing"
                    },
                    "3a5wpuc28y2gqad56xhf": {
                        "damage": "1",
                        "damageType": "evil"
                    }
                },
                "description": {
                    "value": "<p>(agile, finesse, reach 10 feet, versatile P)</p>"
                },
                "rules": [],
                "slug": null,
                "source": {
                    "value": ""
                },
                "traits": {
                    "custom": "",
                    "rarity": "common",
                    "value": [
                        "agile",
                        "finesse",
                        "reach-10",
                        "versatile-p"
                    ]
                },
                "weaponType": {
                    "value": "melee"
                }
            },
            "effects": [],
            "flags": {},
            "img": "systems/pf2e/icons/default-icons/melee.svg",
            "name": "Claw",
            "sort": 100000,
            "type": "melee"
        },
        {
            "_id": "j6vgAFFZcJv35gpP",
            "data": {
                "actionCategory": {
                    "value": "interaction"
                },
                "actionType": {
                    "value": "passive"
                },
                "actions": {
                    "value": null
                },
                "description": {
                    "value": "<p>The scarecrow does not take a penalty to Intimidation checks when using the Demoralize action against targets with whom it does not share a language.</p>"
                },
                "requirements": {
                    "value": ""
                },
                "rules": [],
                "slug": null,
                "source": {
                    "value": ""
                },
                "traits": {
                    "custom": "",
                    "rarity": "common",
                    "value": []
                },
                "trigger": {
                    "value": ""
                },
                "weapon": {
                    "value": ""
                }
            },
            "effects": [],
            "flags": {},
            "img": "systems/pf2e/icons/actions/Passive.webp",
            "name": "Spooky",
            "sort": 200000,
            "type": "action"
        },
        {
            "_id": "mIzVgn8kdFM1tVXA",
            "data": {
                "actionCategory": {
                    "value": "offensive"
                },
                "actionType": {
                    "value": "action"
                },
                "actions": {
                    "value": 2
                },
                "description": {
                    "value": "<p>The scarecrow makes two claw Strikes against a single creature, then Demoralizes that creature.</p>"
                },
                "requirements": {
                    "value": ""
                },
                "rules": [],
                "slug": null,
                "source": {
                    "value": ""
                },
                "traits": {
                    "custom": "",
                    "rarity": "common",
                    "value": []
                },
                "trigger": {
                    "value": ""
                },
                "weapon": {
                    "value": ""
                }
            },
            "effects": [],
            "flags": {},
            "img": "systems/pf2e/icons/actions/TwoActions.webp",
            "name": "Haunting Assault",
            "sort": 300000,
            "type": "action"
        },
        {
            "_id": "pU9FXIvTq1WMMeuy",
            "data": {
                "actionCategory": {
                    "value": "offensive"
                },
                "actionType": {
                    "value": "passive"
                },
                "actions": {
                    "value": null
                },
                "description": {
                    "value": "<p>The scarecrow ignores difficult terrain from nonmagical foliage.</p>"
                },
                "requirements": {
                    "value": ""
                },
                "rules": [],
                "slug": null,
                "source": {
                    "value": ""
                },
                "traits": {
                    "custom": "",
                    "rarity": "common",
                    "value": []
                },
                "trigger": {
                    "value": ""
                },
                "weapon": {
                    "value": ""
                }
            },
            "effects": [],
            "flags": {},
            "img": "systems/pf2e/icons/actions/Passive.webp",
            "name": "Woodwalk",
            "sort": 400000,
            "type": "action"
        },
        {
            "_id": "v581LKteKlv0w8E6",
            "data": {
                "description": {
                    "value": ""
                },
                "item": {
                    "value": 0
                },
                "mod": {
                    "value": 7
                },
                "proficient": {
                    "value": 0
                },
                "rules": [],
                "slug": null,
                "source": {
                    "value": ""
                },
                "traits": {
                    "custom": "",
                    "rarity": "common",
                    "value": []
                }
            },
            "effects": [],
            "flags": {},
            "img": "systems/pf2e/icons/default-icons/lore.svg",
            "name": "Athletics",
            "sort": 500000,
            "type": "lore"
        },
        {
            "_id": "fgnhVWJx1kUTxCSI",
            "data": {
                "description": {
                    "value": ""
                },
                "item": {
                    "value": 0
                },
                "mod": {
                    "value": 9
                },
                "proficient": {
                    "value": 0
                },
                "rules": [],
                "slug": null,
                "source": {
                    "value": ""
                },
                "traits": {
                    "custom": "",
                    "rarity": "common",
                    "value": []
                }
            },
            "effects": [],
            "flags": {},
            "img": "systems/pf2e/icons/default-icons/lore.svg",
            "name": "Intimidation",
            "sort": 600000,
            "type": "lore"
        },
        {
            "_id": "kqGG8wQ87Y3h0CyK",
            "data": {
                "description": {
                    "value": ""
                },
                "item": {
                    "value": 0
                },
                "mod": {
                    "value": 7
                },
                "proficient": {
                    "value": 0
                },
                "rules": [],
                "slug": null,
                "source": {
                    "value": ""
                },
                "traits": {
                    "custom": "",
                    "rarity": "common",
                    "value": []
                }
            },
            "effects": [],
            "flags": {},
            "img": "systems/pf2e/icons/default-icons/lore.svg",
            "name": "Stealth",
            "sort": 700000,
            "type": "lore"
        }
    ],
    "name": "Farmer Drystan's Scarecrow (1-2)",
    "token": {
        "disposition": -1,
        "height": 2,
        "img": "systems/pf2e/icons/default-icons/npc.svg",
        "name": "Farmer Drystan's Scarecrow",
        "width": 2
    },
    "type": "npc"
}
